# Alias OBJ Model File
# Exported from SketchUp, (c) 2000-2012 Trimble Navigation Limited
# File units = millimeters

mtllib disk_shnur.mtl

g Mesh1 Group1 Model

usemtl FrontColor
v 96.825 3 -107.611
vt 1.53047 2.47919
vn 4.14178e-034 1 4.14178e-033
v 96.7527 3 -112.087
vt 1.52762 2.65542
v 96.7527 3 -109.084
vt 1.52762 2.5372
f 1/1/1 2/2/1 3/3/1

v 97.9511 3 -124.64
vt 1.5748 3.14961
f 4/4/1 2/2/1 1/1/1

v 95.5544 3 -112.035
vt 1.48044 2.65336
f 4/4/1 5/5/1 2/2/1

v 93.1758 3 -111.722
vt 1.3868 2.64103
f 4/4/1 6/6/1 5/5/1

v 90.8336 3 -111.203
vt 1.29459 2.62059
f 4/4/1 7/7/1 6/6/1

v 88.5456 3 -110.481
vt 1.20451 2.59219
f 4/4/1 8/8/1 7/7/1

v 87.5984 3 -123.277
vt 1.16721 3.09595
f 9/9/1 8/8/1 4/4/1

v 86.3291 3 -109.563
vt 1.11724 2.55604
f 9/9/1 10/10/1 8/8/1

v 77.9511 3 -119.281
vt 0.787402 2.93862
f 10/10/1 9/9/1 11/11/1

v 87.5984 0 -123.277
vt -2.26313 0
vn -0.258819 0 -0.965926
v 77.9511 0 -119.281
vt -1.85203 0
vn -0.5 0 -0.866025
vt -1.85203 0.11811
vt -2.26313 0.11811
f 12/12/2 13/13/3 11/14/3 9/15/2 

v 87.5984 0 -46.0026
vt -1.16721 0.0536601
vn 0 -1 -0
vt -0.787402 2.93862
vt -1.16721 3.09595
f 14/16/4 13/17/4 12/18/4

v 77.9511 0 -49.9986
vt -0.787402 0.210984
f 15/19/4 13/17/4 14/16/4

v 69.6669 0 -112.924
vt -0.461249 2.68836
f 15/19/4 16/20/4 13/17/4

v 69.6669 0 -56.3553
vt -0.461249 0.461249
f 17/21/4 16/20/4 15/19/4

v 63.3101 0 -104.64
vt -0.210984 2.3622
f 17/21/4 18/22/4 16/20/4

v 63.3101 0 -64.6396
vt -0.210984 0.787402
f 19/23/4 18/22/4 17/21/4

v 59.3141 0 -74.2868
vt -0.0536601 1.16721
f 20/24/4 18/22/4 19/23/4

v 59.3141 0 -94.9924
vt -0.0536601 1.98239
f 20/24/4 21/25/4 18/22/4

v 57.9511 0 -84.6396
vt 0 1.5748
f 21/25/4 20/24/4 22/26/4

vt -1.56133 0
vn -1 0 -2.65953e-016
vt -1.15022 0
vn -0.965926 0 0.258819
v 59.3141 3 -74.2868
vt -1.15022 0.11811
v 57.9511 3 -84.6396
vt -1.56133 0.11811
f 22/27/5 20/28/6 23/29/6 24/30/5 

vt -1.05783 0
vt -0.646724 0
vn -0.866025 0 0.5
v 63.3101 3 -64.6396
vt -0.646724 0.11811
vt -1.05783 0.11811
f 20/31/6 19/32/7 25/33/7 23/34/6 

vt -0.496249 0
vt -0.0851429 0
vn -0.707107 0 0.707107
v 69.6669 3 -56.3553
vt -0.0851429 0.11811
vt -0.496249 0.11811
f 19/35/7 17/36/8 26/37/8 25/38/7 

vt 0.0851429 0
vt 0.496249 0
vn -0.5 0 0.866025
v 77.9511 3 -49.9986
vt 0.496249 0.11811
vt 0.0851429 0.11811
f 17/39/8 15/40/9 27/41/9 26/42/8 

vt 0.646724 0
vt 1.05783 0
vn -0.258819 0 0.965926
v 87.5984 3 -46.0026
vt 1.05783 0.11811
vt 0.646724 0.11811
f 15/43/9 14/44/10 28/45/10 27/46/9 

vt 1.15022 0
v 97.9511 0 -44.6396
vt 1.56133 0
vn -8.5385e-016 0 1
v 97.9511 3 -44.6396
vt 1.56133 0.11811
vt 1.15022 0.11811
f 14/47/10 29/48/11 30/49/11 28/50/10 

vt -1.5748 0
f 14/16/4 12/18/4 29/51/4

v 94.9468 5.63993e-015 -84.6396
vt -1.45652 1.5748
f 29/51/4 12/18/4 31/52/4

v 97.9511 0 -124.64
vt -1.5748 3.14961
f 32/53/4 31/52/4 12/18/4

v 95.0492 5.63993e-015 -85.4172
vt -1.46055 1.60542
f 31/52/4 32/53/4 33/54/4

v 95.3493 5.63993e-015 -86.1418
vt -1.47237 1.63394
f 33/54/4 32/53/4 34/55/4

v 95.5531 5.63993e-015 -86.5074
vt -1.48039 1.64834
f 34/55/4 32/53/4 35/56/4

v 100.349 5.63993e-015 -86.5074
vt -1.66921 1.64834
f 35/56/4 32/53/4 36/57/4

v 108.304 0 -123.277
vt -1.98239 3.09595
f 36/57/4 32/53/4 37/58/4

vn 0.258819 0 -0.965926
vn 1.91766e-015 0 -1
v 108.304 3 -123.277
f 37/27/12 32/28/13 4/29/13 38/30/12 

vt -1.97244 0
vt -1.97244 0.11811
f 32/59/13 12/27/2 9/30/2 4/60/13 

v 99.1495 3 -112.087
vt 1.62198 2.65542
vt 1.98239 3.09595
f 4/4/1 39/61/1 38/62/1

v 98.9542 3 -107.614
vt 1.61429 2.47931
f 4/4/1 40/63/1 39/61/1

v 98.2044 3 -89.6332
vt 1.58477 1.7714
f 4/4/1 41/64/1 40/63/1

v 97.9511 3 -89.6396
vt 1.5748 1.77165
f 4/4/1 42/65/1 41/64/1

v 97.6979 3 -89.6332
vt 1.56483 1.7714
f 4/4/1 43/66/1 42/65/1

v 97.4453 3 -89.614
vt 1.55489 1.77064
f 4/4/1 44/67/1 43/66/1

v 97.194 3 -89.582
vt 1.54499 1.76938
f 4/4/1 45/68/1 44/67/1

v 96.9446 3 -89.5373
vt 1.53518 1.76762
f 4/4/1 46/69/1 45/68/1

f 4/4/1 1/1/1 46/69/1

v 96.7862 3 -107.61
vt 1.52894 2.47915
f 47/70/1 46/69/1 1/1/1

v 96.6979 3 -89.48
vt 1.52546 1.76537
f 47/70/1 48/71/1 46/69/1

v 96.4543 3 -89.4103
vt 1.51587 1.76263
f 47/70/1 49/72/1 48/71/1

v 96.2146 3 -89.3284
vt 1.50644 1.7594
f 47/70/1 50/73/1 49/72/1

v 95.9794 3 -89.2344
vt 1.49717 1.7557
f 47/70/1 51/74/1 50/73/1

v 95.7492 3 -89.1286
vt 1.48811 1.75154
f 47/70/1 52/75/1 51/74/1

v 95.6243 3 -107.522
vt 1.48319 2.47567
f 53/76/1 52/75/1 47/70/1

v 95.5246 3 -89.0113
vt 1.47927 1.74692
f 53/76/1 54/77/1 52/75/1

v 95.3063 3 -88.8828
vt 1.47068 1.74186
f 53/76/1 55/78/1 54/77/1

v 95.0948 3 -88.7434
vt 1.46235 1.73637
f 53/76/1 56/79/1 55/78/1

v 94.8906 3 -88.5935
vt 1.45431 1.73047
f 53/76/1 57/80/1 56/79/1

v 94.6943 3 -88.4334
vt 1.44658 1.72416
f 53/76/1 58/81/1 57/80/1

v 94.5063 3 -88.2636
vt 1.43918 1.71748
f 53/76/1 59/82/1 58/81/1

v 94.4683 3 -107.374
vt 1.43768 2.46987
f 60/83/1 59/82/1 53/76/1

v 94.3272 3 -88.0844
vt 1.43213 1.71043
f 60/83/1 61/84/1 59/82/1

v 94.1573 3 -87.8965
vt 1.42544 1.70303
f 60/83/1 62/85/1 61/84/1

v 93.9973 3 -87.7001
vt 1.41914 1.6953
f 60/83/1 63/86/1 62/85/1

v 93.8473 3 -87.4959
vt 1.41324 1.68726
f 60/83/1 64/87/1 63/86/1

v 93.7079 3 -87.2844
vt 1.40775 1.67893
f 60/83/1 65/88/1 64/87/1

v 93.5794 3 -87.0661
vt 1.40269 1.67034
f 60/83/1 66/89/1 65/88/1

v 93.4621 3 -86.8416
vt 1.39807 1.66149
f 60/83/1 67/90/1 66/89/1

v 93.3563 3 -86.6114
vt 1.39391 1.65243
f 60/83/1 68/91/1 67/90/1

v 93.3213 3 -107.169
vt 1.39252 2.46178
f 69/92/1 68/91/1 60/83/1

v 93.2624 3 -86.3761
vt 1.39021 1.64317
f 69/92/1 70/93/1 68/91/1

v 93.1804 3 -86.1364
vt 1.38698 1.63373
f 69/92/1 71/94/1 70/93/1

v 93.1107 3 -85.8929
vt 1.38424 1.62414
f 69/92/1 72/95/1 71/94/1

v 93.0535 3 -85.6461
vt 1.38198 1.61443
f 69/92/1 73/96/1 72/95/1

v 93.0088 3 -85.3967
vt 1.38022 1.60461
f 69/92/1 74/97/1 73/96/1

v 92.9768 3 -85.1455
vt 1.37896 1.59472
f 69/92/1 75/98/1 74/97/1

v 92.9576 3 -84.8929
vt 1.37821 1.58477
f 69/92/1 76/99/1 75/98/1

v 92.9511 3 -84.6396
vt 1.37795 1.5748
f 69/92/1 77/100/1 76/99/1

v 92.1861 3 -106.905
vt 1.34783 2.45141
f 77/100/1 69/92/1 78/101/1

vt 1.86708 0.11811
vn 0.250653 0 0.968077
vt 1.91296 0.11811
vn 0.201299 0 0.97953
v 93.3213 28 -107.169
vt 1.91296 1.10236
v 92.1861 28 -106.905
vt 1.86708 1.10236
f 78/102/14 69/103/15 79/104/15 80/105/14 

vt 1.80499 0.11811
vt 1.85087 0.11811
vn 0.151428 0 0.988468
v 94.4683 28 -107.374
vt 1.85087 1.10236
vt 1.80499 1.10236
f 69/106/15 60/107/16 81/108/16 79/109/15 

vt 1.7382 0.11811
vt 1.78408 0.11811
vn 0.101168 0 0.994869
v 95.6243 28 -107.522
vt 1.78408 1.10236
vt 1.7382 1.10236
f 60/110/16 53/111/17 82/112/17 81/113/16 

vt 1.6669 0.11811
vt 1.71278 0.11811
vn 0.0506492 0 0.998717
v 96.7862 28 -107.61
vt 1.71278 1.10236
vt 1.6669 1.10236
f 53/114/17 47/115/18 83/116/18 82/117/17 

vt 1.59125 0.11811
vt 1.59278 0.11811
vn 0.0253327 0 0.999679
v 96.825 28 -107.611
vt 1.59278 1.10236
vt 1.59125 1.10236
f 47/118/18 1/119/19 84/120/19 83/121/18 

vt 2.40128 0.11811
vn 0.9988 0 -0.0489655
vt 2.45935 0.11811
v 96.7527 28 -109.084
vt 2.45935 1.10236
vt 2.40128 1.10236
f 1/122/20 3/123/20 85/124/20 84/125/20 

vt 2.5372 0.11811
vn 1 0 -0
vt 2.65542 0.11811
v 96.7527 28 -112.087
vt 2.65542 1.10236
vt 2.5372 1.10236
f 3/126/21 2/127/21 86/128/21 85/129/21 

vt -1.642 0.11811
vn -0.0436194 1.09344e-031 -0.999048
vt -1.59477 0.11811
vn -0.0871557 1.14976e-031 -0.996195
v 95.5544 28 -112.035
vt -1.59477 1.10236
vt -1.642 1.10236
f 2/130/22 5/131/23 87/132/23 86/133/22 

vt -1.81411 0.11811
vt -1.71966 0.11811
vn -0.173648 1.25572e-031 -0.984808
v 93.1758 28 -111.722
vt -1.71966 1.10236
vt -1.81411 1.10236
f 5/134/23 6/135/24 88/136/24 87/137/23 

vt -1.92555 0.11811
vt -1.8311 0.11811
vn -0.258819 1.35212e-031 -0.965926
v 90.8336 28 -111.203
vt -1.8311 1.10236
vt -1.92555 1.10236
f 6/138/24 7/139/25 89/140/25 88/141/24 

vt -2.02269 0.11811
vt -1.92824 0.11811
vn -0.34202 6.9892e-032 -0.939693
v 88.5456 28 -110.481
vt -1.92824 1.10236
vt -2.02269 1.10236
f 7/142/25 8/143/26 90/144/26 89/145/25 

vt -2.10481 0.11811
vt -2.01035 0.11811
vn -0.382683 0 -0.92388
v 86.3291 28 -109.563
vt -2.01035 1.10236
vt -2.10481 1.10236
f 8/146/26 10/147/27 91/148/27 90/149/26 

v 87.5982 28 -106.842
vt -1.72617 1.10236
vn -0.906308 0 0.422618
vt -1.84439 1.10236
vt -1.84439 0.11811
v 87.5982 3 -106.842
vt -1.72617 0.11811
f 92/150/28 91/151/28 10/152/28 93/153/28 

vn 0 1 -0
vt 1.16721 2.4489
v 88.2339 28 -105.478
vt 1.19223 2.39523
v 88.881 28 -105.776
vt 1.21771 2.40693
v 89.9631 28 -106.208
vt 1.26031 2.42395
v 91.0658 28 -106.585
vt 1.30373 2.43879
f 84/1/29 85/3/29 86/2/29 87/5/29 88/6/29 89/7/29 90/8/29 91/10/29 92/154/29 94/155/29 95/156/29 96/157/29 97/158/29 80/101/29 79/92/29 81/83/29 82/76/29 83/70/29 

v 88.2339 3 -105.478
vt -1.66695 0.11811
vt -1.66695 1.10236
f 93/153/28 98/159/28 94/160/28 92/150/28 

v 88.2339 3 -63.8009
vt 1.19223 0.754381
f 93/154/1 99/161/1 98/155/1

v 86.3291 3 -59.7161
vt 1.11724 0.593564
f 93/154/1 100/162/1 99/161/1

f 100/162/1 93/154/1 10/10/1

f 11/11/1 100/162/1 10/10/1

vt 1.16721 0.0536601
f 11/11/1 28/163/1 100/162/1

vt 0.787402 0.210984
f 11/11/1 27/164/1 28/163/1

v 77.1124 3 -74.9224
vt 0.754381 1.19223
f 11/11/1 101/165/1 27/164/1

v 77.1124 3 -94.3569
vt 0.754381 1.95737
f 11/11/1 102/166/1 101/165/1

v 73.0277 3 -96.2616
vt 0.593564 2.03236
f 11/11/1 103/167/1 102/166/1

v 72.1096 3 -94.0452
vt 0.557419 1.9451
f 11/11/1 104/168/1 103/167/1

v 71.3882 3 -91.7571
vt 0.529017 1.85502
f 11/11/1 105/169/1 104/168/1

v 69.6669 3 -112.924
vt 0.461249 2.68836
f 106/170/1 105/169/1 11/11/1

v 70.8689 3 -89.4149
vt 0.508574 1.76281
f 105/169/1 106/170/1 107/171/1

v 70.5558 3 -87.0364
vt 0.496246 1.66916
f 107/171/1 106/170/1 108/172/1

v 70.5035 3 -85.838
vt 0.494186 1.62198
f 108/172/1 106/170/1 109/173/1

v 70.5035 3 -83.4412
vt 0.494186 1.52762
f 109/173/1 106/170/1 110/174/1

vt 0.461249 0.461249
f 106/170/1 26/175/1 110/174/1

v 63.3101 3 -104.64
vt 0.210984 2.3622
f 111/176/1 26/175/1 106/170/1

vt 0.210984 0.787402
f 111/176/1 25/177/1 26/175/1

v 59.3141 3 -94.9924
vt 0.0536601 1.98239
f 112/178/1 25/177/1 111/176/1

vt 0.0536601 1.16721
f 112/178/1 23/179/1 25/177/1

vt -4.89186e-035 1.5748
f 23/179/1 112/178/1 24/180/1

vn -0.965926 0 -0.258819
f 21/59/30 22/27/5 24/30/5 112/60/30 

vn -0.866025 0 -0.5
f 18/12/31 21/13/30 112/14/30 111/15/31 

vt -2.41361 0
vn -0.707107 0 -0.707107
vt -2.0025 0
vt -2.0025 0.11811
vt -2.41361 0.11811
f 16/181/32 18/182/31 111/183/31 106/184/32 

f 13/181/3 16/182/32 106/183/32 11/184/3 

v 70.5558 3 -82.2428
vt 0.496246 1.48044
f 110/174/1 26/175/1 113/185/1

v 70.8689 3 -79.8643
vt 0.508574 1.3868
f 113/185/1 26/175/1 114/186/1

v 71.3882 3 -77.5221
vt 0.529017 1.29459
f 114/186/1 26/175/1 115/187/1

f 115/187/1 26/175/1 27/164/1

v 72.1096 3 -75.2341
vt 0.557419 1.20451
f 115/187/1 27/164/1 116/188/1

v 73.0277 3 -73.0176
vt 0.593564 1.11724
f 116/188/1 27/164/1 117/189/1

f 117/189/1 27/164/1 101/165/1

vt 1.01012 0.11811
vn 0.422618 1.40143e-018 0.906308
vt 1.18756 0.11811
v 77.1124 28 -74.9224
vt 1.18756 1.10236
v 73.0277 28 -73.0176
vt 1.01012 1.10236
f 117/190/33 101/191/33 118/192/33 119/193/33 

vt 0.76839 0.11811
vn 0.908673 0 -0.417509
v 76.8151 3 -75.5694
vt 0.796425 0.11811
vn 0.918958 0 -0.394356
v 76.8151 28 -75.5694
vt 0.796425 1.10236
vt 0.76839 1.10236
f 101/194/34 120/195/35 121/196/35 118/197/34 

v 76.8151 3 -93.7098
vt 0.742676 1.9319
vt 0.742676 1.21771
f 122/198/1 120/199/1 101/165/1

v 76.3828 3 -92.6276
vt 0.725658 1.88929
f 123/200/1 120/199/1 122/198/1

v 76.3828 3 -76.6516
vt 0.725658 1.26031
f 123/200/1 124/201/1 120/199/1

v 76.0059 3 -91.525
vt 0.710819 1.84588
f 125/202/1 124/201/1 123/200/1

v 76.0059 3 -77.7543
vt 0.710819 1.30373
f 125/202/1 126/203/1 124/201/1

v 75.6854 3 -90.4046
vt 0.698198 1.80177
f 127/204/1 126/203/1 125/202/1

v 75.6854 3 -78.8746
vt 0.698198 1.34783
f 127/204/1 128/205/1 126/203/1

v 75.4219 3 -89.2695
vt 0.687827 1.75708
f 129/206/1 128/205/1 127/204/1

v 75.4219 3 -80.0097
vt 0.687827 1.39252
f 129/206/1 130/207/1 128/205/1

v 75.2164 3 -88.1224
vt 0.679733 1.71192
f 131/208/1 130/207/1 129/206/1

v 75.2164 3 -81.1568
vt 0.679733 1.43768
f 131/208/1 132/209/1 130/207/1

v 75.0691 3 -86.9665
vt 0.673937 1.66641
f 133/210/1 132/209/1 131/208/1

v 75.0691 3 -82.3127
vt 0.673937 1.48319
f 133/210/1 134/211/1 132/209/1

v 74.9807 3 -85.8045
vt 0.670454 1.62067
f 135/212/1 134/211/1 133/210/1

v 74.9807 3 -83.4747
vt 0.670454 1.52894
f 135/212/1 136/213/1 134/211/1

v 74.9766 3 -83.6365
vt 0.670292 1.53531
f 135/212/1 137/214/1 136/213/1

v 74.9766 3 -85.6427
vt 0.670292 1.61429
f 138/215/1 137/214/1 135/212/1

f 109/173/1 137/214/1 138/215/1

f 137/214/1 109/173/1 110/174/1

v 74.9766 28 -83.6365
vt -0.736623 1.10236
vn -0.0436194 -3.51702e-019 -0.999048
vt -0.736623 0.11811
vt -0.56035 0.11811
v 70.5035 28 -83.4412
vt -0.56035 1.10236
f 139/216/36 137/217/36 110/218/36 140/219/36 

vt 1.51146 0.11811
vn 0.998717 0 -0.0506492
vt 1.51784 0.11811
vn 0.999679 0 -0.0253327
vt 1.51784 1.10236
v 74.9807 28 -83.4747
vt 1.51146 1.10236
f 136/220/37 137/221/38 139/222/38 141/223/37 

v 70.5558 28 -82.2428
v 70.8689 28 -79.8643
v 71.3882 28 -77.5221
v 72.1096 28 -75.2341
v 76.3828 28 -76.6516
v 76.0059 28 -77.7543
v 75.6854 28 -78.8746
v 75.4219 28 -80.0097
v 75.2164 28 -81.1568
v 75.0691 28 -82.3127
f 141/213/29 139/214/29 140/174/29 142/185/29 143/186/29 144/187/29 145/188/29 119/189/29 118/165/29 121/199/29 146/201/29 147/203/29 148/205/29 149/207/29 150/209/29 151/211/29 

vt -1.50461 0.11811
vn -0.999048 1.74658e-031 0.0436194
vt -1.45739 0.11811
vn -0.996195 1.8097e-031 0.0871557
vt -1.45739 1.10236
vt -1.50461 1.10236
f 110/224/39 113/225/40 142/226/40 140/227/39 

vt -1.403 0.11811
vt -1.30855 0.11811
vn -0.984808 1.92548e-031 0.173648
vt -1.30855 1.10236
vt -1.403 1.10236
f 113/228/40 114/229/41 143/230/41 142/231/40 

vt -1.24385 0.11811
vt -1.1494 0.11811
vn -0.965926 2.02661e-031 0.258819
vt -1.1494 1.10236
vt -1.24385 1.10236
f 114/232/41 115/233/42 144/234/42 143/235/41 

vt -1.07559 0.11811
vt -0.981138 0.11811
vn -0.939693 1.0367e-031 0.34202
vt -0.981138 1.10236
vt -1.07559 1.10236
f 115/236/42 116/237/43 145/238/43 144/239/42 

vt -0.899503 0.11811
vt -0.805052 0.11811
vn -0.92388 0 0.382683
vt -0.805052 1.10236
vt -0.899503 1.10236
f 116/240/43 117/241/44 119/242/44 145/243/43 

vt 0.855334 0.11811
vt 0.901212 0.11811
vn 0.937752 0 -0.347305
vt 0.901212 1.10236
vt 0.855334 1.10236
f 120/244/35 124/245/45 146/246/45 121/247/35 

vt 0.957866 0.11811
vt 1.00374 0.11811
vn 0.954139 0 -0.299363
vt 1.00374 1.10236
vt 0.957866 1.10236
f 124/248/45 126/249/46 147/250/46 146/251/45 

vt 1.05788 0.11811
vt 1.10376 0.11811
vn 0.968077 0 -0.250653
vt 1.10376 1.10236
vt 1.05788 1.10236
f 126/252/46 128/253/47 148/254/47 147/255/46 

vt 1.15512 0.11811
vt 1.201 0.11811
vn 0.97953 0 -0.201299
vt 1.201 1.10236
vt 1.15512 1.10236
f 128/256/47 130/257/48 149/258/48 148/259/47 

vt 1.24934 0.11811
vt 1.29522 0.11811
vn 0.988468 0 -0.151428
vt 1.29522 1.10236
vt 1.24934 1.10236
f 130/260/48 132/261/49 150/262/49 149/263/48 

vt 1.34029 0.11811
vt 1.38617 0.11811
vn 0.994869 0 -0.101168
vt 1.38617 1.10236
vt 1.34029 1.10236
f 132/264/49 134/265/50 151/266/50 150/267/49 

vt 1.42774 0.11811
vt 1.47362 0.11811
vt 1.47362 1.10236
vt 1.42774 1.10236
f 134/268/50 136/269/37 141/270/37 151/271/50 

vt 0.422966 0.11811
vn -0.0436194 -1.44645e-019 0.999048
vt 0.59924 0.11811
v 74.9766 28 -85.6427
vt 0.59924 1.10236
v 70.5035 28 -85.838
vt 0.422966 1.10236
f 109/272/51 138/273/51 152/274/51 153/275/51 

vt 1.63076 0.11811
vn 0.999679 0 0.0253327
vt 1.63713 0.11811
vn 0.998717 0 0.0506492
v 74.9807 28 -85.8045
vt 1.63713 1.10236
vt 1.63076 1.10236
f 138/276/52 135/277/53 154/278/53 152/279/52 

vn 0.994869 0 0.101168
v 75.0691 28 -86.9665
f 135/114/53 133/115/54 155/116/54 154/117/53 

vn 0.988468 0 0.151428
v 75.2164 28 -88.1224
f 133/110/54 131/111/55 156/112/55 155/113/54 

vn 0.97953 0 0.201299
v 75.4219 28 -89.2695
f 131/106/55 129/107/56 157/108/56 156/109/55 

vn 0.968077 0 0.250653
v 75.6854 28 -90.4046
f 129/102/56 127/103/57 158/104/57 157/105/56 

vt 1.92433 0.11811
vt 1.9702 0.11811
vn 0.954139 0 0.299363
v 76.0059 28 -91.525
vt 1.9702 1.10236
vt 1.92433 1.10236
f 127/280/57 125/281/58 159/282/58 158/283/57 

vt 1.97657 0.11811
vt 2.02245 0.11811
vn 0.937752 0 0.347305
v 76.3828 28 -92.6276
vt 2.02245 1.10236
vt 1.97657 1.10236
f 125/284/58 123/285/59 160/286/59 159/287/58 

vt 2.02368 0.11811
vt 2.06956 0.11811
vn 0.918958 0 0.394356
v 76.8151 28 -93.7098
vt 2.06956 1.10236
vt 2.02368 1.10236
f 123/288/59 122/289/60 161/290/60 160/291/59 

vt 2.06554 0.11811
vt 2.09357 0.11811
vn 0.908673 0 0.417509
v 77.1124 28 -94.3569
vt 2.09357 1.10236
vt 2.06554 1.10236
f 122/292/60 102/293/61 162/294/61 161/295/60 

f 122/198/1 101/165/1 102/166/1

vt 0.14352 1.10236
vn 0.422618 0 -0.906308
vt 0.14352 0.11811
vt 0.320961 0.11811
vn -0.362438 0 -0.932008
v 73.0277 28 -96.2616
vt 0.320961 1.10236
f 162/296/62 102/297/62 103/298/63 163/299/63 

vn -0.939693 8.05568e-032 -0.34202
v 72.1096 28 -94.0452
f 103/146/63 104/147/64 164/148/64 163/149/63 

vn -0.965926 1.58287e-031 -0.258819
v 71.3882 28 -91.7571
f 104/142/64 105/143/65 165/144/65 164/145/64 

vn -0.984808 1.52042e-031 -0.173648
v 70.8689 28 -89.4149
f 105/138/65 107/139/66 166/140/66 165/141/65 

vn -0.996195 1.4464e-031 -0.0871557
v 70.5558 28 -87.0364
f 107/134/66 108/135/67 167/136/67 166/137/66 

vt -1.68922 0.11811
vn -0.999048 1.40522e-031 -0.0436194
vt -1.68922 1.10236
f 108/300/67 109/130/68 153/133/68 167/301/67 

f 161/198/29 162/166/29 163/167/29 164/168/29 165/169/29 166/171/29 167/172/29 153/173/29 152/215/29 154/212/29 155/210/29 156/208/29 157/206/29 158/204/29 159/202/29 160/200/29 

v 88.5456 3 -58.7981
vt 1.20451 0.557419
f 100/162/1 28/163/1 168/302/1

vt 1.5748 4.89186e-034
f 168/302/1 28/163/1 30/303/1

v 90.8336 3 -58.0766
vt 1.29459 0.529017
f 168/302/1 30/303/1 169/304/1

v 93.1758 3 -57.5574
vt 1.3868 0.508574
f 169/304/1 30/303/1 170/305/1

v 95.5544 3 -57.2443
vt 1.48044 0.496246
f 170/305/1 30/303/1 171/306/1

v 96.7527 3 -57.1919
vt 1.52762 0.494186
f 171/306/1 30/303/1 172/307/1

v 96.7527 3 -60.1948
vt 1.52762 0.612409
f 172/307/1 30/303/1 173/308/1

v 96.825 3 -61.6681
vt 1.53047 0.670415
f 173/308/1 30/303/1 174/309/1

v 96.9446 3 -79.742
vt 1.53518 1.38198
f 174/309/1 30/303/1 175/310/1

v 97.194 3 -79.6973
vt 1.54499 1.38022
f 175/310/1 30/303/1 176/311/1

v 97.4453 3 -79.6653
vt 1.55489 1.37896
f 176/311/1 30/303/1 177/312/1

v 97.6979 3 -79.646
vt 1.56483 1.37821
f 177/312/1 30/303/1 178/313/1

v 97.9511 3 -79.6396
vt 1.5748 1.37795
f 178/313/1 30/303/1 179/314/1

v 99.1495 3 -57.1919
vt 1.62198 0.494186
f 179/314/1 30/303/1 180/315/1

v 108.304 3 -46.0026
vt 1.98239 0.0536601
f 180/315/1 30/303/1 181/316/1

v 108.304 0 -46.0026
vt 1.97244 0
vn 0.258819 0 0.965926
vt 1.97244 0.11811
f 29/48/11 182/317/69 181/318/69 30/49/11 

v 100.349 5.63993e-015 -82.7718
vt -1.66921 1.50127
vt -1.98239 0.0536601
f 29/51/4 183/319/4 182/320/4

v 95.5531 5.63993e-015 -82.7718
vt -1.48039 1.50127
f 29/51/4 184/321/4 183/319/4

v 95.3493 5.63993e-015 -83.1375
vt -1.47237 1.51566
f 29/51/4 185/322/4 184/321/4

v 95.0492 5.63993e-015 -83.862
vt -1.46055 1.54419
f 29/51/4 186/323/4 185/322/4

f 29/51/4 31/52/4 186/323/4

vt 1.37122 2.22045e-016
vn 1 3.76863e-033 5.64101e-015
v 94.9468 6 -84.6396
vt 1.37122 0.23622
v 95.0492 6 -83.862
vt 1.34034 0.23622
vn 0.965926 -1.36003e-032 -0.258819
vt 1.34034 2.22045e-016
f 31/324/70 187/325/70 188/326/71 186/327/71 

vt 1.78232 2.22045e-016
vn 0.965926 2.08807e-032 0.258819
v 95.0492 6 -85.4172
vt 1.78232 0.23622
vt 1.75144 0.23622
vt 1.75144 2.22045e-016
f 33/328/72 189/329/72 187/330/70 31/331/70 

vt 2.07302 2.22045e-016
vn 0.92388 2.89731e-032 0.382683
v 95.3493 6 -86.1418
vt 2.07302 0.23622
vt 2.04214 0.23622
vt 2.04214 2.22045e-016
f 34/332/73 190/333/73 189/334/72 33/335/72 

vt 2.16056 2.22045e-016
vn 0.873454 3.57256e-032 0.486908
v 95.5531 6 -86.5074
vt 2.16056 0.23622
vt 2.14408 0.23622
vt 2.14408 2.22045e-016
f 35/336/74 191/337/74 190/338/74 34/339/74 

vt 1.66921 2.22045e-016
vn 0 6.6612e-032 1
v 100.349 6 -86.5074
vt 1.66921 0.23622
vt 1.48039 0.23622
vt 1.48039 2.22045e-016
f 36/340/75 192/341/75 191/342/75 35/343/75 

v 100.553 5.63993e-015 -86.1418
vt -0.610514 2.22045e-016
vn -0.873454 2.91422e-032 0.486908
v 100.553 6 -86.1418
vt -0.610514 0.23622
vt -0.626994 0.23622
vt -0.626994 2.22045e-016
f 193/344/76 194/345/76 192/346/76 36/347/76 

v 100.853 5.63993e-015 -85.4172
vt -0.836839 2.22045e-016
vn -0.965926 1.36003e-032 0.258819
v 100.853 6 -85.4172
vt -0.836839 0.23622
vt -0.867716 0.23622
vn -0.92388 2.20096e-032 0.382683
vt -0.867716 2.22045e-016
f 195/348/77 196/349/77 194/350/78 193/351/78 

v 100.955 5.63993e-015 -84.6396
vt -1.34034 2.22045e-016
vn -1 -3.76863e-033 -5.64101e-015
v 100.955 6 -84.6396
vt -1.34034 0.23622
vt -1.37122 0.23622
vt -1.37122 2.22045e-016
f 197/352/79 198/353/79 196/354/77 195/355/77 

v 100.853 5.63993e-015 -83.862
vt -1.75144 2.22045e-016
vn -0.965926 -2.08807e-032 -0.258819
v 100.853 6 -83.862
vt -1.75144 0.23622
vt -1.78232 0.23622
vt -1.78232 2.22045e-016
f 199/356/80 200/357/80 198/358/79 197/359/79 

v 100.553 5.63993e-015 -83.1375
vt -2.04214 2.22045e-016
vn -0.92388 -2.89731e-032 -0.382683
v 100.553 6 -83.1375
vt -2.04214 0.23622
vt -2.07302 0.23622
vt -2.07302 2.22045e-016
f 201/360/81 202/361/81 200/362/80 199/363/80 

vt -2.12404 2.22045e-016
vn -0.873454 -3.57256e-032 -0.486908
v 100.349 6 -82.7718
vt -2.12404 0.23622
vt -2.14052 0.23622
vt -2.14052 2.22045e-016
f 183/364/82 203/365/82 202/366/82 201/367/82 

vt -1.48039 2.22045e-016
vn 0 -6.6612e-032 -1
v 95.5531 6 -82.7718
vt -1.48039 0.23622
vt -1.66921 0.23622
vt -1.66921 2.22045e-016
f 184/368/83 204/369/83 203/370/83 183/371/83 

vt 0.606953 2.22045e-016
vn 0.873454 -2.91422e-032 -0.486908
v 95.3493 6 -83.1375
vt 0.606953 0.23622
vt 0.590474 0.23622
vt 0.590474 2.22045e-016
f 185/372/84 205/373/84 204/374/84 184/375/84 

vt 0.867716 2.22045e-016
vt 0.867716 0.23622
vt 0.836839 0.23622
vn 0.92388 -2.20096e-032 -0.382683
vt 0.836839 2.22045e-016
f 186/376/71 188/377/71 205/378/85 185/379/85 

vt 1.46055 1.54419
vn -1.69305e-031 1 4.30959e-031
v 95.0948 6 -80.5358
vt 1.46235 1.41324
vt 1.47237 1.51566
f 188/380/86 206/381/86 205/382/86

vt 1.45652 1.5748
f 187/383/86 206/381/86 188/380/86

v 94.8906 6 -80.6857
vt 1.45431 1.41914
f 187/383/86 207/384/86 206/381/86

v 94.8906 6 -88.5935
f 208/80/86 207/384/86 187/383/86

v 94.6943 6 -88.4334
f 209/81/86 207/384/86 208/80/86

v 94.6943 6 -80.8458
vt 1.44658 1.42544
f 209/81/86 210/385/86 207/384/86

v 94.5063 6 -88.2636
f 211/82/86 210/385/86 209/81/86

v 94.5063 6 -81.0156
vt 1.43918 1.43213
f 211/82/86 212/386/86 210/385/86

v 94.3272 6 -88.0844
f 213/84/86 212/386/86 211/82/86

v 94.3272 6 -81.1948
vt 1.43213 1.43918
f 213/84/86 214/387/86 212/386/86

v 94.1573 6 -87.8965
f 215/85/86 214/387/86 213/84/86

v 94.1573 6 -81.3827
vt 1.42544 1.44658
f 215/85/86 216/388/86 214/387/86

v 93.9973 6 -87.7001
f 217/86/86 216/388/86 215/85/86

v 93.9973 6 -81.5791
vt 1.41914 1.45431
f 217/86/86 218/389/86 216/388/86

v 93.8473 6 -87.4959
f 219/87/86 218/389/86 217/86/86

v 93.8473 6 -81.7833
vt 1.41324 1.46235
f 219/87/86 220/390/86 218/389/86

v 93.7079 6 -87.2844
f 221/88/86 220/390/86 219/87/86

v 93.7079 6 -81.9948
vt 1.40775 1.47068
f 221/88/86 222/391/86 220/390/86

v 93.5794 6 -87.0661
f 223/89/86 222/391/86 221/88/86

v 93.5794 6 -82.2131
vt 1.40269 1.47927
f 223/89/86 224/392/86 222/391/86

v 93.4621 6 -86.8416
f 225/90/86 224/392/86 223/89/86

v 93.4621 6 -82.4376
vt 1.39807 1.48811
f 225/90/86 226/393/86 224/392/86

v 93.3563 6 -86.6114
f 227/91/86 226/393/86 225/90/86

v 93.3563 6 -82.6678
vt 1.39391 1.49717
f 227/91/86 228/394/86 226/393/86

v 93.2624 6 -86.3761
f 229/93/86 228/394/86 227/91/86

v 93.2624 6 -82.9031
vt 1.39021 1.50644
f 229/93/86 230/395/86 228/394/86

v 93.1804 6 -86.1364
f 231/94/86 230/395/86 229/93/86

v 93.1804 6 -83.1428
vt 1.38698 1.51587
f 231/94/86 232/396/86 230/395/86

v 93.1107 6 -85.8929
f 233/95/86 232/396/86 231/94/86

v 93.1107 6 -83.3863
vt 1.38424 1.52546
f 233/95/86 234/397/86 232/396/86

v 93.0535 6 -85.6461
f 235/96/86 234/397/86 233/95/86

v 93.0535 6 -83.6331
vt 1.38198 1.53518
f 235/96/86 236/398/86 234/397/86

v 93.0088 6 -85.3967
f 237/97/86 236/398/86 235/96/86

v 93.0088 6 -83.8825
vt 1.38022 1.54499
f 237/97/86 238/399/86 236/398/86

v 92.9768 6 -85.1455
f 239/98/86 238/399/86 237/97/86

v 92.9768 6 -84.1338
vt 1.37896 1.55489
f 239/98/86 240/400/86 238/399/86

v 92.9576 6 -84.8929
f 241/99/86 240/400/86 239/98/86

v 92.9576 6 -84.3864
vt 1.37821 1.56483
f 241/99/86 242/401/86 240/400/86

v 92.9511 6 -84.6396
f 242/401/86 241/99/86 243/100/86

vt -1.61918 0.11811
vn -0.998717 -1.4726e-031 -0.0506492
vt -1.60921 0.11811
vn -1 -1.69305e-031 -0
vt -1.60921 0.23622
vt -1.61918 0.23622
f 76/402/87 77/403/88 243/404/88 241/405/87 

vt -1.53939 0.11811
v 92.9576 3 -84.3864
vt -1.52942 0.11811
vn -0.998717 -1.90916e-031 0.0506492
vt -1.52942 0.23622
vt -1.53939 0.23622
f 77/406/88 244/407/89 242/408/89 243/409/88 

v 93.3213 3 -62.1104
vt 1.39252 0.687827
f 77/100/1 245/410/1 244/401/1

f 78/101/1 245/410/1 77/100/1

v 92.1861 3 -62.3738
vt 1.34783 0.698198
f 78/101/1 246/411/1 245/410/1

v 91.0658 3 -106.585
f 247/158/1 246/411/1 78/101/1

v 91.0658 3 -62.6944
vt 1.30373 0.710819
f 247/158/1 248/412/1 246/411/1

v 89.9631 3 -106.208
f 249/157/1 248/412/1 247/158/1

v 89.9631 3 -63.0713
vt 1.26031 0.725658
f 249/157/1 250/413/1 248/412/1

v 88.881 3 -105.776
f 251/156/1 250/413/1 249/157/1

v 88.881 3 -63.5036
vt 1.21771 0.742676
f 251/156/1 252/414/1 250/413/1

f 251/156/1 99/161/1 252/414/1

f 98/155/1 99/161/1 251/156/1

vt 2.08338 0.11811
vn 0.417509 0 0.908673
vt 2.11141 0.11811
vn 0.394356 0 0.918958
vt 2.11141 1.10236
vt 2.08338 1.10236
f 98/415/90 251/416/91 95/417/91 94/418/90 

vn 0.347305 0 0.937752
f 251/288/91 249/289/92 96/290/92 95/291/91 

vn 0.299363 0 0.954139
f 249/284/92 247/285/93 97/286/93 96/287/92 

f 247/280/93 78/281/14 80/282/14 97/283/93 

vt -0.796425 0.11811
vn 0.394356 0 -0.918958
vt -0.76839 0.11811
vn 0.417509 0 -0.908673
v 88.2339 28 -63.8009
vt -0.76839 1.10236
v 88.881 28 -63.5036
vt -0.796425 1.10236
f 252/419/94 99/420/95 253/421/95 254/422/94 

vt -1.18756 1.10236
vn -0.906308 -1.01258e-019 -0.422618
vt -1.18756 0.11811
vt -1.01012 0.11811
v 86.3291 28 -59.7161
vt -1.01012 1.10236
f 253/423/96 99/424/96 100/425/96 255/426/96 

vt 0.805052 0.11811
vn -0.382683 0 0.92388
vt 0.899503 0.11811
vn -0.34202 9.97385e-032 0.939693
v 88.5456 28 -58.7981
vt 0.899503 1.10236
vt 0.805052 1.10236
f 100/427/97 168/428/98 256/429/98 255/430/97 

vt 0.981138 0.11811
vt 1.07559 0.11811
vn -0.258819 1.94154e-031 0.965926
v 90.8336 28 -58.0766
vt 1.07559 1.10236
vt 0.981138 1.10236
f 168/431/98 169/432/99 257/433/99 256/434/98 

vt 1.1494 0.11811
vt 1.24385 0.11811
vn -0.173648 1.82789e-031 0.984808
v 93.1758 28 -57.5574
vt 1.24385 1.10236
vt 1.1494 1.10236
f 169/435/99 170/436/100 258/437/100 257/438/99 

vt 1.30855 0.11811
vt 1.403 0.11811
vn -0.0871557 1.70034e-031 0.996195
v 95.5544 28 -57.2443
vt 1.403 1.10236
vt 1.30855 1.10236
f 170/439/100 171/440/101 259/441/101 258/442/100 

vt 1.45739 0.11811
vt 1.50461 0.11811
vn -0.0436194 1.63164e-031 0.999048
v 96.7527 28 -57.1919
vt 1.50461 1.10236
vt 1.45739 1.10236
f 171/443/101 172/444/102 260/445/102 259/446/101 

vt 0.494186 0.11811
vt 0.612409 0.11811
v 96.7527 28 -60.1948
vt 0.612409 1.10236
vt 0.494186 1.10236
f 172/447/21 173/448/21 261/449/21 260/450/21 

vt 0.686475 0.11811
vn 0.9988 0 0.0489655
vt 0.744551 0.11811
v 96.825 28 -61.6681
vt 0.744551 1.10236
vt 0.686475 1.10236
f 173/451/103 174/452/103 262/453/103 261/454/103 

vt -1.51299 0.11811
vn 0.0253327 0 -0.999679
v 96.7862 3 -61.6691
vt -1.51146 0.11811
vn 0.0506492 0 -0.998717
v 96.7862 28 -61.6691
vt -1.51146 1.10236
vt -1.51299 1.10236
f 174/455/104 263/456/105 264/457/105 262/458/104 

vt 1.52894 0.670454
f 175/310/1 263/459/1 174/309/1

v 96.6979 3 -79.7992
vt 1.52546 1.38424
f 265/460/1 263/459/1 175/310/1

v 96.4543 3 -79.8689
vt 1.51587 1.38698
f 266/461/1 263/459/1 265/460/1

v 96.2146 3 -79.9508
vt 1.50644 1.39021
f 267/462/1 263/459/1 266/461/1

v 95.9794 3 -80.0448
vt 1.49717 1.39391
f 268/463/1 263/459/1 267/462/1

v 95.7492 3 -80.1506
vt 1.48811 1.39807
f 269/464/1 263/459/1 268/463/1

v 95.6243 3 -61.7576
vt 1.48319 0.673937
f 269/464/1 270/465/1 263/459/1

v 95.5246 3 -80.2679
vt 1.47927 1.40269
f 271/466/1 270/465/1 269/464/1

v 95.3063 3 -80.3964
vt 1.47068 1.40775
f 272/467/1 270/465/1 271/466/1

v 95.0948 3 -80.5358
f 273/381/1 270/465/1 272/467/1

v 94.8906 3 -80.6857
f 274/384/1 270/465/1 273/381/1

v 94.6943 3 -80.8458
f 275/385/1 270/465/1 274/384/1

v 94.5063 3 -81.0156
f 276/386/1 270/465/1 275/385/1

v 94.4683 3 -61.9048
vt 1.43768 0.679733
f 276/386/1 277/468/1 270/465/1

v 94.3272 3 -81.1948
f 278/387/1 277/468/1 276/386/1

v 94.1573 3 -81.3827
f 279/388/1 277/468/1 278/387/1

v 93.9973 3 -81.5791
f 280/389/1 277/468/1 279/388/1

v 93.8473 3 -81.7833
f 281/390/1 277/468/1 280/389/1

v 93.7079 3 -81.9948
f 282/391/1 277/468/1 281/390/1

v 93.5794 3 -82.2131
f 283/392/1 277/468/1 282/391/1

v 93.4621 3 -82.4376
f 284/393/1 277/468/1 283/392/1

v 93.3563 3 -82.6678
f 285/394/1 277/468/1 284/393/1

f 285/394/1 245/410/1 277/468/1

v 93.2624 3 -82.9031
f 286/395/1 245/410/1 285/394/1

v 93.1804 3 -83.1428
f 287/396/1 245/410/1 286/395/1

v 93.1107 3 -83.3863
f 288/397/1 245/410/1 287/396/1

v 93.0535 3 -83.6331
f 289/398/1 245/410/1 288/397/1

v 93.0088 3 -83.8825
f 290/399/1 245/410/1 289/398/1

v 92.9768 3 -84.1338
f 291/400/1 245/410/1 290/399/1

f 244/401/1 245/410/1 291/400/1

vt -1.45566 0.11811
vt -1.44569 0.11811
vn -0.994869 -2.12036e-031 0.101168
vt -1.44569 0.23622
vt -1.45566 0.23622
f 244/469/89 291/470/106 240/471/106 242/472/89 

vt -1.36821 0.11811
vt -1.35824 0.11811
vn -0.988468 -2.32612e-031 0.151428
vt -1.35824 0.23622
vt -1.36821 0.23622
f 291/473/106 290/474/107 238/475/107 240/476/106 

vt -1.27726 0.11811
vt -1.26729 0.11811
vn -0.97953 -2.52591e-031 0.201299
vt -1.26729 0.23622
vt -1.27726 0.23622
f 290/477/107 289/478/108 236/479/108 238/480/107 

vt -1.18305 0.11811
vt -1.17307 0.11811
vn -0.968077 -2.71921e-031 0.250653
vt -1.17307 0.23622
vt -1.18305 0.23622
f 289/481/108 288/482/109 234/483/109 236/484/108 

vt -1.08581 0.11811
vt -1.07583 0.11811
vn -0.954139 -2.90554e-031 0.299363
vt -1.07583 0.23622
vt -1.08581 0.23622
f 288/485/109 287/486/110 232/487/110 234/488/109 

vt -0.985792 0.11811
vt -0.975819 0.11811
vn -0.937752 -3.0844e-031 0.347305
vt -0.975819 0.23622
vt -0.985792 0.23622
f 287/489/110 286/490/111 230/491/111 232/492/110 

vt -0.88326 0.11811
vt -0.873286 0.11811
vn -0.918958 -3.25535e-031 0.394356
vt -0.873286 0.23622
vt -0.88326 0.23622
f 286/493/111 285/494/112 228/495/112 230/496/111 

vt -0.778473 0.11811
vt -0.7685 0.11811
vn -0.897805 -3.41795e-031 0.440394
vt -0.7685 0.23622
vt -0.778473 0.23622
f 285/497/112 284/498/113 226/499/113 228/500/112 

vt -0.671701 0.11811
vt -0.661727 0.11811
vn -0.874347 -3.57176e-031 0.485302
vt -0.661727 0.23622
vt -0.671701 0.23622
f 284/501/113 283/502/114 224/503/114 226/504/113 

vt -0.563217 0.11811
vt -0.553243 0.11811
vn -0.848644 -3.71641e-031 0.528964
vt -0.553243 0.23622
vt -0.563217 0.23622
f 283/505/114 282/506/115 222/507/115 224/508/114 

vt -0.4533 0.11811
vt -0.443327 0.11811
vn -0.820763 -3.85152e-031 0.571268
vt -0.443327 0.23622
vt -0.4533 0.23622
f 282/509/115 281/510/116 220/511/116 222/512/115 

vt -0.342233 0.11811
vt -0.332259 0.11811
vn -0.790776 -3.97675e-031 0.612106
vt -0.332259 0.23622
vt -0.342233 0.23622
f 281/513/116 280/514/117 218/515/117 220/516/116 

vt -0.2303 0.11811
vt -0.220326 0.11811
vn -0.758758 -4.09176e-031 0.651372
vt -0.220326 0.23622
vt -0.2303 0.23622
f 280/517/117 279/518/118 216/519/118 218/520/117 

vt -0.117788 0.11811
vt -0.107814 0.11811
vn -0.724793 -4.19627e-031 0.688967
vt -0.107814 0.23622
vt -0.117788 0.23622
f 279/521/118 278/522/119 214/523/119 216/524/118 

vt -0.00498675 0.11811
vt 0.00498675 0.11811
vn -0.688967 -4.29001e-031 0.724793
vt 0.00498675 0.23622
vt -0.00498675 0.23622
f 278/525/119 276/526/120 212/527/120 214/528/119 

vt 0.107814 0.11811
vt 0.117788 0.11811
vn -0.651372 -4.37274e-031 0.758758
vt 0.117788 0.23622
vt 0.107814 0.23622
f 276/529/120 275/530/121 210/531/121 212/532/120 

vt 0.220326 0.11811
vt 0.2303 0.11811
vn -0.612106 -4.44424e-031 0.790776
vt 0.2303 0.23622
vt 0.220326 0.23622
f 275/533/121 274/534/122 207/535/122 210/536/121 

vt 0.332259 0.11811
vt 0.342233 0.11811
vn -0.571268 -4.50434e-031 0.820763
vt 0.342233 0.23622
vt 0.332259 0.23622
f 274/537/122 273/538/123 206/539/123 207/540/122 

vt 0.443327 0.11811
vt 0.4533 0.11811
vn -0.528964 -4.55287e-031 0.848644
v 95.3063 6 -80.3964
vt 0.4533 0.23622
vt 0.443327 0.23622
f 273/541/123 272/542/124 292/543/124 206/544/123 

vt 0.553243 0.11811
vt 0.563217 0.11811
vn -0.485302 -4.58971e-031 0.874347
v 95.5246 6 -80.2679
vt 0.563217 0.23622
vt 0.553243 0.23622
f 272/545/124 271/546/125 293/547/125 292/548/124 

vt 0.661727 0.11811
vt 0.671701 0.11811
vn -0.440394 -4.61478e-031 0.897805
v 95.7492 6 -80.1506
vt 0.671701 0.23622
vt 0.661727 0.23622
f 271/549/125 269/550/126 294/551/126 293/552/125 

vt 0.7685 0.11811
vt 0.778473 0.11811
vn -0.394356 -4.62799e-031 0.918958
v 95.9794 6 -80.0448
vt 0.778473 0.23622
vt 0.7685 0.23622
f 269/553/126 268/554/127 295/555/127 294/556/126 

vt 0.873286 0.11811
vt 0.88326 0.11811
vn -0.347305 -4.62933e-031 0.937752
v 96.2146 6 -79.9508
vt 0.88326 0.23622
vt 0.873286 0.23622
f 268/557/127 267/558/128 296/559/128 295/560/127 

vt 0.975819 0.11811
vt 0.985792 0.11811
vn -0.299363 -4.61878e-031 0.954139
v 96.4543 6 -79.8689
vt 0.985792 0.23622
vt 0.975819 0.23622
f 267/561/128 266/562/129 297/563/129 296/564/128 

vt 1.07583 0.11811
vt 1.08581 0.11811
vn -0.250653 -4.59638e-031 0.968077
v 96.6979 6 -79.7992
vt 1.08581 0.23622
vt 1.07583 0.23622
f 266/565/129 265/566/130 298/567/130 297/568/129 

vt 1.17307 0.11811
vt 1.18305 0.11811
vn -0.201299 -4.56218e-031 0.97953
v 96.9446 6 -79.742
vt 1.18305 0.23622
vt 1.17307 0.23622
f 265/569/130 175/570/131 299/571/131 298/572/130 

vt 1.26729 0.11811
vt 1.27726 0.11811
vn -0.151428 -4.51626e-031 0.988468
v 97.194 6 -79.6973
vt 1.27726 0.23622
vt 1.26729 0.23622
f 175/573/131 176/574/132 300/575/132 299/576/131 

vt 1.35824 0.11811
vt 1.36821 0.11811
vn -0.101168 -4.45876e-031 0.994869
v 97.4453 6 -79.6653
vt 1.36821 0.23622
vt 1.35824 0.23622
f 176/577/132 177/578/133 301/579/133 300/580/132 

vt 1.44569 0.11811
vt 1.45566 0.11811
vn -0.0506492 -4.38981e-031 0.998717
v 97.6979 6 -79.646
vt 1.45566 0.23622
vt 1.44569 0.23622
f 177/581/133 178/582/134 302/583/134 301/584/133 

vt 1.52942 0.11811
vt 1.53939 0.11811
vn 0 -4.30959e-031 1
v 97.9511 6 -79.6396
vt 1.53939 0.23622
vt 1.52942 0.23622
f 178/585/134 179/586/135 303/587/135 302/588/134 

vt 1.60921 0.11811
v 98.2044 3 -79.646
vt 1.61918 0.11811
vn 0.0506492 -4.2183e-031 0.998717
v 98.2044 6 -79.646
vt 1.61918 0.23622
vt 1.60921 0.23622
f 179/589/135 304/590/136 305/591/136 303/592/135 

v 98.9542 3 -61.665
vt 1.61429 0.670292
vt 1.58477 1.37821
f 179/314/1 306/593/1 304/594/1

f 179/314/1 180/315/1 306/593/1

v 98.9542 28 -61.665
vt -0.59924 1.10236
vn -0.999048 2.07057e-019 0.0436194
vt -0.59924 0.11811
vt -0.422966 0.11811
v 99.1495 28 -57.1919
vt -0.422966 1.10236
f 307/595/137 306/596/137 180/597/137 308/598/137 

v 99.1161 3 -61.6691
vt -1.63713 0.11811
vn -0.0506492 0 -0.998717
vt -1.63076 0.11811
vn -0.0253327 0 -0.999679
vt -1.63076 1.10236
v 99.1161 28 -61.6691
vt -1.63713 1.10236
f 309/599/138 306/600/139 307/601/139 310/602/138 

v 98.9576 3 -79.742
vt 1.61443 1.38198
vt 1.62067 0.670454
f 311/603/1 306/593/1 309/604/1

v 98.7083 3 -79.6973
vt 1.60461 1.38022
f 306/593/1 311/603/1 312/605/1

vt 1.82294 0.11811
vn 0.151428 -4.00351e-031 0.988468
vt 1.83292 0.11811
vn 0.201299 -3.88056e-031 0.97953
v 98.9576 6 -79.742
vt 1.83292 0.23622
v 98.7083 6 -79.6973
vt 1.82294 0.23622
f 312/606/140 311/607/141 313/608/141 314/609/140 

vt 1.88504 0.11811
v 99.2044 3 -79.7992
vt 1.89501 0.11811
vn 0.250653 -3.74764e-031 0.968077
v 99.2044 6 -79.7992
vt 1.89501 0.23622
vt 1.88504 0.23622
f 311/610/141 315/611/142 316/612/142 313/613/141 

vt 1.62414 1.38424
f 311/603/1 309/604/1 315/614/1

v 100.278 3 -61.7576
vt 1.66641 0.673937
f 315/614/1 309/604/1 317/615/1

vt -1.71278 0.11811
vn -0.101168 0 -0.994869
vt -1.6669 0.11811
vt -1.6669 1.10236
v 100.278 28 -61.7576
vt -1.71278 1.10236
f 317/616/143 309/617/138 310/618/138 318/619/143 

v 100.348 28 -57.2443
vt 1.66916 0.496246
v 102.726 28 -57.5574
vt 1.76281 0.508574
v 105.069 28 -58.0766
vt 1.85502 0.529017
v 107.357 28 -58.7981
vt 1.9451 0.557419
v 109.573 28 -59.7161
vt 2.03236 0.593564
v 108.304 28 -62.4377
vt 1.9824 0.700711
v 107.668 28 -63.8009
vt 1.95737 0.754381
v 107.021 28 -63.5036
vt 1.9319 0.742676
v 105.939 28 -63.0713
vt 1.88929 0.725658
v 104.836 28 -62.6944
vt 1.84588 0.710819
v 103.716 28 -62.3738
vt 1.80177 0.698198
v 102.581 28 -62.1104
vt 1.75708 0.687827
v 101.434 28 -61.9048
vt 1.71192 0.679733
f 310/604/29 307/593/29 308/315/29 319/620/29 320/621/29 321/622/29 322/623/29 323/624/29 324/625/29 325/626/29 326/627/29 327/628/29 328/629/29 329/630/29 330/631/29 331/632/29 318/615/29 

vt 1.642 0.11811
vn 0.0436194 4.46692e-032 0.999048
v 100.348 3 -57.2443
vt 1.68922 0.11811
vn 0.0871557 4.63458e-032 0.996195
vt 1.68922 1.10236
vt 1.642 1.10236
f 180/633/144 332/634/145 319/635/145 308/636/144 

f 180/315/1 181/316/1 332/620/1

v 102.726 3 -57.5574
f 332/620/1 181/316/1 333/621/1

v 105.069 3 -58.0766
f 333/621/1 181/316/1 334/622/1

v 107.357 3 -58.7981
f 334/622/1 181/316/1 335/623/1

v 109.573 3 -59.7161
f 335/623/1 181/316/1 336/624/1

v 117.951 3 -49.9986
vt 2.3622 0.210984
f 336/624/1 181/316/1 337/637/1

vt 1.85203 0
v 117.951 0 -49.9986
vt 2.26313 0
vn 0.5 0 0.866025
vt 2.26313 0.11811
vt 1.85203 0.11811
f 182/638/69 338/639/146 337/640/146 181/641/69 

v 117.951 0 -119.281
vt -2.3622 2.93862
vt -2.3622 0.210984
f 182/320/4 339/642/4 338/643/4

f 182/320/4 37/58/4 339/642/4

vt -1.69308 1.5748
f 182/320/4 197/644/4 37/58/4

vt -1.68905 1.54419
f 182/320/4 199/645/4 197/644/4

vt -1.67724 1.51566
f 182/320/4 201/646/4 199/645/4

f 182/320/4 183/319/4 201/646/4

vt -1.68905 1.60542
f 195/647/4 37/58/4 197/644/4

vt -1.67724 1.63394
f 193/648/4 37/58/4 195/647/4

f 36/57/4 37/58/4 193/648/4

vn 0.5 0 -0.866025
v 117.951 3 -119.281
f 339/31/147 37/32/12 38/33/12 340/34/147 

v 109.573 3 -109.563
vt 2.03236 2.55604
vt 2.3622 2.93862
f 38/62/1 341/649/1 340/650/1

v 107.357 3 -110.481
vt 1.9451 2.59219
f 38/62/1 342/651/1 341/649/1

v 105.069 3 -111.203
vt 1.85502 2.62059
f 38/62/1 343/652/1 342/651/1

v 102.726 3 -111.722
vt 1.76281 2.64103
f 38/62/1 344/653/1 343/652/1

v 100.348 3 -112.035
vt 1.66916 2.65336
f 38/62/1 345/654/1 344/653/1

f 38/62/1 39/61/1 345/654/1

vt -1.55184 0.11811
vn 0.0871557 -2.81026e-031 -0.996195
vn 0.0436194 -2.6977e-031 -0.999048
v 99.1495 28 -112.087
v 100.348 28 -112.035
vt -1.55184 1.10236
f 345/655/148 39/224/149 346/227/149 347/656/148 

vt -2.72364 0.11811
vn -0.999048 6.24122e-020 -0.0436194
vt -2.54737 0.11811
v 98.9542 28 -107.614
vt -2.54737 1.10236
vt -2.72364 1.10236
f 39/657/150 40/658/150 348/659/150 346/660/150 

vt 1.55097 0.11811
vn -0.0253327 0 0.999679
v 99.1161 3 -107.61
vt 1.55734 0.11811
vn -0.0506492 0 0.998717
v 99.1161 28 -107.61
vt 1.55734 1.10236
vt 1.55097 1.10236
f 40/661/151 349/662/152 350/663/152 348/664/151 

v 98.9576 3 -89.5373
vt 1.61443 1.76762
vt 1.62067 2.47915
f 40/63/1 351/665/1 349/666/1

v 98.7083 3 -89.582
vt 1.60461 1.76938
f 351/665/1 40/63/1 352/667/1

v 98.457 3 -89.614
vt 1.59472 1.77064
f 40/63/1 353/668/1 352/667/1

f 40/63/1 41/64/1 353/668/1

vn 0.101168 4.45876e-031 -0.994869
vn 0.0506492 4.38981e-031 -0.998717
v 98.2044 6 -89.6332
v 98.457 6 -89.614
f 353/469/153 41/470/154 354/471/154 355/472/153 

vn 0 4.30959e-031 -1
v 97.9511 6 -89.6396
f 41/406/154 42/407/155 356/408/155 354/409/154 

vn -0.0506492 4.2183e-031 -0.998717
v 97.6979 6 -89.6332
f 42/402/155 43/403/156 357/404/156 356/405/155 

vt -1.69482 0.11811
vt -1.68485 0.11811
vn -0.101168 4.11619e-031 -0.994869
v 97.4453 6 -89.614
vt -1.68485 0.23622
vt -1.69482 0.23622
f 43/669/156 44/670/157 358/671/157 357/672/156 

vt -1.76613 0.11811
vt -1.75616 0.11811
vn -0.151428 4.00351e-031 -0.988468
v 97.194 6 -89.582
vt -1.75616 0.23622
vt -1.76613 0.23622
f 44/673/157 45/674/158 359/675/158 358/676/157 

vt -1.83292 0.11811
vt -1.82294 0.11811
vn -0.201299 3.88056e-031 -0.97953
v 96.9446 6 -89.5373
vt -1.82294 0.23622
vt -1.83292 0.23622
f 45/677/158 46/678/159 360/679/159 359/680/158 

vt -1.89501 0.11811
vt -1.88504 0.11811
vn -0.250653 3.74764e-031 -0.968077
v 96.6979 6 -89.48
vt -1.88504 0.23622
vt -1.89501 0.23622
f 46/681/159 48/682/160 361/683/160 360/684/159 

vt -1.95225 0.11811
vt -1.94228 0.11811
vn -0.299363 3.60511e-031 -0.954139
v 96.4543 6 -89.4103
vt -1.94228 0.23622
vt -1.95225 0.23622
f 48/685/160 49/686/161 362/687/161 361/688/160 

vt -2.00449 0.11811
vt -1.99452 0.11811
vn -0.347305 3.45332e-031 -0.937752
v 96.2146 6 -89.3284
vt -1.99452 0.23622
vt -2.00449 0.23622
f 49/689/161 50/690/162 363/691/162 362/692/161 

vt -2.05161 0.11811
vt -2.04163 0.11811
vn -0.394356 3.29266e-031 -0.918958
v 95.9794 6 -89.2344
vt -2.04163 0.23622
vt -2.05161 0.23622
f 50/693/162 51/694/163 364/695/163 363/696/162 

vt -2.09346 0.11811
vt -2.08349 0.11811
vn -0.440394 3.12356e-031 -0.897805
v 95.7492 6 -89.1286
vt -2.08349 0.23622
vt -2.09346 0.23622
f 51/697/163 52/698/164 365/699/164 364/700/163 

vt -2.12996 0.11811
vt -2.11998 0.11811
vn -0.485302 2.94643e-031 -0.874347
v 95.5246 6 -89.0113
vt -2.11998 0.23622
vt -2.12996 0.23622
f 52/701/164 54/702/165 366/703/165 365/704/164 

vt -2.161 0.11811
vt -2.15103 0.11811
vn -0.528964 2.76174e-031 -0.848644
v 95.3063 6 -88.8828
vt -2.15103 0.23622
vt -2.161 0.23622
f 54/705/165 55/706/166 367/707/166 366/708/165 

vt -2.18651 0.11811
vt -2.17653 0.11811
vn -0.571268 2.56996e-031 -0.820763
v 95.0948 6 -88.7434
vt -2.17653 0.23622
vt -2.18651 0.23622
f 55/709/166 56/710/167 368/711/167 367/712/166 

vt -2.20641 0.11811
vt -2.19644 0.11811
vn -0.612106 2.37159e-031 -0.790776
vt -2.19644 0.23622
vt -2.20641 0.23622
f 56/713/167 57/714/168 208/715/168 368/716/167 

vt -2.22067 0.11811
vt -2.21069 0.11811
vn -0.651372 2.16713e-031 -0.758758
vt -2.21069 0.23622
vt -2.22067 0.23622
f 57/717/168 58/718/169 209/719/169 208/720/168 

vt -2.22924 0.11811
vt -2.21926 0.11811
vn -0.688967 1.9571e-031 -0.724793
vt -2.21926 0.23622
vt -2.22924 0.23622
f 58/721/169 59/722/170 211/723/170 209/724/169 

vt -2.23209 0.11811
vt -2.22212 0.11811
vn -0.724793 1.74205e-031 -0.688967
vt -2.22212 0.23622
vt -2.23209 0.23622
f 59/725/170 61/726/171 213/727/171 211/728/170 

vn -0.758758 1.52253e-031 -0.651372
f 61/721/171 62/722/172 215/723/172 213/724/171 

vn -0.790776 1.2991e-031 -0.612106
f 62/717/172 63/718/173 217/719/173 215/720/172 

vn -0.820763 1.07233e-031 -0.571268
f 63/713/173 64/714/174 219/715/174 217/716/173 

vn -0.848644 8.42817e-032 -0.528964
f 64/709/174 65/710/175 221/711/175 219/712/174 

vn -0.874347 6.11136e-032 -0.485302
f 65/705/175 66/706/176 223/707/176 221/708/175 

vn -0.897805 3.77887e-032 -0.440394
f 66/701/176 67/702/177 225/703/177 223/704/176 

vn -0.918958 1.43667e-032 -0.394356
f 67/697/177 68/698/178 227/699/178 225/700/177 

vn -0.937752 -9.09209e-033 -0.347305
f 68/693/178 70/694/179 229/695/179 227/696/178 

vn -0.954139 -3.25276e-032 -0.299363
f 70/689/179 71/690/180 231/691/180 229/692/179 

vn -0.968077 -5.58796e-032 -0.250653
f 71/685/180 72/686/181 233/687/181 231/688/180 

vn -0.97953 -7.90881e-032 -0.201299
f 72/681/181 73/682/182 235/683/182 233/684/181 

vn -0.988468 -1.02094e-031 -0.151428
f 73/677/182 74/678/183 237/679/183 235/680/182 

vn -0.994869 -1.24837e-031 -0.101168
f 74/673/183 75/674/184 239/675/184 237/676/183 

f 75/669/184 76/670/87 241/671/87 239/672/184 

f 187/383/86 368/79/86 208/80/86

vt 1.46055 1.60542
f 368/79/86 187/383/86 189/729/86

vt 1.47237 1.63394
f 368/79/86 189/729/86 190/730/86

f 368/79/86 190/730/86 367/78/86

f 367/78/86 190/730/86 366/77/86

vt 1.48039 1.64834
f 366/77/86 190/730/86 191/731/86

f 366/77/86 191/731/86 365/75/86

vt 1.66921 1.64834
f 365/75/86 191/731/86 192/732/86

f 365/75/86 192/732/86 364/74/86

f 364/74/86 192/732/86 363/73/86

f 363/73/86 192/732/86 362/72/86

f 362/72/86 192/732/86 361/71/86

f 361/71/86 192/732/86 360/69/86

f 360/69/86 192/732/86 359/68/86

f 359/68/86 192/732/86 358/67/86

f 358/67/86 192/732/86 357/66/86

f 357/66/86 192/732/86 356/65/86

f 356/65/86 192/732/86 354/64/86

f 354/64/86 192/732/86 355/668/86

v 98.7083 6 -89.582
f 355/668/86 192/732/86 369/667/86

v 98.9576 6 -89.5373
f 369/667/86 192/732/86 370/665/86

v 99.2044 6 -89.48
vt 1.62414 1.76537
f 370/665/86 192/732/86 371/733/86

v 99.448 6 -89.4103
vt 1.63373 1.76263
f 371/733/86 192/732/86 372/734/86

v 99.6877 6 -89.3284
vt 1.64317 1.7594
f 372/734/86 192/732/86 373/735/86

v 99.9229 6 -89.2344
vt 1.65243 1.7557
f 373/735/86 192/732/86 374/736/86

v 100.153 6 -89.1286
vt 1.66149 1.75154
f 374/736/86 192/732/86 375/737/86

v 100.378 6 -89.0113
vt 1.67034 1.74692
f 375/737/86 192/732/86 376/738/86

vt 1.67724 1.63394
f 376/738/86 192/732/86 194/739/86

v 100.596 6 -88.8828
vt 1.67893 1.74186
f 376/738/86 194/739/86 377/740/86

vt 1.68905 1.60542
f 377/740/86 194/739/86 196/741/86

v 100.807 6 -88.7434
vt 1.68726 1.73637
f 377/740/86 196/741/86 378/742/86

v 101.012 6 -88.5935
vt 1.6953 1.73047
f 378/742/86 196/741/86 379/743/86

vt 1.69308 1.5748
f 379/743/86 196/741/86 198/744/86

v 101.012 6 -80.6857
vt 1.6953 1.41914
f 379/743/86 198/744/86 380/745/86

vt 1.68905 1.54419
f 200/746/86 380/745/86 198/744/86

v 100.807 6 -80.5358
vt 1.68726 1.41324
f 200/746/86 381/747/86 380/745/86

v 100.596 6 -80.3964
vt 1.67893 1.40775
f 200/746/86 382/748/86 381/747/86

vt 1.67724 1.51566
f 202/749/86 382/748/86 200/746/86

v 100.378 6 -80.2679
vt 1.67034 1.40269
f 202/749/86 383/750/86 382/748/86

vt 1.66921 1.50127
f 203/751/86 383/750/86 202/749/86

v 100.153 6 -80.1506
vt 1.66149 1.39807
f 203/751/86 384/752/86 383/750/86

v 99.9229 6 -80.0448
vt 1.65243 1.39391
f 203/751/86 385/753/86 384/752/86

v 99.6877 6 -79.9508
vt 1.64317 1.39021
f 203/751/86 386/754/86 385/753/86

v 99.448 6 -79.8689
vt 1.63373 1.38698
f 203/751/86 387/755/86 386/754/86

f 203/751/86 316/614/86 387/755/86

f 203/751/86 313/603/86 316/614/86

f 203/751/86 314/605/86 313/603/86

v 98.457 6 -79.6653
vt 1.59472 1.37896
f 203/751/86 388/756/86 314/605/86

f 203/751/86 305/594/86 388/756/86

f 203/751/86 303/314/86 305/594/86

f 203/751/86 302/313/86 303/314/86

f 203/751/86 301/312/86 302/313/86

f 203/751/86 300/311/86 301/312/86

f 203/751/86 299/310/86 300/311/86

f 203/751/86 298/460/86 299/310/86

f 203/751/86 297/461/86 298/460/86

f 203/751/86 296/462/86 297/461/86

f 203/751/86 295/463/86 296/462/86

f 203/751/86 294/464/86 295/463/86

vt 1.48039 1.50127
f 204/757/86 294/464/86 203/751/86

f 204/757/86 293/466/86 294/464/86

f 205/382/86 293/466/86 204/757/86

f 205/382/86 292/467/86 293/466/86

f 205/382/86 206/381/86 292/467/86

vt 1.68485 0.11811
v 98.457 3 -79.6653
vt 1.69482 0.11811
vn 0.101168 -4.11619e-031 0.994869
vt 1.69482 0.23622
vt 1.68485 0.23622
f 304/758/136 389/759/185 388/760/185 305/761/136 

f 304/594/1 306/593/1 389/756/1

f 389/756/1 306/593/1 312/605/1

vt 1.75616 0.11811
vt 1.76613 0.11811
vt 1.76613 0.23622
vt 1.75616 0.23622
f 389/762/185 312/763/140 314/764/140 388/765/185 

vt 1.94228 0.11811
v 99.448 3 -79.8689
vt 1.95225 0.11811
vn 0.299363 -3.60511e-031 0.954139
vt 1.95225 0.23622
vt 1.94228 0.23622
f 315/766/142 390/767/186 387/768/186 316/769/142 

f 315/614/1 317/615/1 390/755/1

v 99.6877 3 -79.9508
f 390/755/1 317/615/1 391/754/1

v 99.9229 3 -80.0448
f 391/754/1 317/615/1 392/753/1

v 100.153 3 -80.1506
f 392/753/1 317/615/1 393/752/1

v 100.378 3 -80.2679
f 393/752/1 317/615/1 394/750/1

v 101.434 3 -61.9048
f 394/750/1 317/615/1 395/632/1

vt -1.78408 0.11811
vn -0.151428 0 -0.988468
vt -1.7382 0.11811
vt -1.7382 1.10236
vt -1.78408 1.10236
f 395/770/187 317/771/143 318/772/143 331/773/187 

v 102.581 3 -62.1104
vt -1.85087 0.11811
vn -0.201299 0 -0.97953
vt -1.80499 0.11811
vt -1.80499 1.10236
vt -1.85087 1.10236
f 396/774/188 395/775/187 331/776/187 330/777/188 

v 101.575 3 -81.1948
vt 1.71748 1.43918
f 397/778/1 395/632/1 396/631/1

v 101.396 3 -81.0156
vt 1.71043 1.43213
f 398/779/1 395/632/1 397/778/1

v 101.208 3 -80.8458
vt 1.70303 1.42544
f 399/780/1 395/632/1 398/779/1

v 101.012 3 -80.6857
f 400/745/1 395/632/1 399/780/1

v 100.807 3 -80.5358
f 401/747/1 395/632/1 400/745/1

v 100.596 3 -80.3964
f 402/748/1 395/632/1 401/747/1

f 394/750/1 395/632/1 402/748/1

vt 2.15103 0.11811
vn 0.485302 -2.94643e-031 0.874347
vt 2.161 0.11811
vn 0.528964 -2.76174e-031 0.848644
vt 2.161 0.23622
vt 2.15103 0.23622
f 394/781/189 402/782/190 382/783/190 383/784/189 

vt 2.17653 0.11811
vt 2.18651 0.11811
vn 0.571268 -2.56996e-031 0.820763
vt 2.18651 0.23622
vt 2.17653 0.23622
f 402/785/190 401/786/191 381/787/191 382/788/190 

vt 2.19644 0.11811
vt 2.20641 0.11811
vn 0.612106 -2.37159e-031 0.790776
vt 2.20641 0.23622
vt 2.19644 0.23622
f 401/789/191 400/790/192 380/791/192 381/792/191 

vt 2.21069 0.11811
vt 2.22067 0.11811
vn 0.651372 -2.16713e-031 0.758758
v 101.208 6 -80.8458
vt 2.22067 0.23622
vt 2.21069 0.23622
f 400/793/192 399/794/193 403/795/193 380/796/192 

vt 2.21926 0.11811
vt 2.22924 0.11811
vn 0.688967 -1.9571e-031 0.724793
v 101.396 6 -81.0156
vt 2.22924 0.23622
vt 2.21926 0.23622
f 399/797/193 398/798/194 404/799/194 403/800/193 

vt 2.22212 0.11811
vt 2.23209 0.11811
vn 0.724793 -1.74205e-031 0.688967
v 101.575 6 -81.1948
vt 2.23209 0.23622
vt 2.22212 0.23622
f 398/801/194 397/802/195 405/803/195 404/804/194 

v 101.745 3 -81.3827
vn 0.758758 -1.52253e-031 0.651372
v 101.745 6 -81.3827
f 397/797/195 406/798/196 407/799/196 405/800/195 

vt 1.72416 1.44658
f 397/778/1 396/631/1 406/805/1

v 101.905 3 -81.5791
vt 1.73047 1.45431
f 406/805/1 396/631/1 408/806/1

v 102.055 3 -81.7833
vt 1.73637 1.46235
f 408/806/1 396/631/1 409/807/1

v 102.194 3 -81.9948
vt 1.74186 1.47068
f 409/807/1 396/631/1 410/808/1

v 102.323 3 -82.2131
vt 1.74692 1.47927
f 410/808/1 396/631/1 411/809/1

v 102.44 3 -82.4376
vt 1.75154 1.48811
f 411/809/1 396/631/1 412/810/1

v 102.546 3 -82.6678
vt 1.7557 1.49717
f 412/810/1 396/631/1 413/811/1

v 102.64 3 -82.9031
vt 1.7594 1.50644
f 413/811/1 396/631/1 414/812/1

v 103.716 3 -62.3738
f 414/812/1 396/631/1 415/630/1

vt -1.91296 0.11811
vn -0.250653 0 -0.968077
vt -1.86708 0.11811
vt -1.86708 1.10236
vt -1.91296 1.10236
f 415/813/197 396/814/188 330/815/188 329/816/197 

v 104.836 3 -62.6944
vt -1.9702 0.11811
vn -0.299363 0 -0.954139
vt -1.92433 0.11811
vt -1.92433 1.10236
vt -1.9702 1.10236
f 416/817/198 415/818/197 329/819/197 328/820/198 

v 103.716 3 -106.905
vt 1.80177 2.45141
f 417/821/1 415/630/1 416/629/1

v 102.951 3 -84.6396
vt 1.77165 1.5748
f 417/821/1 418/822/1 415/630/1

v 102.945 3 -84.8929
vt 1.7714 1.58477
f 417/821/1 419/823/1 418/822/1

v 102.925 3 -85.1455
vt 1.77064 1.59472
f 417/821/1 420/824/1 419/823/1

v 102.893 3 -85.3967
vt 1.76938 1.60461
f 417/821/1 421/825/1 420/824/1

v 102.849 3 -85.6461
vt 1.76762 1.61443
f 417/821/1 422/826/1 421/825/1

v 102.792 3 -85.8929
vt 1.76537 1.62414
f 417/821/1 423/827/1 422/826/1

v 102.722 3 -86.1364
vt 1.76263 1.63373
f 417/821/1 424/828/1 423/827/1

v 102.64 3 -86.3761
vt 1.7594 1.64317
f 417/821/1 425/829/1 424/828/1

v 102.581 3 -107.169
vt 1.75708 2.46178
f 426/830/1 425/829/1 417/821/1

v 102.546 3 -86.6114
vt 1.7557 1.65243
f 426/830/1 427/831/1 425/829/1

v 102.44 3 -86.8416
vt 1.75154 1.66149
f 426/830/1 428/832/1 427/831/1

v 102.323 3 -87.0661
vt 1.74692 1.67034
f 426/830/1 429/833/1 428/832/1

v 102.194 3 -87.2844
vt 1.74186 1.67893
f 426/830/1 430/834/1 429/833/1

v 102.055 3 -87.4959
vt 1.73637 1.68726
f 426/830/1 431/835/1 430/834/1

v 101.905 3 -87.7001
vt 1.73047 1.6953
f 426/830/1 432/836/1 431/835/1

v 101.745 3 -87.8965
vt 1.72416 1.70303
f 426/830/1 433/837/1 432/836/1

v 101.575 3 -88.0844
vt 1.71748 1.71043
f 426/830/1 434/838/1 433/837/1

v 101.434 3 -107.374
vt 1.71192 2.46987
f 435/839/1 434/838/1 426/830/1

v 101.396 3 -88.2636
vt 1.71043 1.71748
f 435/839/1 436/840/1 434/838/1

v 101.208 3 -88.4334
vt 1.70303 1.72416
f 435/839/1 437/841/1 436/840/1

v 101.012 3 -88.5935
f 435/839/1 438/743/1 437/841/1

v 100.807 3 -88.7434
f 435/839/1 439/742/1 438/743/1

v 100.596 3 -88.8828
f 435/839/1 440/740/1 439/742/1

v 100.378 3 -89.0113
f 435/839/1 441/738/1 440/740/1

v 100.278 3 -107.522
vt 1.66641 2.47567
f 442/842/1 441/738/1 435/839/1

v 100.153 3 -89.1286
f 442/842/1 443/737/1 441/738/1

v 99.9229 3 -89.2344
f 442/842/1 444/736/1 443/737/1

v 99.6877 3 -89.3284
f 442/842/1 445/735/1 444/736/1

v 99.448 3 -89.4103
f 442/842/1 446/734/1 445/735/1

v 99.2044 3 -89.48
f 442/842/1 447/733/1 446/734/1

f 349/666/1 447/733/1 442/842/1

f 349/666/1 351/665/1 447/733/1

vn 0.250653 4.59638e-031 -0.968077
vn 0.201299 4.56218e-031 -0.97953
f 447/481/199 351/482/200 370/483/200 371/484/199 

vn 0.151428 4.51626e-031 -0.988468
f 351/477/200 352/478/201 369/479/201 370/480/200 

f 352/473/201 353/474/153 355/475/153 369/476/201 

vn 0.299363 4.61878e-031 -0.954139
f 446/485/202 447/486/199 371/487/199 372/488/202 

vn 0.347305 4.62933e-031 -0.937752
f 445/489/203 446/490/202 372/491/202 373/492/203 

vn 0.394356 4.62799e-031 -0.918958
f 444/493/204 445/494/203 373/495/203 374/496/204 

vn 0.440394 4.61478e-031 -0.897805
f 443/497/205 444/498/204 374/499/204 375/500/205 

vn 0.485302 4.58971e-031 -0.874347
f 441/501/206 443/502/205 375/503/205 376/504/206 

vn 0.528964 4.55287e-031 -0.848644
f 440/505/207 441/506/206 376/507/206 377/508/207 

vn 0.571268 4.50434e-031 -0.820763
f 439/509/208 440/510/207 377/511/207 378/512/208 

vn 0.612106 4.44424e-031 -0.790776
f 438/513/209 439/514/208 378/515/208 379/516/209 

vn 0.651372 4.37274e-031 -0.758758
v 101.208 6 -88.4334
f 437/517/210 438/518/209 379/519/209 448/520/210 

f 379/743/86 403/780/86 448/841/86

f 379/743/86 380/745/86 403/780/86

f 448/841/86 403/780/86 404/779/86

v 101.396 6 -88.2636
f 448/841/86 404/779/86 449/840/86

f 449/840/86 404/779/86 405/778/86

v 101.575 6 -88.0844
f 449/840/86 405/778/86 450/838/86

f 450/838/86 405/778/86 407/805/86

v 101.745 6 -87.8965
f 450/838/86 407/805/86 451/837/86

v 101.905 6 -81.5791
f 451/837/86 407/805/86 452/806/86

vn 0.790776 -1.2991e-031 0.612106
f 406/793/196 408/794/211 452/795/211 407/796/196 

vn 0.820763 -1.07233e-031 0.571268
v 102.055 6 -81.7833
f 408/789/211 409/790/212 453/791/212 452/792/211 

vn 0.848644 -8.42817e-032 0.528964
v 102.194 6 -81.9948
f 409/785/212 410/786/213 454/787/213 453/788/212 

vn 0.874347 -6.11136e-032 0.485302
v 102.323 6 -82.2131
f 410/781/213 411/782/214 455/783/214 454/784/213 

vt 2.11998 0.11811
vt 2.12996 0.11811
vn 0.897805 -3.77887e-032 0.440394
v 102.44 6 -82.4376
vt 2.12996 0.23622
vt 2.11998 0.23622
f 411/843/214 412/844/215 456/845/215 455/846/214 

vt 2.08349 0.11811
vt 2.09346 0.11811
vn 0.918958 -1.43667e-032 0.394356
v 102.546 6 -82.6678
vt 2.09346 0.23622
vt 2.08349 0.23622
f 412/847/215 413/848/216 457/849/216 456/850/215 

vt 2.04163 0.11811
vt 2.05161 0.11811
vn 0.937752 9.09209e-033 0.347305
v 102.64 6 -82.9031
vt 2.05161 0.23622
vt 2.04163 0.23622
f 413/851/216 414/852/217 458/853/217 457/854/216 

vt 1.99452 0.11811
v 102.722 3 -83.1428
vt 2.00449 0.11811
vn 0.954139 3.25276e-032 0.299363
v 102.722 6 -83.1428
vt 2.00449 0.23622
vt 1.99452 0.23622
f 414/855/217 459/856/218 460/857/218 458/858/217 

vt 1.76263 1.51587
f 414/812/1 415/630/1 459/859/1

v 102.792 3 -83.3863
vt 1.76537 1.52546
f 459/859/1 415/630/1 461/860/1

v 102.849 3 -83.6331
vt 1.76762 1.53518
f 461/860/1 415/630/1 462/861/1

v 102.893 3 -83.8825
vt 1.76938 1.54499
f 462/861/1 415/630/1 463/862/1

v 102.925 3 -84.1338
vt 1.77064 1.55489
f 463/862/1 415/630/1 464/863/1

v 102.945 3 -84.3864
vt 1.7714 1.56483
f 464/863/1 415/630/1 465/864/1

f 465/864/1 415/630/1 418/822/1

vn 0.998717 1.4726e-031 0.0506492
vn 1 1.69305e-031 -0
v 102.951 6 -84.6396
v 102.945 6 -84.3864
f 465/589/219 418/590/220 466/591/220 467/592/219 

vn 0.998717 1.90916e-031 -0.0506492
v 102.945 6 -84.8929
f 418/585/220 419/586/221 468/587/221 466/588/220 

vn 0.994869 2.12036e-031 -0.101168
v 102.925 6 -85.1455
f 419/581/221 420/582/222 469/583/222 468/584/221 

vn 0.988468 2.32612e-031 -0.151428
v 102.893 6 -85.3967
f 420/577/222 421/578/223 470/579/223 469/580/222 

vn 0.97953 2.52591e-031 -0.201299
v 102.849 6 -85.6461
f 421/573/223 422/574/224 471/575/224 470/576/223 

vn 0.968077 2.71921e-031 -0.250653
v 102.792 6 -85.8929
f 422/569/224 423/570/225 472/571/225 471/572/224 

vn 0.954139 2.90554e-031 -0.299363
v 102.722 6 -86.1364
f 423/565/225 424/566/226 473/567/226 472/568/225 

vn 0.937752 3.0844e-031 -0.347305
v 102.64 6 -86.3761
f 424/561/226 425/562/227 474/563/227 473/564/226 

vn 0.918958 3.25535e-031 -0.394356
v 102.546 6 -86.6114
f 425/557/227 427/558/228 475/559/228 474/560/227 

vn 0.897805 3.41795e-031 -0.440394
v 102.44 6 -86.8416
f 427/553/228 428/554/229 476/555/229 475/556/228 

vn 0.874347 3.57176e-031 -0.485302
v 102.323 6 -87.0661
f 428/549/229 429/550/230 477/551/230 476/552/229 

vn 0.848644 3.71641e-031 -0.528964
v 102.194 6 -87.2844
f 429/545/230 430/546/231 478/547/231 477/548/230 

vn 0.820763 3.85152e-031 -0.571268
v 102.055 6 -87.4959
f 430/541/231 431/542/232 479/543/232 478/544/231 

vn 0.790776 3.97675e-031 -0.612106
v 101.905 6 -87.7001
f 431/537/232 432/538/233 480/539/233 479/540/232 

vn 0.758758 4.09176e-031 -0.651372
f 432/533/233 433/534/234 451/535/234 480/536/233 

vn 0.724793 4.19627e-031 -0.688967
f 433/529/234 434/530/235 450/531/235 451/532/234 

vn 0.688967 4.29001e-031 -0.724793
f 434/525/235 436/526/236 449/527/236 450/528/235 

f 436/521/236 437/522/210 448/523/210 449/524/236 

f 451/837/86 452/806/86 480/836/86

f 480/836/86 452/806/86 453/807/86

f 480/836/86 453/807/86 479/835/86

f 479/835/86 453/807/86 454/808/86

f 479/835/86 454/808/86 478/834/86

f 478/834/86 454/808/86 455/809/86

f 478/834/86 455/809/86 477/833/86

f 477/833/86 455/809/86 456/810/86

f 477/833/86 456/810/86 476/832/86

f 476/832/86 456/810/86 457/811/86

f 476/832/86 457/811/86 475/831/86

f 475/831/86 457/811/86 458/812/86

f 475/831/86 458/812/86 474/829/86

f 474/829/86 458/812/86 460/859/86

f 474/829/86 460/859/86 473/828/86

v 102.792 6 -83.3863
f 473/828/86 460/859/86 481/860/86

vn 0.968077 5.58796e-032 0.250653
f 459/766/218 461/767/237 481/768/237 460/769/218 

vn 0.97953 7.90881e-032 0.201299
v 102.849 6 -83.6331
f 461/610/237 462/611/238 482/612/238 481/613/237 

vn 0.988468 1.02094e-031 0.151428
v 102.893 6 -83.8825
f 462/606/238 463/607/239 483/608/239 482/609/238 

vn 0.994869 1.24837e-031 0.101168
v 102.925 6 -84.1338
f 463/762/239 464/763/240 484/764/240 483/765/239 

f 464/758/240 465/759/219 467/760/219 484/761/240 

f 469/824/86 484/863/86 467/864/86

f 470/825/86 484/863/86 469/824/86

f 470/825/86 483/862/86 484/863/86

f 471/826/86 483/862/86 470/825/86

f 471/826/86 482/861/86 483/862/86

f 472/827/86 482/861/86 471/826/86

f 472/827/86 481/860/86 482/861/86

f 473/828/86 481/860/86 472/827/86

f 469/824/86 467/864/86 468/823/86

f 468/823/86 467/864/86 466/822/86

vn -0.101168 0 0.994869
v 100.278 28 -107.522
f 349/268/152 442/269/241 485/270/241 350/271/152 

vn -0.151428 0 0.988468
v 101.434 28 -107.374
f 442/264/241 435/265/242 486/266/242 485/267/241 

vn -0.201299 0 0.97953
v 102.581 28 -107.169
f 435/260/242 426/261/243 487/262/243 486/263/242 

vn -0.250653 0 0.968077
v 103.716 28 -106.905
f 426/256/243 417/257/244 488/258/244 487/259/243 

v 104.836 3 -106.585
vn -0.299363 0 0.954139
v 104.836 28 -106.585
f 417/252/244 489/253/245 490/254/245 488/255/244 

vt 1.84588 2.43879
f 417/821/1 416/629/1 489/865/1

v 105.939 3 -106.208
vt 1.88929 2.42395
f 489/865/1 416/629/1 491/866/1

v 105.939 3 -63.0713
f 491/866/1 416/629/1 492/628/1

vt -2.02245 0.11811
vn -0.347305 0 -0.937752
vt -1.97657 0.11811
vt -1.97657 1.10236
vt -2.02245 1.10236
f 492/867/246 416/868/198 328/869/198 327/870/246 

v 107.021 3 -63.5036
vt -2.06956 0.11811
vn -0.394356 0 -0.918958
vt -2.02368 0.11811
vt -2.02368 1.10236
vt -2.06956 1.10236
f 493/871/247 492/872/246 327/873/246 326/874/247 

f 491/866/1 492/628/1 493/627/1

v 107.021 3 -105.776
vt 1.9319 2.40693
f 491/866/1 493/627/1 494/875/1

v 107.668 3 -63.8009
f 494/875/1 493/627/1 495/626/1

vt -2.09357 0.11811
vn -0.417509 0 -0.908673
vt -2.06554 0.11811
vt -2.06554 1.10236
vt -2.09357 1.10236
f 495/876/248 493/877/247 326/878/247 325/879/248 

v 108.304 3 -62.4377
vt -0.202739 0.11811
vn 0.906308 0 -0.422618
vt -0.14352 0.11811
vt -0.14352 1.10236
vt -0.202739 1.10236
f 496/880/249 495/881/249 325/882/249 324/883/249 

v 107.668 3 -105.478
vt 1.95737 2.39523
f 497/884/1 495/626/1 496/625/1

f 494/875/1 495/626/1 497/884/1

vt 0.750547 0.11811
vn -0.394356 0 0.918958
vt 0.778583 0.11811
vn -0.417509 0 0.908673
v 107.668 28 -105.478
vt 0.778583 1.10236
v 107.021 28 -105.776
vt 0.750547 1.10236
f 494/885/250 497/886/251 498/887/251 499/888/250 

vt 2.99803 1.10236
vn 0.906308 -1.01258e-019 0.422618
vt 2.99803 0.11811
vt 3.17547 0.11811
vn 0.932008 -7.32151e-020 -0.362438
v 109.573 28 -109.563
vt 3.17547 1.10236
f 498/889/252 497/890/252 341/891/253 500/892/253 

f 497/884/1 496/625/1 341/649/1

f 341/649/1 496/625/1 336/624/1

vt -0.320961 1.10236
vt -0.320961 0.11811
f 324/883/249 323/893/249 336/894/249 496/880/249 

vt 2.01035 0.11811
vn 0.34202 2.66991e-032 0.939693
vt 2.10481 0.11811
vn 0.382683 0 0.92388
vt 2.10481 1.10236
vt 2.01035 1.10236
f 335/895/254 336/896/255 323/897/255 322/898/254 

vt 1.92824 0.11811
vn 0.258819 5.21404e-032 0.965926
vt 2.02269 0.11811
vt 2.02269 1.10236
vt 1.92824 1.10236
f 334/899/256 335/900/254 322/901/254 321/902/256 

vt 1.8311 0.11811
vn 0.173648 4.94312e-032 0.984808
vt 1.92555 0.11811
vt 1.92555 1.10236
vt 1.8311 1.10236
f 333/903/257 334/904/256 321/905/256 320/906/257 

vt 1.71966 0.11811
vt 1.81411 0.11811
vt 1.81411 1.10236
vt 1.71966 1.10236
f 332/907/145 333/908/257 320/909/257 319/910/145 

f 336/624/1 337/637/1 341/649/1

f 340/650/1 341/649/1 337/637/1

v 118.79 3 -74.9224
vt 2.39523 1.19223
f 340/650/1 337/637/1 501/911/1

v 126.235 3 -56.3553
vt 2.68836 0.461249
f 501/911/1 337/637/1 502/912/1

vt 2.0025 0
v 126.235 0 -56.3553
vt 2.41361 0
vn 0.707107 0 0.707107
vt 2.41361 0.11811
vt 2.0025 0.11811
f 338/913/146 503/914/258 502/915/258 337/916/146 

vt -2.68836 0.461249
f 338/643/4 339/642/4 503/917/4

v 126.235 0 -112.924
vt -2.68836 2.68836
f 503/917/4 339/642/4 504/918/4

vn 0.707107 0 -0.707107
v 126.235 3 -112.924
f 504/35/259 339/36/147 340/37/147 505/38/259 

v 118.79 3 -94.3569
vt 2.39523 1.95737
vt 2.68836 2.68836
f 506/919/1 505/920/1 340/650/1

v 120.153 3 -94.9925
vt 2.4489 1.9824
f 505/920/1 506/919/1 507/921/1

vt -3.05725 0.11811
vn -0.422618 0 -0.906308
vt -2.99803 0.11811
v 118.79 28 -94.3569
vt -2.99803 1.10236
v 120.153 28 -94.9925
vt -3.05725 1.10236
f 507/922/260 506/923/260 508/924/260 509/925/260 

vt -0.778583 0.11811
vn -0.908673 0 0.417509
v 119.087 3 -93.7098
vt -0.750547 0.11811
vn -0.918958 0 0.394356
v 119.087 28 -93.7098
vt -0.750547 1.10236
vt -0.778583 1.10236
f 506/926/261 510/927/262 511/928/262 508/929/261 

vt 2.40693 1.9319
f 501/911/1 510/930/1 506/919/1

v 119.087 3 -75.5694
vt 2.40693 1.21771
f 510/930/1 501/911/1 512/931/1

vt -2.11141 0.11811
vn -0.918958 0 -0.394356
vt -2.08338 0.11811
vn -0.908673 0 -0.417509
v 118.79 28 -74.9224
vt -2.08338 1.10236
v 119.087 28 -75.5694
vt -2.11141 1.10236
f 512/932/263 501/933/264 513/934/264 514/935/263 

vt 1.66695 1.10236
vn -0.422618 1.40143e-018 0.906308
vt 1.66695 0.11811
v 122.875 3 -73.0176
vt 1.84439 0.11811
vn 0.362438 1.01331e-018 0.932008
v 122.875 28 -73.0176
vt 1.84439 1.10236
f 513/936/265 501/937/265 515/938/266 516/939/266 

vt 2.55604 1.11724
f 501/911/1 502/912/1 515/940/1

v 123.793 3 -75.2341
vt 2.59219 1.20451
f 515/940/1 502/912/1 517/941/1

v 124.514 3 -77.5221
vt 2.62059 1.29459
f 517/941/1 502/912/1 518/942/1

v 125.033 3 -79.8643
vt 2.64103 1.3868
f 518/942/1 502/912/1 519/943/1

v 125.346 3 -82.2428
vt 2.65336 1.48044
f 519/943/1 502/912/1 520/944/1

v 125.399 3 -83.4412
vt 2.65542 1.52762
f 520/944/1 502/912/1 521/945/1

v 125.399 3 -85.838
vt 2.65542 1.62198
f 521/945/1 502/912/1 522/946/1

f 505/920/1 522/946/1 502/912/1

v 125.346 3 -87.0364
vt 2.65336 1.66916
f 505/920/1 523/947/1 522/946/1

v 125.033 3 -89.4149
vt 2.64103 1.76281
f 505/920/1 524/948/1 523/947/1

v 124.514 3 -91.7571
vt 2.62059 1.85502
f 505/920/1 525/949/1 524/948/1

v 123.793 3 -94.0452
vt 2.59219 1.9451
f 505/920/1 526/950/1 525/949/1

v 122.875 3 -96.2616
vt 2.55604 2.03236
f 505/920/1 527/951/1 526/950/1

f 505/920/1 507/921/1 527/951/1

v 122.875 28 -96.2616
vt -3.17547 1.10236
vt -3.17547 0.11811
f 509/925/260 528/952/260 527/953/260 507/922/260 

v 120.922 28 -85.8045
vt 2.47915 1.62067
v 120.926 28 -85.6427
vt 2.47931 1.61429
v 125.399 28 -85.838
v 125.346 28 -87.0364
v 125.033 28 -89.4149
v 124.514 28 -91.7571
v 123.793 28 -94.0452
v 119.519 28 -92.6276
vt 2.42395 1.88929
v 119.896 28 -91.525
vt 2.43879 1.84588
v 120.217 28 -90.4046
vt 2.45141 1.80177
v 120.48 28 -89.2695
vt 2.46178 1.75708
v 120.686 28 -88.1224
vt 2.46987 1.71192
v 120.833 28 -86.9665
vt 2.47567 1.66641
f 529/954/29 530/955/29 531/946/29 532/947/29 533/948/29 534/949/29 535/950/29 528/951/29 509/921/29 508/919/29 511/930/29 536/956/29 537/957/29 538/958/29 539/959/29 540/960/29 541/961/29 

v 120.922 3 -85.8045
vt -1.55734 0.11811
vn -0.998717 0 0.0506492
v 120.926 3 -85.6427
vt -1.55097 0.11811
vn -0.999679 0 0.0253327
vt -1.55097 1.10236
vt -1.55734 1.10236
f 542/962/267 543/963/268 530/964/268 529/965/267 

v 120.926 3 -83.6365
vt 2.47931 1.53531
f 542/954/1 544/966/1 543/955/1

v 120.922 3 -83.4747
vt 2.47915 1.52894
f 542/954/1 545/967/1 544/966/1

v 120.833 3 -86.9665
f 546/961/1 545/967/1 542/954/1

v 120.833 3 -82.3127
vt 2.47567 1.48319
f 546/961/1 547/968/1 545/967/1

v 120.686 3 -88.1224
f 548/960/1 547/968/1 546/961/1

v 120.686 3 -81.1568
vt 2.46987 1.43768
f 548/960/1 549/969/1 547/968/1

v 120.48 3 -89.2695
f 550/959/1 549/969/1 548/960/1

v 120.48 3 -80.0097
vt 2.46178 1.39252
f 550/959/1 551/970/1 549/969/1

v 120.217 3 -90.4046
f 552/958/1 551/970/1 550/959/1

v 120.217 3 -78.8746
vt 2.45141 1.34783
f 552/958/1 553/971/1 551/970/1

v 119.896 3 -91.525
f 554/957/1 553/971/1 552/958/1

v 119.896 3 -77.7543
vt 2.43879 1.30373
f 554/957/1 555/972/1 553/971/1

v 119.519 3 -92.6276
f 556/956/1 555/972/1 554/957/1

v 119.519 3 -76.6516
vt 2.42395 1.26031
f 556/956/1 557/973/1 555/972/1

f 510/930/1 557/973/1 556/956/1

f 510/930/1 512/931/1 557/973/1

vn -0.937752 0 -0.347305
v 119.519 28 -76.6516
f 557/871/269 512/872/263 514/873/263 558/874/269 

v 123.793 28 -75.2341
v 124.514 28 -77.5221
v 125.033 28 -79.8643
v 125.346 28 -82.2428
v 125.399 28 -83.4412
v 120.926 28 -83.6365
v 120.922 28 -83.4747
v 120.833 28 -82.3127
v 120.686 28 -81.1568
v 120.48 28 -80.0097
v 120.217 28 -78.8746
v 119.896 28 -77.7543
f 514/931/29 513/911/29 516/940/29 559/941/29 560/942/29 561/943/29 562/944/29 563/945/29 564/966/29 565/967/29 566/968/29 567/969/29 568/970/29 569/971/29 570/972/29 558/973/29 

vn 0.939693 2.61807e-032 0.34202
f 515/895/266 517/896/270 559/897/270 516/898/266 

vn 0.965926 5.10187e-032 0.258819
f 517/899/270 518/900/271 560/901/271 559/902/270 

vn 0.984808 4.81445e-032 0.173648
f 518/903/271 519/904/272 561/905/272 560/906/271 

vn 0.996195 4.49038e-032 0.0871557
f 519/907/272 520/908/273 562/909/273 561/910/272 

vt 1.59477 0.11811
vn 0.999048 4.31537e-032 0.0436194
vt 1.59477 1.10236
f 520/974/273 521/633/274 563/636/274 562/975/273 

vt -2.58626 0.11811
vn 0.0436194 5.53015e-032 -0.999048
vt -2.40999 0.11811
vt -2.40999 1.10236
vt -2.58626 1.10236
f 521/976/275 544/977/275 564/978/275 563/979/275 

f 543/955/1 544/966/1 521/945/1

f 543/955/1 521/945/1 522/946/1

vt 2.54737 1.10236
vn 0.0436194 0 0.999048
vt 2.54737 0.11811
vt 2.72364 0.11811
vt 2.72364 1.10236
f 530/980/276 543/981/276 522/982/276 531/983/276 

vn 0.999048 -2.86441e-031 -0.0436194
vt 1.55184 0.11811
vn 0.996195 -2.96888e-031 -0.0871557
vt 1.55184 1.10236
f 522/444/277 523/984/278 532/985/278 531/445/277 

vn 0.984808 -3.16066e-031 -0.173648
f 523/439/278 524/440/279 533/441/279 532/442/278 

vn 0.965926 -3.3284e-031 -0.258819
f 524/435/279 525/436/280 534/437/280 533/438/279 

vn 0.939693 -1.70304e-031 -0.34202
f 525/431/280 526/432/281 535/433/281 534/434/280 

vn 0.92388 0 -0.382683
f 526/427/281 527/428/282 528/429/282 535/430/281 

vt -1.59763 0.11811
vn -0.999679 0 -0.0253327
vt -1.59125 0.11811
vn -0.998717 0 -0.0506492
vt -1.59125 1.10236
vt -1.59763 1.10236
f 544/986/283 545/987/284 565/988/284 564/989/283 

vn -0.994869 0 -0.101168
f 545/616/284 547/617/285 566/618/285 565/619/284 

vn -0.988468 0 -0.151428
f 547/770/285 549/771/286 567/772/286 566/773/285 

vn -0.97953 0 -0.201299
f 549/774/286 551/775/287 568/776/287 567/777/286 

vn -0.968077 0 -0.250653
f 551/813/287 553/814/288 569/815/288 568/816/287 

vn -0.954139 0 -0.299363
f 553/817/288 555/818/289 570/819/289 569/820/288 

f 555/867/289 557/868/269 558/869/269 570/870/289 

vt -0.901212 0.11811
vt -0.855334 0.11811
vn -0.937752 0 0.347305
vt -0.855334 1.10236
vt -0.901212 1.10236
f 510/990/262 556/991/290 536/992/290 511/993/262 

vt -1.00374 0.11811
vt -0.957866 0.11811
vn -0.954139 0 0.299363
vt -0.957866 1.10236
vt -1.00374 1.10236
f 556/994/290 554/995/291 537/996/291 536/997/290 

vt -1.10376 0.11811
vt -1.05788 0.11811
vn -0.968077 0 0.250653
vt -1.05788 1.10236
vt -1.10376 1.10236
f 554/998/291 552/999/292 538/1000/292 537/1001/291 

vt -1.201 0.11811
vt -1.15512 0.11811
vn -0.97953 0 0.201299
vt -1.15512 1.10236
vt -1.201 1.10236
f 552/1002/292 550/1003/293 539/1004/293 538/1005/292 

vt -1.29522 0.11811
vt -1.24934 0.11811
vn -0.988468 0 0.151428
vt -1.24934 1.10236
vt -1.29522 1.10236
f 550/1006/293 548/1007/294 540/1008/294 539/1009/293 

vt -1.38617 0.11811
vt -1.34029 0.11811
vn -0.994869 0 0.101168
vt -1.34029 1.10236
vt -1.38617 1.10236
f 548/1010/294 546/1011/295 541/1012/295 540/1013/294 

vt -1.47362 0.11811
vt -1.42774 0.11811
vt -1.42774 1.10236
vt -1.47362 1.10236
f 546/1014/295 542/1015/267 529/1016/267 541/1017/295 

v 132.592 3 -64.6396
vt 2.93862 0.787402
f 505/920/1 502/912/1 571/1018/1

v 132.592 0 -64.6396
vn 0.866025 0 0.5
f 503/913/258 572/914/296 571/915/296 502/916/258 

v 132.592 0 -104.64
vt -2.93862 2.3622
vt -2.93862 0.787402
f 503/917/4 573/1019/4 572/1020/4

f 503/917/4 504/918/4 573/1019/4

vn 0.866025 0 -0.5
v 132.592 3 -104.64
f 573/39/297 504/40/259 505/41/259 574/42/297 

vt 2.93862 2.3622
f 505/920/1 571/1018/1 574/1021/1

v 136.588 3 -74.2868
vt 3.09595 1.16721
f 574/1021/1 571/1018/1 575/1022/1

v 136.588 0 -74.2868
vn 0.965926 0 0.258819
f 572/638/296 576/639/298 575/640/298 571/641/296 

v 136.588 0 -94.9924
vt -3.09595 1.98239
vt -3.09595 1.16721
f 572/1020/4 577/1023/4 576/1024/4

f 572/1020/4 573/1019/4 577/1023/4

vn 0.965926 0 -0.258819
v 136.588 3 -94.9924
f 577/43/299 573/44/297 574/45/297 578/46/299 

vt 3.09595 1.98239
f 574/1021/1 575/1022/1 578/1025/1

v 137.951 3 -84.6396
vt 3.14961 1.5748
f 578/1025/1 575/1022/1 579/1026/1

v 137.951 0 -84.6396
vn 1 0 -1.53973e-016
f 576/48/298 580/317/300 579/318/300 575/49/298 

vt -3.14961 1.5748
f 576/1024/4 577/1023/4 580/1027/4

f 580/47/300 577/48/299 578/49/299 579/50/300 

f 340/650/1 501/911/1 506/919/1

vn 0.34202 -1.64601e-031 -0.939693
v 107.357 28 -110.481
f 341/240/253 342/241/301 581/242/301 500/243/253 

vn 0.258819 -3.20502e-031 -0.965926
v 105.069 28 -111.203
f 342/236/301 343/237/302 582/238/302 581/239/301 

vn 0.173648 -3.01913e-031 -0.984808
v 102.726 28 -111.722
f 343/232/302 344/233/303 583/234/303 582/235/302 

f 344/228/303 345/229/148 347/230/148 583/231/303 

v 105.939 28 -106.208
f 499/875/29 498/884/29 500/649/29 581/651/29 582/652/29 583/653/29 347/654/29 346/61/29 348/63/29 350/666/29 485/842/29 486/839/29 487/830/29 488/821/29 490/865/29 584/866/29 

vn -0.347305 0 0.937752
f 489/248/245 491/249/304 584/250/304 490/251/245 

f 491/244/304 494/245/250 499/246/250 584/247/304 

vn 0.440394 -3.12356e-031 0.897805
f 393/843/305 394/844/189 383/845/189 384/846/305 

vn 0.394356 -3.29266e-031 0.918958
f 392/847/306 393/848/305 384/849/305 385/850/306 

vn 0.347305 -3.45332e-031 0.937752
f 391/851/307 392/852/306 385/853/306 386/854/307 

f 390/855/186 391/856/307 386/857/307 387/858/186 

vn 0.151428 0 -0.988468
vn 0.201299 0 -0.97953
v 93.3213 28 -62.1104
v 94.4683 28 -61.9048
f 277/1006/308 245/1007/309 585/1008/309 586/1009/308 

vn 0.250653 0 -0.968077
v 92.1861 28 -62.3738
f 245/1002/309 246/1003/310 587/1004/310 585/1005/309 

vn 0.299363 0 -0.954139
v 91.0658 28 -62.6944
f 246/998/310 248/999/311 588/1000/311 587/1001/310 

vn 0.347305 0 -0.937752
v 89.9631 28 -63.0713
f 248/994/311 250/995/312 589/996/312 588/997/311 

f 250/990/312 252/991/94 254/992/94 589/993/312 

v 95.6243 28 -61.7576
f 254/414/29 253/161/29 255/162/29 256/302/29 257/304/29 258/305/29 259/306/29 260/307/29 261/308/29 262/309/29 264/459/29 590/465/29 586/468/29 585/410/29 587/411/29 588/412/29 589/413/29 

vn 0.101168 0 -0.994869
f 263/1014/105 270/1015/313 590/1016/313 264/1017/105 

f 270/1010/313 277/1011/308 586/1012/308 590/1013/313 

