# Alias OBJ Model File
# Exported from SketchUp, (c) 2000-2012 Trimble Navigation Limited
# File units = millimeters

mtllib money_box_lid.mtl

g Mesh1 Model

usemtl FrontColor
v 58.7628 0 -146.047
vt -2.31349 5.74989
vn 0 -1 -0
v 56.0354 0 -117.047
vt -2.20612 4.60816
v 52.9685 0 -132.059
vt -2.08538 5.19916
f 1/1/1 2/2/1 3/3/1

v 57.8399 0 -130.753
vt -2.27716 5.14777
f 2/2/1 1/1/1 4/4/1

v 63.1303 0 -143.526
vt -2.48544 5.65061
f 4/4/1 1/1/1 5/5/1

v 67.9801 0 -158.059
vt -2.67638 6.22281
f 5/5/1 1/1/1 6/6/1

vt -6.56616 0
vn -0.707107 0 -0.707107
vt -5.97006 0
vn -0.866025 0 -0.5
v 58.7628 3 -146.047
vt -5.97006 0.11811
v 67.9801 3 -158.059
vt -6.56616 0.11811
f 6/7/2 1/8/3 7/9/3 8/10/2 

vt -6.19754 0
vt -5.60144 0
vn -0.965926 0 -0.258819
v 52.9685 3 -132.059
vt -5.60144 0.11811
vt -6.19754 0.11811
f 1/11/3 3/12/4 9/13/4 7/14/3 

vt -5.42688 0
v 50.9922 0 -117.047
vt -4.83077 0
vn -1 0 -2.79951e-016
v 50.9922 3 -117.047
vt -4.83077 0.11811
vt -5.42688 0.11811
f 3/15/4 10/16/5 11/17/5 9/18/4 

v 52.9685 0 -102.036
vt -2.08538 4.01715
vt -2.00757 4.60816
f 3/3/1 12/19/1 10/20/1

v 58.7628 0 -88.0472
vt -2.31349 3.46642
f 12/19/1 3/3/1 13/21/1

f 13/21/1 3/3/1 2/2/1

v 57.8399 0 -103.341
vt -2.27716 4.06854
f 13/21/1 2/2/1 14/22/1

vt 3.73651 0
vn 0.965926 0 -0.258819
vt 4.28078 0
vn 1 0 1.00782e-015
v 56.0354 3 -117.047
vt 4.28078 0.11811
v 57.8399 3 -103.341
vt 3.73651 0.11811
f 14/23/6 2/24/7 15/25/7 16/26/6 

vt 4.85669 0
vt 5.40096 0
vn 0.965926 0 0.258819
v 57.8399 3 -130.753
vt 5.40096 0.11811
vt 4.85669 0.11811
f 2/27/7 4/28/8 17/29/8 15/30/7 

vt 5.62735 0
vt 6.17163 0
vn 0.866025 0 0.5
v 63.1303 3 -143.526
vt 6.17163 0.11811
vt 5.62735 0.11811
f 4/31/8 5/32/9 18/33/9 17/34/8 

vt 5.99598 0
v 71.5461 0 -154.493
vt 6.54025 0
vn 0.707107 0 0.707107
v 71.5461 3 -154.493
vt 6.54025 0.11811
vt 5.99598 0.11811
f 5/35/9 19/36/10 20/37/10 18/38/9 

vt -2.81678 6.08241
f 5/5/1 6/6/1 19/39/1

v 79.9922 0 -167.277
vt -3.1493 6.5857
f 19/39/1 6/6/1 21/40/1

vt -6.50763 0
vn -0.5 0 -0.866025
vt -5.91152 0
vt -5.91152 0.11811
v 79.9922 3 -167.277
vt -6.50763 0.11811
f 21/41/11 6/42/2 8/43/2 22/44/11 

vn -3.4975e-033 -1 -7.36316e-034
v 78.9922 3 -169.009
vt -3.10993 6.65389
f 8/6/12 23/45/12 22/40/12

v 66.5658 3 -159.474
vt -2.6207 6.27849
f 8/6/12 24/46/12 23/45/12

f 7/1/12 24/46/12 8/6/12

v 57.0307 3 -147.047
vt -2.2453 5.78926
f 7/1/12 25/47/12 24/46/12

f 9/3/12 25/47/12 7/1/12

v 51.0367 3 -132.576
vt -2.00932 5.21954
f 9/3/12 26/48/12 25/47/12

f 11/20/12 26/48/12 9/3/12

v 48.9922 3 -117.047
vt -1.92883 4.60816
f 26/48/12 11/20/12 27/49/12

v 51.0367 3 -101.518
vt -2.00932 3.99677
f 11/20/12 28/50/12 27/49/12

v 52.9685 3 -102.036
f 28/50/12 11/20/12 29/19/12

vt -4.30669 0
vt -3.71059 0
vn -0.965926 0 0.258819
vt -3.71059 0.11811
vt -4.30669 0.11811
f 10/51/5 12/52/13 29/53/13 11/54/5 

vt -2.91333 0
vt -2.31722 0
vn -0.866025 0 0.5
v 58.7628 3 -88.0472
vt -2.31722 0.11811
vt -2.91333 0.11811
f 12/55/13 13/56/14 30/57/14 29/58/13 

vt -1.34173 0
v 67.9801 0 -76.035
vt -0.745629 0
vn -0.707107 0 0.707107
v 67.9801 3 -76.035
vt -0.745629 0.11811
vt -1.34173 0.11811
f 13/59/14 31/60/15 32/61/15 30/62/14 

v 63.1303 0 -90.5688
vt -2.48544 3.5657
vt -2.67638 2.9935
f 13/21/1 33/63/1 31/64/1

f 13/21/1 14/22/1 33/63/1

vt 2.34314 0
vn 0.866025 0 -0.5
vt 2.88741 0
vt 2.88741 0.11811
v 63.1303 3 -90.5688
vt 2.34314 0.11811
f 33/65/16 14/66/6 16/67/6 34/68/16 

f 16/22/1 17/4/1 34/63/1

f 17/4/1 16/22/1 15/2/1

f 34/63/1 17/4/1 18/5/1

v 71.5461 3 -79.601
vt -2.81678 3.1339
f 34/63/1 18/5/1 35/69/1

f 35/69/1 18/5/1 20/39/1

v 82.5138 3 -162.909
vt -3.24858 6.41375
f 35/69/1 20/39/1 36/70/1

vt 5.93744 0
v 82.5138 0 -162.909
vt 6.48171 0
vn 0.5 0 0.866025
vt 6.48171 0.11811
vt 5.93744 0.11811
f 19/71/10 37/72/17 36/73/17 20/74/10 

f 19/39/1 21/40/1 37/70/1

v 93.9807 0 -173.071
vt -3.70003 6.81381
f 37/70/1 21/40/1 38/75/1

vt -6.02592 0
vn -0.258819 0 -0.965926
vt -5.42981 0
vt -5.42981 0.11811
v 93.9807 3 -173.071
vt -6.02592 0.11811
f 38/76/18 21/77/11 22/78/11 39/79/18 

v 93.4631 3 -175.003
vt -3.67965 6.88987
f 22/40/12 40/80/12 39/75/12

f 22/40/12 23/45/12 40/80/12

vt -6.03619 0.11811
vn -0.258819 1.61645e-033 -0.965926
vt -5.41953 0.11811
vn -0.5 2.38642e-033 -0.866025
v 78.9922 6 -169.009
vt -5.41953 0.23622
v 93.4631 6 -175.003
vt -6.03619 0.23622
f 40/81/19 23/82/20 41/83/20 42/84/19 

vt -6.5179 0.11811
vt -5.90124 0.11811
vn -0.707107 2.99376e-033 -0.707107
v 66.5658 6 -159.474
vt -5.90124 0.23622
vt -6.5179 0.23622
f 23/85/20 24/86/21 43/87/21 41/88/20 

vt -6.57644 0.11811
vt -5.95978 0.11811
vn -0.866025 3.39708e-033 -0.5
v 57.0307 6 -147.047
vt -5.95978 0.23622
vt -6.57644 0.23622
f 24/89/21 25/90/22 44/91/22 43/92/21 

vt -6.20782 0.11811
vt -5.59116 0.11811
vn -0.965926 3.5689e-033 -0.258819
v 51.0367 6 -132.576
vt -5.59116 0.23622
vt -6.20782 0.23622
f 25/93/22 26/94/23 45/95/23 44/96/22 

vt -5.43716 0.11811
vt -4.8205 0.11811
vn -1 3.4975e-033 1.6797e-016
v 48.9922 6 -117.047
vt -4.8205 0.23622
vt -5.43716 0.23622
f 26/97/23 27/98/24 46/99/24 45/100/23 

vt -4.31697 0.11811
vt -3.70031 0.11811
vn -0.965926 3.18775e-033 0.258819
v 51.0367 6 -101.518
vt -3.70031 0.23622
vt -4.31697 0.23622
f 27/101/24 28/102/25 47/103/25 46/104/24 

vt -2.9236 0.11811
v 57.0307 3 -87.0472
vt -2.30695 0.11811
vn -0.866025 2.66077e-033 0.5
v 57.0307 6 -87.0472
vt -2.30695 0.23622
vt -2.9236 0.23622
f 28/105/25 48/106/26 49/107/26 47/108/25 

vt -2.2453 3.42705
f 28/50/12 29/19/12 48/109/12

f 48/109/12 29/19/12 30/21/12

v 66.5658 3 -74.6208
vt -2.6207 2.93783
f 48/109/12 30/21/12 50/110/12

f 50/110/12 30/21/12 32/64/12

v 78.9922 3 -65.0857
vt -3.10993 2.56243
f 50/110/12 32/64/12 51/111/12

v 79.9922 3 -66.8177
vt -3.1493 2.63062
f 51/111/12 32/64/12 52/112/12

vt 0.300985 0
v 79.9922 0 -66.8177
vt 0.897089 0
vn -0.5 0 0.866025
vt 0.897089 0.11811
vt 0.300985 0.11811
f 31/113/15 53/114/27 52/115/27 32/116/15 

v 71.5461 0 -79.601
f 31/64/1 54/69/1 53/112/1

f 31/64/1 33/63/1 54/69/1

vt 0.771545 0
vn 0.707107 0 -0.707107
vt 1.31582 0
vt 1.31582 0.11811
vt 0.771545 0.11811
f 54/117/28 33/118/16 34/119/16 35/120/28 

v 82.5138 0 -71.1852
vt -0.871173 0
vn 0.5 0 -0.866025
vt -0.326901 0
vt -0.326901 0.11811
v 82.5138 3 -71.1852
vt -0.871173 0.11811
f 55/121/29 54/122/28 35/123/28 56/124/29 

vt -3.24858 2.80257
f 53/112/1 54/69/1 55/125/1

v 93.9807 0 -61.0235
vt -3.70003 2.4025
f 53/112/1 55/125/1 57/126/1

v 95.286 0 -65.8948
vt -3.75142 2.59428
f 57/126/1 55/125/1 58/127/1

vt -2.47307 0
vn 0.258819 0 -0.965926
vt -1.9288 0
vt -1.9288 0.11811
v 95.286 3 -65.8948
vt -2.47307 0.11811
f 58/128/30 55/129/29 56/130/29 59/131/30 

v 87.9922 3 -109.047
vt -3.46426 4.2932
f 56/125/1 60/132/1 59/127/1

f 56/125/1 36/70/1 60/132/1

f 35/69/1 36/70/1 56/125/1

v 87.9922 3 -125.047
vt -3.46426 4.92312
f 60/132/1 36/70/1 61/133/1

v 95.286 3 -168.2
vt -3.75142 6.62203
f 62/134/1 61/133/1 36/70/1

v 129.992 3 -125.047
vt -5.1178 4.92312
f 61/133/1 62/134/1 63/135/1

v 108.992 3 -170.004
vt -4.29103 6.69307
f 63/135/1 62/134/1 64/136/1

v 95.286 0 -168.2
vt 4.58367 0
vn 0.258819 0 0.965926
v 108.992 0 -170.004
vt 5.12794 0
vn 1.45574e-015 0 1
vt 5.12794 0.11811
vt 4.58367 0.11811
f 65/137/31 66/138/32 64/139/32 62/140/31 

v 108.992 0 -175.047
vt -4.29103 6.89162
f 65/134/1 67/141/1 66/136/1

f 65/134/1 38/75/1 67/141/1

f 37/70/1 38/75/1 65/134/1

vt 5.45573 0
vt 6 0
vt 6 0.11811
vt 5.45573 0.11811
f 37/142/17 65/143/31 62/144/31 36/145/17 

vt -5.15386 0
vn -5.59902e-017 0 -1
vt -4.55776 0
vt -4.55776 0.11811
v 108.992 3 -175.047
vt -5.15386 0.11811
f 67/146/33 38/147/18 39/148/18 68/149/33 

v 108.992 3 -177.047
vt -4.29103 6.97036
f 39/75/12 69/150/12 68/141/12

f 39/75/12 40/80/12 69/150/12

vt -5.16414 0.11811
vn 9.79828e-017 7.36316e-034 -1
vt -4.54748 0.11811
vt -4.54748 0.23622
v 108.992 6 -177.047
vt -5.16414 0.23622
f 69/151/34 40/152/19 42/153/19 70/154/34 

vt 3.67965 6.88987
vn 1.10447e-033 1 2.20895e-033
v 128.992 6 -120.047
vt 5.07843 4.72627
vt 4.29103 6.97036
f 42/155/35 71/156/35 70/157/35

v 88.9922 6 -120.047
vt 3.50363 4.72627
f 42/155/35 72/158/35 71/156/35

v 78.9922 6 -65.0857
vt 3.10993 2.56243
f 42/155/35 73/159/35 72/158/35

vt 3.10993 6.65389
f 41/160/35 73/159/35 42/155/35

v 66.5658 6 -74.6208
vt 2.6207 2.93783
f 41/160/35 74/161/35 73/159/35

vt 2.6207 6.27849
f 43/162/35 74/161/35 41/160/35

vt 2.2453 3.42705
f 43/162/35 49/163/35 74/161/35

vt 2.2453 5.78926
f 44/164/35 49/163/35 43/162/35

vt 2.00932 3.99677
f 44/164/35 47/165/35 49/163/35

vt 2.00932 5.21954
f 45/166/35 47/165/35 44/164/35

vt 1.92883 4.60816
f 47/165/35 45/166/35 46/167/35

vt -1.35201 0.11811
vt -0.735352 0.11811
vn -0.707107 1.95245e-033 0.707107
vt -0.735352 0.23622
vt -1.35201 0.23622
f 48/168/26 50/169/36 74/170/36 49/171/26 

vt 0.290708 0.11811
vt 0.907367 0.11811
vn -0.5 1.11108e-033 0.866025
vt 0.907367 0.23622
vt 0.290708 0.23622
f 50/172/36 51/173/37 73/174/37 74/175/36 

vt 1.8926 0.11811
v 93.4631 3 -59.0916
vt 2.50926 0.11811
vn -0.258819 1.93993e-034 0.965926
v 93.4631 6 -59.0916
vt 2.50926 0.23622
vt 1.8926 0.23622
f 51/176/37 75/177/38 76/178/38 73/179/37 

vt -3.67965 2.32644
f 51/111/12 52/112/12 75/180/12

v 93.9807 3 -61.0235
f 75/180/12 52/112/12 77/126/12

vt 1.90288 0
vt 2.49898 0
vn -0.258819 0 0.965926
vt 2.49898 0.11811
vt 1.90288 0.11811
f 53/181/27 57/182/39 77/183/39 52/184/27 

vt 3.35479 0
v 108.992 0 -59.0472
vt 3.95089 0
vn -4.05929e-016 0 1
v 108.992 3 -59.0472
vt 3.95089 0.11811
vt 3.35479 0.11811
f 57/185/39 78/186/40 79/187/40 77/188/39 

vt -4.29103 2.32469
f 57/126/1 58/127/1 78/189/1

v 108.992 0 -64.0903
vt -4.29103 2.52324
f 78/189/1 58/127/1 80/190/1

vt -3.92497 0
vn 3.07946e-016 0 -1
vt -3.3807 0
vt -3.3807 0.11811
v 108.992 3 -64.0903
vt -3.92497 0.11811
f 80/191/41 58/192/30 59/193/30 81/194/41 

v 129.992 3 -109.047
vt -5.1178 4.2932
f 59/127/1 82/195/1 81/190/1

f 59/127/1 60/132/1 82/195/1

vt 3.46426 0.11811
vn 0 0 1
v 108.992 2 -109.047
vt 4.29103 0.0787402
vt 5.1178 0.11811
f 60/196/42 83/197/42 82/198/42

v 108.345 1.91481 -109.047
vt 4.26556 0.0753864
f 60/196/42 84/199/42 83/197/42

v 107.742 1.66506 -109.047
vt 4.24182 0.0655537
f 60/196/42 85/200/42 84/199/42

v 107.224 1.26777 -109.047
vt 4.22144 0.0499121
f 60/196/42 86/201/42 85/200/42

v 106.827 0.75 -109.047
vt 4.20579 0.0295276
f 60/196/42 87/202/42 86/201/42

v 106.577 0.147048 -109.047
vt 4.19596 0.00578928
f 60/196/42 88/203/42 87/202/42

v 106.492 -0.5 -109.047
vt 4.19261 -0.019685
f 60/196/42 89/204/42 88/203/42

v 106.546 -0.90772 -109.047
vt 4.19472 -0.035737
f 60/196/42 90/205/42 89/204/42

v 106.577 -1.14705 -109.047
vt 4.19596 -0.0451594
f 60/196/42 91/206/42 90/205/42

v 106.827 -1.75 -109.047
vt 4.20579 -0.0688976
f 60/196/42 92/207/42 91/206/42

v 107.224 -2.26777 -109.047
vt 4.22144 -0.0892822
f 60/196/42 93/208/42 92/207/42

v 107.742 -2.66506 -109.047
vt 4.24182 -0.104924
f 60/196/42 94/209/42 93/208/42

v 108.345 -2.91481 -109.047
vt 4.26556 -0.114756
f 60/196/42 95/210/42 94/209/42

v 87.9922 -4 -109.047
vt 3.46426 -0.15748
f 96/211/42 95/210/42 60/196/42

v 108.992 -3 -109.047
vt 4.29103 -0.11811
f 95/210/42 96/211/42 97/212/42

v 129.992 -4 -109.047
vt 5.1178 -0.15748
f 98/213/42 97/212/42 96/211/42

v 109.639 -2.91481 -109.047
vt 4.31651 -0.114756
f 97/212/42 98/213/42 99/214/42

f 99/214/42 98/213/42 82/198/42

vt 4.92312 0.11811
vn 1 0 -0
vt 4.2932 0.11811
vt 4.2932 -0.15748
v 129.992 -4 -125.047
vt 4.92312 -0.15748
f 63/215/43 82/216/43 98/217/43 100/218/43 

v 135.471 3 -162.909
vt -5.33349 6.41375
f 63/135/1 101/219/1 82/195/1

v 122.698 3 -168.2
vt -4.83065 6.62203
f 63/135/1 102/220/1 101/219/1

f 63/135/1 64/136/1 102/220/1

vt 3.3807 0
v 122.698 0 -168.2
vt 3.92497 0
vt 3.92497 0.11811
vt 3.3807 0.11811
f 66/221/32 103/222/39 102/223/39 64/224/32 

f 66/136/1 67/141/1 103/220/1

v 124.004 0 -173.071
vt -4.88204 6.81381
f 103/220/1 67/141/1 104/225/1

vt -3.95089 0
vt -3.35479 0
vt -3.35479 0.11811
v 124.004 3 -173.071
vt -3.95089 0.11811
f 104/226/30 67/227/33 68/228/33 105/229/30 

v 124.521 3 -175.003
vt -4.90242 6.88987
f 68/141/12 106/230/12 105/225/12

f 68/141/12 69/150/12 106/230/12

vt -3.96117 0.11811
vn 0.258819 -1.93993e-034 -0.965926
vt -3.34451 0.11811
vt -3.34451 0.23622
v 124.521 6 -175.003
vt -3.96117 0.23622
f 106/231/44 69/232/34 70/233/34 107/234/44 

vt 4.90242 6.88987
f 70/157/35 71/156/35 107/235/35

v 138.992 6 -169.009
vt 5.47214 6.65389
f 107/235/35 71/156/35 108/236/35

v 138.992 6 -65.0857
vt 5.47214 2.56243
f 71/156/35 109/237/35 108/236/35

v 128.992 6 -114.047
vt 5.07843 4.49005
f 110/238/35 109/237/35 71/156/35

v 124.521 6 -59.0916
vt 4.90242 2.32644
f 110/238/35 111/239/35 109/237/35

v 108.992 6 -57.0472
vt 4.29103 2.24595
f 110/238/35 112/240/35 111/239/35

vt 3.67965 2.32644
f 110/238/35 76/241/35 112/240/35

v 88.9922 6 -114.047
vt 3.50363 4.49005
f 113/242/35 76/241/35 110/238/35

f 76/241/35 113/242/35 73/159/35

f 72/158/35 73/159/35 113/242/35

vt 4.72627 0.23622
vt 4.49005 0.23622
v 88.9922 -4 -114.047
vt 4.49005 -0.15748
v 88.9922 -4 -120.047
vt 4.72627 -0.15748
f 72/243/43 113/244/43 114/245/43 115/246/43 

v 107.742 -2.66506 -114.047
vt -4.24182 -0.104924
vn 0 0 -1
vt -3.50363 -0.15748
vt -3.50363 0.23622
f 116/247/45 114/248/45 113/249/45

v 108.345 -2.91481 -114.047
vt -4.26556 -0.114756
f 117/250/45 114/248/45 116/247/45

v 108.992 -3 -114.047
vt -4.29103 -0.11811
f 118/251/45 114/248/45 117/250/45

v 128.992 -4 -114.047
vt -5.07843 -0.15748
f 114/248/45 118/251/45 119/252/45

v 109.639 -2.91481 -114.047
vt -4.31651 -0.114756
f 120/253/45 119/252/45 118/251/45

v 110.242 -2.66506 -114.047
vt -4.34025 -0.104924
f 121/254/45 119/252/45 120/253/45

vt -5.07843 0.23622
f 119/252/45 121/254/45 110/255/45

v 110.76 -2.26777 -114.047
vt -4.36063 -0.0892822
f 110/255/45 121/254/45 122/256/45

v 110.242 -2.66506 -109.047
vt -4.2932 3.37948
vn -0.5 0.866025 -0
v 110.76 -2.26777 -109.047
vt -4.2932 3.40517
vn -0.707107 0.707107 -0
vt -4.49005 3.40517
vt -4.49005 3.37948
f 123/257/46 124/258/47 122/259/47 121/260/46 

vt 4.34025 -0.104924
vt 4.36063 -0.0892822
f 123/261/42 82/198/42 124/262/42

f 99/214/42 82/198/42 123/261/42

vt -4.2932 3.94402
vn -0.258819 0.965926 -0
vt -4.2932 3.96971
vt -4.49005 3.96971
vt -4.49005 3.94402
f 99/263/48 123/264/46 121/265/46 120/266/48 

vt -4.2932 4.23891
vn -2.65953e-016 1 -0
vt -4.2932 4.2646
vt -4.49005 4.2646
vt -4.49005 4.23891
f 97/267/49 99/268/48 120/269/48 118/270/49 

vt 4.2932 -4.24405
vn 0.258819 0.965926 -0
vt 4.2932 -4.26974
vt 4.49005 -4.26974
vt 4.49005 -4.24405
f 95/271/50 97/272/49 118/273/49 117/274/50 

vt 4.2932 -3.95908
vn 0.5 0.866025 -0
vt 4.2932 -3.98478
vt 4.49005 -3.98478
vt 4.49005 -3.95908
f 94/275/51 95/276/50 117/277/50 116/278/51 

vt 4.2932 -3.40344
vn 0.707107 0.707107 -0
vt 4.2932 -3.42914
vt 4.49005 -3.42914
v 107.224 -2.26777 -114.047
vt 4.49005 -3.40344
f 93/279/52 94/280/51 116/281/51 125/282/52 

vt -4.22144 -0.0892822
f 116/247/45 113/249/45 125/283/45

v 106.827 -1.75 -114.047
vt -4.20579 -0.0688976
f 125/283/45 113/249/45 126/284/45

v 106.577 -1.14705 -114.047
vt -4.19596 -0.0451594
f 126/284/45 113/249/45 127/285/45

v 106.546 -0.90772 -114.047
vt -4.19472 -0.035737
f 127/285/45 113/249/45 128/286/45

v 106.492 -0.5 -114.047
vt -4.19261 -0.019685
f 128/286/45 113/249/45 129/287/45

v 106.577 0.147048 -114.047
vt -4.19596 0.00578928
f 129/287/45 113/249/45 130/288/45

v 106.827 0.75 -114.047
vt -4.20579 0.0295276
f 130/288/45 113/249/45 131/289/45

v 107.224 1.26777 -114.047
vt -4.22144 0.0499121
f 131/289/45 113/249/45 132/290/45

v 107.742 1.66506 -114.047
vt -4.24182 0.0655537
f 132/290/45 113/249/45 133/291/45

v 108.345 1.91481 -114.047
vt -4.26556 0.0753864
f 133/291/45 113/249/45 134/292/45

v 108.992 2 -114.047
vt -4.29103 0.0787402
f 134/292/45 113/249/45 135/293/45

f 110/255/45 135/293/45 113/249/45

v 109.639 1.91481 -114.047
vt -4.31651 0.0753864
f 110/255/45 136/294/45 135/293/45

v 110.242 1.66506 -114.047
vt -4.34025 0.0655537
f 110/255/45 137/295/45 136/294/45

v 110.76 1.26777 -114.047
vt -4.36063 0.0499121
f 110/255/45 138/296/45 137/295/45

v 111.157 0.75 -114.047
vt -4.37627 0.0295276
f 110/255/45 139/297/45 138/296/45

v 111.407 0.147048 -114.047
vt -4.3861 0.00578928
f 110/255/45 140/298/45 139/297/45

v 111.439 -0.0922796 -114.047
vt -4.38735 -0.00363305
f 110/255/45 141/299/45 140/298/45

v 111.492 -0.5 -114.047
vt -4.38946 -0.019685
f 110/255/45 142/300/45 141/299/45

v 111.407 -1.14705 -114.047
vt -4.3861 -0.0451594
f 110/255/45 143/301/45 142/300/45

v 111.157 -1.75 -114.047
vt -4.37627 -0.0688976
f 110/255/45 144/302/45 143/301/45

f 110/255/45 122/256/45 144/302/45

vt -4.2932 2.58375
v 111.157 -1.75 -109.047
vt -4.2932 2.60945
vn -0.866025 0.5 -0
vt -4.49005 2.60945
vt -4.49005 2.58375
f 124/303/47 145/304/53 144/305/53 122/306/47 

vt 4.37627 -0.0688976
f 124/262/42 82/198/42 145/307/42

v 111.407 -1.14705 -109.047
vt 4.3861 -0.0451594
f 145/307/42 82/198/42 146/308/42

v 111.492 -0.5 -109.047
vt 4.38946 -0.019685
f 146/308/42 82/198/42 147/309/42

v 111.439 -0.0922796 -109.047
vt 4.38735 -0.00363305
f 147/309/42 82/198/42 148/310/42

v 111.407 0.147048 -109.047
vt 4.3861 0.00578928
f 148/310/42 82/198/42 149/311/42

v 111.157 0.75 -109.047
vt 4.37627 0.0295276
f 149/311/42 82/198/42 150/312/42

v 110.76 1.26777 -109.047
vt 4.36063 0.0499121
f 150/312/42 82/198/42 151/313/42

v 110.242 1.66506 -109.047
vt 4.34025 0.0655537
f 151/313/42 82/198/42 152/314/42

v 109.639 1.91481 -109.047
vt 4.31651 0.0753864
f 152/314/42 82/198/42 153/315/42

f 153/315/42 82/198/42 83/197/42

vt -4.2932 -4.26974
vn -0.258819 -0.965926 -0
vt -4.2932 -4.24405
vn -1.98765e-015 -1 -0
vt -4.49005 -4.24405
vt -4.49005 -4.26974
f 153/316/54 83/317/55 135/318/55 136/319/54 

vt 4.2932 4.2646
vt 4.2932 4.23891
vn 0.258819 -0.965926 -0
vt 4.49005 4.23891
vt 4.49005 4.2646
f 83/320/55 84/321/56 134/322/56 135/323/55 

vt 4.2932 3.96971
vt 4.2932 3.94402
vn 0.5 -0.866025 -0
vt 4.49005 3.94402
vt 4.49005 3.96971
f 84/324/56 85/325/57 133/326/57 134/327/56 

vt 4.2932 3.40517
vt 4.2932 3.37948
vn 0.707107 -0.707107 -0
vt 4.49005 3.37948
vt 4.49005 3.40517
f 85/328/57 86/329/58 132/330/58 133/331/57 

vt 4.2932 2.60945
vt 4.2932 2.58375
vn 0.866025 -0.5 -0
vt 4.49005 2.58375
vt 4.49005 2.60945
f 86/332/58 87/333/59 131/334/59 132/335/58 

vt 4.2932 1.63677
vt 4.2932 1.61107
vn 0.965926 -0.258819 -0
vt 4.49005 1.61107
vt 4.49005 1.63677
f 87/336/59 88/337/60 130/338/60 131/339/59 

vt 4.2932 0.553423
vt 4.2932 0.527729
vn 1 5.79498e-015 -0
vt 4.49005 0.527729
vt 4.49005 0.553423
f 88/340/60 89/341/61 129/342/61 130/343/60 

vt 4.2932 -0.566762
vt 4.2932 -0.582952
vn 0.991445 0.130526 -0
vt 4.49005 -0.582952
vt 4.49005 -0.566762
f 89/344/61 90/345/62 128/346/62 129/347/61 

vt 4.2932 -0.592456
vn 0.965926 0.258819 -0
vt 4.49005 -0.592456
f 90/345/62 91/348/63 127/349/63 128/346/62 

vt 4.2932 -1.64745
vt 4.2932 -1.67314
vn 0.866025 0.5 -0
vt 4.49005 -1.67314
vt 4.49005 -1.64745
f 91/350/63 92/351/64 126/352/64 127/353/63 

vt 4.2932 -2.61499
vt 4.2932 -2.64068
vt 4.49005 -2.64068
vt 4.49005 -2.61499
f 92/354/64 93/355/52 125/356/52 126/357/64 

vt -4.2932 -3.98478
vn -0.5 -0.866025 -0
vt -4.2932 -3.95908
vt -4.49005 -3.95908
vt -4.49005 -3.98478
f 152/358/65 153/359/54 136/360/54 137/361/65 

vt -4.2932 -3.42914
vn -0.707107 -0.707107 -0
vt -4.2932 -3.40344
vt -4.49005 -3.40344
vt -4.49005 -3.42914
f 151/362/66 152/363/65 137/364/65 138/365/66 

vt -4.2932 -2.64068
vn -0.866025 -0.5 -0
vt -4.2932 -2.61499
vt -4.49005 -2.61499
vt -4.49005 -2.64068
f 150/366/67 151/367/66 138/368/66 139/369/67 

vt -4.2932 -1.67314
vn -0.965926 -0.258819 -0
vt -4.2932 -1.64745
vt -4.49005 -1.64745
vt -4.49005 -1.67314
f 149/370/68 150/371/67 139/372/67 140/373/68 

vt -4.2932 -0.576265
vn -0.991445 -0.130526 -0
vt -4.2932 -0.566762
vt -4.49005 -0.566762
vt -4.49005 -0.576265
f 148/374/69 149/375/68 140/376/68 141/377/69 

vt -4.2932 -0.592456
vn -1 -6.07493e-015 -0
vt -4.49005 -0.592456
f 147/378/70 148/374/69 141/377/69 142/379/70 

vt -4.2932 0.527729
vn -0.965926 0.258819 -0
vt -4.2932 0.553423
vt -4.49005 0.553423
vt -4.49005 0.527729
f 146/380/71 147/381/70 142/382/70 143/383/71 

vt -4.2932 1.61107
vt -4.2932 1.63677
vt -4.49005 1.63677
vt -4.49005 1.61107
f 145/384/53 146/385/71 143/386/71 144/387/53 

vt -4.49005 0.23622
vn -1 0 -0
vt -4.72627 0.23622
v 128.992 -4 -120.047
vt -4.72627 -0.15748
vt -4.49005 -0.15748
f 110/388/72 71/389/72 154/390/72 119/391/72 

v 110.242 -2.66506 -120.047
vt 5.07843 -0.15748
vt 5.07843 0.23622
f 155/261/42 154/392/42 71/393/42

v 109.639 -2.91481 -120.047
f 156/214/42 154/392/42 155/261/42

v 108.992 -3 -120.047
f 157/212/42 154/392/42 156/214/42

vt 3.50363 -0.15748
f 154/392/42 157/212/42 115/394/42

v 108.345 -2.91481 -120.047
f 158/210/42 115/394/42 157/212/42

v 107.742 -2.66506 -120.047
f 159/209/42 115/394/42 158/210/42

vt 3.50363 0.23622
f 115/394/42 159/209/42 72/395/42

v 107.224 -2.26777 -120.047
f 72/395/42 159/209/42 160/208/42

v 107.742 -2.66506 -125.047
vt 4.92312 -3.42914
v 107.224 -2.26777 -125.047
vt 4.92312 -3.40344
vt 4.72627 -3.40344
vt 4.72627 -3.42914
f 161/396/51 162/397/52 160/398/52 159/399/51 

vt -3.46426 0.11811
f 161/247/45 61/400/45 162/283/45

v 108.345 -2.91481 -125.047
f 163/250/45 61/400/45 161/247/45

v 87.9922 -4 -125.047
vt -3.46426 -0.15748
f 163/250/45 164/401/45 61/400/45

v 108.992 -3 -125.047
f 165/251/45 164/401/45 163/250/45

vt -5.1178 -0.15748
f 164/401/45 165/251/45 100/402/45

v 109.639 -2.91481 -125.047
f 166/253/45 100/402/45 165/251/45

vt -5.1178 0.11811
f 100/402/45 166/253/45 63/403/45

v 110.242 -2.66506 -125.047
f 63/403/45 166/253/45 167/254/45

vt -4.92312 3.96971
vt -4.92312 3.94402
vt -4.72627 3.94402
vt -4.72627 3.96971
f 167/404/46 166/405/48 156/406/48 155/407/46 

vt -4.92312 4.2646
vt -4.92312 4.23891
vn 2.65953e-016 1 -0
vt -4.72627 4.23891
vt -4.72627 4.2646
f 166/408/48 165/409/73 157/410/73 156/411/48 

vt 4.92312 -4.26974
vt 4.92312 -4.24405
vt 4.72627 -4.24405
vt 4.72627 -4.26974
f 165/412/73 163/413/50 158/414/50 157/415/73 

vt 4.92312 -3.98478
vt 4.92312 -3.95908
vt 4.72627 -3.95908
vt 4.72627 -3.98478
f 163/416/50 161/417/51 159/418/51 158/419/50 

v 110.76 -2.26777 -125.047
vt -4.92312 3.40517
vt -4.92312 3.37948
vt -4.72627 3.37948
v 110.76 -2.26777 -120.047
vt -4.72627 3.40517
f 168/420/47 167/421/46 155/422/46 169/423/47 

f 63/403/45 167/254/45 168/256/45

v 111.157 -1.75 -125.047
f 63/403/45 168/256/45 170/302/45

vt -4.92312 2.60945
vt -4.92312 2.58375
vt -4.72627 2.58375
v 111.157 -1.75 -120.047
vt -4.72627 2.60945
f 170/424/53 168/425/47 169/426/47 171/427/53 

f 169/262/42 71/393/42 171/307/42

f 155/261/42 71/393/42 169/262/42

v 111.407 -1.14705 -120.047
f 171/307/42 71/393/42 172/308/42

v 111.439 -0.90772 -120.047
vt 4.38735 -0.035737
f 172/308/42 71/393/42 173/428/42

v 111.492 -0.5 -120.047
f 173/428/42 71/393/42 174/309/42

v 111.407 0.147048 -120.047
f 174/309/42 71/393/42 175/311/42

v 111.157 0.75 -120.047
f 175/311/42 71/393/42 176/312/42

v 110.76 1.26777 -120.047
f 176/312/42 71/393/42 177/313/42

v 110.242 1.66506 -120.047
f 177/313/42 71/393/42 178/314/42

v 109.639 1.91481 -120.047
f 178/314/42 71/393/42 179/315/42

v 108.992 2 -120.047
f 179/315/42 71/393/42 180/197/42

f 72/395/42 180/197/42 71/393/42

v 108.345 1.91481 -120.047
f 72/395/42 181/199/42 180/197/42

v 107.742 1.66506 -120.047
f 72/395/42 182/200/42 181/199/42

v 107.224 1.26777 -120.047
f 72/395/42 183/201/42 182/200/42

v 106.827 0.75 -120.047
f 72/395/42 184/202/42 183/201/42

v 106.577 0.147048 -120.047
f 72/395/42 185/203/42 184/202/42

v 106.546 -0.0922796 -120.047
vt 4.19472 -0.00363305
f 72/395/42 186/429/42 185/203/42

v 106.492 -0.5 -120.047
f 72/395/42 187/204/42 186/429/42

v 106.577 -1.14705 -120.047
f 72/395/42 188/206/42 187/204/42

v 106.827 -1.75 -120.047
f 72/395/42 189/207/42 188/206/42

f 72/395/42 160/208/42 189/207/42

vt 4.92312 -2.64068
v 106.827 -1.75 -125.047
vt 4.92312 -2.61499
vt 4.72627 -2.61499
vt 4.72627 -2.64068
f 162/430/52 190/431/64 189/432/64 160/433/52 

f 162/283/45 61/400/45 190/284/45

v 106.577 -1.14705 -125.047
f 190/284/45 61/400/45 191/285/45

v 106.492 -0.5 -125.047
f 191/285/45 61/400/45 192/287/45

v 106.546 -0.0922796 -125.047
vt -4.19472 -0.00363305
f 192/287/45 61/400/45 193/434/45

v 106.577 0.147048 -125.047
f 193/434/45 61/400/45 194/288/45

v 106.827 0.75 -125.047
f 194/288/45 61/400/45 195/289/45

v 107.224 1.26777 -125.047
f 195/289/45 61/400/45 196/290/45

v 107.742 1.66506 -125.047
f 196/290/45 61/400/45 197/291/45

v 108.345 1.91481 -125.047
f 197/291/45 61/400/45 198/292/45

v 108.992 2 -125.047
f 198/292/45 61/400/45 199/293/45

f 63/403/45 199/293/45 61/400/45

v 109.639 1.91481 -125.047
f 63/403/45 200/294/45 199/293/45

v 110.242 1.66506 -125.047
f 63/403/45 201/295/45 200/294/45

v 110.76 1.26777 -125.047
f 63/403/45 202/296/45 201/295/45

v 111.157 0.75 -125.047
f 63/403/45 203/297/45 202/296/45

v 111.407 0.147048 -125.047
f 63/403/45 204/298/45 203/297/45

v 111.492 -0.5 -125.047
f 63/403/45 205/300/45 204/298/45

v 111.439 -0.90772 -125.047
vt -4.38735 -0.035737
f 63/403/45 206/435/45 205/300/45

v 111.407 -1.14705 -125.047
f 63/403/45 207/301/45 206/435/45

f 63/403/45 170/302/45 207/301/45

vt -4.92312 1.63677
vt -4.92312 1.61107
vt -4.72627 1.61107
vt -4.72627 1.63677
f 207/436/71 170/437/53 171/438/53 172/439/71 

vt -4.92312 0.537232
vn -0.991445 0.130526 -0
vt -4.92312 0.527729
vt -4.72627 0.527729
vt -4.72627 0.537232
f 206/440/74 207/441/71 172/442/71 173/443/74 

vt -4.92312 0.553423
vn -1 6.11692e-015 -0
vt -4.72627 0.553423
f 205/444/75 206/440/74 173/443/74 174/445/75 

vt -4.92312 -0.566762
vt -4.92312 -0.592456
vt -4.72627 -0.592456
vt -4.72627 -0.566762
f 204/446/68 205/447/75 174/448/75 175/449/68 

vt -4.92312 -1.64745
vt -4.92312 -1.67314
vt -4.72627 -1.67314
vt -4.72627 -1.64745
f 203/450/67 204/451/68 175/452/68 176/453/67 

vt -4.92312 -2.61499
vt -4.92312 -2.64068
vt -4.72627 -2.64068
vt -4.72627 -2.61499
f 202/454/66 203/455/67 176/456/67 177/457/66 

vt -4.92312 -3.40344
vt -4.92312 -3.42914
vt -4.72627 -3.42914
vt -4.72627 -3.40344
f 201/458/65 202/459/66 177/460/66 178/461/65 

vt -4.92312 -3.95908
vt -4.92312 -3.98478
vt -4.72627 -3.98478
vt -4.72627 -3.95908
f 200/462/54 201/463/65 178/464/65 179/465/54 

vt -4.92312 -4.24405
vn 1.98765e-015 -1 -0
vt -4.92312 -4.26974
vt -4.72627 -4.26974
vt -4.72627 -4.24405
f 199/466/76 200/467/54 179/468/54 180/469/76 

vt 4.92312 4.23891
vt 4.92312 4.2646
vt 4.72627 4.2646
vt 4.72627 4.23891
f 198/470/56 199/471/76 180/472/76 181/473/56 

vt 4.92312 3.94402
vt 4.92312 3.96971
vt 4.72627 3.96971
vt 4.72627 3.94402
f 197/474/57 198/475/56 181/476/56 182/477/57 

vt 4.92312 3.37948
vt 4.92312 3.40517
vt 4.72627 3.40517
vt 4.72627 3.37948
f 196/478/58 197/479/57 182/480/57 183/481/58 

vt 4.92312 2.58375
vt 4.92312 2.60945
vt 4.72627 2.60945
vt 4.72627 2.58375
f 195/482/59 196/483/58 183/484/58 184/485/59 

vt 4.92312 1.61107
vt 4.92312 1.63677
vt 4.72627 1.63677
vt 4.72627 1.61107
f 194/486/60 195/487/59 184/488/59 185/489/60 

vt 4.92312 0.543919
vn 0.991445 -0.130526 -0
vt 4.92312 0.553423
vt 4.72627 0.553423
vt 4.72627 0.543919
f 193/490/77 194/491/60 185/492/60 186/493/77 

vt 4.92312 0.527729
vn 1 -5.83697e-015 -0
vt 4.72627 0.527729
f 192/494/78 193/490/77 186/493/77 187/495/78 

vt 4.92312 -0.592456
vt 4.92312 -0.566762
vt 4.72627 -0.566762
vt 4.72627 -0.592456
f 191/496/63 192/497/78 187/498/78 188/499/63 

vt 4.92312 -1.67314
vt 4.92312 -1.64745
vt 4.72627 -1.64745
vt 4.72627 -1.67314
f 190/500/64 191/501/63 188/502/63 189/503/64 

vt -3.50363 4.72627
f 115/504/1 164/133/1 100/135/1

f 164/133/1 115/504/1 96/132/1

vt -3.50363 4.49005
f 114/505/1 96/132/1 115/504/1

f 96/132/1 114/505/1 98/195/1

vt -5.07843 4.49005
f 98/195/1 114/505/1 119/506/1

f 98/195/1 119/506/1 100/135/1

vt -5.07843 4.72627
f 154/507/1 100/135/1 119/506/1

f 115/504/1 100/135/1 154/507/1

vt -4.2932 0.11811
vt -4.92312 0.11811
vt -4.92312 -0.15748
vt -4.2932 -0.15748
f 60/508/72 61/509/72 164/510/72 96/511/72 

vt 3.34451 0.11811
v 108.992 3 -57.0472
vt 3.96117 0.11811
vn 3.77934e-016 -7.36316e-034 1
vt 3.96117 0.23622
vt 3.34451 0.23622
f 75/512/38 208/513/79 112/514/79 76/515/38 

vt -4.29103 2.24595
f 75/180/12 77/126/12 208/516/12

f 208/516/12 77/126/12 79/189/12

v 124.004 3 -61.0235
vt -4.88204 2.4025
f 208/516/12 79/189/12 209/517/12

vt 4.55776 0
v 124.004 0 -61.0235
vt 5.15386 0
vt 5.15386 0.11811
vt 4.55776 0.11811
f 78/518/40 210/519/31 209/520/31 79/521/40 

v 122.698 0 -65.8948
vt -4.83065 2.59428
f 78/189/1 211/522/1 210/517/1

f 78/189/1 80/190/1 211/522/1

vt -5.12794 0
vt -4.58367 0
vt -4.58367 0.11811
v 122.698 3 -65.8948
vt -5.12794 0.11811
f 211/523/18 80/524/41 81/525/41 212/526/18 

f 81/190/1 82/195/1 212/522/1

v 135.471 3 -71.1852
vt -5.33349 2.80257
f 212/522/1 82/195/1 213/527/1

f 82/195/1 101/219/1 213/527/1

v 146.438 3 -79.601
vt -5.76529 3.1339
f 213/527/1 101/219/1 214/528/1

v 146.438 3 -154.493
vt -5.76529 6.08241
f 214/528/1 101/219/1 215/529/1

v 135.471 0 -162.909
vt 0.326901 0
v 146.438 0 -154.493
vt 0.871173 0
vt 0.871173 0.11811
vt 0.326901 0.11811
f 216/530/27 217/531/15 215/532/15 101/533/27 

v 137.992 0 -167.277
vt -5.43277 6.5857
f 216/219/1 218/534/1 217/529/1

f 216/219/1 104/225/1 218/534/1

f 103/220/1 104/225/1 216/219/1

vt 1.9288 0
vt 2.47307 0
vt 2.47307 0.11811
vt 1.9288 0.11811
f 103/535/39 216/536/27 101/537/27 102/538/39 

vt -2.49898 0
vt -1.90288 0
vt -1.90288 0.11811
v 137.992 3 -167.277
vt -2.49898 0.11811
f 218/539/29 104/540/30 105/541/30 219/542/29 

f 105/225/12 106/230/12 219/534/12

v 138.992 3 -169.009
vt -5.47214 6.65389
f 219/534/12 106/230/12 220/543/12

vt -2.50926 0.11811
vn 0.5 -1.11108e-033 -0.866025
vt -1.8926 0.11811
vt -1.8926 0.23622
vt -2.50926 0.23622
f 220/544/80 106/545/44 107/546/44 108/547/80 

v 151.419 3 -159.474
vt -0.907367 0.11811
vn 0.707107 -1.95245e-033 -0.707107
vt -0.290708 0.11811
vt -0.290708 0.23622
v 151.419 6 -159.474
vt -0.907367 0.23622
f 221/548/81 220/549/80 108/550/80 222/551/81 

v 150.004 3 -158.059
vt -5.90569 6.22281
vt -5.96136 6.27849
f 223/552/12 220/543/12 221/553/12

f 219/534/12 220/543/12 223/552/12

v 150.004 0 -158.059
vt -0.897089 0
vt -0.300985 0
vt -0.300985 0.11811
vt -0.897089 0.11811
f 224/554/28 218/555/29 219/556/29 223/557/28 

f 217/529/1 218/534/1 224/552/1

v 154.854 0 -143.526
vt -6.09662 5.65061
f 217/529/1 224/552/1 225/558/1

v 159.222 0 -146.047
vt -6.26857 5.74989
f 225/558/1 224/552/1 226/559/1

vt 0.745629 0
vt 1.34173 0
vt 1.34173 0.11811
v 159.222 3 -146.047
vt 0.745629 0.11811
f 226/560/16 224/561/28 223/562/28 227/563/16 

f 223/552/12 221/553/12 227/559/12

v 160.954 3 -147.047
vt -6.33676 5.78926
f 227/559/12 221/553/12 228/564/12

vt 0.735352 0.11811
vn 0.866025 -2.66077e-033 -0.5
vt 1.35201 0.11811
vt 1.35201 0.23622
v 160.954 6 -147.047
vt 0.735352 0.23622
f 228/565/82 221/566/81 222/567/81 229/568/82 

vt 5.96136 6.27849
v 151.419 6 -74.6208
vt 5.96136 2.93783
vt 6.33676 5.78926
f 222/569/35 230/570/35 229/571/35

f 222/569/35 109/237/35 230/570/35

f 108/236/35 109/237/35 222/569/35

v 138.992 3 -65.0857
vt 5.90124 0.11811
vn 0.5 -2.38642e-033 0.866025
v 151.419 3 -74.6208
vt 6.5179 0.11811
vn 0.707107 -2.99376e-033 0.707107
vt 6.5179 0.23622
vt 5.90124 0.23622
f 231/572/83 232/573/84 230/574/84 109/575/83 

vt -5.47214 2.56243
v 150.004 3 -76.035
vt -5.90569 2.9935
vt -5.96136 2.93783
f 231/576/12 233/577/12 232/578/12

v 137.992 3 -66.8177
vt -5.43277 2.63062
f 231/576/12 234/579/12 233/577/12

v 124.521 3 -59.0916
vt -4.90242 2.32644
f 235/580/12 234/579/12 231/576/12

f 235/580/12 209/517/12 234/579/12

f 208/516/12 209/517/12 235/580/12

vt 4.54748 0.11811
vt 5.16414 0.11811
vn 0.258819 -1.61645e-033 0.965926
vt 5.16414 0.23622
vt 4.54748 0.23622
f 208/581/79 235/582/85 111/583/85 112/584/79 

vt 5.41953 0.11811
vt 6.03619 0.11811
vt 6.03619 0.23622
vt 5.41953 0.23622
f 235/585/85 231/586/83 109/587/83 111/588/85 

vt 5.42981 0
v 137.992 0 -66.8177
vt 6.02592 0
vt 6.02592 0.11811
vt 5.42981 0.11811
f 210/589/31 236/590/17 234/591/17 209/592/31 

v 135.471 0 -71.1852
f 210/517/1 237/527/1 236/579/1

f 210/517/1 211/522/1 237/527/1

vt -6 0
vt -5.45573 0
vt -5.45573 0.11811
vt -6 0.11811
f 237/593/11 211/594/18 212/595/18 213/596/11 

v 146.438 0 -79.601
vt -6.48171 0
vt -5.93744 0
vt -5.93744 0.11811
vt -6.48171 0.11811
f 238/597/2 237/598/11 213/599/11 214/600/2 

f 236/579/1 237/527/1 238/528/1

v 150.004 0 -76.035
f 236/579/1 238/528/1 239/577/1

v 154.854 0 -90.5688
vt -6.09662 3.5657
f 239/577/1 238/528/1 240/601/1

vt -6.54025 0
vt -5.99598 0
vt -5.99598 0.11811
v 154.854 3 -90.5688
vt -6.54025 0.11811
f 240/602/3 238/603/2 214/604/2 241/605/3 

f 214/528/1 215/529/1 241/601/1

v 154.854 3 -143.526
f 241/601/1 215/529/1 242/558/1

vt -1.31582 0
vt -0.771545 0
vt -0.771545 0.11811
vt -1.31582 0.11811
f 217/606/15 225/607/14 242/608/14 215/609/15 

vt -2.88741 0
v 160.145 0 -130.753
vt -2.34314 0
v 160.145 3 -130.753
vt -2.34314 0.11811
vt -2.88741 0.11811
f 225/610/14 243/611/13 244/612/13 242/613/14 

vt -6.30491 5.14777
f 225/558/1 226/559/1 243/614/1

v 165.016 0 -132.059
vt -6.49669 5.19916
f 243/614/1 226/559/1 245/615/1

vt 2.31722 0
vt 2.91333 0
vt 2.91333 0.11811
v 165.016 3 -132.059
vt 2.31722 0.11811
f 245/616/6 226/617/16 227/618/16 246/619/6 

f 227/559/12 228/564/12 246/615/12

v 166.948 3 -132.576
vt -6.57275 5.21954
f 246/615/12 228/564/12 247/620/12

vt 2.30695 0.11811
vn 0.965926 -3.18775e-033 -0.258819
vt 2.9236 0.11811
vt 2.9236 0.23622
v 166.948 6 -132.576
vt 2.30695 0.23622
f 247/621/86 228/622/82 229/623/82 248/624/86 

v 166.948 6 -101.518
vt 6.57275 3.99677
vt 6.57275 5.21954
f 229/571/35 249/625/35 248/626/35

v 160.954 6 -87.0472
vt 6.33676 3.42705
f 229/571/35 250/627/35 249/625/35

f 229/571/35 230/570/35 250/627/35

vt 5.95978 0.11811
v 160.954 3 -87.0472
vt 6.57644 0.11811
vn 0.866025 -3.39708e-033 0.5
vt 6.57644 0.23622
vt 5.95978 0.23622
f 232/628/84 251/629/87 250/630/87 230/631/84 

v 159.222 3 -88.0472
vt -6.26857 3.46642
vt -6.33676 3.42705
f 232/578/12 252/632/12 251/633/12

f 232/578/12 233/577/12 252/632/12

vt 5.97006 0
v 159.222 0 -88.0472
vt 6.56616 0
vt 6.56616 0.11811
vt 5.97006 0.11811
f 239/634/10 253/635/9 252/636/9 233/637/10 

f 239/577/1 240/601/1 253/632/1

v 160.145 0 -103.341
vt -6.30491 4.06854
f 253/632/1 240/601/1 254/638/1

vt -6.17163 0
vt -5.62735 0
vt -5.62735 0.11811
v 160.145 3 -103.341
vt -6.17163 0.11811
f 254/639/4 240/640/3 241/641/3 255/642/4 

f 241/601/1 242/558/1 255/638/1

f 255/638/1 242/558/1 244/614/1

v 161.949 3 -117.047
vt -6.37595 4.60816
f 255/638/1 244/614/1 256/643/1

vt -4.28078 0
v 161.949 0 -117.047
vt -3.73651 0
vn -1 0 1.02182e-015
vt -3.73651 0.11811
vt -4.28078 0.11811
f 243/644/13 257/645/88 256/646/88 244/647/13 

f 243/614/1 245/615/1 257/643/1

v 165.016 0 -102.036
vt -6.49669 4.01715
f 258/648/1 257/643/1 245/615/1

f 258/648/1 254/638/1 257/643/1

f 253/632/1 254/638/1 258/648/1

vt 5.60144 0
vt 6.19754 0
v 165.016 3 -102.036
vt 6.19754 0.11811
vt 5.60144 0.11811
f 253/649/9 258/650/8 259/651/8 252/652/9 

vt 4.83077 0
v 166.992 0 -117.047
vt 5.42688 0
vn 1 0 -1.95966e-016
v 166.992 3 -117.047
vt 5.42688 0.11811
vt 4.83077 0.11811
f 258/653/8 260/654/89 261/655/89 259/656/8 

vt -6.5745 4.60816
f 258/648/1 245/615/1 260/657/1

vt 3.71059 0
vt 4.30669 0
vt 4.30669 0.11811
vt 3.71059 0.11811
f 260/658/89 245/659/6 246/660/6 261/661/89 

f 246/615/12 247/620/12 261/657/12

v 168.992 3 -117.047
vt -6.65324 4.60816
f 261/657/12 247/620/12 262/662/12

vt 3.70031 0.11811
vn 1 -3.4975e-033 1.39975e-016
vt 4.31697 0.11811
vt 4.31697 0.23622
v 168.992 6 -117.047
vt 3.70031 0.23622
f 262/663/90 247/664/86 248/665/86 263/666/90 

vt 6.65324 4.60816
f 248/626/35 249/625/35 263/667/35

v 166.948 3 -101.518
vt 4.8205 0.11811
vn 0.965926 -3.5689e-033 0.258819
vt 5.43716 0.11811
vt 5.43716 0.23622
vt 4.8205 0.23622
f 264/668/91 262/669/90 263/670/90 249/671/91 

vt -6.57275 3.99677
f 264/672/12 261/657/12 262/662/12

f 264/672/12 259/648/12 261/657/12

f 251/633/12 259/648/12 264/672/12

f 251/633/12 252/632/12 259/648/12

vt 5.59116 0.11811
vt 6.20782 0.11811
vt 6.20782 0.23622
vt 5.59116 0.23622
f 251/673/87 264/674/91 249/675/91 250/676/87 

vt -5.40096 0
vt -4.85669 0
vt -4.85669 0.11811
vt -5.40096 0.11811
f 257/677/88 254/678/4 255/679/4 256/680/88 

vt 5.91152 0
vt 6.50763 0
vt 6.50763 0.11811
vt 5.91152 0.11811
f 236/681/17 239/682/10 233/683/10 234/684/17 

