# Alias OBJ Model File
# Exported from SketchUp, (c) 2000-2012 Trimble Navigation Limited
# File units = millimeters

mtllib 3_foot.mtl

g Mesh1 Model

usemtl FrontColor
v 93.2706 0 -177.76
vt -3.67207 6.99843
vn 0 -1 -0
v 93.3388 0 -174.814
vt -3.67475 6.88243
v 93.2706 0 -174.296
vt -3.67207 6.86205
f 1/1/1 2/2/1 3/3/1

v 94.2353 0 -178.16
vt -3.71005 7.01416
f 2/2/1 1/1/1 4/4/1

vt -6.11184 0
vn -0.258819 0 -0.965926
vt -6.07073 0
vn -0.5 0 -0.866025
v 93.2706 2 -177.76
vt -6.07073 0.0787402
v 94.2353 2 -178.16
vt -6.11184 0.0787402
f 4/5/2 1/6/3 5/7/3 6/8/2 

vt -7.17362 0
v 92.4422 0 -177.124
vt -7.13251 0
vn -0.707107 0 -0.707107
v 92.4422 2 -177.124
vt -7.13251 0.0787402
vt -7.17362 0.0787402
f 1/9/3 7/10/4 8/11/4 5/12/3 

v 92.4422 0 -171.468
vt -3.63946 6.75069
vt -3.63946 6.9734
f 9/13/1 7/14/1 1/1/1

v 91.8065 0 -172.296
vt -3.61443 6.78331
f 10/15/1 7/14/1 9/13/1

v 91.8065 0 -176.296
vt -3.61443 6.94079
f 10/15/1 11/16/1 7/14/1

v 91.4069 0 -173.261
vt -3.5987 6.82129
f 12/17/1 11/16/1 10/15/1

v 91.4069 0 -175.331
vt -3.5987 6.90281
f 12/17/1 13/18/1 11/16/1

v 91.2706 0 -174.296
vt -3.59333 6.86205
f 13/18/1 12/17/1 14/19/1

vt -6.33432 0
vn -1 0 -0
vt -6.29321 0
vn -0.965926 0 0.258819
v 91.4069 2 -173.261
vt -6.29321 0.0787402
v 91.2706 2 -174.296
vt -6.33432 0.0787402
f 14/20/5 12/21/6 15/22/6 16/23/5 

vt -4.92489 0
vt -4.88378 0
vn -0.866025 0 0.5
v 91.8065 2 -172.296
vt -4.88378 0.0787402
vt -4.92489 0.0787402
f 12/24/6 10/25/7 17/26/7 15/27/6 

vt -3.18123 0
vt -3.14012 0
vn -0.707107 0 0.707107
v 92.4422 2 -171.468
vt -3.14012 0.0787402
vt -3.18123 0.0787402
f 10/28/7 9/29/8 18/30/8 17/31/7 

vt -1.22219 0
v 93.2706 0 -170.832
vt -1.18108 0
vn -0.5 0 0.866025
v 93.2706 2 -170.832
vt -1.18108 0.0787402
vt -1.22219 0.0787402
f 9/32/8 19/33/9 20/34/9 18/35/8 

vt -3.67207 6.72566
f 9/13/1 1/1/1 19/36/1

f 19/36/1 1/1/1 3/3/1

v 93.3388 0 -173.778
vt -3.67475 6.84167
f 19/36/1 3/3/1 21/37/1

vt 6.30348 0
vn 0.965926 0 -0.258819
vt 6.32404 0
vn 1 0 -0
v 93.2706 2 -174.296
vt 6.32404 0.0787402
v 93.3388 2 -173.778
vt 6.30348 0.0787402
f 21/38/10 3/39/11 22/40/11 23/41/10 

vt 7.28264 0
vt 7.3032 0
vn 0.965926 0 0.258819
v 93.3388 2 -174.814
vt 7.3032 0.0787402
vt 7.28264 0.0787402
f 3/42/11 2/43/12 24/44/12 22/45/11 

vt 7.7648 0
v 93.5386 0 -175.296
vt 7.78536 0
vn 0.866025 0 0.5
v 93.5386 2 -175.296
vt 7.78536 0.0787402
vt 7.7648 0.0787402
f 2/46/12 25/47/13 26/48/13 24/49/12 

vt -3.68262 6.90142
f 2/2/1 4/4/1 25/50/1

v 93.8564 0 -175.71
vt -3.69513 6.91772
f 25/50/1 4/4/1 27/51/1

v 94.2706 0 -176.028
vt -3.71144 6.93024
f 27/51/1 4/4/1 28/52/1

v 95.2706 0 -178.296
vt -3.75081 7.01953
f 28/52/1 4/4/1 29/53/1

vt -4.63495 0
vn -0.130526 0 -0.991445
vt -4.59384 0
vt -4.59384 0.0787402
v 95.2706 2 -178.296
vt -4.63495 0.0787402
f 29/54/14 4/55/2 6/56/2 30/57/14 

vt 3.71005 7.01416
vn -7.57881e-017 1 -7.83324e-017
v 94.2706 2 -176.028
vt 3.71144 6.93024
vt 3.75081 7.01953
f 6/58/15 31/59/15 30/60/15

v 93.8564 2 -175.71
vt 3.69513 6.91772
f 6/58/15 32/61/15 31/59/15

vt 3.68262 6.90142
f 6/58/15 26/62/15 32/61/15

vt 3.67475 6.88243
f 6/58/15 24/63/15 26/62/15

vt 3.67207 6.99843
f 5/64/15 24/63/15 6/58/15

vt 3.67207 6.86205
f 5/64/15 22/65/15 24/63/15

vt 3.67207 6.72566
f 5/64/15 20/66/15 22/65/15

vt 3.63946 6.9734
f 8/67/15 20/66/15 5/64/15

vt 3.63946 6.75069
f 8/67/15 18/68/15 20/66/15

v 91.8065 2 -176.296
vt 3.61443 6.94079
f 33/69/15 18/68/15 8/67/15

vt 3.61443 6.78331
f 33/69/15 17/70/15 18/68/15

v 91.4069 2 -175.331
vt 3.5987 6.90281
f 34/71/15 17/70/15 33/69/15

vt 3.5987 6.82129
f 34/71/15 15/72/15 17/70/15

vt 3.59333 6.86205
f 15/72/15 34/71/15 16/73/15

vt -7.31348 0
vn -0.965926 0 -0.258819
vt -7.27236 0
vt -7.27236 0.0787402
vt -7.31348 0.0787402
f 13/74/16 14/75/5 16/76/5 34/77/16 

vt -7.79563 0
vn -0.866025 0 -0.5
vt -7.75452 0
vt -7.75452 0.0787402
vt -7.79563 0.0787402
f 11/78/17 13/79/16 34/80/16 33/81/17 

vt -7.74793 0
vt -7.70682 0
vt -7.70682 0.0787402
vt -7.74793 0.0787402
f 7/82/4 11/83/17 33/84/17 8/85/4 

vt 3.67475 6.84167
f 20/66/15 23/86/15 22/65/15

v 94.2353 2 -170.432
vt 3.71005 6.70993
f 23/86/15 20/66/15 35/87/15

vt 0.818751 0
v 94.2353 0 -170.432
vt 0.859862 0
vn -0.258819 0 0.965926
vt 0.859862 0.0787402
vt 0.818751 0.0787402
f 19/88/9 36/89/18 35/90/18 20/91/9 

vt -3.71005 6.70993
f 19/36/1 21/37/1 36/92/1

v 93.5386 0 -173.296
vt -3.68262 6.82268
f 36/92/1 21/37/1 37/93/1

vt 4.89405 0
vn 0.866025 0 -0.5
vt 4.91461 0
vt 4.91461 0.0787402
v 93.5386 2 -173.296
vt 4.89405 0.0787402
f 37/94/19 21/95/10 23/96/10 38/97/19 

vt 3.68262 6.82268
f 23/86/15 35/87/15 38/98/15

v 93.8564 2 -172.882
vt 3.69513 6.80637
f 38/98/15 35/87/15 39/99/15

v 94.2706 2 -172.564
vt 3.71144 6.79386
f 39/99/15 35/87/15 40/100/15

v 95.2706 2 -170.296
vt 3.75081 6.70457
f 40/100/15 35/87/15 41/101/15

vt 2.80249 0
v 95.2706 0 -170.296
vt 2.8436 0
vn -0.130526 0 0.991445
vt 2.8436 0.0787402
vt 2.80249 0.0787402
f 36/102/18 42/103/20 41/104/20 35/105/18 

v 94.2706 0 -172.564
vt -3.71144 6.79386
vt -3.75081 6.70457
f 36/92/1 43/106/1 42/107/1

v 93.8564 0 -172.882
vt -3.69513 6.80637
f 36/92/1 44/108/1 43/106/1

f 36/92/1 37/93/1 44/108/1

vt 3.1504 0
vn 0.707107 0 -0.707107
vt 3.17096 0
vt 3.17096 0.0787402
vt 3.1504 0.0787402
f 44/109/21 37/110/19 38/111/19 39/112/21 

vt 1.19135 0
vn 0.5 0 -0.866025
vt 1.21191 0
vt 1.21191 0.0787402
vt 1.19135 0.0787402
f 43/113/22 44/114/21 39/115/21 40/116/22 

v 94.753 0 -172.364
vt -0.849584 0
vn 0.258819 0 -0.965926
vt -0.829029 0
vt -0.829029 0.0787402
v 94.753 2 -172.364
vt -0.849584 0.0787402
f 45/117/23 43/118/22 40/119/22 46/120/23 

vt -3.73043 6.78599
f 42/107/1 43/106/1 45/121/1

v 95.2706 0 -172.296
vt -3.75081 6.78331
f 42/107/1 45/121/1 47/122/1

vt -2.83332 0
vn 2.00025e-014 0 -1
vt -2.81277 0
vt -2.81277 0.0787402
v 95.2706 2 -172.296
vt -2.83332 0.0787402
f 47/123/24 45/124/23 46/125/23 48/126/24 

vt 3.73043 6.78599
vt 3.75081 6.78331
f 46/127/15 41/101/15 48/128/15

f 40/100/15 41/101/15 46/127/15

v 100.271 2 -170.296
vt 3.94766 6.70457
f 48/128/15 41/101/15 49/129/15

v 95.2706 16 -170.296
vt 3.75081 0.629921
vn 0 0 1
v 100.271 16 -170.296
vt 3.94766 0.629921
vt 3.94766 0.0787402
vt 3.75081 0.0787402
vt 3.75081 0
v 179.271 0 -170.296
vt 7.0579 0
v 179.271 2 -170.296
vt 7.0579 0.0787402
v 174.271 2 -170.296
vt 6.86105 0.0787402
v 174.271 16 -170.296
vt 6.86105 0.629921
v 179.271 16 -170.296
vt 7.0579 0.629921
v 179.271 18 -170.296
vt 7.0579 0.708661
v 95.2706 18 -170.296
vt 3.75081 0.708661
f 50/130/25 51/131/25 49/132/25 41/133/25 42/134/25 52/135/25 53/136/25 54/137/25 55/138/25 56/139/25 57/140/25 58/141/25 

v 95.7882 16 -172.364
vt -3.77119 6.78599
vt -3.94766 6.70457
f 50/107/1 59/142/1 51/143/1

v 95.2706 16 -172.296
f 50/107/1 60/122/1 59/142/1

v 94.753 16 -172.364
f 50/107/1 61/121/1 60/122/1

v 94.2706 16 -172.564
f 50/107/1 62/106/1 61/121/1

v 94.2353 16 -170.432
f 63/92/1 62/106/1 50/107/1

v 93.8564 16 -172.882
f 63/92/1 64/108/1 62/106/1

v 93.5386 16 -173.296
f 63/92/1 65/93/1 64/108/1

v 93.3388 16 -173.778
f 63/92/1 66/37/1 65/93/1

v 93.2706 16 -170.832
f 67/36/1 66/37/1 63/92/1

v 93.2706 16 -174.296
f 67/36/1 68/3/1 66/37/1

v 93.2706 16 -177.76
f 67/36/1 69/1/1 68/3/1

v 92.4422 16 -171.468
f 70/13/1 69/1/1 67/36/1

v 92.4422 16 -177.124
f 70/13/1 71/14/1 69/1/1

v 91.8065 16 -172.296
f 72/15/1 71/14/1 70/13/1

v 91.8065 16 -176.296
f 72/15/1 73/16/1 71/14/1

v 91.4069 16 -173.261
f 74/17/1 73/16/1 72/15/1

v 91.4069 16 -175.331
f 74/17/1 75/18/1 73/16/1

v 91.2706 16 -174.296
f 75/18/1 74/17/1 76/19/1

vt -6.33432 0.629921
vt -6.29321 0.629921
v 91.4069 18 -173.261
vt -6.29321 0.708661
v 91.2706 18 -174.296
vt -6.33432 0.708661
f 76/144/5 74/145/6 77/146/6 78/147/5 

vt -4.92489 0.629921
vt -4.88378 0.629921
v 91.8065 18 -172.296
vt -4.88378 0.708661
vt -4.92489 0.708661
f 74/148/6 72/149/7 79/150/7 77/151/6 

vt -3.18123 0.629921
vt -3.14012 0.629921
v 92.4422 18 -171.468
vt -3.14012 0.708661
vt -3.18123 0.708661
f 72/152/7 70/153/8 80/154/8 79/155/7 

vt -1.22219 0.629921
vt -1.18108 0.629921
v 93.2706 18 -170.832
vt -1.18108 0.708661
vt -1.22219 0.708661
f 70/156/8 67/157/9 81/158/9 80/159/8 

vt 0.818751 0.629921
vt 0.859862 0.629921
v 94.2353 18 -170.432
vt 0.859862 0.708661
vt 0.818751 0.708661
f 67/160/9 63/161/18 82/162/18 81/163/9 

vt 2.80249 0.629921
vt 2.8436 0.629921
vt 2.8436 0.708661
vt 2.80249 0.708661
f 63/164/18 50/165/20 58/166/20 82/167/18 

v 94.2706 18 -172.564
vn 0 1 -0
f 83/100/26 82/87/26 58/101/26

v 93.8564 18 -172.882
f 84/99/26 82/87/26 83/100/26

v 93.5386 18 -173.296
f 85/98/26 82/87/26 84/99/26

v 93.3388 18 -173.778
f 86/86/26 82/87/26 85/98/26

f 86/86/26 81/66/26 82/87/26

v 93.2706 18 -174.296
f 81/66/26 86/86/26 87/65/26

vt 6.30348 0.629921
vt 6.32404 0.629921
vt 6.32404 0.708661
vt 6.30348 0.708661
f 66/168/10 68/169/11 87/170/11 86/171/10 

vt 7.28264 0.629921
v 93.3388 16 -174.814
vt 7.3032 0.629921
v 93.3388 18 -174.814
vt 7.3032 0.708661
vt 7.28264 0.708661
f 68/172/11 88/173/12 89/174/12 87/175/11 

f 69/1/1 88/2/1 68/3/1

v 94.2353 16 -178.16
f 88/2/1 69/1/1 90/4/1

vt -6.11184 0.629921
vt -6.07073 0.629921
v 93.2706 18 -177.76
vt -6.07073 0.708661
v 94.2353 18 -178.16
vt -6.11184 0.708661
f 90/176/2 69/177/3 91/178/3 92/179/2 

vt -7.17362 0.629921
vt -7.13251 0.629921
v 92.4422 18 -177.124
vt -7.13251 0.708661
vt -7.17362 0.708661
f 69/180/3 71/181/4 93/182/4 91/183/3 

vt -7.74793 0.629921
vt -7.70682 0.629921
v 91.8065 18 -176.296
vt -7.70682 0.708661
vt -7.74793 0.708661
f 71/184/4 73/185/17 94/186/17 93/187/4 

vt -7.79563 0.629921
vt -7.75452 0.629921
v 91.4069 18 -175.331
vt -7.75452 0.708661
vt -7.79563 0.708661
f 73/188/17 75/189/16 95/190/16 94/191/17 

vt -7.31348 0.629921
vt -7.27236 0.629921
vt -7.27236 0.708661
vt -7.31348 0.708661
f 75/192/16 76/193/5 78/194/5 95/195/16 

f 77/72/26 95/71/26 78/73/26

f 95/71/26 77/72/26 79/70/26

f 95/71/26 79/70/26 94/69/26

f 94/69/26 79/70/26 80/68/26

f 94/69/26 80/68/26 93/67/26

f 93/67/26 80/68/26 81/66/26

f 93/67/26 81/66/26 91/64/26

f 91/64/26 81/66/26 87/65/26

f 91/64/26 87/65/26 89/63/26

f 91/64/26 89/63/26 92/58/26

v 93.5386 18 -175.296
f 92/58/26 89/63/26 96/62/26

vt 7.7648 0.629921
v 93.5386 16 -175.296
vt 7.78536 0.629921
vt 7.78536 0.708661
vt 7.7648 0.708661
f 88/196/12 97/197/13 96/198/13 89/199/12 

f 88/2/1 90/4/1 97/50/1

v 93.8564 16 -175.71
f 97/50/1 90/4/1 98/51/1

v 94.2706 16 -176.028
f 98/51/1 90/4/1 99/52/1

v 95.2706 16 -178.296
f 99/52/1 90/4/1 100/53/1

vt -4.63495 0.629921
vt -4.59384 0.629921
vt -4.59384 0.708661
v 95.2706 18 -178.296
vt -4.63495 0.708661
f 100/200/14 90/201/2 92/202/2 101/203/14 

v 94.2706 18 -176.028
f 92/58/26 102/59/26 101/60/26

v 93.8564 18 -175.71
f 92/58/26 103/61/26 102/59/26

f 92/58/26 96/62/26 103/61/26

vt 7.7171 0.629921
vt 7.73765 0.629921
vn 0.707107 0 0.707107
vt 7.73765 0.708661
vt 7.7171 0.708661
f 97/204/13 98/205/27 103/206/27 96/207/13 

vt 7.14279 0.629921
vt 7.16335 0.629921
vn 0.5 0 0.866025
vt 7.16335 0.708661
vt 7.14279 0.708661
f 98/208/27 99/209/28 102/210/28 103/211/27 

vt 6.08101 0.629921
v 94.753 16 -176.228
vt 6.10157 0.629921
vn 0.258819 0 0.965926
v 94.753 18 -176.228
vt 6.10157 0.708661
vt 6.08101 0.708661
f 99/212/28 104/213/29 105/214/29 102/215/28 

vt -3.73043 6.9381
f 99/52/1 100/53/1 104/216/1

v 95.2706 16 -176.296
vt -3.75081 6.94079
f 104/216/1 100/53/1 106/217/1

v 100.271 16 -178.296
vt -3.94766 7.01953
f 106/217/1 100/53/1 107/218/1

v 179.271 16 -178.296
vt -7.0579 0.629921
vn 0 0 -1
v 174.271 16 -178.296
vt -6.86105 0.629921
v 174.271 2 -178.296
vt -6.86105 0.0787402
v 179.271 2 -178.296
vt -7.0579 0.0787402
v 179.271 0 -178.296
vt -7.0579 0
vt -3.75081 0
vt -3.75081 0.0787402
v 100.271 2 -178.296
vt -3.94766 0.0787402
vt -3.94766 0.629921
vt -3.75081 0.629921
vt -3.75081 0.708661
v 179.271 18 -178.296
vt -7.0579 0.708661
f 108/219/30 109/220/30 110/221/30 111/222/30 112/223/30 29/224/30 30/225/30 113/226/30 107/227/30 100/228/30 101/229/30 114/230/30 

vt -7.0579 7.01953
vt -6.86105 6.70457
vt -6.86105 7.01953
f 108/231/1 55/232/1 109/233/1

v 177.539 16 -175.296
vt -6.98971 6.90142
f 55/232/1 108/231/1 115/234/1

v 177.856 16 -175.71
vt -7.00222 6.91772
f 115/234/1 108/231/1 116/235/1

v 178.271 16 -176.028
vt -7.01853 6.93024
f 116/235/1 108/231/1 117/236/1

v 178.753 16 -176.228
vt -7.03752 6.9381
f 117/236/1 108/231/1 118/237/1

v 179.271 16 -176.296
vt -7.0579 6.94079
f 118/237/1 108/231/1 119/238/1

v 180.306 16 -178.16
vt -7.09866 7.01416
f 119/238/1 108/231/1 120/239/1

vt -6.1224 0.629921
vt -6.08128 0.629921
vn 0.130526 0 -0.991445
vt -6.08128 0.708661
v 180.306 18 -178.16
vt -6.1224 0.708661
f 120/240/23 108/241/31 114/242/31 121/243/23 

vt 7.0579 7.01953
v 179.788 18 -176.228
vt 7.07828 6.9381
vt 7.09866 7.01416
f 114/244/26 122/245/26 121/246/26

v 179.271 18 -176.296
vt 7.0579 6.94079
f 114/244/26 123/247/26 122/245/26

v 178.753 18 -176.228
vt 7.03752 6.9381
f 114/244/26 124/248/26 123/247/26

v 178.271 18 -176.028
vt 7.01853 6.93024
f 114/244/26 125/249/26 124/248/26

v 177.856 18 -175.71
vt 7.00222 6.91772
f 114/244/26 126/250/26 125/249/26

v 177.539 18 -175.296
vt 6.98971 6.90142
f 114/244/26 127/251/26 126/250/26

v 97.2706 18 -174.296
vt 3.82955 6.86205
f 114/244/26 128/252/26 127/251/26

v 97.2025 18 -174.814
vt 3.82687 6.88243
f 114/244/26 129/253/26 128/252/26

v 97.0027 18 -175.296
vt 3.819 6.90142
f 114/244/26 130/254/26 129/253/26

v 96.6848 18 -175.71
vt 3.80649 6.91772
f 114/244/26 131/255/26 130/254/26

v 96.2706 18 -176.028
vt 3.79018 6.93024
f 114/244/26 132/256/26 131/255/26

v 95.7882 18 -176.228
vt 3.77119 6.9381
f 114/244/26 133/257/26 132/256/26

f 101/60/26 133/257/26 114/244/26

v 95.2706 18 -176.296
vt 3.75081 6.94079
f 101/60/26 134/258/26 133/257/26

vt 3.73043 6.9381
f 101/60/26 105/259/26 134/258/26

f 101/60/26 102/59/26 105/259/26

vt 4.60412 0.629921
vt 4.62468 0.629921
vn -2.14162e-014 0 1
vt 4.62468 0.708661
vt 4.60412 0.708661
f 104/260/29 106/261/32 134/262/32 105/263/29 

vt 2.81277 0.629921
v 95.7882 16 -176.228
vt 2.83332 0.629921
vt 2.83332 0.708661
vt 2.81277 0.708661
f 106/264/32 135/265/18 133/266/18 134/267/32 

vt -3.77119 6.9381
f 106/217/1 107/218/1 135/268/1

v 96.2706 16 -176.028
vt -3.79018 6.93024
f 135/268/1 107/218/1 136/269/1

v 96.6848 16 -175.71
vt -3.80649 6.91772
f 136/269/1 107/218/1 137/270/1

v 97.0027 16 -175.296
vt -3.819 6.90142
f 137/270/1 107/218/1 138/271/1

v 97.2025 16 -174.814
vt -3.82687 6.88243
f 138/271/1 107/218/1 139/272/1

v 97.2706 16 -174.296
vt -3.82955 6.86205
f 139/272/1 107/218/1 140/273/1

f 51/143/1 140/273/1 107/218/1

v 97.2025 16 -173.778
vt -3.82687 6.84167
f 51/143/1 141/274/1 140/273/1

v 97.0027 16 -173.296
vt -3.819 6.82268
f 51/143/1 142/275/1 141/274/1

v 96.6848 16 -172.882
vt -3.80649 6.80637
f 51/143/1 143/276/1 142/275/1

v 96.2706 16 -172.564
vt -3.79018 6.79386
f 51/143/1 144/277/1 143/276/1

f 51/143/1 59/142/1 144/277/1

vt -6.10157 0.629921
vt -6.08101 0.629921
v 95.7882 18 -172.364
vt -6.08101 0.708661
v 96.2706 18 -172.564
vt -6.10157 0.708661
f 144/278/3 59/279/2 145/280/2 146/281/3 

vt -4.62468 0.629921
vt -4.60412 0.629921
vn 1.57892e-014 0 -1
v 95.2706 18 -172.296
vt -4.60412 0.708661
vt -4.62468 0.708661
f 59/282/2 60/283/33 147/284/33 145/285/2 

vt -2.83332 0.629921
vt -2.81277 0.629921
v 94.753 18 -172.364
vt -2.81277 0.708661
vt -2.83332 0.708661
f 60/286/33 61/287/23 148/288/23 147/289/33 

vt -0.849584 0.629921
vt -0.829029 0.629921
vt -0.829029 0.708661
vt -0.849584 0.708661
f 61/290/23 62/291/22 83/292/22 148/293/23 

vt 1.19135 0.629921
vt 1.21191 0.629921
vt 1.21191 0.708661
vt 1.19135 0.708661
f 62/294/22 64/295/21 84/296/21 83/297/22 

vt 3.1504 0.629921
vt 3.17096 0.629921
vt 3.17096 0.708661
vt 3.1504 0.708661
f 64/298/21 65/299/19 85/300/19 84/301/21 

vt 4.89405 0.629921
vt 4.91461 0.629921
vt 4.91461 0.708661
vt 4.89405 0.708661
f 65/302/19 66/303/10 86/304/10 85/305/19 

f 83/100/26 58/101/26 148/127/26

f 148/127/26 58/101/26 147/128/26

vt 7.0579 6.70457
f 147/128/26 58/101/26 57/306/26

vt 3.77119 6.78599
f 147/128/26 57/306/26 145/307/26

vt 3.79018 6.79386
f 145/307/26 57/306/26 146/308/26

v 96.6848 18 -172.882
vt 3.80649 6.80637
f 146/308/26 57/306/26 149/309/26

v 97.0027 18 -173.296
vt 3.819 6.82268
f 149/309/26 57/306/26 150/310/26

v 97.2025 18 -173.778
vt 3.82687 6.84167
f 150/310/26 57/306/26 151/311/26

f 151/311/26 57/306/26 128/252/26

v 177.539 18 -173.296
vt 6.98971 6.82268
f 128/252/26 57/306/26 152/312/26

v 177.856 18 -172.882
vt 7.00222 6.80637
f 152/312/26 57/306/26 153/313/26

v 178.271 18 -172.564
vt 7.01853 6.79386
f 153/313/26 57/306/26 154/314/26

v 178.753 18 -172.364
vt 7.03752 6.78599
f 154/314/26 57/306/26 155/315/26

v 179.271 18 -172.296
vt 7.0579 6.78331
f 155/315/26 57/306/26 156/316/26

v 180.306 18 -170.432
vt 7.09866 6.70993
f 156/316/26 57/306/26 157/317/26

vt 7.87264 0.629921
vn 0.130526 0 0.991445
v 180.306 16 -170.432
vt 7.91375 0.629921
vt 7.91375 0.708661
vt 7.87264 0.708661
f 56/318/34 158/319/29 157/320/29 57/321/34 

vt -7.0579 6.70457
v 179.788 16 -172.364
vt -7.07828 6.78599
vt -7.09866 6.70993
f 56/322/1 159/323/1 158/324/1

v 179.271 16 -172.296
vt -7.0579 6.78331
f 56/322/1 160/325/1 159/323/1

v 178.753 16 -172.364
vt -7.03752 6.78599
f 56/322/1 161/326/1 160/325/1

v 178.271 16 -172.564
vt -7.01853 6.79386
f 56/322/1 162/327/1 161/326/1

v 177.856 16 -172.882
vt -7.00222 6.80637
f 56/322/1 163/328/1 162/327/1

v 177.539 16 -173.296
vt -6.98971 6.82268
f 56/322/1 164/329/1 163/328/1

f 55/232/1 164/329/1 56/322/1

v 177.339 16 -173.778
vt -6.98184 6.84167
f 164/329/1 55/232/1 165/330/1

v 177.271 16 -174.296
vt -6.97916 6.86205
f 165/330/1 55/232/1 166/331/1

v 177.339 16 -174.814
vt -6.98184 6.88243
f 55/232/1 167/332/1 166/331/1

f 55/232/1 115/234/1 167/332/1

vt 9.03037 0.629921
vt 9.05092 0.629921
vt 9.05092 0.708661
v 177.339 18 -174.814
vt 9.03037 0.708661
f 167/333/12 115/334/13 127/335/13 168/336/12 

vt 9.73033 0.629921
vt 9.75088 0.629921
vt 9.75088 0.708661
vt 9.73033 0.708661
f 115/337/13 116/338/27 126/339/27 127/340/13 

vt 9.76648 0.629921
vt 9.78703 0.629921
vt 9.78703 0.708661
vt 9.76648 0.708661
f 116/341/27 117/342/28 125/343/28 126/344/27 

vt 9.13636 0.629921
vt 9.15692 0.629921
vt 9.15692 0.708661
vt 9.13636 0.708661
f 117/345/28 118/346/29 124/347/29 125/348/28 

vt 7.88292 0.629921
vt 7.90347 0.629921
vt 7.90347 0.708661
vt 7.88292 0.708661
f 118/349/29 119/350/32 123/351/32 124/352/29 

vt 6.09156 0.629921
v 179.788 16 -176.228
vt 6.11212 0.629921
vt 6.11212 0.708661
vt 6.09156 0.708661
f 119/353/32 169/354/18 122/355/18 123/356/32 

vt -7.07828 6.9381
f 119/238/1 120/239/1 169/357/1

v 180.271 16 -176.028
vt -7.09727 6.93024
f 169/357/1 120/239/1 170/358/1

v 180.685 16 -175.71
vt -7.11358 6.91772
f 170/358/1 120/239/1 171/359/1

v 181.271 16 -177.76
vt -7.13664 6.99843
f 171/359/1 120/239/1 172/360/1

vt -3.91521 0.629921
vt -3.8741 0.629921
vt -3.8741 0.708661
v 181.271 18 -177.76
vt -3.91521 0.708661
f 172/361/22 120/362/23 121/363/23 173/364/22 

v 180.685 18 -175.71
vt 7.11358 6.91772
vt 7.13664 6.99843
f 121/246/26 174/365/26 173/366/26

v 180.271 18 -176.028
vt 7.09727 6.93024
f 121/246/26 175/367/26 174/365/26

f 121/246/26 122/245/26 175/367/26

vt 3.88438 0.629921
vt 3.90493 0.629921
vt 3.90493 0.708661
vt 3.88438 0.708661
f 169/368/18 170/369/9 175/370/9 122/371/18 

vt 1.41178 0.629921
vt 1.43234 0.629921
vt 1.43234 0.708661
vt 1.41178 0.708661
f 170/372/9 171/373/8 174/374/8 175/375/9 

vt -1.15773 0.629921
v 181.003 16 -175.296
vt -1.13717 0.629921
v 181.003 18 -175.296
vt -1.13717 0.708661
vt -1.15773 0.708661
f 171/376/8 176/377/7 177/378/7 174/379/8 

vt -7.12609 6.90142
f 171/359/1 172/360/1 176/380/1

v 181.202 16 -174.814
vt -7.13396 6.88243
f 176/380/1 172/360/1 178/381/1

v 181.271 16 -174.296
vt -7.13664 6.86205
f 178/381/1 172/360/1 179/382/1

v 182.099 16 -177.124
vt -7.16925 6.9734
f 179/382/1 172/360/1 180/383/1

vt -1.44261 0.629921
vt -1.4015 0.629921
vt -1.4015 0.708661
v 182.099 18 -177.124
vt -1.44261 0.708661
f 180/384/21 172/385/22 173/386/22 181/387/21 

v 182.099 18 -171.468
vt 7.16925 6.75069
vt 7.16925 6.9734
f 173/366/26 182/388/26 181/389/26

v 181.271 18 -174.296
vt 7.13664 6.86205
f 183/390/26 182/388/26 173/366/26

v 181.271 18 -170.832
vt 7.13664 6.72566
f 183/390/26 184/391/26 182/388/26

v 181.202 18 -173.778
vt 7.13396 6.84167
f 185/392/26 184/391/26 183/390/26

v 181.003 18 -173.296
vt 7.12609 6.82268
f 186/393/26 184/391/26 185/392/26

v 180.685 18 -172.882
vt 7.11358 6.80637
f 187/394/26 184/391/26 186/393/26

f 187/394/26 157/317/26 184/391/26

v 180.271 18 -172.564
vt 7.09727 6.79386
f 188/395/26 157/317/26 187/394/26

v 179.788 18 -172.364
vt 7.07828 6.78599
f 189/396/26 157/317/26 188/395/26

f 156/316/26 157/317/26 189/396/26

vt -7.90347 0.629921
vt -7.88292 0.629921
vn 2.14162e-014 0 -1
vt -7.88292 0.708661
vt -7.90347 0.708661
f 159/397/2 160/398/35 156/399/35 189/400/2 

vt -6.11212 0.629921
vt -6.09156 0.629921
vt -6.09156 0.708661
vt -6.11212 0.708661
f 160/401/35 161/402/23 155/403/23 156/404/35 

vt -3.90493 0.629921
vt -3.88438 0.629921
vt -3.88438 0.708661
vt -3.90493 0.708661
f 161/405/23 162/406/22 154/407/22 155/408/23 

vt -1.43234 0.629921
vt -1.41178 0.629921
vt -1.41178 0.708661
vt -1.43234 0.708661
f 162/409/22 163/410/21 153/411/21 154/412/22 

vt 1.13717 0.629921
vt 1.15773 0.629921
vt 1.15773 0.708661
vt 1.13717 0.708661
f 163/413/21 164/414/19 152/415/19 153/416/21 

vt 3.62849 0.629921
vt 3.64904 0.629921
v 177.339 18 -173.778
vt 3.64904 0.708661
vt 3.62849 0.708661
f 164/417/19 165/418/10 190/419/10 152/420/19 

vt 5.87182 0.629921
vt 5.89238 0.629921
v 177.271 18 -174.296
vt 5.89238 0.708661
vt 5.87182 0.708661
f 165/421/10 166/422/11 191/423/11 190/424/10 

vt 7.7143 0.629921
vt 7.73486 0.629921
vt 7.73486 0.708661
vt 7.7143 0.708661
f 166/425/11 167/426/12 168/427/12 191/428/11 

vt 6.98184 6.88243
vt 6.97916 6.86205
f 168/429/26 128/252/26 191/430/26

f 127/251/26 128/252/26 168/429/26

vt 6.98184 6.84167
f 128/252/26 190/431/26 191/430/26

f 128/252/26 152/312/26 190/431/26

v 180.271 16 -172.564
vt -9.15692 0.629921
vt -9.13636 0.629921
vt -9.13636 0.708661
vt -9.15692 0.708661
f 192/432/3 159/433/2 189/434/2 188/435/3 

vt -7.09727 6.79386
f 158/324/1 159/323/1 192/436/1

v 180.685 16 -172.882
vt -7.11358 6.80637
f 158/324/1 192/436/1 193/437/1

vt -9.78703 0.629921
vt -9.76648 0.629921
vt -9.76648 0.708661
vt -9.78703 0.708661
f 193/438/4 192/439/3 188/440/3 187/441/4 

v 181.003 16 -173.296
vt -9.75088 0.629921
vt -9.73033 0.629921
vt -9.73033 0.708661
vt -9.75088 0.708661
f 194/442/17 193/443/4 187/444/4 186/445/17 

v 181.271 16 -170.832
vt -7.13664 6.72566
vt -7.12609 6.82268
f 195/446/1 193/437/1 194/447/1

f 158/324/1 193/437/1 195/446/1

vt 9.12608 0.629921
vt 9.16719 0.629921
vt 9.16719 0.708661
vt 9.12608 0.708661
f 158/448/29 195/449/28 184/450/28 157/451/29 

vt 9.7562 0.629921
v 182.099 16 -171.468
vt 9.79731 0.629921
vt 9.79731 0.708661
vt 9.7562 0.708661
f 195/452/28 196/453/27 182/454/27 184/455/28 

vt -7.16925 6.75069
f 195/446/1 180/383/1 196/456/1

f 179/382/1 180/383/1 195/446/1

v 181.202 16 -173.778
vt -7.13396 6.84167
f 195/446/1 197/457/1 179/382/1

f 195/446/1 194/447/1 197/457/1

vt -9.05092 0.629921
vt -9.03037 0.629921
vt -9.03037 0.708661
vt -9.05092 0.708661
f 197/458/16 194/459/17 186/460/17 185/461/16 

vt -7.73486 0.629921
vn -1 0 -8.56649e-014
vt -7.7143 0.629921
vt -7.7143 0.708661
vt -7.73486 0.708661
f 179/462/36 197/463/16 185/464/16 183/465/36 

vt -5.89238 0.629921
vt -5.87182 0.629921
vt -5.87182 0.708661
v 181.202 18 -174.814
vt -5.89238 0.708661
f 178/466/6 179/467/36 183/468/36 198/469/6 

vt 7.13396 6.88243
f 173/366/26 198/470/26 183/390/26

vt 7.12609 6.90142
f 173/366/26 177/471/26 198/470/26

f 173/366/26 174/365/26 177/471/26

vt -3.64904 0.629921
vt -3.62849 0.629921
vt -3.62849 0.708661
vt -3.64904 0.708661
f 176/472/7 178/473/6 198/474/6 177/475/7 

v 182.735 16 -176.296
vt -7.19428 6.94079
f 196/456/1 180/383/1 199/476/1

vt 1.1269 0.629921
vt 1.16801 0.629921
vt 1.16801 0.708661
v 182.735 18 -176.296
vt 1.1269 0.708661
f 199/477/19 180/478/21 181/479/21 200/480/19 

v 182.735 18 -172.296
vt 7.19428 6.78331
vt 7.19428 6.94079
f 181/389/26 201/481/26 200/482/26

f 181/389/26 182/388/26 201/481/26

vt 9.72005 0.629921
v 182.735 16 -172.296
vt 9.76116 0.629921
vt 9.76116 0.708661
vt 9.72005 0.708661
f 196/483/27 202/484/13 201/485/13 182/486/27 

vt -7.19428 6.78331
f 196/456/1 199/476/1 202/487/1

v 183.134 16 -175.331
vt -7.21001 6.90281
f 202/487/1 199/476/1 203/488/1

vt 3.61821 0.629921
vt 3.65932 0.629921
vt 3.65932 0.708661
v 183.134 18 -175.331
vt 3.61821 0.708661
f 203/489/10 199/490/19 200/491/19 204/492/10 

v 183.134 18 -173.261
vt 7.21001 6.82129
vt 7.21001 6.90281
f 200/482/26 205/493/26 204/494/26

f 200/482/26 201/481/26 205/493/26

vt 9.02009 0.629921
v 183.134 16 -173.261
vt 9.0612 0.629921
vt 9.0612 0.708661
vt 9.02009 0.708661
f 202/495/13 206/496/12 205/497/12 201/498/13 

vt -7.21001 6.82129
f 202/487/1 203/488/1 206/499/1

v 183.271 16 -174.296
vt -7.21538 6.86205
f 206/499/1 203/488/1 207/500/1

vt 5.86154 0.629921
vn 1 0 -1.41375e-015
vt 5.90266 0.629921
vt 5.90266 0.708661
v 183.271 18 -174.296
vt 5.86154 0.708661
f 207/501/37 203/502/10 204/503/10 208/504/37 

vt 7.21538 6.86205
f 204/494/26 205/493/26 208/505/26

vt 7.70403 0.629921
vt 7.74514 0.629921
vt 7.74514 0.708661
vt 7.70403 0.708661
f 206/506/12 207/507/37 208/508/37 205/509/12 

vt -7.3032 0.629921
vt -7.28264 0.629921
vt -7.28264 0.708661
vt -7.3032 0.708661
f 140/510/5 141/511/16 151/512/16 128/513/5 

vt -7.78536 0.629921
vt -7.7648 0.629921
vt -7.7648 0.708661
vt -7.78536 0.708661
f 141/514/16 142/515/17 150/516/17 151/517/16 

vt -7.73765 0.629921
vt -7.7171 0.629921
vt -7.7171 0.708661
vt -7.73765 0.708661
f 142/518/17 143/519/4 149/520/4 150/521/17 

vt -7.16335 0.629921
vt -7.14279 0.629921
vt -7.14279 0.708661
vt -7.16335 0.708661
f 143/522/4 144/523/3 146/524/3 149/525/4 

vt -6.32404 0.629921
vt -6.30348 0.629921
vt -6.30348 0.708661
vt -6.32404 0.708661
f 139/526/6 140/527/5 128/528/5 129/529/6 

vt -4.91461 0.629921
vt -4.89405 0.629921
vt -4.89405 0.708661
vt -4.91461 0.708661
f 138/530/7 139/531/6 129/532/6 130/533/7 

vt -3.17096 0.629921
vt -3.1504 0.629921
vt -3.1504 0.708661
vt -3.17096 0.708661
f 137/534/8 138/535/7 130/536/7 131/537/8 

vt -1.21191 0.629921
vt -1.19135 0.629921
vt -1.19135 0.708661
vt -1.21191 0.708661
f 136/538/9 137/539/8 131/540/8 132/541/9 

vt 0.829029 0.629921
vt 0.849584 0.629921
vt 0.849584 0.708661
vt 0.829029 0.708661
f 135/542/18 136/543/9 132/544/9 133/545/18 

vt -7.01953 0.0787402
vt -6.70457 0.0787402
vt -6.70457 0.629921
vt -7.01953 0.629921
f 113/546/5 49/547/5 51/548/5 107/549/5 

vt 3.94766 7.01953
v 97.2706 2 -174.296
f 113/550/15 209/252/15 49/129/15

v 97.2025 2 -174.814
f 113/550/15 210/253/15 209/252/15

v 97.0027 2 -175.296
f 113/550/15 211/254/15 210/253/15

v 96.6848 2 -175.71
f 113/550/15 212/255/15 211/254/15

v 96.2706 2 -176.028
f 113/550/15 213/256/15 212/255/15

v 95.7882 2 -176.228
f 113/550/15 214/257/15 213/256/15

f 30/60/15 214/257/15 113/550/15

v 95.2706 2 -176.296
f 30/60/15 215/258/15 214/257/15

v 94.753 2 -176.228
f 30/60/15 216/259/15 215/258/15

f 30/60/15 31/59/15 216/259/15

vt 6.08101 0
v 94.753 0 -176.228
vt 6.10157 0
vt 6.10157 0.0787402
vt 6.08101 0.0787402
f 28/551/28 217/552/29 216/553/29 31/554/28 

f 28/52/1 29/53/1 217/216/1

v 95.2706 0 -176.296
f 217/216/1 29/53/1 218/217/1

f 218/217/1 29/53/1 112/231/1

v 95.7882 0 -176.228
f 218/217/1 112/231/1 219/268/1

v 96.2706 0 -176.028
f 219/268/1 112/231/1 220/269/1

v 96.6848 0 -175.71
f 220/269/1 112/231/1 221/270/1

v 97.0027 0 -175.296
f 221/270/1 112/231/1 222/271/1

v 97.2025 0 -174.814
f 222/271/1 112/231/1 223/272/1

v 97.2706 0 -174.296
f 223/272/1 112/231/1 224/273/1

v 177.539 0 -175.296
f 224/273/1 112/231/1 225/234/1

v 177.856 0 -175.71
f 225/234/1 112/231/1 226/235/1

v 178.271 0 -176.028
f 226/235/1 112/231/1 227/236/1

v 178.753 0 -176.228
f 227/236/1 112/231/1 228/237/1

v 179.271 0 -176.296
f 228/237/1 112/231/1 229/238/1

v 180.306 0 -178.16
f 229/238/1 112/231/1 230/239/1

vt -6.1224 0
vt -6.08128 0
vt -6.08128 0.0787402
v 180.306 2 -178.16
vt -6.1224 0.0787402
f 230/555/23 112/556/31 111/557/31 231/558/23 

vn 2.27364e-016 1 8.46028e-032
v 179.788 2 -176.228
f 111/244/38 232/245/38 231/246/38

v 179.271 2 -176.296
f 111/244/38 233/247/38 232/245/38

v 178.753 2 -176.228
f 111/244/38 234/248/38 233/247/38

v 178.271 2 -176.028
f 111/244/38 235/249/38 234/248/38

v 177.856 2 -175.71
f 111/244/38 236/250/38 235/249/38

v 177.539 2 -175.296
f 111/244/38 237/251/38 236/250/38

vt 6.86105 7.01953
f 110/559/38 237/251/38 111/244/38

v 177.339 2 -174.814
f 237/251/38 110/559/38 238/429/38

v 177.271 2 -174.296
f 238/429/38 110/559/38 239/430/38

v 177.339 2 -173.778
f 110/559/38 240/431/38 239/430/38

v 177.539 2 -173.296
f 110/559/38 241/312/38 240/431/38

f 110/559/38 53/306/38 241/312/38

vt 6.86105 6.70457
f 53/306/38 110/559/38 54/560/38

vt 6.70457 0.0787402
vt 7.01953 0.0787402
vt 7.01953 0.629921
vt 6.70457 0.629921
f 54/561/11 110/562/11 109/563/11 55/564/11 

v 177.856 2 -172.882
f 241/312/38 53/306/38 242/313/38

v 178.271 2 -172.564
f 242/313/38 53/306/38 243/314/38

v 178.753 2 -172.364
f 243/314/38 53/306/38 244/315/38

v 179.271 2 -172.296
f 244/315/38 53/306/38 245/316/38

v 180.306 2 -170.432
f 245/316/38 53/306/38 246/317/38

vt 7.87264 0
v 180.306 0 -170.432
vt 7.91375 0
vt 7.91375 0.0787402
vt 7.87264 0.0787402
f 52/565/34 247/566/29 246/567/29 53/568/34 

v 179.788 0 -172.364
f 52/322/1 248/323/1 247/324/1

v 179.271 0 -172.296
f 52/322/1 249/325/1 248/323/1

v 178.753 0 -172.364
f 52/322/1 250/326/1 249/325/1

v 178.271 0 -172.564
f 52/322/1 251/327/1 250/326/1

v 177.856 0 -172.882
f 52/322/1 252/328/1 251/327/1

v 177.539 0 -173.296
f 52/322/1 253/329/1 252/328/1

f 52/322/1 224/273/1 253/329/1

v 97.2025 0 -173.778
f 52/322/1 254/274/1 224/273/1

v 97.0027 0 -173.296
f 52/322/1 255/275/1 254/274/1

v 96.6848 0 -172.882
f 52/322/1 256/276/1 255/275/1

v 96.2706 0 -172.564
f 52/322/1 257/277/1 256/276/1

v 95.7882 0 -172.364
f 52/322/1 258/142/1 257/277/1

f 42/107/1 258/142/1 52/322/1

f 42/107/1 47/122/1 258/142/1

vt -4.62468 0
vt -4.60412 0
vt -4.60412 0.0787402
v 95.7882 2 -172.364
vt -4.62468 0.0787402
f 258/569/2 47/570/24 48/571/24 259/572/2 

f 48/128/15 49/129/15 259/307/15

v 96.2706 2 -172.564
f 259/307/15 49/129/15 260/308/15

v 96.6848 2 -172.882
f 260/308/15 49/129/15 261/309/15

v 97.0027 2 -173.296
f 261/309/15 49/129/15 262/310/15

v 97.2025 2 -173.778
f 262/310/15 49/129/15 263/311/15

f 263/311/15 49/129/15 209/252/15

vt -7.3032 0
vt -7.28264 0
vt -7.28264 0.0787402
vt -7.3032 0.0787402
f 224/573/5 254/574/16 263/575/16 209/576/5 

vt -7.78536 0
vt -7.7648 0
vt -7.7648 0.0787402
vt -7.78536 0.0787402
f 254/577/16 255/578/17 262/579/17 263/580/16 

vt -7.73765 0
vt -7.7171 0
vt -7.7171 0.0787402
vt -7.73765 0.0787402
f 255/581/17 256/582/4 261/583/4 262/584/17 

vt -7.16335 0
vt -7.14279 0
vt -7.14279 0.0787402
vt -7.16335 0.0787402
f 256/585/4 257/586/3 260/587/3 261/588/4 

vt -6.10157 0
vt -6.08101 0
vt -6.08101 0.0787402
vt -6.10157 0.0787402
f 257/589/3 258/590/2 259/591/2 260/592/3 

vt -6.32404 0
vt -6.30348 0
vt -6.30348 0.0787402
vt -6.32404 0.0787402
f 223/593/6 224/594/5 209/595/5 210/596/6 

vt -4.91461 0
vt -4.89405 0
vt -4.89405 0.0787402
vt -4.91461 0.0787402
f 222/597/7 223/598/6 210/599/6 211/600/7 

vt -3.17096 0
vt -3.1504 0
vt -3.1504 0.0787402
vt -3.17096 0.0787402
f 221/601/8 222/602/7 211/603/7 212/604/8 

vt -1.21191 0
vt -1.19135 0
vt -1.19135 0.0787402
vt -1.21191 0.0787402
f 220/605/9 221/606/8 212/607/8 213/608/9 

vt 0.829029 0
vt 0.849584 0
vt 0.849584 0.0787402
vt 0.829029 0.0787402
f 219/609/18 220/610/9 213/611/9 214/612/18 

vt 2.81277 0
vn -2.14022e-014 0 1
vt 2.83332 0
vt 2.83332 0.0787402
vt 2.81277 0.0787402
f 218/613/39 219/614/18 214/615/18 215/616/39 

vt 4.60412 0
vt 4.62468 0
vt 4.62468 0.0787402
vt 4.60412 0.0787402
f 217/617/29 218/618/39 215/619/39 216/620/29 

v 177.339 0 -173.778
f 253/329/1 224/273/1 264/330/1

v 177.271 0 -174.296
f 264/330/1 224/273/1 265/331/1

v 177.339 0 -174.814
f 224/273/1 266/332/1 265/331/1

f 224/273/1 225/234/1 266/332/1

vt 9.03037 0
vt 9.05092 0
vt 9.05092 0.0787402
vt 9.03037 0.0787402
f 266/621/12 225/622/13 237/623/13 238/624/12 

vt 9.73033 0
vt 9.75088 0
vt 9.75088 0.0787402
vt 9.73033 0.0787402
f 225/625/13 226/626/27 236/627/27 237/628/13 

vt 9.76648 0
vt 9.78703 0
vt 9.78703 0.0787402
vt 9.76648 0.0787402
f 226/629/27 227/630/28 235/631/28 236/632/27 

vt 9.13636 0
vt 9.15692 0
vt 9.15692 0.0787402
vt 9.13636 0.0787402
f 227/633/28 228/634/29 234/635/29 235/636/28 

vt 7.88292 0
vt 7.90347 0
vt 7.90347 0.0787402
vt 7.88292 0.0787402
f 228/637/29 229/638/39 233/639/39 234/640/29 

vt 6.09156 0
v 179.788 0 -176.228
vt 6.11212 0
vt 6.11212 0.0787402
vt 6.09156 0.0787402
f 229/641/39 267/642/18 232/643/18 233/644/39 

f 229/238/1 230/239/1 267/357/1

v 180.271 0 -176.028
f 267/357/1 230/239/1 268/358/1

v 180.685 0 -175.71
f 268/358/1 230/239/1 269/359/1

v 181.271 0 -177.76
f 269/359/1 230/239/1 270/360/1

vt -3.91521 0
vt -3.8741 0
vt -3.8741 0.0787402
v 181.271 2 -177.76
vt -3.91521 0.0787402
f 270/645/22 230/646/23 231/647/23 271/648/22 

v 180.685 2 -175.71
f 231/246/38 272/365/38 271/366/38

v 180.271 2 -176.028
f 231/246/38 273/367/38 272/365/38

f 231/246/38 232/245/38 273/367/38

vt 3.88438 0
vt 3.90493 0
vt 3.90493 0.0787402
vt 3.88438 0.0787402
f 267/649/18 268/650/9 273/651/9 232/652/18 

vt 1.41178 0
vt 1.43234 0
vt 1.43234 0.0787402
vt 1.41178 0.0787402
f 268/653/9 269/654/8 272/655/8 273/656/9 

vt -1.15773 0
v 181.003 0 -175.296
vt -1.13717 0
v 181.003 2 -175.296
vt -1.13717 0.0787402
vt -1.15773 0.0787402
f 269/657/8 274/658/7 275/659/7 272/660/8 

f 269/359/1 270/360/1 274/380/1

v 181.202 0 -174.814
f 274/380/1 270/360/1 276/381/1

v 181.271 0 -174.296
f 276/381/1 270/360/1 277/382/1

v 182.099 0 -177.124
f 277/382/1 270/360/1 278/383/1

vt -1.44261 0
vt -1.4015 0
vt -1.4015 0.0787402
v 182.099 2 -177.124
vt -1.44261 0.0787402
f 278/661/21 270/662/22 271/663/22 279/664/21 

v 182.099 2 -171.468
f 271/366/38 280/388/38 279/389/38

v 181.271 2 -174.296
f 281/390/38 280/388/38 271/366/38

v 181.271 2 -170.832
f 281/390/38 282/391/38 280/388/38

v 181.202 2 -173.778
f 283/392/38 282/391/38 281/390/38

v 181.003 2 -173.296
f 284/393/38 282/391/38 283/392/38

v 180.685 2 -172.882
f 285/394/38 282/391/38 284/393/38

f 285/394/38 246/317/38 282/391/38

v 180.271 2 -172.564
f 286/395/38 246/317/38 285/394/38

v 179.788 2 -172.364
f 287/396/38 246/317/38 286/395/38

f 245/316/38 246/317/38 287/396/38

vt -7.90347 0
vt -7.88292 0
vn 2.14022e-014 0 -1
vt -7.88292 0.0787402
vt -7.90347 0.0787402
f 248/665/2 249/666/40 245/667/40 287/668/2 

vt -6.11212 0
vt -6.09156 0
vt -6.09156 0.0787402
vt -6.11212 0.0787402
f 249/669/40 250/670/23 244/671/23 245/672/40 

vt -3.90493 0
vt -3.88438 0
vt -3.88438 0.0787402
vt -3.90493 0.0787402
f 250/673/23 251/674/22 243/675/22 244/676/23 

vt -1.43234 0
vt -1.41178 0
vt -1.41178 0.0787402
vt -1.43234 0.0787402
f 251/677/22 252/678/21 242/679/21 243/680/22 

vt 1.13717 0
vt 1.15773 0
vt 1.15773 0.0787402
vt 1.13717 0.0787402
f 252/681/21 253/682/19 241/683/19 242/684/21 

vt 3.62849 0
vt 3.64904 0
vt 3.64904 0.0787402
vt 3.62849 0.0787402
f 253/685/19 264/686/10 240/687/10 241/688/19 

vt 5.87182 0
vt 5.89238 0
vt 5.89238 0.0787402
vt 5.87182 0.0787402
f 264/689/10 265/690/11 239/691/11 240/692/10 

vt 7.7143 0
vt 7.73486 0
vt 7.73486 0.0787402
vt 7.7143 0.0787402
f 265/693/11 266/694/12 238/695/12 239/696/11 

v 180.271 0 -172.564
vt -9.15692 0
vt -9.13636 0
vt -9.13636 0.0787402
vt -9.15692 0.0787402
f 288/697/3 248/698/2 287/699/2 286/700/3 

f 247/324/1 248/323/1 288/436/1

v 180.685 0 -172.882
f 247/324/1 288/436/1 289/437/1

vt -9.78703 0
vt -9.76648 0
vt -9.76648 0.0787402
vt -9.78703 0.0787402
f 289/701/4 288/702/3 286/703/3 285/704/4 

v 181.003 0 -173.296
vt -9.75088 0
vt -9.73033 0
vt -9.73033 0.0787402
vt -9.75088 0.0787402
f 290/705/17 289/706/4 285/707/4 284/708/17 

v 181.271 0 -170.832
f 291/446/1 289/437/1 290/447/1

f 247/324/1 289/437/1 291/446/1

vt 9.12608 0
vt 9.16719 0
vt 9.16719 0.0787402
vt 9.12608 0.0787402
f 247/709/29 291/710/28 282/711/28 246/712/29 

vt 9.7562 0
v 182.099 0 -171.468
vt 9.79731 0
vt 9.79731 0.0787402
vt 9.7562 0.0787402
f 291/713/28 292/714/27 280/715/27 282/716/28 

f 291/446/1 278/383/1 292/456/1

f 277/382/1 278/383/1 291/446/1

v 181.202 0 -173.778
f 291/446/1 293/457/1 277/382/1

f 291/446/1 290/447/1 293/457/1

vt -9.05092 0
vt -9.03037 0
vt -9.03037 0.0787402
vt -9.05092 0.0787402
f 293/717/16 290/718/17 284/719/17 283/720/16 

vt -7.73486 0
vn -1 0 -2.14022e-014
vt -7.7143 0
vt -7.7143 0.0787402
vt -7.73486 0.0787402
f 277/721/41 293/722/16 283/723/16 281/724/41 

vt -5.89238 0
vt -5.87182 0
vt -5.87182 0.0787402
v 181.202 2 -174.814
vt -5.89238 0.0787402
f 276/725/6 277/726/41 281/727/41 294/728/6 

f 271/366/38 294/470/38 281/390/38

f 271/366/38 275/471/38 294/470/38

f 271/366/38 272/365/38 275/471/38

vt -3.64904 0
vt -3.62849 0
vt -3.62849 0.0787402
vt -3.64904 0.0787402
f 274/729/7 276/730/6 294/731/6 275/732/7 

v 182.735 0 -176.296
f 292/456/1 278/383/1 295/476/1

vt 1.1269 0
vt 1.16801 0
vt 1.16801 0.0787402
v 182.735 2 -176.296
vt 1.1269 0.0787402
f 295/733/19 278/734/21 279/735/21 296/736/19 

v 182.735 2 -172.296
f 279/389/38 297/481/38 296/482/38

f 279/389/38 280/388/38 297/481/38

vt 9.72005 0
v 182.735 0 -172.296
vt 9.76116 0
vt 9.76116 0.0787402
vt 9.72005 0.0787402
f 292/737/27 298/738/13 297/739/13 280/740/27 

f 292/456/1 295/476/1 298/487/1

v 183.134 0 -175.331
f 298/487/1 295/476/1 299/488/1

vt 3.61821 0
vt 3.65932 0
vt 3.65932 0.0787402
v 183.134 2 -175.331
vt 3.61821 0.0787402
f 299/741/10 295/742/19 296/743/19 300/744/10 

v 183.134 2 -173.261
f 296/482/38 301/493/38 300/494/38

f 296/482/38 297/481/38 301/493/38

vt 9.02009 0
v 183.134 0 -173.261
vt 9.0612 0
vt 9.0612 0.0787402
vt 9.02009 0.0787402
f 298/745/13 302/746/12 301/747/12 297/748/13 

f 298/487/1 299/488/1 302/499/1

v 183.271 0 -174.296
f 302/499/1 299/488/1 303/500/1

vt 5.86154 0
vn 1 0 -1.39975e-015
vt 5.90266 0
vt 5.90266 0.0787402
v 183.271 2 -174.296
vt 5.86154 0.0787402
f 303/749/42 299/750/10 300/751/10 304/752/42 

f 300/494/38 301/493/38 304/505/38

vt 7.70403 0
vt 7.74514 0
vt 7.74514 0.0787402
vt 7.70403 0.0787402
f 302/753/12 303/754/42 304/755/42 301/756/12 

vt 7.14279 0
vt 7.16335 0
vt 7.16335 0.0787402
vt 7.14279 0.0787402
f 27/757/27 28/758/28 31/759/28 32/760/27 

vt 7.7171 0
vt 7.73765 0
vt 7.73765 0.0787402
vt 7.7171 0.0787402
f 25/761/13 27/762/27 32/763/27 26/764/13 

