# Alias OBJ Model File
# Exported from SketchUp, (c) 2000-2012 Trimble Navigation Limited
# File units = millimeters

mtllib botton_skoda_pechat.mtl

g Mesh1 OuterShell Model

usemtl FrontColor
v 61.3253 0.0256654 -75.7138
vt -0.0854099 -0.18243
vn 3.32853e-016 0.193298 -0.98114
v 60.8958 0.102223 -75.6988
vt -0.0685019 -0.179358
v 93.9248 0.102223 -75.6988
vt -1.36886 -0.179358
v 93.4954 0.0256654 -75.7138
vt -1.35195 -0.18243
f 1/1/1 2/2/1 3/3/1 4/4/1 

vt -0.939657 -0.142069
vn -0.174995 -0.984467 0.0142098
vt -0.938881 -0.159237
v 62.6685 0.102223 -53.8673
vt -0.0773225 -0.142069
f 2/5/2 1/6/2 5/7/2

v 63.0588 0.0256654 -54.2674
vt -0.0918384 -0.158797
vn -0.178255 -0.983879 0.0144081
vt -0.0773761 -0.141943
vt -0.93894 -0.158797
f 6/8/3 5/9/3 1/10/3

v 92.1733 0.108272 -53.838
vt 1.29986 -0.0857395
vn -9.10035e-005 -0.980841 0.194812
vt 0.138253 -0.0863846
vt 0.153609 -0.102428
v 91.7818 0.0291006 -54.2213
vt 1.28444 -0.101141
f 7/11/4 5/12/4 6/13/4 8/14/4 

v 92.5486 0.236192 -53.4681
vt 1.31466 -0.0664271
vn -5.92587e-005 -0.946682 0.32217
v 62.2914 0.228361 -53.4908
vt 0.123434 -0.067163
vt 0.138278 -0.0827992
vt 1.29988 -0.0818332
f 9/15/5 10/16/5 5/17/5 7/18/5 

v 92.9031 0.410727 -53.1178
vt 1.32863 -0.0461537
vn -4.70429e-005 -0.896819 0.442398
v 61.9342 0.401924 -53.1355
vt 0.109377 -0.0468146
vt 0.12344 -0.0623833
vt 1.31467 -0.0615611
f 11/19/6 12/20/6 10/21/6 9/22/6 

v 93.2211 0.61994 -52.8064
vt 1.34115 -0.025673
vn -3.91827e-005 -0.831997 0.554781
v 61.603 0.61994 -52.8064
vt 0.0963416 -0.0255999
vt 0.109379 -0.0411433
vt 1.32863 -0.0404439
f 13/23/7 14/24/7 12/25/7 11/26/7 

v 93.5206 0.87868 -52.5087
vt 1.35294 -0.00396346
vn -5.14847e-016 -0.754782 0.655976
v 61.3035 0.87868 -52.5087
vt 0.0845549 -0.00396346
vt 0.0963449 -0.0194924
vt 1.34115 -0.0194924
f 15/27/8 16/28/8 14/29/8 13/30/8 

v 93.7832 1.17372 -52.2473
vt 1.36328 0.0179918
vn -3.97551e-016 -0.663148 0.748488
v 61.0409 1.17372 -52.2473
vt 0.0742158 0.0179918
vt 0.0845549 0.00247306
vt 1.35294 0.00247306
f 17/31/9 18/32/9 16/33/9 15/34/9 

v 94.0045 1.5 -52.0265
vt 1.37199 0.03976
vn -1.40754e-016 -0.560346 0.828259
v 60.8197 1.5 -52.0265
vt 0.0655048 0.03976
vt 0.0742158 0.0242506
vt 1.36328 0.0242506
f 19/35/10 20/36/10 18/37/10 17/38/10 

v 94.1806 1.85195 -51.8501
vt 1.37893 0.0609732
vn -2.1305e-016 -0.448131 0.893968
v 60.6436 1.85195 -51.8501
vt 0.0585709 0.0609732
vt 0.0655048 0.0454735
vt 1.37199 0.0454735
f 21/39/11 22/40/11 20/41/11 19/42/11 

v 94.3085 2.22354 -51.7209
vt 1.38396 0.0812726
vn -9.07409e-017 -0.32842 0.944532
v 60.5156 2.22354 -51.7209
vt 0.0535331 0.0812726
vt 0.0585709 0.0657838
vt 1.37893 0.0657838
f 23/43/12 24/44/12 22/45/12 21/46/12 

v 94.3861 2.60842 -51.641
vt 1.38702 0.100315
vn -4.22481e-018 -0.203257 0.979125
v 60.438 2.60842 -51.641
vt 0.0504776 0.100315
vt 0.0535331 0.0848393
vt 1.38396 0.0848393
f 25/47/13 26/48/13 24/49/13 23/50/13 

vt 0.0504776 0.10232
vn -5.02719e-018 -0.0747798 0.9972
vt 1.38702 0.10232
v 94.4121 3 -51.6116
vt 1.38804 0.11778
v 60.4121 3 -51.6116
vt 0.0494571 0.11778
f 26/51/14 25/52/14 27/53/14 28/54/14 

vt 0.11492 0.217388
vn 0.993981 -0.0719915 0.0825779
vt 0.115987 0.201931
v 96.4059 3 -75.6116
vt 1.06306 0.217388
f 27/55/15 25/56/15 29/57/15

v 96.3773 2.60842 -75.6126
vt 1.06298 0.203184
vn 0.993916 -0.072903 0.0825576
vt 1.06304 0.218642
vt 0.115967 0.203184
f 30/58/16 29/59/16 25/60/16

vt -1.46541 0.100266
vn 2.09609e-022 0.00256853 -0.999997
v 58.4433 2.60842 -75.6126
vt 0.0280523 0.100266
v 58.4147 3 -75.6116
vt 0.0291798 0.115683
vt -1.46654 0.115683
f 30/61/17 31/62/17 32/63/17 29/64/17 

v 96.2919 2.22354 -75.6156
vt -1.46205 0.080172
vn 3.55255e-020 0.00779482 -0.99997
v 58.5287 2.22354 -75.6156
vt 0.0246891 0.080172
vt 0.0280523 0.0953251
vt -1.46541 0.0953251
f 33/65/18 34/66/18 31/67/18 30/68/18 

vt 0.0246891 0.0749629
vn 2.98729e-016 0.0133015 -0.999912
vt -1.46205 0.0749629
v 96.1511 1.85195 -75.6206
vt -1.45651 0.0603319
v 58.6695 1.85195 -75.6206
vt 0.0191477 0.0603319
f 34/69/19 33/70/19 35/71/19 36/72/19 

vt 1.06233 0.554464
vn 0.932027 -0.354057 0.077264
vt 1.0626 0.570107
vt 0.123277 0.554464
f 35/73/20 33/74/20 21/75/20

vt 0.118766 0.562732
vn 0.934057 -0.348607 0.0775296
vt 0.123419 0.547123
vt 1.06274 0.562732
f 23/76/21 21/77/21 33/78/21

vt 1.06274 0.384089
vn 0.972921 -0.216573 0.0807554
vt 1.0629 0.39961
vt 0.118766 0.384089
f 33/79/22 30/80/22 23/81/22

vt 0.115967 0.394905
vn 0.973672 -0.213123 0.080876
vt 0.118848 0.379396
vt 1.06298 0.394905
f 25/82/23 23/83/23 30/84/23

vt 0.123277 0.716847
vn 0.876855 -0.475227 0.0726903
vt 0.129626 0.701099
vt 1.06233 0.716847
f 21/85/24 19/86/24 35/87/24

v 95.9575 1.5 -75.6274
vt 1.06177 0.710023
vn 0.873235 -0.481912 0.0722612
vt 1.06213 0.725837
vt 0.129426 0.710023
f 37/88/25 35/89/25 19/90/25

vt -1.44888 0.0407751
vn 3.04014e-016 0.019322 -0.999813
v 58.8632 1.5 -75.6274
vt 0.011523 0.0407751
vt 0.0191477 0.054634
vt -1.45651 0.054634
f 37/91/26 38/92/26 36/93/26 35/94/26 

vt 0.011523 0.0342856
vn 3.03962e-016 0.0261759 -0.999657
vt -1.44888 0.0342856
v 95.7142 1.17372 -75.6359
vt -1.4393 0.0214353
v 59.1064 1.17372 -75.6359
vt 0.00194539 0.0214353
f 38/95/27 37/96/27 39/97/27 40/98/27 

vt 1.06106 0.847671
vn 0.799122 -0.597537 0.0659763
vt 1.06151 0.863691
vt 0.137112 0.847671
f 39/99/28 37/100/28 17/101/28

vt 0.129426 0.85421
vn 0.804319 -0.590458 0.0665584
vt 0.137369 0.838293
vt 1.06177 0.85421
f 19/102/29 17/103/29 37/104/29

vt 0.137112 0.972815
vn 0.718947 -0.692526 0.0593569
vt 0.146518 0.956714
vt 1.06106 0.972815
f 17/105/30 15/106/30 39/107/30

v 95.4255 0.87868 -75.6461
vt 1.06021 0.965532
vn 0.712486 -0.69923 0.0586586
vt 1.06075 0.98178
vt 0.146209 0.965532
f 41/108/31 39/109/31 15/110/31

vt 0.00194539 0.0136953
vn 6.20741e-016 0.034347 -0.99941
vt -1.4393 0.0136953
vt -1.42794 0.00207285
v 59.3952 0.87868 -75.6461
vt -0.00942121 0.00207285
f 40/111/32 39/112/32 41/113/32 42/114/32 

vt -0.00942121 -0.00768201
vn 3.1829e-016 0.0446412 -0.999003
vt -1.42794 -0.00768201
v 95.0963 0.61994 -75.6576
vt -1.41498 -0.0178788
v 59.7244 0.61994 -75.6576
vt -0.0223823 -0.0178788
f 42/115/33 41/116/33 43/117/33 44/118/33 

vt 1.06021 1.07905
vn 0.616032 -0.786087 0.0507176
vt 0.146209 1.07905
vt 1.0596 1.06257
f 41/119/34 15/120/34 43/121/34

vt 0.156564 1.05524
vn 0.623324 -0.780289 0.0511491
vt 1.05924 1.05524
vt 0.145847 1.07153
f 13/122/35 43/123/35 15/124/35

vt 1.05924 1.15587
vn 0.512206 -0.857834 0.0420309
vt 0.156564 1.15587
v 94.7322 0.401924 -75.6704
vt 1.05857 1.13917
f 43/125/36 13/126/36 45/127/36

vt 0.167346 1.13419
vn 0.519776 -0.853245 0.0424875
vt 1.05816 1.13353
vt 0.156145 1.14999
f 11/128/37 45/129/37 13/130/37

vt 1.05848 1.21234
vn 0.403041 -0.914585 0.0330441
vt 0.167667 1.21319
v 94.3395 0.228361 -75.6842
vt 1.05776 1.19544
f 45/131/38 11/132/38 46/133/38

vt 0.179494 1.19021
vn 0.414372 -0.909483 0.033724
vt 1.05698 1.18946
vt 0.16688 1.20673
f 9/134/39 46/135/39 11/136/39

vt 1.05748 1.24948
vn 0.2902 -0.956672 0.0237309
vt 0.179997 1.25054
vt 1.05672 1.23242
f 46/137/40 9/138/40 3/139/40

vt 0.192316 1.22974
vn 0.300908 -0.953342 0.0243738
vt 1.05573 1.22895
vt 0.178994 1.24642
f 7/140/41 3/141/41 9/142/41

vt 1.0566 1.26782
vn 0.174992 -0.984466 0.0142934
vt 0.193187 1.26918
vt 1.05582 1.25066
f 3/143/42 7/144/42 4/145/42

vt 0.205581 1.25038
vn 0.184241 -0.982769 0.014846
vt 1.05443 1.24965
vt 0.191777 1.26724
f 8/146/43 4/147/43 7/148/43

vt 1.0568 1.26727
vn 0.0584687 -0.998278 0.00482108
vt 0.207952 1.26958
v 93.0584 1.40998e-015 -75.7292
vt 1.05598 1.25005
f 4/149/44 8/150/44 47/151/44

v 91.366 1.76248e-015 -54.6116
vt 0.219038 1.25196
vn 0.0649498 -0.997875 0.00520521
vt 1.0531 1.25196
vt 0.205028 1.26955
f 48/152/45 47/153/45 8/154/45

v 61.7622 1.40998e-015 -75.7292
vt -0.102612 0.94951
vn 2.79742e-017 -1 -2.50404e-017
vt -1.33475 0.94951
vt -1.26812 0.11811
v 63.4581 0 -54.6116
vt -0.16938 0.11811
f 49/155/46 47/156/46 48/157/46 50/158/46 

vt -0.0854099 -0.486082
vn 6.07172e-016 0.513169 -0.858287
vt -1.35195 -0.486082
vt -1.33475 -0.48726
vt -0.102612 -0.48726
f 1/159/47 4/160/47 47/161/47 49/162/47 

vt -0.93894 -0.161245
vn -0.058472 -0.998278 0.00472624
vt -0.938157 -0.178469
vt -0.0918384 -0.161245
f 1/163/48 49/164/48 6/165/48

vt -0.104172 -0.177968
vn -0.0599975 -0.998187 0.00481829
vt -0.091922 -0.161181
vt -0.938249 -0.177968
f 50/166/49 6/167/49 49/168/49

vt 1.28449 -0.102374
vn 2.99021e-017 -0.997232 0.0743529
vt 0.153658 -0.104193
vt 0.16938 -0.117783
vt 1.26812 -0.117783
f 8/169/50 6/170/50 50/171/50 48/172/50 

vt -1.36886 -0.104758
vn 3.37938e-016 0.114684 -0.993402
vt -0.0685019 -0.104758
v 60.4812 0.228361 -75.6842
vt -0.0521776 -0.0997588
vt -1.38518 -0.0997588
f 3/173/51 2/174/51 51/175/51 46/176/51 

vt -0.94036 -0.120844
vn -0.290202 -0.956673 0.0236711
vt -0.939604 -0.1379
vt -0.0637017 -0.120844
f 51/177/52 2/178/52 10/179/52

vt -0.0773225 -0.137316
vn -0.295491 -0.955044 0.0239942
vt -0.0637487 -0.120565
vt -0.939657 -0.137316
f 5/180/53 10/181/53 2/182/53

vt -0.0637017 -0.113952
vn -0.409682 -0.911616 0.0334167
vt -0.0509037 -0.097328
vt -0.94036 -0.113952
f 10/183/54 12/184/54 51/185/54

v 60.0884 0.401924 -75.6704
vt -0.941038 -0.0977872
vn -0.403042 -0.914586 0.0330118
vt -0.940317 -0.114685
vt -0.0508654 -0.0977872
f 52/186/55 51/187/55 12/188/55

vt -0.0367162 -0.0592595
vn 3.23682e-016 0.0792164 -0.996857
vt -1.40064 -0.0592595
vt -1.38518 -0.0661142
vt -0.0521776 -0.0661142
f 52/189/56 45/190/56 46/191/56 51/192/56 

vt -0.0223823 -0.0310626
vn -5.73308e-019 0.0585489 -0.998285
vt -1.41498 -0.0310626
vt -1.40064 -0.0396607
vt -0.0367162 -0.0396607
f 44/193/57 43/194/57 45/195/57 52/196/57 

vt -0.941676 -0.0731324
vn -0.512202 -0.857832 0.0421092
vt -0.941003 -0.0898337
vt -0.038985 -0.0731324
f 44/197/58 52/198/58 14/199/58

vt -0.0508654 -0.0889691
vn -0.519502 -0.853409 0.0425506
vt -0.0390153 -0.0725021
vt -0.941038 -0.0889691
f 12/200/59 14/201/59 52/202/59

vt -0.038985 -0.0626718
vn -0.623268 -0.780328 0.0512401
vt -0.0282694 -0.0463829
vt -0.941676 -0.0626718
f 14/203/60 16/204/60 44/205/60

vt -0.942261 -0.0471414
vn -0.616027 -0.786085 0.0508105
vt -0.941649 -0.0636214
vt -0.0282462 -0.0471414
f 42/206/61 44/207/61 16/208/61

vt -0.942261 -0.0362219
vn -0.71248 -0.699227 0.0587661
vt -0.0282462 -0.0362219
vt -0.942797 -0.019974
f 42/209/62 16/210/62 40/211/62

vt -0.0188223 -0.0193204
vn -0.718895 -0.692571 0.0594604
vt -0.94278 -0.0193204
vt -0.0282263 -0.035423
f 18/212/63 40/213/63 16/214/63

vt -0.94278 -0.00837557
vn -0.799115 -0.597534 0.0660954
vt -0.0188223 -0.00837557
vt -0.943234 0.00764481
f 40/215/64 18/216/64 38/217/64

vt -0.0108668 0.0083139
vn -0.804275 -0.590506 0.0666741
vt -0.943222 0.0083139
vt -0.018808 -0.00760345
f 20/218/65 38/219/65 18/220/65

vt -0.943222 0.0196356
vn -0.873226 -0.48191 0.0723902
vt -0.0108668 0.0196356
vt -0.943585 0.0354492
f 38/221/66 20/222/66 36/223/66

vt -0.00450883 0.0360393
vn -0.87682 -0.475273 0.0728167
vt -0.943576 0.0360393
vt -0.0108571 0.0202906
f 22/224/67 36/225/67 20/226/67

vt -0.943576 0.0472472
vn -0.932016 -0.354055 0.0774006
vt -0.00450883 0.0472472
vt -0.943841 0.0628902
f 36/227/68 22/228/68 34/229/68

vt 0.000149113 0.0633241
vn -0.934031 -0.348645 0.0776645
vt -0.943835 0.0633241
vt -0.00450276 0.0477151
f 24/230/69 34/231/69 22/232/69

vt -0.943835 0.0738323
vn -0.972909 -0.216572 0.0808972
vt 0.000149113 0.0738323
vt -0.943996 0.0893534
f 34/233/70 24/234/70 31/235/70

vt 0.00303364 0.0895912
vn -0.973655 -0.213148 0.081017
vt -0.943993 0.0895912
vt 0.000152281 0.0740821
f 26/236/71 31/237/71 24/238/71

vt 0.00410147 0.114229
vn -0.993936 -0.0724518 0.082712
vt -0.944047 0.114229
vt -0.943993 0.0987718
vt 0.00303401 0.0987723
f 28/239/72 32/240/72 31/241/72 26/242/72 

vt -0.944047 0.11811
vn -0.996555 0 0.0829373
vt 0.00410184 0.11811
v 60.4121 4 -51.6116
vt 0.00410184 0.15748
v 58.4147 4 -75.6116
vt -0.944047 0.15748
f 32/243/73 28/244/73 53/245/73 54/246/73 

vt 0.0494571 0.11811
vn 0 0 1
vt 1.38804 0.11811
v 94.4121 4 -51.6116
vt 1.38804 0.15748
vt 0.0494571 0.15748
f 28/247/74 27/248/74 55/249/74 53/250/74 

vt 0.11492 0.11811
vn 0.996567 0 0.0827927
vt 1.06306 0.11811
v 96.4059 4 -75.6116
vt 1.06306 0.15748
vt 0.11492 0.15748
f 27/251/75 29/252/75 56/253/75 55/254/75 

vt -1.46654 0.11811
vn 0 0 -1
vt 0.0291798 0.11811
vt 0.0291798 0.15748
vt -1.46654 0.15748
f 29/255/76 32/256/76 54/257/76 56/258/76 

vt -0.0291798 0.944882
vn 0 1 -0
v 76.702 4 -75.1116
vt 0.690792 0.925197
vt 1.46654 0.944882
f 54/259/77 57/260/77 56/261/77

v 59.5014 4 -74.6116
vt 0.013603 0.905512
f 57/260/77 54/259/77 58/262/77

vt 0.0494571 0
f 53/263/77 58/262/77 54/259/77

v 61.3323 4 -52.6116
vt 0.0856868 0.0393701
f 58/262/77 53/263/77 59/264/77

vt 1.38804 0
f 59/264/77 53/263/77 55/265/77

v 61.3755 4 -52.6116
vt 0.0873868 0.0393701
f 59/264/77 55/265/77 60/266/77

v 93.4486 4 -52.6116
vt 1.35011 0.0393701
f 60/266/77 55/265/77 61/267/77

v 93.4917 4 -52.6116
vt 1.3518 0.0393701
f 61/267/77 55/265/77 62/268/77

v 95.3194 4 -74.6116
vt 1.42376 0.905512
f 62/268/77 55/265/77 63/269/77

f 63/269/77 55/265/77 56/261/77

v 94.2688 4 -74.6116
vt 1.3824 0.905512
f 56/261/77 64/270/77 63/269/77

v 78.102 4 -75.1116
vt 0.74591 0.925197
f 56/261/77 65/271/77 64/270/77

f 56/261/77 57/260/77 65/271/77

v 78.102 1 -75.1116
vt 0.74591 0.0393701
v 78.102 2 -75.1116
vt 0.74591 0.0787402
vt 0.74591 0.15748
vt 0.690792 0.15748
v 76.702 2 -75.1116
vt 0.690792 0.0787402
v 76.702 1 -75.1116
vt 0.690792 0.0393701
f 66/272/74 67/273/74 65/274/74 57/275/74 68/276/74 69/277/74 

v 78.102 2 -72.1116
vt -0.807087 0.0787402
vn -1 0 -0
v 78.102 2 -74.6116
vt -0.905512 0.0787402
vt -0.925197 0.0787402
vt -0.925197 0.0393701
v 78.102 1 -72.1116
vt -0.807087 0.0393701
f 70/278/78 71/279/78 67/280/78 66/281/78 72/282/78 

v 69.652 2 -72.1116
vt 0.413233 0.807087
vn 2.61438e-018 1 1.03369e-018
v 76.702 2 -72.1116
vt 0.690792 0.807087
v 76.702 2 -74.6116
vt 0.690792 0.905512
v 60.5553 2 -74.6116
vt 0.0550964 0.905512
v 59.5014 2 -74.6116
v 61.3323 2 -52.6116
v 61.3755 2 -52.6116
v 93.4486 2 -52.6116
v 93.4917 2 -52.6116
v 95.3194 2 -74.6116
v 94.2688 2 -74.6116
vt 0.74591 0.905512
vt 0.74591 0.807087
v 85.152 2 -72.1116
vt 1.02347 0.807087
v 85.152 2 -67.7116
vt 1.02347 0.633858
v 89.152 2 -67.7116
vt 1.18095 0.633858
v 89.152 2 -65.8116
vt 1.18095 0.559055
v 89.152 2 -65.7116
vt 1.18095 0.555118
v 91.152 2 -65.7116
vt 1.25969 0.555118
v 91.152 2 -64.5116
vt 1.25969 0.507874
v 89.152 2 -64.5116
vt 1.18095 0.507874
v 89.152 2 -64.4116
vt 1.18095 0.503937
v 89.152 2 -62.5116
vt 1.18095 0.429134
v 85.152 2 -62.5116
vt 1.02347 0.429134
v 85.152 2 -58.1116
vt 1.02347 0.255906
v 69.652 2 -58.1116
vt 0.413233 0.255906
v 69.652 2 -62.5116
vt 0.413233 0.429134
v 65.652 2 -62.5116
vt 0.255753 0.429134
v 65.652 2 -64.4116
vt 0.255753 0.503937
v 65.652 2 -64.5116
vt 0.255753 0.507874
v 63.652 2 -64.5116
vt 0.177013 0.507874
v 63.652 2 -65.7116
vt 0.177013 0.555118
v 65.652 2 -65.7116
vt 0.255753 0.555118
v 65.652 2 -65.8116
vt 0.255753 0.559055
v 65.652 2 -67.7116
vt 0.255753 0.633858
v 69.652 2 -67.7116
vt 0.413233 0.633858
f 73/283/79 74/284/79 75/285/79 76/286/79 77/262/79 78/264/79 79/266/79 80/267/79 81/268/79 82/269/79 83/270/79 71/287/79 70/288/79 84/289/79 85/290/79 86/291/79 87/292/79 88/293/79 89/294/79 90/295/79 91/296/79 92/297/79 93/298/79 94/299/79 95/300/79 96/301/79 97/302/79 98/303/79 99/304/79 100/305/79 101/306/79 102/307/79 103/308/79 104/309/79 105/310/79 106/311/79 

v 69.652 1 -72.1116
vt 0.413233 0.0393701
vn -3.19996e-015 6.36169e-045 1
v 76.702 1 -72.1116
vt 0.413233 0.0787402
f 107/312/80 108/277/80 74/276/80 73/313/80 

v 85.152 1 -72.1116
vn 1.22364e-017 1 7.10473e-018
v 69.652 1 -65.7116
vt 0.413233 0.555118
v 63.652 1 -65.7116
v 63.652 1 -64.5116
v 69.652 1 -64.5116
vt 0.413233 0.507874
v 69.652 1 -58.1116
v 85.152 1 -58.1116
v 85.152 1 -64.5116
vt 1.02347 0.507874
v 91.152 1 -64.5116
v 91.152 1 -65.7116
v 85.152 1 -65.7116
vt 1.02347 0.555118
f 109/289/81 72/288/81 66/271/81 69/260/81 108/284/81 107/283/81 110/314/81 111/307/81 112/306/81 113/315/81 114/301/81 115/300/81 116/316/81 117/295/81 118/294/81 119/317/81 

vn -3.19996e-015 -6.36169e-045 1
vt 1.02347 0.0393701
vt 1.02347 0.0787402
f 70/273/82 72/272/82 109/318/82 84/319/82 

vt -0.633858 0.0787402
vt -0.555118 0.0393701
v 85.152 2 -65.7116
vt -0.555118 0.0787402
v 85.152 2 -65.8116
vt -0.559055 0.0787402
v 85.152 4 -65.8116
vt -0.559055 0.15748
v 85.152 4 -67.7116
vt -0.633858 0.15748
f 85/320/78 84/278/78 109/282/78 119/321/78 120/322/78 121/323/78 122/324/78 123/325/78 

vt 1.25969 0.0787402
vt 1.18095 0.0787402
vt 1.25969 0.0393701
f 89/326/74 88/327/74 120/319/74 119/318/74 118/328/74 

vn 8.8124e-017 1 -0
vt 1.02347 0.559055
f 120/317/83 88/293/83 87/292/83 121/329/83 

vt 1.02347 0.15748
v 87.152 4 -65.8116
vt 1.10221 0.15748
f 122/330/74 121/319/74 87/327/74 124/331/74 

v 87.152 4 -67.7116
vt 0.633858 -0.668024
vn 0.707107 0.707107 -0
vt 0.559055 -0.668024
vt 0.559055 -0.77938
vt 0.633858 -0.77938
f 125/332/84 124/333/84 87/334/84 86/335/84 

vt 1.10221 0.559055
vt 1.10221 0.633858
f 124/336/77 125/337/77 123/290/77 122/329/77 

vt -1.18095 0.0787402
vt -1.02347 0.0787402
vt -1.02347 0.15748
vt -1.10221 0.15748
f 86/338/76 85/339/76 123/340/76 125/341/76 

vt -0.507874 0.0787402
vt -0.507874 0.0393701
f 90/342/78 89/322/78 118/321/78 117/343/78 

vt -1.02347 0.0393701
v 85.152 2 -64.5116
vt -1.25969 0.0787402
vt -1.25969 0.0393701
f 116/344/76 126/339/76 91/338/76 90/345/76 117/346/76 

vt -0.255906 0.0393701
vt -0.255906 0.0787402
vt -0.429134 0.0787402
v 85.152 4 -62.5116
vt -0.429134 0.15748
v 85.152 4 -64.4116
vt -0.503937 0.15748
v 85.152 2 -64.4116
vt -0.503937 0.0787402
f 115/347/78 95/348/78 94/349/78 127/350/78 128/351/78 129/352/78 126/342/78 116/343/78 

vt -0.413233 0.0787402
vt -0.413233 0.0393701
f 96/353/76 95/339/76 115/344/76 114/354/76 

vt 0.429134 0.0787402
vn 1 0 -0
vt 0.255906 0.0787402
vt 0.255906 0.0393701
vt 0.507874 0.0393701
v 69.652 2 -64.5116
vt 0.507874 0.0787402
v 69.652 2 -64.4116
vt 0.503937 0.0787402
v 69.652 4 -64.4116
vt 0.503937 0.15748
v 69.652 4 -62.5116
vt 0.429134 0.15748
f 97/355/85 96/356/85 114/357/85 113/358/85 130/359/85 131/360/85 132/361/85 133/362/85 

vt -0.177013 0.0787402
vt -0.255753 0.0787402
vt -0.177013 0.0393701
f 101/363/76 100/364/76 130/353/76 113/354/76 112/365/76 

vt 0.413233 0.503937
f 130/315/77 100/305/77 99/304/77 131/366/77 

vt -0.413233 0.15748
v 67.652 4 -64.4116
vt -0.334493 0.15748
f 132/367/76 131/353/76 99/364/76 134/368/76 

vt -0.429134 0.236522
vn -0.707107 0.707107 -0
v 67.652 4 -62.5116
vt -0.429134 0.347878
vt -0.503937 0.347878
vt -0.503937 0.236522
f 98/369/86 135/370/86 134/371/86 99/372/86 

vt 0.413233 0.15748
vt 0.334493 0.15748
vt 0.255753 0.0787402
f 133/373/74 135/374/74 98/375/74 97/313/74 

vt 0.334493 0.503937
vt 0.334493 0.429134
f 133/302/77 132/366/77 134/376/77 135/377/77 

vt 0.555118 0.0787402
vt 0.555118 0.0393701
f 102/378/85 101/359/85 112/358/85 111/379/85 

v 69.652 2 -65.7116
vt 0.177013 0.0787402
vt 0.177013 0.0393701
f 110/312/74 136/313/74 103/375/74 102/380/74 111/381/74 

vt 0.807087 0.0393701
vt 0.807087 0.0787402
vt 0.633858 0.0787402
v 69.652 4 -67.7116
vt 0.633858 0.15748
v 69.652 4 -65.8116
vt 0.559055 0.15748
v 69.652 2 -65.8116
vt 0.559055 0.0787402
f 107/382/85 73/383/85 106/384/85 137/385/85 138/386/85 139/387/85 136/378/85 110/379/85 

v 67.652 4 -67.7116
f 106/353/76 105/364/76 140/368/76 137/367/76 

vt -0.633858 0.236522
vt -0.559055 0.236522
v 67.652 4 -65.8116
vt -0.559055 0.347878
vt -0.633858 0.347878
f 105/388/86 104/389/86 141/390/86 140/391/86 

f 141/374/74 104/375/74 139/313/74 138/373/74 

vt 0.413233 0.559055
f 103/308/77 136/314/77 139/392/77 104/309/77 

vt 0.334493 0.633858
vt 0.334493 0.559055
f 137/311/77 140/393/77 141/394/77 138/392/77 

v 87.152 4 -62.5116
f 94/319/74 93/327/74 142/331/74 127/330/74 

vt 0.429134 -0.668024
vt 0.429134 -0.77938
vt 0.503937 -0.77938
v 87.152 4 -64.4116
vt 0.503937 -0.668024
f 142/395/84 93/396/84 92/397/84 143/398/84 

f 143/341/76 92/338/76 129/339/76 128/340/76 

vt 1.02347 0.503937
f 91/296/83 126/316/83 129/399/83 92/297/83 

vt 1.10221 0.429134
vt 1.10221 0.503937
f 142/400/77 143/401/77 128/399/77 127/299/77 

vt 0.905512 0.0787402
vt 0.925197 0.0393701
vt 0.925197 0.0787402
f 75/402/85 74/383/85 108/382/85 69/403/85 68/404/85 

v 76.702 4 -74.6116
vt 0.905512 0.15748
vt 0.925197 0.15748
f 144/405/85 75/402/85 68/404/85 57/406/85 

vt 0.0550964 0.0787402
v 60.5553 4 -74.6116
vt 0.0550964 0.15748
f 76/407/74 75/276/74 144/275/74 145/408/74 

f 57/260/77 145/286/77 144/285/77

f 57/260/77 58/262/77 145/286/77

vt 0.013603 0.15748
vt 0.013603 0.0787402
f 76/407/74 145/408/74 58/409/74 77/410/74 

vt 0.901264 0.0787402
vn 0.996555 0 -0.0829373
vt 0.901264 0.15748
vt 0.0321278 0.15748
vt 0.0321278 0.0787402
f 77/411/87 58/412/87 59/413/87 78/414/87 

vt -0.0856868 0.0787402
vt -0.0856868 0.15748
vt -0.0873868 0.15748
vt -0.0873868 0.0787402
f 78/415/76 59/416/76 60/417/76 79/418/76 

vt -1.35011 0.15748
vt -1.35011 0.0787402
f 79/418/76 60/417/76 61/419/76 80/420/76 

vt -1.3518 0.15748
vt -1.3518 0.0787402
f 80/420/76 61/419/76 62/421/76 81/422/76 

vt -0.151155 0.0787402
vn -0.996567 0 -0.0827927
vt -0.151155 0.15748
vt -1.02028 0.15748
vt -1.02028 0.0787402
f 81/423/88 62/424/88 63/425/88 82/426/88 

vt 1.42376 0.0787402
vt 1.42376 0.15748
vt 1.3824 0.15748
vt 1.3824 0.0787402
f 82/427/74 63/428/74 64/429/74 83/430/74 

v 78.102 4 -74.6116
f 64/429/74 146/274/74 71/273/74 83/430/74 

f 64/270/77 65/271/77 146/287/77

vt -0.905512 0.15748
vt -0.925197 0.15748
f 71/279/78 146/431/78 65/432/78 67/280/78 

g Mesh2 OuterShell1 Model

v 57.5245 2.22354 -102.555
vt -0.00442522 0.364702
vn -2.07719e-016 -0.285961 -0.958241
v 97.2997 2.22354 -102.555
vt -1.57038 0.364702
v 97.1576 1.85195 -102.444
vt -1.56478 0.349436
vn 0.592474 -0.512348 -0.621671
v 97.1398 1.81928 -102.434
vt -1.56408 0.348091
vn 0.374204 -0.506531 -0.776787
v 57.6844 1.81928 -102.434
vt -0.0107207 0.348091
vn -0.374319 -0.50655 -0.77672
v 57.6666 1.85195 -102.444
vt -0.0100198 0.349436
vn -0.831006 -0.490727 -0.261947
f 147/433/89 148/434/89 149/435/90 150/436/91 151/437/92 152/438/93 

vt -1.57038 0.317192
vn 0.868621 -0.295717 -0.397553
vt -0.00442522 0.317192
vn -0.000267942 -0.192867 -0.981225
v 97.3532 2.45633 -102.611
vt -1.57249 0.326624
vn 0.311114 -0.190155 -0.931155
f 148/439/94 147/440/95 153/441/96

v 57.441 2.59963 -102.611
vt -0.00167018 0.247825
vn -0.000268427 -0.0746225 -0.997212
vt -1.57302 0.242119
vt -0.00495687 0.232851
f 154/442/97 153/443/96 147/444/95

v 97.3832 2.59963 -102.611
vt -1.57367 0.10221
vn 0.704498 -0.15238 -0.693154
vt -1.57249 0.096568
vt -0.00113732 0.10221
f 155/445/98 153/446/96 154/447/97

v 96.3845 2.60842 -77.6116
vt 0.0613865 0.424442
vn 0.97603 -0.214091 0.0391195
vt 1.04405 0.408937
vt 1.04636 0.418321
vt 1.04641 0.424085
f 156/448/99 148/449/94 153/450/96 155/451/98 

v 96.2989 2.22354 -77.6116
vt 0.0613739 0.417111
vn 0.975431 -0.216802 0.0391346
vt 1.04417 0.417111
vt 0.061509 0.432633
f 157/452/100 148/453/94 156/454/99

vt 1.04417 0.613138
vn 0.937058 -0.347143 0.037595
vt 0.0613739 0.613138
vn 0.935705 -0.350773 0.0376026
vt 1.03959 0.597539
f 148/455/101 157/456/102 149/457/102

v 96.158 1.85195 -77.6116
vt 0.0613528 0.60835
vn 0.934338 -0.354397 0.0376095
vt 1.03979 0.60835
vt 0.061576 0.623995
f 158/458/103 149/459/102 157/460/102

vt 0.0613596 0.787547
vn 0.877398 -0.478457 0.0353925
v 96.9612 1.5 -102.282
vt 1.03311 0.771805
vn 0.768478 -0.593217 -0.239867
vt 1.03938 0.786088
vt 1.0398 0.787545
f 158/461/104 159/462/105 150/463/91 149/464/90 

v 95.9641 1.5 -77.6116
vt 0.0612984 0.783187
vn 0.875284 -0.482313 0.0353785
vt 1.03336 0.783187
vt 0.0616067 0.799005
f 160/465/106 159/466/105 158/467/104

vt 0.0613082 0.942904
vn 0.803706 -0.594134 0.0325687
v 96.7141 1.17372 -102.072
vt 1.02472 0.926989
vn 0.674781 -0.706476 -0.213453
v 96.9279 1.45516 -102.26
vt 1.03248 0.940721
vn 0.32843 -0.642084 -0.692721
vt 1.03337 0.9429
f 160/468/107 161/469/108 162/470/109 159/471/105 

v 95.7204 1.17372 -77.6116
vt 0.0612141 0.938121
vn 0.800876 -0.597946 0.0325323
vt 1.02501 0.938121
vt 0.0616034 0.954147
f 163/472/110 161/473/108 160/474/107

vt 0.0612276 1.07715
vn 0.71731 -0.696141 0.0292252
v 96.4203 0.87868 -101.819
vt 1.01459 1.06104
vn 0.576532 -0.796013 -0.184321
v 96.6599 1.1184 -102.035
vt 1.02348 1.07413
vn 0.28081 -0.747841 -0.601564
vt 1.02503 1.07714
f 163/475/111 164/476/112 165/477/113 161/478/108 

v 95.4313 0.87868 -77.6116
vt 0.0611042 1.07103
vn 0.713936 -0.699603 0.0291691
vt 1.01493 1.07103
vt 0.0615689 1.08728
f 166/479/114 164/480/112 163/481/111

vt 0.0611219 1.18909
vn 0.620852 -0.783514 0.0254528
v 96.0852 0.61994 -101.526
vt 1.00291 1.17279
vn 0.477815 -0.864888 -0.153825
v 96.3401 0.815835 -101.762
vt 1.01258 1.18514
vn 0.233457 -0.829703 -0.507041
vt 1.01494 1.18908
f 166/482/115 167/483/116 168/484/117 164/485/112 

v 95.1017 0.61994 -77.6116
vt 0.0609728 1.18098
vn 0.617199 -0.786397 0.0253829
vt 1.00329 1.18098
vt 0.0615062 1.19747
f 169/486/118 167/487/116 166/488/115

vt 0.0609956 1.27838
vn 0.516729 -0.855883 0.0213322
v 95.7143 0.401924 -101.201
vt 0.989913 1.26189
vn 0.380803 -0.916464 -0.12281
v 95.974 0.553624 -101.447
vt 1 1.27338
vn 0.187571 -0.891587 -0.412178
vt 1.00332 1.27837
f 169/489/119 170/490/120 171/491/121 167/492/116 

v 94.7371 0.401924 -77.6116
vt 0.0608246 1.26796
vn 0.513106 -0.858062 0.0212565
vt 0.990332 1.26796
vt 0.0614187 1.28467
f 172/493/122 170/494/120 169/495/119

vt 0.0608539 1.34525
vn 0.406982 -0.913279 0.0169311
v 95.3141 0.228361 -100.848
vt 0.975832 1.3286
vn 0.282226 -0.950824 -0.127603
v 95.5671 0.337086 -101.096
vt 0.985989 1.33906
vn 0.143523 -0.937028 -0.318403
vt 0.990361 1.34523
f 172/496/123 173/497/124 174/498/125 170/499/120 

v 94.3438 0.228361 -77.6116
vt 0.0606643 1.3325
vn 0.403706 -0.914734 0.0168582
vt 0.976283 1.3325
vt 0.0613102 1.34941
f 175/500/126 173/501/124 172/502/123

vt 0.0606643 1.39019
vn 0.293327 -0.955933 0.012301
v 94.8915 0.102223 -100.474
vt 0.960889 1.37342
vn 0.297836 -0.954469 0.0168138
vt 0.976283 1.39019
vn 0.301419 -0.953301 0.0190995
f 175/503/127 176/504/128 173/505/129

v 93.9286 0.102223 -77.6116
vt 0.0604964 1.37543
vn 0.290653 -0.95675 0.0122415
vt 0.961403 1.37543
vt 0.0611843 1.3925
f 177/506/130 176/507/128 175/508/127

vt 0.0604964 1.41394
vn 0.176983 -0.984185 0.00748749
v 94.4537 0.0256654 -100.086
vt 0.945407 1.39709
vn 0.179878 -0.983636 0.0102033
vt 0.961403 1.41394
vn 0.182187 -0.983196 0.0115807
f 177/509/131 178/510/132 176/511/133

v 93.4985 0.0256654 -77.6116
vt 0.060325 1.39761
vn 0.175255 -0.984495 0.00744816
vt 0.945948 1.39761
vt 0.061044 1.4148
f 179/512/134 178/513/132 177/514/131

vt 0.945948 1.41686
vn 0.0610079 -0.998134 0.00259277
vt 0.060325 1.41686
vn 0.0597824 -0.998208 0.00256355
v 94.0317 0.000349237 -99.9037
vt 0.938065 1.40054
f 178/515/135 179/516/136 180/517/136

v 93.061 1.40998e-015 -77.6116
vt 0.0606861 1.39978
vn 0.0585568 -0.998281 0.00253431
vt 0.939158 1.40001
vt 0.061431 1.41702
f 181/518/137 180/519/136 179/520/136

v 60.7924 0.000349237 -99.9037
vt -0.133084 0.87764
vn 1.36741e-016 -1 -1.56664e-005
vt -1.44172 0.87764
vt -1.4035 -3.00664e-021
v 61.7741 1.40998e-015 -77.6116
vt -0.171733 -3.67894e-022
f 182/521/138 180/522/138 181/523/138 183/524/138 

v 60.182 0.0576109 -100.316
vt -0.109052 0.885723
vn -1.66614e-017 -0.990514 -0.137411
v 94.6421 0.0576109 -100.316
vt -1.46575 0.885723
vt -1.45833 0.87657
vt -1.44172 0.869317
vt -0.133084 0.869317
v 60.3704 0.0256654 -100.086
vt -0.116472 0.87657
f 184/525/139 185/526/139 178/527/139 180/528/139 182/529/139 186/530/139 

v 59.7001 0.170622 -100.717
vt -0.0900809 0.877217
vn 1.4686e-016 -0.962347 -0.271825
v 95.124 0.170622 -100.717
vt -1.48472 0.877217
vt -1.47557 0.867311
vt -1.46575 0.860849
vt -0.109052 0.860849
v 59.9326 0.102223 -100.474
vt -0.0992342 0.867311
f 187/531/140 188/532/140 176/533/140 185/534/140 184/535/140 189/536/140 

v 59.2571 0.337086 -101.096
vt -0.0726374 0.851961
vn -4.97527e-017 -0.915694 -0.401877
vt -1.50217 0.851961
vt -1.49221 0.84131
vt -1.48472 0.835653
vt -0.0900809 0.835653
v 59.51 0.228361 -100.848
vt -0.0825956 0.84131
f 190/537/141 174/538/125 173/539/124 188/540/141 187/541/141 191/542/141 

vt -1.50217 0.793728
vt -0.0726374 0.793728
vn -5.33047e-016 -0.850939 -0.525265
v 59.1098 0.401924 -101.201
vt -0.0668405 0.798587
v 58.8501 0.553624 -101.447
vt -0.0566168 0.809958
vt -1.51819 0.809958
vt -1.50796 0.798587
f 174/543/125 190/544/142 192/545/142 193/546/142 171/547/121 170/548/120 

vt -0.925099 -0.0896464
vn -0.482679 -0.875565 0.0201754
vt -0.920725 -0.0958179
vn -0.411129 -0.911414 0.0172385
v 60.098 0.401924 -77.6116
vt 0.00442596 -0.0896464
vn -0.435336 -0.900082 0.0182789
f 192/549/143 190/550/144 194/551/145

vt -0.910554 -0.10661
vn -0.370963 -0.928516 0.01563
vt 0.00443403 -0.0899173
vt -0.920716 -0.0961531
f 191/552/146 194/553/145 190/554/144

v 60.4913 0.228361 -77.6116
vt 0.00511491 -0.10716
vn -0.322172 -0.946583 0.0136416
vt 0.00446165 -0.0902488
vt -0.910522 -0.10716
f 195/555/147 194/556/145 191/557/146

vt 1.53435 0.102694
v 96.4132 3 -77.6116
vt 1.53548 0.11811
v 96.4132 4 -77.6116
vt 1.53548 0.15748
v 58.4219 4 -77.6116
vt 0.039758 0.15748
v 58.4219 3 -77.6116
vt 0.039758 0.11811
v 58.4506 2.60842 -77.6116
vt 0.0408871 0.102694
v 58.5361 2.22354 -77.6116
vt 0.0442549 0.0875411
v 58.6771 1.85195 -77.6116
vt 0.049804 0.0729114
v 58.871 1.5 -77.6116
vt 0.0574393 0.0590551
v 59.1146 1.17372 -77.6116
vt 0.0670302 0.0462093
v 59.4037 0.87868 -77.6116
vt 0.0784126 0.0345937
v 59.7334 0.61994 -77.6116
vt 0.0913918 0.0244071
vt 0.105746 0.0158238
vt 0.121228 0.00899061
v 60.9065 0.102223 -77.6116
vt 0.137575 0.00402451
v 61.3365 0.0256654 -77.6116
vt 0.154507 0.00101045
vt 0.171733 0
vt 1.4035 0
vt 1.42073 0.00101045
vt 1.43766 0.00402451
vt 1.45401 0.00899061
vt 1.46949 0.0158238
vt 1.48384 0.0244071
vt 1.49682 0.0345937
vt 1.5082 0.0462093
vt 1.5178 0.0590551
vt 1.52543 0.0729114
vt 1.53098 0.0875411
f 156/558/74 196/559/74 197/560/74 198/561/74 199/562/74 200/563/74 201/564/74 202/565/74 203/566/74 204/567/74 205/568/74 206/569/74 194/570/74 195/571/74 207/572/74 208/573/74 183/574/74 181/575/74 179/576/74 177/577/74 175/578/74 172/579/74 169/580/74 166/581/74 163/582/74 160/583/74 158/584/74 157/585/74 

vt 0.0612849 0.214313
vn 0.996537 -0.072984 0.0398355
vt 1.04631 0.213966
vn 0.996578 -0.0724283 0.0398282
vt 0.06133 0.229771
f 156/586/148 155/587/149 196/588/149

v 97.4121 3 -102.612
vt 1.04634 0.228075
vn 0.996619 -0.0718726 0.0398209
vt 0.0613025 0.228075
vt 1.04628 0.212272
f 209/589/150 196/590/149 155/591/149

vt 0.0613025 0.11811
vn 0.999203 0 0.0399241
vt 1.04634 0.11811
v 97.4121 4 -102.612
vt 1.04634 0.15748
vt 0.0613025 0.15748
f 196/592/151 209/593/151 210/594/151 197/595/151 

vt -1.57367 0.103242
vn 1.04252e-016 -0.000908627 -1
vt -0.00113732 0.103242
v 57.4121 3 -102.612
vt 1.02611e-016 0.119005
v 57.4121 4 -102.612
vt 1.02611e-016 0.158375
vt -1.5748 0.158375
vt -1.5748 0.119005
f 155/596/152 154/597/152 211/598/152 212/599/152 210/600/152 209/601/152 

vt -0.983389 0.0991449
vn -0.985165 -0.166913 0.0398776
vt 0.00165097 0.099492
vn -0.991862 -0.120837 0.0400942
vt -0.983449 0.114948
vn -0.996561 -0.0724268 0.040264
f 154/602/153 200/603/154 211/604/155

vt 0.00165312 0.0913943
vt -0.983387 0.0910397
vt 0.00178929 0.0758724
vn -0.964458 -0.26133 0.0390869
f 200/605/154 154/606/153 201/607/156

vt -0.981023 0.0762451
vn -0.951625 -0.304824 0.0386394
vt 0.00179348 0.0762451
vt -0.983383 0.0913924
f 147/608/157 201/609/156 154/610/153

vt 0.00179348 0.0661886
vt -0.981023 0.0661886
vt 0.00201836 0.0505435
vn -0.917712 -0.395491 0.0373032
f 201/611/156 147/612/157 202/613/158

vt -0.976433 0.0511138
vt 0.00202503 0.0511138
vt -0.981017 0.0667126
f 152/614/93 202/615/158 147/616/157

vt 0.00202503 0.0398694
vt -0.976433 0.0398694
vt 0.00233549 0.0240518
vn -0.853831 -0.519382 0.034841
f 202/617/158 152/618/93 203/619/159

vt 0.00234524 0.0247613
vt -0.976425 0.0404994
vt -0.976002 0.0390426
v 57.8629 1.5 -102.282
vt -0.969734 0.0247611
vn -0.742989 -0.625061 -0.239303
f 203/620/159 152/621/93 151/622/92 213/623/160 

vt -1.55574 0.468959
v 57.8962 1.45516 -102.26
vt -0.0190625 0.468959
vn -0.328552 -0.642111 -0.692637
vt -0.0177499 0.470915
vt -0.0107207 0.484838
vt -1.56408 0.484838
vt -1.55705 0.470915
f 162/624/109 214/625/161 213/626/160 151/627/92 150/628/91 159/629/105 

vt -0.0190625 0.587637
vt -1.55574 0.587637
vt -1.54732 0.574301
vt -1.54519 0.57168
v 58.1643 1.1184 -102.035
vt -0.0296142 0.57168
vn -0.280935 -0.747872 -0.601467
v 58.1101 1.17372 -102.072
vt -0.0274808 0.574301
vn -0.646673 -0.732397 -0.213095
f 214/630/161 162/631/109 161/632/108 165/633/113 215/634/162 216/635/163 

vt -0.0296142 0.67701
vt -1.54519 0.67701
vt -1.53576 0.664296
vt -1.5326 0.660962
v 58.484 0.815835 -101.762
vt -0.0422017 0.660962
vn 1.77349e-016 -0.670093 -0.742277
v 58.4038 0.87868 -101.819
vt -0.0390438 0.664296
vn -0.514496 -0.816517 -0.261904
f 215/636/162 165/637/113 164/638/112 168/639/117 217/640/164 218/641/165 

vt -0.0422017 0.75145
vn 4.91779e-016 -0.768733 -0.639569
vt -1.5326 0.75145
vt -1.52256 0.739391
vt -1.51819 0.735309
vt -0.0566168 0.735309
v 58.7389 0.61994 -101.526
vt -0.0522395 0.739391
f 217/642/166 168/643/117 167/644/116 171/645/121 193/646/166 219/647/166 

vt -0.938541 -0.0649795
vn -0.589165 -0.807643 0.0244495
vt -0.935223 -0.0699616
vn -0.52154 -0.852951 0.0217005
vt 0.00379715 -0.0649795
vn -0.544083 -0.838725 0.022671
f 219/648/167 193/649/168 206/650/169

vt -0.925126 -0.0818186
vt 0.00380165 -0.0653101
vt -0.935219 -0.0703316
f 192/651/143 206/652/169 193/653/168

vt 0.00442596 -0.08253
vt 0.00382519 -0.0658164
vt -0.925099 -0.08253
f 194/654/145 206/655/169 192/656/143

vt 0.00379715 -0.0567307
vt 0.00325789 -0.0402403
vn -0.662059 -0.748953 0.0273532
vt -0.938541 -0.0567307
f 206/657/169 205/658/170 219/659/167

vt -0.938563 -0.055902
vt 0.00323901 -0.0395895
vt -0.948239 -0.0435516
vn -0.625888 -0.779484 0.0258653
f 219/660/167 205/661/170 217/662/171

vt -0.950604 -0.0392082
vt -0.948242 -0.0431456
vt 0.0032364 -0.0392082
f 218/663/165 217/664/171 205/665/170

vt 0.00323656 -0.0292902
vt -0.961051 -0.0131965
vt -0.959506 -0.0162021
vt -0.950604 -0.0292915
f 205/666/170 216/667/163 215/668/162 218/669/165 

vt 0.00275053 -0.0138367
vn -0.775489 -0.630561 0.0317937
vt -0.961068 -0.0138367
vt 0.0032176 -0.0300929
f 204/670/172 216/671/163 205/672/170

vt 0.0027506 -0.00221277
vt -0.969722 0.0136947
vt -0.968828 0.0115159
vt -0.961068 -0.00221336
f 204/673/172 213/674/160 214/675/161 216/676/163 

vt 0.00234521 0.0130182
vt -0.969734 0.0130182
vt 0.0027368 -0.00300828
f 203/677/159 213/678/160 204/679/172

vt 0.00160468 0.114896
vn -0.996521 -0.0729828 0.0402536
vt -0.98345 0.114896
vt 0.00165025 0.0994383
f 199/680/173 211/681/155 200/682/154

vt -0.98345 0.11811
vn -0.999185 0 0.0403612
vt 0.00160468 0.11811
vt 0.00160468 0.15748
vt -0.98345 0.15748
f 211/683/174 199/684/174 198/685/174 212/686/174 

v 58.4533 4 -101.612
vt 0.0409925 0.944882
vt 0 0.984252
vt 0.039758 0
f 220/687/77 212/688/77 198/689/77

vt 1.5748 0.984252
f 212/688/77 220/687/77 210/690/77

v 96.3713 4 -101.612
vt 1.53383 0.944882
f 210/690/77 220/687/77 221/691/77

v 96.3713 2 -101.612
vt 1.53383 0.0787402
vt 1.53383 0.15748
vt 0.0409925 0.15748
v 58.4533 2 -101.612
vt 0.0409925 0.0787402
f 222/692/74 221/693/74 220/694/74 223/695/74 

v 95.4523 2 -78.6116
vt -0.099131 0.0787402
vn -0.999203 0 -0.0399241
v 95.4523 4 -78.6116
vt -0.099131 0.15748
vt -1.00537 0.15748
vt -1.00537 0.0787402
f 224/696/175 225/697/175 221/698/175 222/699/175 

vt -1.49765 0.0787402
v 78.2028 2 -78.6116
vt -0.818532 0.0787402
v 78.2028 4 -78.6116
vt -0.818532 0.15748
vt -1.49765 0.15748
f 224/700/76 226/701/76 227/702/76 225/703/76 

v 59.3823 2 -78.6116
vt 0.0775699 0.0393701
v 76.6028 2 -78.6116
vt 0.75554 0.0393701
v 76.6028 2 -80.5629
vt 0.75554 0.116193
v 69.6528 2 -80.5629
vt 0.481918 0.116193
v 69.6528 2 -84.9629
vt 0.481918 0.289421
v 65.6528 2 -84.9629
vt 0.324438 0.289421
v 65.6528 2 -86.8629
vt 0.324438 0.364224
v 65.6528 2 -86.9629
vt 0.324438 0.368161
v 63.6528 2 -86.9629
vt 0.245697 0.368161
v 63.6528 2 -88.1629
vt 0.245697 0.415405
v 65.6528 2 -88.1629
vt 0.324438 0.415405
v 65.6528 2 -88.2629
vt 0.324438 0.419342
v 65.6528 2 -90.1629
vt 0.324438 0.494145
v 69.6528 2 -90.1629
vt 0.481918 0.494145
v 69.6528 2 -94.5629
vt 0.481918 0.667374
v 85.1528 2 -94.5629
vt 1.09215 0.667374
v 85.1528 2 -90.1629
vt 1.09215 0.494145
v 89.1528 2 -90.1629
vt 1.24963 0.494145
v 89.1528 2 -88.2629
vt 1.24963 0.419342
v 89.1528 2 -88.1629
vt 1.24963 0.415405
v 91.1528 2 -88.1629
vt 1.32837 0.415405
v 91.1528 2 -86.9629
vt 1.32837 0.368161
v 89.1528 2 -86.9629
vt 1.24963 0.368161
v 89.1528 2 -86.8629
vt 1.24963 0.364224
v 89.1528 2 -84.9629
vt 1.24963 0.289421
v 85.1528 2 -84.9629
vt 1.09215 0.289421
v 85.1528 2 -80.5629
vt 1.09215 0.116193
v 78.2028 2 -80.5629
vt 0.818532 0.116193
vt 0.818532 0.0393701
vt 1.49765 0.0393701
f 228/704/77 229/705/77 230/706/77 231/707/77 232/708/77 233/709/77 234/710/77 235/711/77 236/712/77 237/713/77 238/714/77 239/715/77 240/716/77 241/717/77 242/718/77 243/719/77 244/720/77 245/721/77 246/722/77 247/723/77 248/724/77 249/725/77 250/726/77 251/727/77 252/728/77 253/729/77 254/730/77 255/731/77 226/732/77 224/733/77 222/691/77 223/687/77 

v 59.3823 4 -78.6116
vt -0.0775699 0.15748
v 76.6028 4 -78.6116
vt -0.75554 0.15748
vt -0.75554 0.0787402
vt -0.0775699 0.0787402
f 256/734/76 257/735/76 229/736/76 228/737/76 

v 76.6028 4 -78.1116
vt 0.75554 0.019685
f 257/705/77 256/704/77 258/738/77

f 256/704/77 198/689/77 258/738/77

f 198/689/77 256/704/77 220/687/77

vt 0.942457 0.0787402
vn 0.999185 0 -0.0403612
vt 0.942457 0.15748
vt 0.0362072 0.15748
vt 0.0362072 0.0787402
f 223/739/176 220/740/176 256/741/176 228/742/176 

vt 1.53548 0
f 258/738/77 198/689/77 197/743/77

v 78.2028 4 -78.1116
vt 0.818532 0.019685
f 258/738/77 197/743/77 259/744/77

f 259/744/77 197/743/77 227/732/77

f 227/732/77 197/743/77 225/733/77

f 225/733/77 197/743/77 221/691/77

f 210/690/77 221/691/77 197/743/77

v 78.2028 0.5 -78.1116
vt -0.019685 0.019685
vt -0.019685 0.15748
vt -0.0393701 0.15748
vt -0.0393701 0.0787402
vt -0.116193 0.0787402
v 78.2028 1.5 -80.5629
vt -0.116193 0.0590551
v 78.2028 1.5 -81.5629
vt -0.155563 0.0590551
v 78.2028 0.5 -81.5629
vt -0.155563 0.019685
f 260/745/78 259/746/78 227/747/78 226/748/78 255/749/78 261/750/78 262/751/78 263/752/78 

vt -0.818532 0.019685
v 76.6028 0.5 -78.1116
vt -0.75554 0.019685
f 260/753/76 264/754/76 258/735/76 259/702/76 

vn 8.60824e-017 1 -4.42077e-017
v 76.6028 0.5 -81.5629
vt 0.75554 0.155563
f 260/744/177 265/755/177 264/738/177

vt 0.818532 0.155563
f 263/756/177 265/755/177 260/744/177

v 81.7329 0.5 -83.0629
vt 0.957513 0.214618
f 266/757/177 265/755/177 263/756/177

v 73.0727 0.5 -83.0629
vt 0.616559 0.214618
f 267/758/177 265/755/177 266/757/177

v 70.4746 0.5 -81.5629
vt 0.514272 0.155563
f 265/755/177 267/758/177 268/759/177

v 75.126 0.5 -89.6194
vt 0.697398 0.472746
f 267/758/177 269/760/177 268/759/177

v 76.2644 0.5 -88.5911
vt 0.742217 0.432265
f 269/760/177 267/758/177 270/761/177

v 73.0727 1.5 -83.0629
vt -0.494144 0.0590551
vn -0.866025 2.00883e-017 -0.5
v 76.2644 1.5 -88.5911
vt -0.745461 0.0590551
v 77.4028 1.5 -90.5629
vt -0.835099 0.0590551
v 77.4028 0.5 -90.5629
vt -0.835099 0.019685
vt -0.745461 0.019685
vt -0.494144 0.019685
f 271/762/178 272/763/178 273/764/178 274/765/178 270/766/178 267/767/178 

v 73.9387 1.5 -83.5629
vt 0.650654 0.234303
vn 1.03211e-016 1 -3.50487e-017
f 275/768/179 272/761/179 271/758/179

v 76.6438 1.5 -88.2484
vt 0.757157 0.418771
f 272/761/179 275/768/179 276/769/179

vt 0.741245 0.0590551
vn 0.866025 -6.76176e-017 0.5
vt 0.528239 0.0590551
v 73.9387 0.5 -83.5629
vt 0.528239 0.019685
v 76.6438 0.5 -88.2484
vt 0.741245 0.019685
f 276/770/180 275/771/180 277/772/180 278/773/180 

vt -0.650654 0.0590551
v 80.8669 1.5 -83.5629
vt -0.923418 0.0590551
v 80.8669 0.5 -83.5629
vt -0.923418 0.019685
vt -0.650654 0.019685
f 275/774/76 279/775/76 280/776/76 277/777/76 

v 81.7329 1.5 -83.0629
vt 0.923418 0.234303
f 275/768/179 281/757/179 279/778/179

f 281/757/179 275/768/179 271/758/179

vt 0.957513 0.0590551
vt 0.616559 0.0590551
vt 0.616559 0.019685
vt 0.957513 0.019685
f 281/779/74 271/780/74 267/781/74 266/782/74 

v 81.0224 1.5 -84.2936
vt -0.236944 0.0590551
vn 0.866025 0 -0.5
vt -0.292892 0.0590551
vt -0.292892 0.019685
v 81.0224 0.5 -84.2936
vt -0.236944 0.019685
f 282/783/181 281/784/181 266/785/181 283/786/181 

vt 0.929539 0.263071
f 279/778/179 281/757/179 282/787/179

v 79.8158 1.5 -85.3834
vt 0.882038 0.305975
f 282/787/179 284/788/179 279/778/179

vt 0.787036 0.509893
f 273/789/179 284/788/179 282/787/179

v 77.4028 1.5 -89.5629
vt 0.787036 0.470523
f 273/789/179 285/790/179 284/788/179

f 273/789/179 276/769/179 285/790/179

f 272/761/179 276/769/179 273/789/179

vt 0.801003 0.0590551
vn 0.866025 0 0.5
v 77.4028 0.5 -89.5629
vt 0.801003 0.019685
f 285/791/182 276/770/182 278/773/182 286/792/182 

vn 9.48153e-017 1 -6.43416e-018
v 77.4028 0.5 -87.5629
vt 0.787036 0.391783
f 278/769/183 287/793/183 286/790/183

v 75.6707 0.5 -84.5629
vt 0.718845 0.273673
f 278/769/183 288/794/183 287/793/183

f 288/794/183 278/769/183 277/768/183

f 280/778/183 288/794/183 277/768/183

v 79.1348 0.5 -84.5629
vt 0.855227 0.273673
f 288/794/183 280/778/183 289/795/183

v 79.8158 0.5 -85.3834
f 289/795/183 280/778/183 290/788/183

vt 0.258797 0.0590551
vn -0.866025 -1.67338e-016 0.5
vt 0.176037 0.0590551
vt -0.0139671 0.0590551
vt -0.0139671 0.019685
vt 0.176037 0.019685
vt 0.258797 0.019685
f 279/796/184 284/797/184 285/798/184 286/799/184 290/800/184 280/801/184 

f 286/790/183 289/795/183 290/788/183

f 286/790/183 287/793/183 289/795/183

v 77.4028 1.5 -87.5629
vt -0.0542239 0.0590551
vn 0.866025 9.23674e-017 -0.5
v 79.1348 1.5 -84.5629
vt -0.190606 0.0590551
vt -0.190606 0.019685
vt -0.0542239 0.019685
f 291/802/185 292/803/185 289/804/185 287/805/185 

vn 1.01757e-016 1 -0
v 75.6707 1.5 -84.5629
f 292/795/186 291/793/186 293/794/186

vt -0.59643 0.0590551
vn -0.866025 2.87868e-017 -0.5
vt -0.732812 0.0590551
vt -0.732812 0.019685
vt -0.59643 0.019685
f 293/806/187 291/807/187 287/808/187 288/809/187 

vt 0.855227 0.0590551
vt 0.718845 0.0590551
vt 0.718845 0.019685
vt 0.855227 0.019685
f 292/810/74 293/811/74 288/812/74 289/813/74 

vt 0.0480626 0.0590551
vn 0.866025 1.84735e-016 -0.5
vt 0.0480626 0.019685
f 273/814/188 282/783/188 283/786/188 274/815/188 

v 77.4028 0.5 -93.5629
vt 0.787036 0.628004
f 294/816/177 274/789/177 283/787/177

f 294/816/177 270/761/177 274/789/177

f 269/760/177 270/761/177 294/816/177

vt 0.937385 0.019685
vn 0.866025 -1.87426e-016 0.5
v 77.4028 1.5 -93.5629
vt 0.937385 0.0590551
v 75.126 1.5 -89.6194
vt 0.758109 0.0590551
vt 0.758109 0.019685
f 294/817/189 295/818/189 296/819/189 269/820/189 

v 84.331 0.5 -81.5629
vt 0.395179 0.019685
vn -0.866025 2.30294e-016 0.5
v 84.331 1.5 -81.5629
vt 0.395179 0.0590551
vt -0.150349 0.0590551
vt -0.150349 0.019685
f 297/821/190 298/822/190 295/823/190 294/824/190 

v 84.0456 0.5 -81.5629
vt -1.04857 0.019685
vn -1.8505e-015 -1.59347e-031 -1
vt -0.818532 0.0590551
v 84.0456 1.5 -81.5629
vt -1.04857 0.0590551
vt -1.0598 0.0590551
vt -1.0598 0.019685
f 299/825/191 263/753/191 262/826/191 300/827/191 298/828/191 297/829/191 

vt 1.04857 0.155563
f 266/757/177 263/756/177 299/830/177

vt 1.0598 0.155563
f 297/831/177 266/757/177 299/830/177

f 297/831/177 283/787/177 266/757/177

f 294/816/177 283/787/177 297/831/177

vn 5.34662e-017 1 -4.30394e-018
v 85.1528 1.5 -80.5629
v 85.1528 1.5 -86.9629
vt 1.09215 0.368161
v 91.1528 1.5 -86.9629
v 91.1528 1.5 -88.1629
v 85.1528 1.5 -88.1629
vt 1.09215 0.415405
v 85.1528 1.5 -94.5629
v 69.6528 1.5 -94.5629
v 69.6528 1.5 -88.1629
vt 0.481918 0.415405
v 63.6528 1.5 -88.1629
v 63.6528 1.5 -86.9629
v 69.6528 1.5 -86.9629
vt 0.481918 0.368161
v 69.6528 1.5 -80.5629
v 76.6028 1.5 -80.5629
v 76.6028 1.5 -81.5629
v 70.4746 1.5 -81.5629
f 261/731/192 301/730/192 302/832/192 303/725/192 304/724/192 305/833/192 306/719/192 307/718/192 308/834/192 309/713/192 310/712/192 311/835/192 312/707/192 313/706/192 314/755/192 315/759/192 296/760/192 295/816/192 298/831/192 300/830/192 262/756/192 

vt -1.09215 0.0590551
vt -1.09215 0.0787402
f 301/836/76 261/826/76 255/701/76 254/837/76 

vn -1 5.48535e-016 -3.82549e-015
vt -0.289421 0.0787402
v 85.1528 4 -84.9629
vt -0.289421 0.15748
v 85.1528 4 -86.8629
vt -0.364224 0.15748
v 85.1528 2 -86.8629
vt -0.364224 0.0787402
v 85.1528 2 -86.9629
vt -0.368161 0.0787402
vt -0.368161 0.0590551
f 301/750/193 254/749/193 253/838/193 316/839/193 317/840/193 318/841/193 319/842/193 302/843/193 

vt 1.09215 0.0787402
vt 1.24963 0.0787402
v 87.1528 4 -84.9629
vt 1.17089 0.15748
vt 1.09215 0.15748
f 253/844/74 252/845/74 320/846/74 316/847/74 

vt 0.289421 -0.716592
vt 0.289421 -0.827947
vt 0.364224 -0.827947
v 87.1528 4 -86.8629
vt 0.364224 -0.716592
f 320/848/84 252/849/84 251/850/84 321/851/84 

vt -1.17089 0.15748
vt -1.24963 0.0787402
vt -1.09215 0.15748
f 321/852/76 251/853/76 318/837/76 317/854/76 

vt 1.09215 0.364224
f 250/726/83 319/832/83 318/855/83 251/727/83 

vt -1.32837 0.0787402
vt -1.32837 0.0590551
f 302/836/76 319/837/76 250/853/76 249/856/76 303/857/76 

vt -0.415405 0.0787402
vt -0.415405 0.0590551
f 249/842/78 248/858/78 304/859/78 303/843/78 

vt 1.32837 0.0787402
v 85.1528 2 -88.1629
vt 1.09215 0.0590551
vt 1.32837 0.0590551
f 248/860/74 247/845/74 322/844/74 305/861/74 304/862/74 

v 85.1528 2 -88.2629
vt 1.09215 0.419342
f 322/833/83 247/723/83 246/722/83 323/863/83 

v 85.1528 4 -88.2629
v 87.1528 4 -88.2629
f 324/847/74 323/844/74 246/845/74 325/846/74 

vt -0.494145 0.0787402
vn -1 5.48535e-016 3.82549e-015
vt -0.667374 0.0787402
vt -0.667374 0.0590551
vt -0.419342 0.0787402
vt -0.419342 0.15748
v 85.1528 4 -90.1629
vt -0.494145 0.15748
f 244/864/194 243/865/194 306/866/194 305/859/194 322/858/194 323/867/194 324/868/194 326/869/194 

vn -2.91093e-015 0 1
vt 0.481918 0.0787402
vt 0.481918 0.0590551
f 243/844/195 242/870/195 307/871/195 306/861/195 

vt 0.667374 0.0590551
vt 0.667374 0.0787402
vt 0.494145 0.0787402
v 69.6528 4 -90.1629
vt 0.494145 0.15748
v 69.6528 4 -88.2629
vt 0.419342 0.15748
v 69.6528 2 -88.2629
vt 0.419342 0.0787402
v 69.6528 2 -88.1629
vt 0.415405 0.0787402
vt 0.415405 0.0590551
f 307/872/85 242/873/85 241/874/85 327/875/85 328/876/85 329/877/85 330/878/85 308/879/85 

vt -0.481918 0.0787402
vt -0.324438 0.0787402
v 67.6528 4 -90.1629
vt -0.403178 0.15748
vt -0.481918 0.15748
f 241/880/76 240/881/76 331/882/76 327/883/76 

vt -0.494145 0.28509
vt -0.419342 0.28509
v 67.6528 4 -88.2629
vt -0.419342 0.396445
vt -0.494145 0.396445
f 240/884/86 239/885/86 332/886/86 331/887/86 

vt 0.403178 0.15748
vt 0.324438 0.0787402
vt 0.481918 0.15748
f 332/888/74 239/889/74 329/870/74 328/890/74 

vt 0.481918 0.419342
f 238/714/77 330/834/77 329/891/77 239/715/77 

vt 0.245697 0.0787402
vt 0.245697 0.0590551
f 308/871/74 330/870/74 238/889/74 237/892/74 309/893/74 

vt 0.368161 0.0787402
vt 0.368161 0.0590551
f 237/878/85 236/894/85 310/895/85 309/879/85 

vt -0.245697 0.0787402
v 69.6528 2 -86.9629
vt -0.481918 0.0590551
vt -0.245697 0.0590551
f 236/896/76 235/881/76 333/880/76 311/897/76 310/898/76 

v 69.6528 2 -86.8629
vt 0.481918 0.364224
f 333/835/77 235/711/77 234/710/77 334/899/77 

v 69.6528 4 -86.8629
v 67.6528 4 -86.8629
f 335/883/76 334/880/76 234/881/76 336/882/76 

vt 0.289421 0.0787402
vt 0.116193 0.0787402
vt 0.116193 0.0590551
vt 0.364224 0.0787402
vt 0.364224 0.15748
v 69.6528 4 -84.9629
vt 0.289421 0.15748
f 232/900/85 231/901/85 312/902/85 311/895/85 333/894/85 334/903/85 335/904/85 337/905/85 

vt -0.75554 0.0590551
f 231/880/76 230/736/76 313/906/76 312/897/76 

vt 0.0393701 0.0787402
vt 0.0393701 0.15748
vt 0.019685 0.15748
vt 0.019685 0.019685
vt 0.155563 0.019685
vt 0.155563 0.0590551
f 230/901/85 229/907/85 257/908/85 258/909/85 264/910/85 265/911/85 314/912/85 313/902/85 

vt -0.514272 0.0590551
vn -1.81109e-015 -7.77555e-032 -1
vt -0.514272 0.019685
f 315/913/196 314/906/196 265/754/196 268/914/196 

vn 0.866025 -8.30444e-017 0.5
vt 0.391857 0.0590551
vt 0.391857 0.019685
f 269/820/197 296/819/197 315/915/197 268/916/197 

vt 0.403178 0.364224
v 67.6528 4 -84.9629
vt 0.403178 0.289421
f 337/708/77 335/899/77 336/917/77 338/918/77 

vt -0.289421 0.28509
vt -0.289421 0.396445
vt -0.364224 0.396445
vt -0.364224 0.28509
f 233/919/86 338/920/86 336/921/86 234/922/86 

f 337/890/74 338/888/74 233/889/74 232/870/74 

vt 0.403178 0.494145
vt 0.403178 0.419342
f 327/717/77 331/923/77 332/924/77 328/891/77 

vt 1.17089 0.419342
v 87.1528 4 -90.1629
vt 1.17089 0.494145
f 325/925/77 339/926/77 326/720/77 324/863/77 

vt 0.494145 -0.716592
vt 0.419342 -0.716592
vt 0.419342 -0.827947
vt 0.494145 -0.827947
f 339/927/84 325/928/84 246/929/84 245/930/84 

f 245/853/76 244/837/76 326/854/76 339/852/76 

vt 1.17089 0.289421
vt 1.17089 0.364224
f 320/931/77 321/932/77 317/855/77 316/729/77 

vt 0.00585489 -0.130335
vn -0.205968 -0.978519 0.0088036
vt 0.0051592 -0.113265
vt -0.89507 -0.130335
vn -0.255576 -0.966728 0.0108635
f 207/933/198 195/934/147 189/935/199

vt -0.895102 -0.129974
vt 0.00513077 -0.113105
vt -0.905015 -0.120827
vn -0.296339 -0.955001 0.0125337
f 189/936/199 195/937/147 187/938/200

vt -0.910522 -0.112901
vt -0.905032 -0.120508
vt 0.00511491 -0.112901
f 191/939/146 187/940/200 195/941/147

vt -0.89507 -0.134453
vt -0.88844 -0.144158
vn -0.178455 -0.983918 0.00762757
vt 0.00585489 -0.134453
f 189/942/199 184/943/201 207/944/198

vt -0.888396 -0.144552
vt -0.879021 -0.151688
vn -0.137662 -0.990462 0.00591205
vt 0.00589546 -0.134588
f 184/945/201 186/946/202 207/947/198

vt 0.00663557 -0.151794
vn -0.0984259 -0.995135 0.00424631
vt 0.00590842 -0.134611
vt -0.879006 -0.151794
f 208/948/203 207/949/198 186/950/202

vt -0.879006 -0.154014
vt -0.871115 -0.170333
vn -0.0597889 -0.998208 0.00259308
vt 0.00663557 -0.154014
f 186/951/202 182/952/204 208/953/203

vt 0.00750974 -0.171274
vn -0.0585568 -0.998281 0.00256309
vt 0.00675645 -0.154035
vt -0.870981 -0.171039
f 183/954/205 208/955/203 182/956/204

vt 1.03102 1.33706
vn 0.306815 -0.951418 0.025837
vt 1.03681 1.34444
vt 1.02075 1.32831
f 188/957/206 173/958/129 176/959/128

vt 1.01373 1.36173
vn 0.185658 -0.98249 0.0156344
vt 1.02075 1.37116
vt 1.00408 1.35498
f 185/960/207 176/961/133 178/962/132

