# Alias OBJ Model File
# Exported from SketchUp, (c) 2000-2012 Trimble Navigation Limited
# File units = millimeters

mtllib kruchok.mtl

g Mesh1 Group1 Model

usemtl FrontColor
v 94.4732 0 -70.814
vt 0.193089 0
vn 0.965926 0 -0.258819
v 94.405 0 -71.3316
vt 0.213644 0
vn 1 0 -1.39975e-015
v 94.405 5 -71.3316
vt 0.213644 0.19685
v 94.4732 5 -70.814
vt 0.193089 0.19685
f 1/1/1 2/2/2 3/3/2 4/4/1 

v 94.5933 0 -64.5701
vt -0.164892 -0.0299796
vn 0 -1 -0
vt -0.15748 0.23622
vt -0.160163 0.215841
f 5/5/3 2/6/3 1/7/3

v 92.905 0 -77.3938
vt -0.0984252 0.474889
f 5/5/3 6/8/3 2/6/3

v 92.905 0 -65.2694
vt -0.0984252 -0.00244795
f 7/9/3 6/8/3 5/5/3

v 91.4553 0 -66.3819
vt -0.0413485 0.0413485
f 8/10/3 6/8/3 7/9/3

v 91.4553 0 -76.2814
vt -0.0413485 0.431092
f 8/10/3 9/11/3 6/8/3

v 90.3428 0 -67.8316
vt 0.00244795 0.0984252
f 10/12/3 9/11/3 8/10/3

v 90.3428 0 -74.8316
vt 0.00244795 0.374016
f 10/12/3 11/13/3 9/11/3

v 89.6435 0 -73.1434
vt 0.0299796 0.307549
f 10/12/3 12/14/3 11/13/3

v 89.6435 0 -69.5199
vt 0.0299796 0.164892
f 13/15/3 12/14/3 10/12/3

v 89.405 0 -71.3316
vt 0.0393701 0.23622
f 12/14/3 13/15/3 14/16/3

vt -0.239338 0
vn -1 0 -2.67353e-015
vt -0.167395 0
vn -0.965926 0 0.258819
v 89.6435 2 -69.5199
vt -0.167395 0.0787402
v 89.405 2 -71.3316
vt -0.239338 0.0787402
f 14/17/4 13/18/5 15/19/5 16/20/4 

vt -0.163813 0
vt -0.0918698 0
vn -0.866025 0 0.5
v 90.3428 2 -67.8316
vt -0.0918698 0.0787402
vt -0.163813 0.0787402
f 13/21/5 10/22/6 17/23/6 15/24/5 

vt -0.0795762 0
vt -0.0076326 0
vn -0.707107 0 0.707107
v 91.4553 2 -66.3819
vt -0.0076326 0.0787402
vt -0.0795762 0.0787402
f 10/25/6 8/26/7 18/27/7 17/28/6 

vt 0.0076326 0
vt 0.0795762 0
vn -0.5 0 0.866025
v 92.905 2 -65.2694
vt 0.0795762 0.0787402
vt 0.0076326 0.0787402
f 8/29/7 7/30/8 19/31/8 18/32/7 

vt 0.0918698 0
vt 0.163813 0
vn -0.258819 0 0.965926
v 94.5933 2 -64.5701
vt 0.163813 0.0787402
vt 0.0918698 0.0787402
f 7/33/8 5/34/9 20/35/9 19/36/8 

vt 0.167395 0
v 96.405 0 -64.3316
vt 0.239338 0
vn 0 0 1
v 96.405 2 -64.3316
vt 0.239338 0.0787402
vt 0.167395 0.0787402
f 5/37/9 21/38/10 22/39/10 20/40/9 

v 94.673 0 -70.3316
vt -0.168029 0.19685
vt -0.23622 -0.0393701
f 5/5/3 23/41/3 21/42/3

f 5/5/3 1/7/3 23/41/3

vt 0.117564 0
vn 0.866025 0 -0.5
vt 0.138119 0
vt 0.138119 0.19685
v 94.673 5 -70.3316
vt 0.117564 0.19685
f 23/43/11 1/44/1 4/45/1 24/46/11 

vt 0.160163 0.215841
vn 0 1 -0
v 95.3697 5 -67.4679
vt 0.195462 0.0841062
vt 0.168029 0.19685
f 4/47/12 25/48/12 24/49/12

v 94.405 5 -67.8675
vt 0.15748 0.0998385
f 4/47/12 26/50/12 25/48/12

vt 0.15748 0.23622
f 26/50/12 4/47/12 3/51/12

v 94.405 5 -74.7957
vt 0.15748 0.372602
f 27/52/12 26/50/12 3/51/12

v 93.5766 5 -74.16
vt 0.124865 0.347576
f 28/53/12 26/50/12 27/52/12

v 93.5766 5 -68.5032
vt 0.124865 0.124865
f 28/53/12 29/54/12 26/50/12

v 92.9409 5 -73.3316
vt 0.0998385 0.314961
f 30/55/12 29/54/12 28/53/12

v 92.9409 5 -69.3316
vt 0.0998385 0.15748
f 30/55/12 31/56/12 29/54/12

v 92.5413 5 -72.3669
vt 0.0841062 0.276979
f 32/57/12 31/56/12 30/55/12

v 92.5413 5 -70.2963
vt 0.0841062 0.195462
f 32/57/12 33/58/12 31/56/12

v 92.405 5 -71.3316
vt 0.0787402 0.23622
f 33/58/12 32/57/12 34/59/12

v 92.5413 2 -72.3669
vt -0.285588 0.0787402
vn -0.965926 0 -0.258819
v 92.405 2 -71.3316
vt -0.244477 0.0787402
vn -1 0 -0
vt -0.244477 0.19685
vt -0.285588 0.19685
f 35/60/13 36/61/14 34/62/14 32/63/13 

v 92.905 2 -77.3938
vt 0.0984252 0.474889
f 37/64/12 36/59/12 35/57/12

v 91.4553 2 -76.2814
vt 0.0413485 0.431092
f 36/59/12 37/64/12 38/65/12

vt -0.36718 0
vn -0.5 0 -0.866025
vt -0.295236 0
vn -0.707107 0 -0.707107
vt -0.295236 0.0787402
vt -0.36718 0.0787402
f 6/66/15 9/67/16 38/68/16 37/69/15 

vn -0.866025 0 -0.5
v 90.3428 2 -74.8316
f 9/66/16 11/67/17 39/68/17 38/69/16 

vt -0.344609 0
vt -0.272665 0
v 89.6435 2 -73.1434
vt -0.272665 0.0787402
vt -0.344609 0.0787402
f 11/70/17 12/71/13 40/72/13 39/73/17 

vt -0.301004 0
vt -0.229061 0
vt -0.229061 0.0787402
vt -0.301004 0.0787402
f 12/74/13 14/75/4 16/76/4 40/77/13 

vt -0.0299796 0.164892
vt -0.0299796 0.307549
vt -0.0393701 0.23622
f 15/78/12 40/79/12 16/80/12

vt -0.00244795 0.0984252
f 40/79/12 15/78/12 17/81/12

vt -0.00244795 0.374016
f 40/79/12 17/81/12 39/82/12

vt 0.0413485 0.0413485
f 39/82/12 17/81/12 18/83/12

f 39/82/12 18/83/12 38/65/12

vt 0.0984252 -0.00244795
f 38/65/12 18/83/12 19/84/12

f 38/65/12 19/84/12 36/59/12

v 92.5413 2 -70.2963
f 36/59/12 19/84/12 41/58/12

v 92.9409 2 -69.3316
f 41/58/12 19/84/12 42/56/12

vt 0.164892 -0.0299796
f 42/56/12 19/84/12 20/85/12

v 93.5766 2 -68.5032
f 42/56/12 20/85/12 43/54/12

v 94.405 2 -67.8675
f 43/54/12 20/85/12 44/50/12

v 95.3697 2 -67.4679
f 44/50/12 20/85/12 45/48/12

vt 0.23622 -0.0393701
f 45/48/12 20/85/12 22/86/12

v 96.405 2 -67.3316
vt 0.23622 0.0787402
f 45/48/12 22/86/12 46/87/12

v 98.2167 2 -64.5701
vt 0.307549 -0.0299796
f 46/87/12 22/86/12 47/88/12

vt 0.229061 0
v 98.2167 0 -64.5701
vt 0.301004 0
vn 0.258819 0 0.965926
vt 0.301004 0.0787402
vt 0.229061 0.0787402
f 21/89/10 48/90/18 47/91/18 22/92/10 

v 96.9226 0 -69.3998
vt -0.2566 0.160163
vt -0.307549 -0.0299796
f 21/42/3 49/93/3 48/94/3

v 96.405 0 -69.3316
vt -0.23622 0.15748
f 21/42/3 50/95/3 49/93/3

v 95.8874 0 -69.3998
vt -0.215841 0.160163
f 21/42/3 51/96/3 50/95/3

v 95.405 0 -69.5996
vt -0.19685 0.168029
f 21/42/3 52/97/3 51/96/3

v 94.9908 0 -69.9174
vt -0.180543 0.180543
f 21/42/3 53/98/3 52/97/3

f 21/42/3 23/41/3 53/98/3

vt 0.0333267 0
vn 0.707107 0 -0.707107
vt 0.053882 0
vt 0.053882 0.19685
v 94.9908 5 -69.9174
vt 0.0333267 0.19685
f 53/99/19 23/100/11 24/101/11 54/102/19 

vt 0.180543 0.180543
f 24/49/12 25/48/12 54/103/12

v 95.405 5 -69.5996
vt 0.19685 0.168029
f 54/103/12 25/48/12 55/104/12

v 96.405 5 -67.3316
f 55/104/12 25/48/12 56/87/12

vt 0.182811 0.0787402
vt 0.223922 0.0787402
vn 6.99877e-016 0 1
vt 0.223922 0.19685
vt 0.182811 0.19685
f 45/105/9 46/106/20 56/107/20 25/108/9 

vt 0.244477 0.0787402
v 97.4403 2 -67.4679
vt 0.285588 0.0787402
v 97.4403 5 -67.4679
vt 0.285588 0.19685
vt 0.244477 0.19685
f 46/109/20 57/110/18 58/111/18 56/112/20 

vt 0.276979 0.0841062
f 46/87/12 47/88/12 57/113/12

v 98.405 2 -67.8675
vt 0.314961 0.0998385
f 57/113/12 47/88/12 59/114/12

v 99.905 2 -65.2694
vt 0.374016 -0.00244795
f 59/114/12 47/88/12 60/115/12

vt 0.272665 0
v 99.905 0 -65.2694
vt 0.344609 0
vn 0.5 0 0.866025
vt 0.344609 0.0787402
vt 0.272665 0.0787402
f 48/116/18 61/117/21 60/118/21 47/119/18 

v 98.3369 0 -70.814
vt -0.312278 0.215841
vt -0.374016 -0.00244795
f 48/94/3 62/120/3 61/121/3

v 98.1371 0 -70.3316
vt -0.304411 0.19685
f 48/94/3 63/122/3 62/120/3

v 97.8192 0 -69.9174
vt -0.291898 0.180543
f 48/94/3 64/123/3 63/122/3

v 97.405 0 -69.5996
vt -0.275591 0.168029
f 48/94/3 65/124/3 64/123/3

f 48/94/3 49/93/3 65/124/3

vt -0.318915 0
vt -0.298359 0
vn -0.258819 0 -0.965926
v 96.9226 5 -69.3998
vt -0.298359 0.19685
v 97.405 5 -69.5996
vt -0.318915 0.19685
f 65/125/15 49/126/22 66/127/22 67/128/15 

vt -0.27531 0
vt -0.254755 0
vn -1.39975e-015 0 -1
v 96.405 5 -69.3316
vt -0.254755 0.19685
vt -0.27531 0.19685
f 49/129/22 50/130/23 68/131/23 66/132/22 

vt -0.213644 0
vt -0.193089 0
vn 0.258819 0 -0.965926
v 95.8874 5 -69.3998
vt -0.193089 0.19685
vt -0.213644 0.19685
f 50/133/23 51/134/24 69/135/24 68/136/23 

vt -0.138119 0
vt -0.117564 0
vn 0.5 0 -0.866025
vt -0.117564 0.19685
vt -0.138119 0.19685
f 51/137/24 52/138/25 55/139/25 69/140/24 

vt -0.053882 0
vt -0.0333267 0
vt -0.0333267 0.19685
vt -0.053882 0.19685
f 52/141/25 53/142/19 54/143/19 55/144/25 

vt 0.215841 0.160163
f 55/104/12 56/87/12 69/145/12

vt 0.23622 0.15748
f 69/145/12 56/87/12 68/146/12

f 68/146/12 56/87/12 58/113/12

vt 0.2566 0.160163
f 68/146/12 58/113/12 66/147/12

vt 0.275591 0.168029
f 66/147/12 58/113/12 67/148/12

v 97.8192 5 -69.9174
vt 0.291898 0.180543
f 67/148/12 58/113/12 70/149/12

v 98.405 5 -67.8675
f 70/149/12 58/113/12 71/114/12

vt 0.288082 0.0787402
vt 0.329192 0.0787402
vt 0.329192 0.19685
vt 0.288082 0.19685
f 57/150/18 59/151/21 71/152/21 58/153/18 

vt 0.310653 0.0787402
v 99.2334 2 -68.5032
vt 0.351764 0.0787402
vn 0.707107 0 0.707107
v 99.2334 5 -68.5032
vt 0.351764 0.19685
vt 0.310653 0.19685
f 59/154/21 72/155/26 73/156/26 71/157/21 

vt 0.347576 0.124865
f 59/114/12 60/115/12 72/158/12

v 99.8691 2 -69.3316
vt 0.372602 0.15748
f 72/158/12 60/115/12 74/159/12

v 100.269 2 -70.2963
vt 0.388335 0.195462
f 74/159/12 60/115/12 75/160/12

v 101.355 2 -66.3819
vt 0.431092 0.0413485
f 75/160/12 60/115/12 76/161/12

vt 0.295236 0
v 101.355 0 -66.3819
vt 0.36718 0
vt 0.36718 0.0787402
vt 0.295236 0.0787402
f 61/162/21 77/163/26 76/164/26 60/165/21 

v 99.905 0 -77.3938
vt -0.374016 0.474889
vt -0.431092 0.0413485
f 61/121/3 78/166/3 77/167/3

v 98.405 0 -71.3316
vt -0.314961 0.23622
f 79/168/3 78/166/3 61/121/3

v 98.3369 0 -71.8493
vt -0.312278 0.2566
f 80/169/3 78/166/3 79/168/3

v 98.2167 0 -78.0931
vt -0.307549 0.502421
f 80/169/3 81/170/3 78/166/3

v 98.1371 0 -72.3316
vt -0.304411 0.275591
f 82/171/3 81/170/3 80/169/3

v 97.8192 0 -72.7458
vt -0.291898 0.291898
f 83/172/3 81/170/3 82/171/3

v 97.405 0 -73.0637
vt -0.275591 0.304411
f 84/173/3 81/170/3 83/172/3

v 96.9226 0 -73.2635
vt -0.2566 0.312278
f 85/174/3 81/170/3 84/173/3

v 96.405 0 -73.3316
vt -0.23622 0.314961
f 86/175/3 81/170/3 85/174/3

v 96.405 0 -78.3316
vt -0.23622 0.511811
f 86/175/3 87/176/3 81/170/3

v 95.8874 0 -73.2635
vt -0.215841 0.312278
f 88/177/3 87/176/3 86/175/3

v 95.405 0 -73.0637
vt -0.19685 0.304411
f 89/178/3 87/176/3 88/177/3

v 94.9908 0 -72.7458
vt -0.180543 0.291898
f 90/179/3 87/176/3 89/178/3

v 94.673 0 -72.3316
vt -0.168029 0.275591
f 91/180/3 87/176/3 90/179/3

v 94.5933 0 -78.0931
vt -0.164892 0.502421
f 91/180/3 92/181/3 87/176/3

v 94.4732 0 -71.8493
vt -0.160163 0.2566
f 93/182/3 92/181/3 91/180/3

f 2/6/3 92/181/3 93/182/3

f 92/181/3 2/6/3 6/8/3

v 94.5933 2 -78.0931
f 92/70/22 6/71/15 37/72/15 94/73/22 

v 92.9409 2 -73.3316
vt 0.164892 0.502421
f 37/64/12 95/55/12 94/183/12

f 37/64/12 35/57/12 95/55/12

vt -0.329192 0.0787402
vt -0.288082 0.0787402
vt -0.288082 0.19685
vt -0.329192 0.19685
f 95/184/17 35/185/13 32/186/13 30/187/17 

v 93.5766 2 -74.16
vt -0.351764 0.0787402
vt -0.310653 0.0787402
vt -0.310653 0.19685
vt -0.351764 0.19685
f 96/188/16 95/189/17 30/190/17 28/191/16 

f 94/183/12 95/55/12 96/53/12

v 94.405 2 -74.7957
f 94/183/12 96/53/12 97/52/12

f 97/188/15 96/189/16 28/190/16 27/191/15 

v 95.3697 2 -75.1953
v 95.3697 5 -75.1953
f 98/184/22 97/185/15 27/186/15 99/187/22 

vt 0.195462 0.388335
f 94/183/12 97/52/12 98/192/12

v 96.405 2 -78.3316
vt 0.23622 0.511811
f 94/183/12 98/192/12 100/193/12

v 96.405 2 -75.3316
vt 0.23622 0.393701
f 100/193/12 98/192/12 101/194/12

vn 0 0 -1
v 96.405 5 -75.3316
f 101/60/27 98/61/22 99/62/22 102/63/27 

v 95.405 5 -73.0637
vt 0.19685 0.304411
f 99/192/12 103/195/12 102/194/12

v 94.9908 5 -72.7458
vt 0.180543 0.291898
f 99/192/12 104/196/12 103/195/12

v 94.673 5 -72.3316
vt 0.168029 0.275591
f 99/192/12 105/197/12 104/196/12

v 94.4732 5 -71.8493
vt 0.160163 0.2566
f 99/192/12 106/198/12 105/197/12

f 27/52/12 106/198/12 99/192/12

f 27/52/12 3/51/12 106/198/12

vt 0.254755 0
vt 0.27531 0
vn 0.965926 0 0.258819
vt 0.27531 0.19685
vt 0.254755 0.19685
f 2/199/2 93/200/28 106/201/28 3/202/2 

vt 0.298359 0
vt 0.318915 0
vn 0.866025 0 0.5
vt 0.318915 0.19685
vt 0.298359 0.19685
f 93/203/28 91/204/29 105/205/29 106/206/28 

vt 0.320931 0
vt 0.341486 0
vt 0.341486 0.19685
vt 0.320931 0.19685
f 91/207/29 90/208/26 104/209/26 105/210/29 

f 90/207/26 89/208/21 103/209/21 104/210/26 

v 95.8874 5 -73.2635
f 89/203/21 88/204/18 107/205/18 103/206/21 

v 96.405 5 -73.3316
f 88/199/18 86/200/10 108/201/10 107/202/18 

v 96.9226 5 -73.2635
f 86/1/10 85/2/9 109/3/9 108/4/10 

v 97.405 5 -73.0637
f 85/43/9 84/44/8 110/45/8 109/46/9 

v 97.8192 5 -72.7458
f 84/99/8 83/100/7 111/101/7 110/102/8 

v 98.1371 5 -72.3316
f 83/141/7 82/142/6 112/143/6 111/144/7 

v 98.3369 5 -71.8493
f 82/137/6 80/138/5 113/139/5 112/140/6 

v 98.405 5 -71.3316
f 80/133/5 79/134/14 114/135/14 113/136/5 

v 98.3369 5 -70.814
f 79/129/14 62/130/13 115/131/13 114/132/14 

f 61/121/3 62/120/3 79/168/3

v 98.1371 5 -70.3316
f 62/125/13 63/126/17 116/127/17 115/128/13 

vt -0.341486 0
vt -0.320931 0
vt -0.320931 0.19685
vt -0.341486 0.19685
f 63/211/17 64/212/16 70/213/16 116/214/17 

f 64/211/16 65/212/15 67/213/15 70/214/16 

vt 0.304411 0.19685
f 70/149/12 71/114/12 116/215/12

vt 0.312278 0.215841
f 116/215/12 71/114/12 115/216/12

vt 0.314961 0.23622
f 115/216/12 71/114/12 114/217/12

f 114/217/12 71/114/12 73/158/12

v 98.405 5 -74.7957
vt 0.314961 0.372602
f 114/217/12 73/158/12 117/218/12

v 99.2334 5 -74.16
vt 0.347576 0.347576
f 117/218/12 73/158/12 118/219/12

v 99.8691 5 -69.3316
f 118/219/12 73/158/12 119/159/12

f 72/154/26 74/155/29 119/156/29 73/157/26 

v 100.269 5 -70.2963
f 74/150/29 75/151/28 120/152/28 119/153/29 

v 100.405 2 -71.3316
vn 1 0 -6.99877e-016
v 100.405 5 -71.3316
f 75/109/28 121/110/30 122/111/30 120/112/28 

vt 0.393701 0.23622
f 75/160/12 76/161/12 121/220/12

v 101.355 2 -76.2814
vt 0.431092 0.431092
f 123/221/12 121/220/12 76/161/12

v 100.269 2 -72.3669
vt 0.388335 0.276979
f 123/221/12 124/222/12 121/220/12

v 99.905 2 -77.3938
vt 0.374016 0.474889
f 125/223/12 124/222/12 123/221/12

v 99.8691 2 -73.3316
vt 0.372602 0.314961
f 125/223/12 126/224/12 124/222/12

v 99.2334 2 -74.16
f 125/223/12 127/219/12 126/224/12

v 98.405 2 -74.7957
f 125/223/12 128/218/12 127/219/12

v 98.2167 2 -78.0931
vt 0.307549 0.502421
f 129/225/12 128/218/12 125/223/12

v 97.4403 2 -75.1953
vt 0.276979 0.388335
f 129/225/12 130/226/12 128/218/12

f 100/193/12 130/226/12 129/225/12

f 100/193/12 101/194/12 130/226/12

vt -0.223922 0.0787402
vt -0.182811 0.0787402
vt -0.182811 0.19685
v 97.4403 5 -75.1953
vt -0.223922 0.19685
f 130/227/24 101/228/27 102/229/27 131/230/24 

vt 0.2566 0.312278
f 102/194/12 109/231/12 131/226/12

vt 0.23622 0.314961
f 102/194/12 108/232/12 109/231/12

vt 0.215841 0.312278
f 102/194/12 107/233/12 108/232/12

f 102/194/12 103/195/12 107/233/12

vt 0.275591 0.304411
f 131/226/12 109/231/12 110/234/12

vt 0.291898 0.291898
f 131/226/12 110/234/12 111/235/12

f 131/226/12 111/235/12 117/218/12

vt 0.304411 0.275591
f 117/218/12 111/235/12 112/236/12

vt 0.312278 0.2566
f 117/218/12 112/236/12 113/237/12

f 117/218/12 113/237/12 114/217/12

vt -0.148397 0.0787402
vt -0.107286 0.0787402
vt -0.107286 0.19685
vt -0.148397 0.19685
f 128/238/25 130/239/24 131/240/24 117/241/25 

vt -0.0641597 0.0787402
vt -0.0230491 0.0787402
vt -0.0230491 0.19685
vt -0.0641597 0.19685
f 127/242/19 128/243/25 117/244/25 118/245/19 

vt 0.0230491 0.0787402
vt 0.0641597 0.0787402
vt 0.0641597 0.19685
v 99.8691 5 -73.3316
vt 0.0230491 0.19685
f 126/246/11 127/247/19 118/248/19 132/249/11 

f 118/219/12 119/159/12 132/224/12

f 132/224/12 119/159/12 120/160/12

v 100.269 5 -72.3669
f 132/224/12 120/160/12 133/222/12

f 133/222/12 120/160/12 122/220/12

f 121/105/30 124/106/1 133/107/1 122/108/30 

vt 0.107286 0.0787402
vt 0.148397 0.0787402
vt 0.148397 0.19685
vt 0.107286 0.19685
f 124/250/1 126/251/11 132/252/11 133/253/1 

vn 2.67353e-015 0 -1
f 81/17/24 87/18/31 100/19/31 129/20/24 

f 87/74/31 92/75/22 94/76/22 100/77/31 

f 78/21/25 81/22/24 129/23/24 125/24/25 

v 101.355 0 -76.2814
f 134/25/19 78/26/25 125/27/25 123/28/19 

vt -0.431092 0.431092
f 77/167/3 78/166/3 134/254/3

v 102.467 0 -74.8316
vt -0.474889 0.374016
f 77/167/3 134/254/3 135/255/3

v 102.467 2 -74.8316
f 135/29/11 134/30/19 123/31/19 136/32/11 

v 102.467 2 -67.8316
vt 0.474889 0.0984252
vt 0.474889 0.374016
f 123/221/12 137/256/12 136/257/12

f 123/221/12 76/161/12 137/256/12

v 102.467 0 -67.8316
f 77/162/26 138/163/29 137/164/29 76/165/26 

vt -0.474889 0.0984252
f 77/167/3 135/255/3 138/258/3

v 103.166 0 -73.1434
vt -0.502421 0.307549
f 138/258/3 135/255/3 139/259/3

v 103.166 2 -73.1434
f 139/33/1 135/34/11 136/35/11 140/36/1 

v 103.166 2 -69.5199
vt 0.502421 0.164892
vt 0.502421 0.307549
f 136/257/12 141/260/12 140/261/12

f 136/257/12 137/256/12 141/260/12

v 103.166 0 -69.5199
f 138/116/29 142/117/28 141/118/28 137/119/29 

vt -0.502421 0.164892
f 138/258/3 139/259/3 142/262/3

v 103.405 0 -71.3316
vt -0.511811 0.23622
f 142/262/3 139/259/3 143/263/3

vn 1 0 -0
v 103.405 2 -71.3316
f 143/37/32 139/38/1 140/39/1 144/40/32 

vt 0.511811 0.23622
f 140/261/12 141/260/12 144/264/12

f 142/89/28 143/90/32 144/91/32 141/92/28 

f 44/250/8 45/251/9 25/252/9 26/253/8 

f 43/246/7 44/247/8 26/248/8 29/249/7 

f 42/242/6 43/243/7 29/244/7 31/245/6 

f 41/238/5 42/239/6 31/240/6 33/241/5 

f 36/227/14 41/228/5 33/229/5 34/230/14 

g Mesh2 Group2 Model

v 116.952 0 -57.7626
vt 0.984686 0
v 117.988 0 -56.968
vt 1.03607 0
v 117.988 2 -56.968
vt 1.03607 0.0787402
v 116.952 2 -57.7626
vt 0.984686 0.0787402
f 145/265/8 146/266/7 147/267/7 148/268/8 

vt -1.55512 0.409146
vn 1.22018e-017 -1 7.62975e-017
v 117.452 0 -58.6287
vt -1.5748 0.443241
vt -1.59589 0.377863
f 145/269/33 149/270/33 146/271/33

v 116.005 0 -59.2281
vt -1.51783 0.46684
f 145/269/33 150/272/33 149/270/33

v 115.747 0 -58.2621
vt -1.50764 0.428811
f 151/273/33 150/272/33 145/269/33

v 114.452 0 -58.4325
vt -1.45669 0.435519
f 152/274/33 150/272/33 151/273/33

v 114.452 0 -59.4325
vt -1.45669 0.474889
f 152/274/33 153/275/33 150/272/33

v 113.158 0 -58.2621
vt -1.40574 0.428811
f 154/276/33 153/275/33 152/274/33

v 111.952 0 -57.7626
vt -1.35827 0.409146
f 155/277/33 153/275/33 154/276/33

v 91.8886 -2.11497e-015 -60.1846
vt -0.568353 0.5045
f 155/277/33 156/278/33 153/275/33

v 110.917 0 -56.968
vt -1.3175 0.377863
f 157/279/33 156/278/33 155/277/33

v 110.122 0 -55.9325
vt -1.28622 0.337094
f 158/280/33 156/278/33 157/279/33

v 109.623 0 -54.7266
vt -1.26655 0.289617
f 159/281/33 156/278/33 158/280/33

v 109.452 0 -53.4325
vt -1.25984 0.238668
f 156/278/33 159/281/33 160/282/33

vt 0.401069 0
vt 0.452457 0
v 109.623 2 -54.7266
vt 0.452457 0.0787402
v 109.452 2 -53.4325
vt 0.401069 0.0787402
f 160/283/32 159/284/28 161/285/28 162/286/32 

vt 0.752259 0
vt 0.803647 0
v 110.122 2 -55.9325
vt 0.803647 0.0787402
vt 0.752259 0.0787402
f 159/287/28 158/288/29 163/289/29 161/290/28 

vt 1.05043 0
vt 1.10182 0
v 110.917 2 -56.968
vt 1.10182 0.0787402
vt 1.05043 0.0787402
f 158/291/29 157/292/26 164/293/26 163/294/29 

vt 1.27527 0
vt 1.32666 0
v 111.952 2 -57.7626
vt 1.32666 0.0787402
vt 1.27527 0.0787402
f 157/295/26 155/296/21 165/297/21 164/298/26 

vt 1.41145 0
vt 1.46284 0
v 113.158 2 -58.2621
vt 1.46284 0.0787402
vt 1.41145 0.0787402
f 155/299/21 154/300/18 166/301/18 165/302/21 

vt 1.44969 0
vt 1.50108 0
vn 5.73899e-016 0 1
v 114.452 2 -58.4325
vt 1.50108 0.0787402
vt 1.44969 0.0787402
f 154/303/18 152/304/34 167/305/34 166/306/18 

vt 1.38738 0
vt 1.43877 0
v 115.747 2 -58.2621
vt 1.43877 0.0787402
vt 1.38738 0.0787402
f 152/307/34 151/308/9 168/309/9 167/310/34 

vt 1.22878 0
vt 1.28017 0
vt 1.28017 0.0787402
vt 1.22878 0.0787402
f 151/311/9 145/312/8 148/313/8 168/314/9 

v 116.005 2 -59.2281
vt 1.51783 0.46684
vn -5.34742e-017 1 2.13392e-016
vt 1.50764 0.428811
vt 1.55512 0.409146
f 169/315/35 168/316/35 148/317/35

v 114.452 2 -59.4325
vt 1.45669 0.474889
f 170/318/35 168/316/35 169/315/35

vt 1.45669 0.435519
f 170/318/35 167/319/35 168/316/35

vt 1.40574 0.428811
f 170/318/35 166/320/35 167/319/35

vt 1.35827 0.409146
f 170/318/35 165/321/35 166/320/35

v 91.8886 2 -60.1846
vt 0.568353 0.5045
f 171/322/35 165/321/35 170/318/35

vt 1.3175 0.377863
f 165/321/35 171/322/35 164/323/35

vt 1.28622 0.337094
f 164/323/35 171/322/35 163/324/35

vt 1.26655 0.289617
f 163/324/35 171/322/35 161/325/35

vt 1.25984 0.238668
f 161/325/35 171/322/35 162/326/35

v 109.623 2 -52.1384
vt 1.26655 0.18772
f 171/322/35 172/327/35 162/326/35

v 110.122 2 -50.9325
vt 1.28622 0.140243
f 171/322/35 173/328/35 172/327/35

v 110.917 2 -49.897
vt 1.3175 0.0994742
f 171/322/35 174/329/35 173/328/35

v 111.952 2 -49.1024
vt 1.35827 0.068191
f 171/322/35 175/330/35 174/329/35

v 114.452 2 -47.4325
vt 1.45669 0.00244795
f 171/322/35 176/331/35 175/330/35

v 90.5146 2 -49.9325
vt 0.514259 0.100873
f 171/322/35 177/332/35 176/331/35

v 91.1921 2 -60.9921
vt 0.540931 0.536289
f 178/333/35 177/332/35 171/322/35

v 89.0059 2 -62.4788
vt 0.454859 0.594823
f 179/334/35 177/332/35 178/333/35

v 88.7826 2 -55.9325
vt 0.446068 0.337094
f 179/334/35 180/335/35 177/332/35

v 87.988 2 -56.968
vt 0.414785 0.377863
f 179/334/35 181/336/35 180/335/35

v 86.9525 2 -57.7626
vt 0.374016 0.409146
f 179/334/35 182/337/35 181/336/35

v 86.5094 2 -63.3491
vt 0.356571 0.629086
f 183/338/35 182/337/35 179/334/35

v 85.7466 2 -58.2621
vt 0.326539 0.428811
f 183/338/35 184/339/35 182/337/35

v 84.4525 2 -58.4325
vt 0.275591 0.435519
f 183/338/35 185/340/35 184/339/35

v 83.8727 2 -63.5436
vt 0.252764 0.636742
f 186/341/35 185/340/35 183/338/35

v 83.1584 2 -58.2621
vt 0.224642 0.428811
f 186/341/35 187/342/35 185/340/35

v 81.9525 2 -57.7626
vt 0.177165 0.409146
f 186/341/35 188/343/35 187/342/35

v 81.2755 2 -63.049
vt 0.150513 0.61727
f 189/344/35 188/343/35 186/341/35

v 80.9169 2 -56.968
vt 0.136396 0.377863
f 189/344/35 190/345/35 188/343/35

v 80.1223 2 -55.9325
vt 0.105113 0.337094
f 189/344/35 191/346/35 190/345/35

v 79.6228 2 -54.7266
vt 0.0854477 0.289617
f 189/344/35 192/347/35 191/346/35

v 78.8948 2 -61.8991
vt 0.0567858 0.571997
f 193/348/35 192/347/35 189/344/35

v 79.4525 2 -53.4325
vt 0.0787402 0.238668
f 193/348/35 194/349/35 192/347/35

v 79.1738 2 -41.7917
vt 0.06777 -0.219633
f 193/348/35 195/350/35 194/349/35

v 78.784 2 -41.9697
vt 0.0524227 -0.212624
f 193/348/35 196/351/35 195/350/35

v 78.4373 2 -42.2216
vt 0.0387745 -0.202706
f 193/348/35 197/352/35 196/351/35

v 78.1477 2 -42.5374
vt 0.02737 -0.190272
f 193/348/35 198/353/35 197/352/35

v 76.8929 2 -60.1721
vt -0.0220304 0.504008
f 199/354/35 198/353/35 193/348/35

v 75.4061 2 -57.9859
vt -0.0805642 0.417937
f 200/355/35 198/353/35 199/354/35

v 75.1429 2 -57.2307
vt -0.0909286 0.388205
f 201/356/35 198/353/35 200/355/35

v 75.0583 2 -57.0753
vt -0.094259 0.382084
f 202/357/35 198/353/35 201/356/35

v 74.8367 2 -56.5631
vt -0.102982 0.361919
f 203/358/35 198/353/35 202/357/35

v 74.6621 2 -56.033
vt -0.109857 0.341051
f 204/359/35 198/353/35 203/358/35

v 74.5359 2 -55.4894
vt -0.114827 0.319649
f 198/353/35 204/359/35 205/360/35

v 74.6621 6.1888e-016 -56.033
vt -0.307359 2.43316e-017
vn -0.96291 1.81733e-016 -0.269822
v 74.5359 6.37956e-016 -55.4894
vt -0.285388 2.50827e-017
vn -0.974078 1.82994e-019 -0.226212
vt -0.285388 0.0787402
vt -0.307359 0.0787402
f 206/361/36 207/362/37 205/363/37 204/364/36 

vt 0.109857 0.341051
v 78.1477 6.37956e-016 -42.5374
vt -0.02737 -0.190272
vt 0.114827 0.319649
f 206/365/33 208/366/33 207/367/33

v 74.8367 5.92495e-016 -56.5631
vt 0.102982 0.361919
f 208/366/33 206/365/33 209/368/33

vt -0.311526 -5.32668e-017
vn -0.934747 3.63831e-016 -0.355314
vt -0.289555 -5.2228e-017
vt -0.289555 0.0787402
vt -0.311526 0.0787402
f 209/369/38 206/370/36 204/371/36 203/372/38 

v 75.0583 5.59015e-016 -57.0753
vt -0.313257 -6.47014e-017
vn -0.89901 1.83018e-016 -0.437927
vt -0.291286 -6.33833e-017
vt -0.291286 0.0787402
vt -0.313257 0.0787402
f 210/373/39 209/374/38 203/375/38 202/376/39 

vt 0.094259 0.382084
f 208/366/33 209/368/33 210/377/33

v 75.1429 -4.22995e-015 -57.2307
vt 0.0909286 0.388205
f 208/366/33 210/377/33 211/378/33

vt -0.297537 -1.66973e-016
vn -0.87839 1.65659e-018 -0.477945
vt -0.290569 2.15688e-017
vt -0.290569 0.0787402
vt -0.297537 0.0787402
f 211/379/40 210/380/39 202/381/39 201/382/40 

vt -0.336641 0.0787402
vn -0.944272 2.20903e-018 -0.329166
vt -0.368127 0.0787402
vn -0.893229 9.48988e-017 -0.449602
v 75.4061 -2.11497e-015 -57.9859
vt -0.368127 -8.37387e-017
vt -0.336641 -1.67005e-016
f 201/383/41 200/384/42 212/385/42 211/386/41 

vt -0.300288 0.0787402
vt -0.404377 0.0787402
vn -0.746427 2.5267e-016 -0.665467
v 76.8929 -2.11497e-015 -60.1721
vt -0.404377 -1.39362e-016
vt -0.300288 -1.39362e-016
f 200/387/42 199/388/43 213/389/43 212/390/42 

vt -0.312527 0.0787402
vt -0.416616 0.0787402
vn -0.548758 3.72042e-016 -0.835981
v 78.8948 -2.11497e-015 -61.8991
vt -0.416616 -2.08035e-016
vt -0.312527 -2.08035e-016
f 199/391/43 193/392/44 214/393/44 213/394/43 

vt -0.299921 0.0787402
vt -0.40401 0.0787402
vn -0.313691 4.66061e-016 -0.949525
v 81.2755 -2.11497e-015 -63.049
vt -0.40401 -2.90526e-016
vt -0.299921 -2.90526e-016
f 193/395/44 189/396/45 215/397/45 214/398/44 

vt -0.263329 0.0787402
vt -0.367417 0.0787402
vn -0.0572473 5.28318e-016 -0.99836
v 83.8727 -2.11497e-015 -63.5436
vt -0.367417 -3.73231e-016
vt -0.263329 -3.73231e-016
f 189/399/45 186/400/46 216/401/46 215/402/45 

vt -0.205245 0.0787402
vt -0.309333 0.0787402
vn 0.203098 5.54572e-016 -0.979158
v 86.5094 -2.11497e-015 -63.3491
vt -0.309333 -4.40214e-016
vt -0.205245 -4.40214e-016
f 186/403/46 183/404/47 217/405/47 216/406/46 

vt -0.129626 0.0787402
vt -0.233715 0.0787402
vn 0.449602 5.43032e-016 -0.893229
v 89.0059 -2.11497e-015 -62.4788
vt -0.233715 -4.77053e-016
vt -0.129626 -4.77053e-016
f 183/407/47 179/408/48 218/409/48 217/410/47 

vt -0.0416279 0.0787402
vt -0.145717 0.0787402
vn 0.665467 2.63875e-016 -0.746427
v 91.1921 -2.11497e-015 -60.9921
vt -0.145717 -4.74463e-016
vt -0.0416279 -4.74463e-016
f 179/411/48 178/412/49 219/413/49 218/414/48 

vt 0.0527543 0.0787402
vt 0.0107719 0.0787402
vn 0.757202 0 -0.65318
vt 0.0107719 -8.32667e-017
vt 0.0527543 -8.32667e-017
f 178/415/49 171/416/50 156/417/50 219/418/49 

vt -1.44006 -4.06372e-018
vn 0.0333148 7.76773e-018 -0.999445
vt -0.55123 -8.73305e-017
vt -0.55123 0.0787402
vt -1.44006 0.0787402
f 153/419/51 156/420/51 171/421/51 170/422/51 

vt -1.44391 0
vt -1.38225 0
vn 0.130526 0 -0.991445
vt -1.38225 0.0787402
vt -1.44391 0.0787402
f 150/423/24 153/424/52 170/425/52 169/426/24 

vt -1.28531 0
vt -1.22364 0
vt -1.22364 0.0787402
v 117.452 2 -58.6287
vt -1.28531 0.0787402
f 149/427/25 150/428/24 169/429/24 220/430/25 

vt 1.5748 0.443241
f 169/315/35 148/317/35 220/431/35

vt 1.59589 0.377863
f 220/431/35 148/317/35 147/432/35

v 118.695 2 -57.6751
vt 1.62373 0.405702
f 220/431/35 147/432/35 221/433/35

v 118.783 2 -55.9325
vt 1.62717 0.337094
f 221/433/35 147/432/35 222/434/35

vt 0.671736 0
v 118.783 0 -55.9325
vt 0.723124 0
vt 0.723124 0.0787402
vt 0.671736 0.0787402
f 146/435/7 223/436/6 222/437/6 147/438/7 

v 118.695 0 -57.6751
vt -1.62373 0.405702
vt -1.62717 0.337094
f 146/271/33 224/439/33 223/440/33

f 146/271/33 149/270/33 224/439/33

vt -1.04121 0
vt -0.979547 0
vt -0.979547 0.0787402
vt -1.04121 0.0787402
f 224/441/19 149/442/25 220/443/25 221/444/19 

v 119.649 0 -56.4325
vt -0.728263 0
vt -0.666597 0
vt -0.666597 0.0787402
v 119.649 2 -56.4325
vt -0.728263 0.0787402
f 225/445/11 224/446/19 221/447/19 226/448/11 

vt -1.66127 0.356779
f 223/440/33 224/439/33 225/449/33

v 119.282 0 -54.7266
vt -1.64684 0.289617
f 223/440/33 225/449/33 227/450/33

v 119.452 0 -53.4325
vt -1.65354 0.238668
f 227/450/33 225/449/33 228/451/33

v 119.649 0 -50.4325
vt -1.66127 0.120558
f 229/452/33 228/451/33 225/449/33

v 119.282 0 -52.1384
vt -1.64684 0.18772
f 229/452/33 230/453/33 228/451/33

v 118.783 0 -50.9325
vt -1.62717 0.140243
f 229/452/33 231/454/33 230/453/33

v 118.695 0 -49.1899
vt -1.62373 0.0716353
f 232/455/33 231/454/33 229/452/33

v 117.988 0 -49.897
vt -1.59589 0.0994742
f 232/455/33 233/456/33 231/454/33

v 117.452 0 -48.2364
vt -1.5748 0.0340955
f 234/457/33 233/456/33 232/455/33

v 116.952 0 -49.1024
vt -1.55512 0.068191
f 234/457/33 235/458/33 233/456/33

v 116.005 0 -47.637
vt -1.51783 0.010497
f 236/459/33 235/458/33 234/457/33

v 115.747 0 -48.6029
vt -1.50764 0.0485255
f 236/459/33 237/460/33 235/458/33

v 114.452 0 -47.4325
vt -1.45669 0.00244795
f 238/461/33 237/460/33 236/459/33

v 114.452 0 -48.4325
vt -1.45669 0.041818
f 238/461/33 239/462/33 237/460/33

v 113.158 0 -48.6029
vt -1.40574 0.0485255
f 238/461/33 240/463/33 239/462/33

v 111.952 0 -49.1024
vt -1.35827 0.068191
f 238/461/33 241/464/33 240/463/33

f 238/461/33 156/278/33 241/464/33

v 90.5146 0 -49.9325
vt -0.514259 0.100873
f 242/465/33 156/278/33 238/461/33

vt -0.540931 0.536289
f 242/465/33 219/466/33 156/278/33

vt -0.454859 0.594823
f 242/465/33 218/467/33 219/466/33

v 88.7826 0 -55.9325
vt -0.446068 0.337094
f 243/468/33 218/467/33 242/465/33

v 87.988 0 -56.968
vt -0.414785 0.377863
f 244/469/33 218/467/33 243/468/33

v 86.9525 0 -57.7626
vt -0.374016 0.409146
f 245/470/33 218/467/33 244/469/33

vt -0.356571 0.629086
f 245/470/33 217/471/33 218/467/33

v 85.7466 0 -58.2621
vt -0.326539 0.428811
f 246/472/33 217/471/33 245/470/33

v 84.4525 0 -58.4325
vt -0.275591 0.435519
f 247/473/33 217/471/33 246/472/33

vt -0.252764 0.636742
f 247/473/33 216/474/33 217/471/33

v 83.1584 0 -58.2621
vt -0.224642 0.428811
f 248/475/33 216/474/33 247/473/33

v 81.9525 0 -57.7626
vt -0.177165 0.409146
f 249/476/33 216/474/33 248/475/33

vt -0.150513 0.61727
f 249/476/33 215/477/33 216/474/33

v 80.9169 0 -56.968
vt -0.136396 0.377863
f 250/478/33 215/477/33 249/476/33

v 80.1223 0 -55.9325
vt -0.105113 0.337094
f 251/479/33 215/477/33 250/478/33

v 79.6228 0 -54.7266
vt -0.0854477 0.289617
f 252/480/33 215/477/33 251/479/33

vt -0.0567858 0.571997
f 252/480/33 214/481/33 215/477/33

v 79.4525 0 -53.4325
vt -0.0787402 0.238668
f 253/482/33 214/481/33 252/480/33

v 79.1738 3.37093e-016 -41.7917
vt -0.06777 -0.219633
f 254/483/33 214/481/33 253/482/33

v 78.784 4.38024e-016 -41.9697
vt -0.0524227 -0.212624
f 255/484/33 214/481/33 254/483/33

v 78.4373 5.39664e-016 -42.2216
vt -0.0387745 -0.202706
f 256/485/33 214/481/33 255/484/33

f 208/366/33 214/481/33 256/485/33

vt 0.0220304 0.504008
f 208/366/33 213/486/33 214/481/33

vt 0.0805642 0.417937
f 208/366/33 212/487/33 213/486/33

f 208/366/33 211/378/33 212/487/33

vt 0.158721 2.53961e-017
vn -0.736947 -2.57941e-018 0.67595
vt 0.175593 2.15263e-017
vn -0.665749 2.78642e-017 0.746175
vt 0.175593 0.0787402
vt 0.158721 0.0787402
f 208/488/53 256/489/54 197/490/54 198/491/53 

vt 0.150535 1.3054e-017
vt 0.167407 9.05243e-018
vn -0.504159 3.94089e-017 0.863611
vt 0.167407 0.0787402
vt 0.150535 0.0787402
f 256/492/54 255/493/55 196/494/55 197/495/54 

vt 0.136007 1.37446e-017
vt 0.152878 9.77094e-018
vn -0.322451 1.17598e-018 0.946586
vt 0.152878 0.0787402
vt 0.136007 0.0787402
f 255/496/55 254/497/56 195/498/56 196/499/55 

vt 0.115714 1.68569e-017
v 79.5913 2.40898e-016 -41.6947
vt 0.132586 1.30697e-017
vn -0.127877 -3.71038e-017 0.99179
v 79.5913 2 -41.6947
vt 0.132586 0.0787402
vt 0.115714 0.0787402
f 254/500/56 257/501/57 258/502/57 195/503/56 

vt -0.0842041 -0.223451
f 253/482/33 257/504/33 254/483/33

v 79.6228 0 -52.1384
vt -0.0854477 0.18772
f 257/504/33 253/482/33 259/505/33

vt 0.174961 0
vn 0.991445 0 -0.130526
vt 0.226349 0
vn 1 0 4.0033e-015
vt 0.226349 0.0787402
v 79.6228 2 -52.1384
vt 0.174961 0.0787402
f 259/506/58 253/507/59 194/508/59 260/509/58 

vt 0.246904 0
vt 0.298292 0
vt 0.298292 0.0787402
vt 0.246904 0.0787402
f 253/510/59 252/511/28 192/512/28 194/513/59 

vt 0.300271 0
vt 0.351659 0
vt 0.351659 0.0787402
vt 0.300271 0.0787402
f 252/514/28 251/515/29 191/516/29 192/517/28 

vt 0.331423 0
vt 0.382811 0
vt 0.382811 0.0787402
vt 0.331423 0.0787402
f 251/518/29 250/519/26 190/520/26 191/521/29 

vt 0.338239 0
vt 0.389627 0
vt 0.389627 0.0787402
vt 0.338239 0.0787402
f 250/522/26 249/523/21 188/524/21 190/525/26 

vt 0.320253 0
vt 0.371641 0
vt 0.371641 0.0787402
vt 0.320253 0.0787402
f 249/526/21 248/527/18 187/528/18 188/529/21 

vt 0.278691 0
vt 0.330079 0
vt 0.330079 0.0787402
vt 0.278691 0.0787402
f 248/530/18 247/531/10 185/532/10 187/533/18 

vt 0.216386 0
vt 0.267774 0
vt 0.267774 0.0787402
vt 0.216386 0.0787402
f 247/534/10 246/535/9 184/536/9 185/537/10 

vt 0.137584 0
vt 0.188972 0
vt 0.188972 0.0787402
vt 0.137584 0.0787402
f 246/538/9 245/539/8 182/540/8 184/541/9 

vt 0.0476544 0
vt 0.0990427 0
vt 0.0990427 0.0787402
vt 0.0476544 0.0787402
f 245/542/8 244/543/7 181/544/7 182/545/8 

vt -0.0472736 0
vt 0.00411464 0
vn -0.793353 0 0.608761
vt 0.00411464 0.0787402
vt -0.0472736 0.0787402
f 244/546/7 243/547/60 180/548/60 181/549/7 

vt -0.200152 0
vn -0.960769 0 0.27735
vt 0.045714 0
vt 0.045714 0.0787402
vt -0.200152 0.0787402
f 243/550/61 242/551/61 177/552/61 180/553/61 

vt 0.500999 1.84345e-017
vn -0.103872 1.19903e-016 0.994591
vt 1.44856 1.84345e-017
vt 1.44856 0.0787402
vt 0.500999 0.0787402
f 242/554/62 238/555/62 176/556/62 177/557/62 

vt 1.44455 0
vn 0.130526 0 0.991445
vt 1.50622 0
v 116.005 2 -47.637
vt 1.50622 0.0787402
vt 1.44455 0.0787402
f 238/558/63 236/559/18 261/560/18 176/561/63 

vt 1.40631 0
vt 1.46798 0
v 117.452 2 -48.2364
vt 1.46798 0.0787402
vt 1.40631 0.0787402
f 236/562/18 234/563/21 262/564/21 261/565/18 

vt 1.27013 0
vt 1.3318 0
v 118.695 2 -49.1899
vt 1.3318 0.0787402
vt 1.27013 0.0787402
f 234/566/21 232/567/26 263/568/26 262/569/21 

vt 1.04529 0
vt 1.10696 0
v 119.649 2 -50.4325
vt 1.10696 0.0787402
vt 1.04529 0.0787402
f 232/570/26 229/571/29 264/572/29 263/573/26 

vt 0.74712 0
v 120.248 0 -51.8796
vt 0.808786 0
v 120.248 2 -51.8796
vt 0.808786 0.0787402
vt 0.74712 0.0787402
f 229/574/29 265/575/28 266/576/28 264/577/29 

v 120.248 0 -54.9854
vt -1.68486 0.299807
vt -1.68486 0.17753
f 229/452/33 267/578/33 265/579/33

f 229/452/33 225/449/33 267/578/33

vt -0.367784 0
vt -0.306118 0
vt -0.306118 0.0787402
v 120.248 2 -54.9854
vt -0.367784 0.0787402
f 267/580/1 225/581/11 226/582/11 268/583/1 

vt 1.66127 0.356779
vt 1.68486 0.17753
vt 1.68486 0.299807
f 226/584/35 266/585/35 268/586/35

vt 1.66127 0.120558
f 226/584/35 264/587/35 266/585/35

v 119.452 2 -53.4325
vt 1.65354 0.238668
f 226/584/35 269/588/35 264/587/35

v 119.282 2 -54.7266
vt 1.64684 0.289617
f 226/584/35 270/589/35 269/588/35

f 226/584/35 222/434/35 270/589/35

f 221/433/35 222/434/35 226/584/35

vt 0.311257 0
vt 0.362646 0
vt 0.362646 0.0787402
vt 0.311257 0.0787402
f 223/590/6 227/591/5 270/592/5 222/593/6 

vt -0.0721841 0
vt -0.0207959 0
vn -1 0 2.79951e-016
vt -0.0207959 0.0787402
vt -0.0721841 0.0787402
f 227/594/5 228/595/64 269/596/64 270/597/5 

vt -0.452457 0
vt -0.401069 0
v 119.282 2 -52.1384
vt -0.401069 0.0787402
vt -0.452457 0.0787402
f 228/598/64 230/599/13 271/600/13 269/601/64 

vt -0.803647 0
vt -0.752259 0
v 118.783 2 -50.9325
vt -0.752259 0.0787402
vt -0.803647 0.0787402
f 230/602/13 231/603/17 272/604/17 271/605/13 

vt -1.10182 0
vt -1.05043 0
v 117.988 2 -49.897
vt -1.05043 0.0787402
vt -1.10182 0.0787402
f 231/606/17 233/607/16 273/608/16 272/609/17 

vt -1.32666 0
vt -1.27527 0
v 116.952 2 -49.1024
vt -1.27527 0.0787402
vt -1.32666 0.0787402
f 233/610/16 235/611/15 274/612/15 273/613/16 

vt -1.46284 0
vt -1.41145 0
v 115.747 2 -48.6029
vt -1.41145 0.0787402
vt -1.46284 0.0787402
f 235/614/15 237/615/22 275/616/22 274/617/15 

vt -1.50108 0
vt -1.44969 0
v 114.452 2 -48.4325
vt -1.44969 0.0787402
vt -1.50108 0.0787402
f 237/618/22 239/619/27 276/620/27 275/621/22 

vt -1.43877 0
vt -1.38738 0
v 113.158 2 -48.6029
vt -1.38738 0.0787402
vt -1.43877 0.0787402
f 239/622/27 240/623/24 277/624/24 276/625/27 

vt -1.28017 0
vt -1.22878 0
vt -1.22878 0.0787402
vt -1.28017 0.0787402
f 240/626/24 241/627/25 175/628/25 277/629/24 

vt -1.03607 0
v 110.917 0 -49.897
vt -0.984686 0
vt -0.984686 0.0787402
vt -1.03607 0.0787402
f 241/630/25 278/631/19 174/632/19 175/633/25 

vt -1.3175 0.0994742
f 241/464/33 156/278/33 278/634/33

v 110.122 0 -50.9325
vt -1.28622 0.140243
f 278/634/33 156/278/33 279/635/33

v 109.623 0 -52.1384
vt -1.26655 0.18772
f 279/635/33 156/278/33 280/636/33

f 280/636/33 156/278/33 160/282/33

vt 0.0207959 0
vt 0.0721841 0
vt 0.0721841 0.0787402
vt 0.0207959 0.0787402
f 280/637/1 160/638/32 162/639/32 172/640/1 

vt -0.362646 0
vt -0.311257 0
vt -0.311257 0.0787402
vt -0.362646 0.0787402
f 279/641/11 280/642/1 172/643/1 173/644/11 

vt -0.723124 0
vt -0.671736 0
vt -0.671736 0.0787402
vt -0.723124 0.0787402
f 278/645/19 279/646/11 173/647/11 174/648/19 

vt 1.40574 0.0485255
f 175/330/35 176/331/35 277/649/35

vt 1.45669 0.041818
f 277/649/35 176/331/35 276/650/35

vt 1.51783 0.010497
f 276/650/35 176/331/35 261/651/35

vt 1.50764 0.0485255
f 276/650/35 261/651/35 275/652/35

vt 1.55512 0.068191
f 275/652/35 261/651/35 274/653/35

vt 1.5748 0.0340955
f 274/653/35 261/651/35 262/654/35

vt 1.59589 0.0994742
f 274/653/35 262/654/35 273/655/35

vt 1.62373 0.0716353
f 273/655/35 262/654/35 263/656/35

vt 1.62717 0.140243
f 273/655/35 263/656/35 272/657/35

f 272/657/35 263/656/35 264/587/35

vt 1.64684 0.18772
f 272/657/35 264/587/35 271/658/35

f 271/658/35 264/587/35 269/588/35

v 120.452 2 -53.4325
vt 1.69291 0.238668
f 268/586/35 266/585/35 281/659/35

vt 0.39593 0
v 120.452 0 -53.4325
vt 0.457596 0
vn 1 0 6.90079e-015
vt 0.457596 0.0787402
vt 0.39593 0.0787402
f 265/660/28 282/661/65 281/662/65 266/663/28 

vt -1.69291 0.238668
f 265/579/33 267/578/33 282/664/33

vt 0.015657 0
vt 0.077323 0
vt 0.077323 0.0787402
vt 0.015657 0.0787402
f 282/665/65 267/666/1 268/667/1 281/668/65 

vt 0.0842041 -0.223451
vt 0.0854477 0.18772
f 194/349/35 258/669/35 260/670/35

f 258/669/35 194/349/35 195/350/35

v 80.0196 2 -41.6826
vt 0.101069 -0.223926
f 260/670/35 258/669/35 283/671/35

vt 0.0904674 2.18115e-017
v 80.0196 1.53277e-016 -41.6826
vt 0.107339 1.83618e-017
vn 0.0717999 -7.39031e-017 0.997419
vt 0.107339 0.0787402
vt 0.0904674 0.0787402
f 257/672/57 284/673/66 283/674/66 258/675/57 

vt -0.101069 -0.223926
f 257/504/33 259/505/33 284/676/33

v 82.0006 0 -43.6118
vt -0.179059 -0.147972
f 284/676/33 259/505/33 285/677/33

vt 0.157869 0.0787402
vn 0.963249 3.21299e-016 -0.268612
v 82.0006 2 -43.6118
vt -0.190631 0.0787402
vt -0.190631 -4.26463e-017
vt 0.157869 -4.26463e-017
f 260/678/67 286/679/67 285/680/67 259/681/67 

vt 0.179059 -0.147972
f 260/670/35 283/671/35 286/682/35

v 80.4418 2 -41.7559
vt 0.117692 -0.22104
f 286/682/35 283/671/35 287/683/35

vt 0.0612744 2.77525e-017
v 80.4418 7.77268e-017 -41.7559
vt 0.0781462 2.47781e-017
vn 0.268612 -1.07753e-016 0.963249
vt 0.0781462 0.0787402
vt 0.0612744 0.0787402
f 284/684/66 288/685/68 287/686/68 283/687/66 

vt -0.117692 -0.22104
f 284/676/33 285/677/33 288/688/33

v 80.8411 1.72616e-017 -41.9117
vt -0.13341 -0.214907
f 288/688/33 285/677/33 289/689/33

v 81.2014 -2.57057e-017 -42.1437
vt -0.147595 -0.205773
f 289/689/33 285/677/33 290/690/33

v 81.5084 -4.94606e-017 -42.4427
vt -0.159682 -0.194002
f 290/690/33 285/677/33 291/691/33

v 81.7498 -5.30552e-017 -42.7967
vt -0.169188 -0.180063
f 291/691/33 285/677/33 292/692/33

v 81.9161 -3.63461e-017 -43.1917
vt -0.175734 -0.164513
f 292/692/33 285/677/33 293/693/33

vt -0.126658 -1.13926e-018
vn 0.955809 -9.71594e-017 0.293987
vt -0.109787 2.91688e-019
vn 0.980393 -1.42491e-018 0.197052
vt -0.109787 0.0787402
v 81.9161 2 -43.1917
vt -0.126658 0.0787402
f 293/694/69 285/695/70 286/696/70 294/697/69 

v 81.7498 2 -42.7967
vt 0.169188 -0.180063
vt 0.175734 -0.164513
f 286/682/35 295/698/35 294/699/35

v 81.5084 2 -42.4427
vt 0.159682 -0.194002
f 286/682/35 296/700/35 295/698/35

v 81.2014 2 -42.1437
vt 0.147595 -0.205773
f 286/682/35 297/701/35 296/700/35

v 80.8411 2 -41.9117
vt 0.13341 -0.214907
f 286/682/35 298/702/35 297/701/35

f 286/682/35 287/683/35 298/702/35

vt 0.0292998 3.36861e-017
vt 0.0461716 3.13056e-017
vn 0.454705 -1.37304e-016 0.890642
vt 0.0461716 0.0787402
vt 0.0292998 0.0787402
f 288/703/68 289/704/71 298/705/71 287/706/68 

vt -0.00418056 3.86397e-017
vt 0.0126912 3.69481e-017
vn 0.622655 -1.61376e-016 0.782496
vt 0.0126912 0.0787402
vt -0.00418056 0.0787402
f 289/707/71 290/708/72 297/709/72 298/710/71 

vt -0.0378307 4.18168e-017
vt -0.020959 4.08816e-017
vn 0.765759 -1.79009e-016 0.643127
vt -0.020959 0.0787402
vt -0.0378307 0.0787402
f 290/711/72 291/712/73 296/713/73 297/714/72 

vt -0.070308 4.27236e-017
vt -0.0534362 4.25821e-017
vn 0.878308 -1.89498e-016 0.478096
vt -0.0534362 0.0787402
vt -0.070308 0.0787402
f 291/715/73 292/716/74 295/717/74 296/718/73 

vt -0.100316 4.12465e-017
vt -0.0834446 4.19044e-017
vt -0.0834446 0.0787402
vt -0.100316 0.0787402
f 292/719/74 293/720/69 294/721/69 295/722/74 

vt -0.338745 0.0787402
vn -0.963249 3.17283e-016 0.268612
vt -0.338745 1.72652e-017
vt 0.190631 1.72652e-017
vt 0.190631 0.0787402
f 205/723/75 207/724/75 208/725/75 198/726/75 

g Mesh3 Difference Model

v 73.1236 7 -66.7295
vt -0.123476 0.316349
vn 2.07826e-015 1 5.16859e-015
v 71.6595 7 -68.1936
vt -0.123476 0.234832
v 72.2952 7 -67.3652
vt -0.11811 0.275591
f 299/727/76 300/728/76 301/729/76

v 74.0883 7 -66.3299
vt -0.139209 0.354331
f 300/728/76 299/727/76 302/730/76

vt -0.380632 0
vn -0.258819 -4.45458e-015 0.965926
vt -0.339521 -5.55112e-017
vn -0.5 -3.437e-015 0.866025
v 73.1236 2 -66.7295
vt -0.339521 0.19685
v 74.0883 2 -66.3299
vt -0.380632 0.19685
f 302/731/77 299/732/78 303/733/78 304/734/77 

vt -0.32976 -5.55112e-017
vt -0.288649 0
vn -0.707107 -2.18519e-015 0.707107
v 72.2952 2 -67.3652
vt -0.288649 0.19685
vt -0.32976 0.19685
f 299/735/78 301/736/79 305/737/79 303/738/78 

vt -0.257816 3.0188e-032
vt -0.216706 3.0188e-032
vn -0.866025 -7.8447e-016 0.5
v 71.6595 2 -68.1936
vt -0.216706 0.19685
vt -0.257816 0.19685
f 301/739/79 300/740/80 306/741/80 305/742/79 

vt -0.169704 -2.5138e-033
v 71.2599 7 -69.1583
vt -0.128593 -2.5138e-033
vn -0.965926 6.69713e-016 0.258819
v 71.2599 2 -69.1583
vt -0.128593 0.19685
vt -0.169704 0.19685
f 300/743/80 307/744/81 308/745/81 306/746/80 

vt -0.139209 0.19685
f 300/728/76 302/730/76 307/747/76

v 75.1236 7 -66.1936
vt -0.164235 0.386946
f 307/747/76 302/730/76 309/748/76

vt -0.406965 0
vn 9.51833e-015 -5.16859e-015 1
vt -0.365854 0
vt -0.365854 0.19685
v 75.1236 2 -66.1936
vt -0.406965 0.19685
f 309/749/82 302/750/77 304/751/77 310/752/82 

v 78.6236 2 -64.1314
vt -0.204262 0.541791
f 304/730/76 311/753/76 310/748/76

v 76.9354 2 -63.4321
vt -0.137795 0.514259
f 304/730/76 312/754/76 311/753/76

f 303/727/76 312/754/76 304/730/76

f 305/729/76 312/754/76 303/727/76

v 68.1236 2 -70.1936
vt -0.0807186 0.0807186
f 313/755/76 312/754/76 305/729/76

v 75.1236 2 -63.1936
vt -0.0807186 0.470462
f 313/755/76 314/756/76 312/754/76

v 68.3621 2 -68.3819
vt -0.0369221 0.137795
f 315/757/76 314/756/76 313/755/76

v 73.3119 2 -63.4321
vt -0.0369221 0.413386
f 315/757/76 316/758/76 314/756/76

v 69.0614 2 -66.6936
vt -0.00939052 0.204262
f 317/759/76 316/758/76 315/757/76

v 71.6236 2 -64.1314
vt -0.00939052 0.346919
f 317/759/76 318/760/76 316/758/76

v 70.1739 2 -65.2439
vt 0 0.275591
f 318/760/76 317/759/76 319/761/76

vt -0.273233 0.19685
vt -0.201289 0.19685
v 69.0614 -1.97398e-014 -66.6936
vt -0.201289 0.275591
v 70.1739 -2.96096e-014 -65.2439
vt -0.273233 0.275591
f 319/762/79 317/763/80 320/764/80 321/765/79 

vt -0.18512 0.19685
vt -0.113177 0.19685
v 68.3621 -1.12799e-014 -68.3819
vt -0.113177 0.275591
vt -0.18512 0.275591
f 317/766/80 315/767/81 322/768/81 320/769/80 

vt -0.0868436 0.19685
vt -0.0149 0.19685
vn -1 2.07826e-015 8.11857e-015
v 68.1236 -1.40998e-015 -70.1936
vt -0.0149 0.275591
vt -0.0868436 0.275591
f 315/770/81 313/771/83 323/772/83 322/773/81 

vt 0.0149 0.19685
v 68.3621 2 -72.0053
vt 0.0868436 0.19685
vn -0.965926 3.34517e-015 -0.258819
v 68.3621 7.04992e-015 -72.0053
vt 0.0868436 0.275591
vt 0.0149 0.275591
f 313/774/83 324/775/84 325/776/84 323/777/83 

vt -0.137795 0.0369221
f 305/729/76 324/778/76 313/755/76

f 324/778/76 305/729/76 306/728/76

f 324/778/76 306/728/76 308/747/76

v 69.0614 2 -73.6936
vt -0.204262 0.00939052
f 324/778/76 308/747/76 326/779/76

v 71.1236 2 -70.1936
vt -0.164235 0.164235
f 326/779/76 308/747/76 327/780/76

vt -0.0714271 0
v 71.1236 7 -70.1936
vt -0.0303165 0
vn -1 2.07826e-015 9.51833e-015
vt -0.0303165 0.19685
vt -0.0714271 0.19685
f 307/781/81 328/782/85 327/783/85 308/784/81 

f 307/747/76 309/748/76 328/780/76

v 76.1589 7 -66.3299
vt -0.19685 0.411973
f 328/780/76 309/748/76 329/785/76

vn 0.258819 -5.53036e-015 0.965926
v 76.1589 2 -66.3299
f 329/749/86 309/750/82 310/751/82 330/752/86 

f 310/748/76 311/753/76 330/785/76

v 77.1236 2 -66.7295
vt -0.234832 0.427705
f 330/785/76 311/753/76 331/786/76

v 80.0734 2 -65.2439
vt -0.275591 0.551181
f 331/786/76 311/753/76 332/787/76

vt -0.345176 0.19685
vn 0.707107 -5.12429e-015 0.707107
vn 0.5 -5.51525e-015 0.866025
v 78.6236 -5.49893e-014 -64.1314
v 80.0734 -5.21694e-014 -65.2439
vt -0.345176 0.275591
f 332/788/87 311/762/88 333/765/88 334/789/87 

vt -0.396048 0.19685
vt -0.324105 0.19685
v 76.9354 -5.49893e-014 -63.4321
vt -0.324105 0.275591
vt -0.396048 0.275591
f 311/790/88 312/791/86 335/792/86 333/793/88 

vt -0.422381 0.19685
vt -0.350438 0.19685
vn 8.11857e-015 -5.16859e-015 1
v 75.1236 -5.21694e-014 -63.1936
vt -0.350438 0.275591
vt -0.422381 0.275591
f 312/794/86 314/795/89 336/796/89 335/797/86 

v 73.3119 -4.79394e-014 -63.4321
f 314/794/89 316/795/77 337/796/77 336/797/89 

v 71.6236 -4.08895e-014 -64.1314
f 316/790/77 318/791/78 338/792/78 337/793/77 

f 318/788/78 319/762/79 321/765/79 338/789/78 

vt 0.00939052 0.204262
vn -2.07826e-015 -1 -5.16859e-015
vt 0.00939052 0.346919
f 320/798/90 338/799/90 321/761/90

vt 0.0369221 0.137795
f 338/799/90 320/798/90 322/800/90

vt 0.0369221 0.413386
f 338/799/90 322/800/90 337/801/90

vt 0.0807186 0.0807186
f 337/801/90 322/800/90 323/802/90

vt 0.0807186 0.470462
f 337/801/90 323/802/90 336/803/90

vt 0.137795 0.0369221
f 336/803/90 323/802/90 325/804/90

v 72.2952 -2.53797e-014 -67.3652
vt 0.11811 0.275591
f 336/803/90 325/804/90 339/805/90

v 71.6595 -1.97398e-014 -68.1936
vt 0.123476 0.234832
f 339/805/90 325/804/90 340/806/90

v 71.2599 -1.40998e-014 -69.1583
vt 0.139209 0.19685
f 340/806/90 325/804/90 341/807/90

v 69.0614 1.40998e-014 -73.6936
vt 0.204262 0.00939052
f 341/807/90 325/804/90 342/808/90

vt 0.113177 0.19685
vt 0.18512 0.19685
vn -0.866025 4.38412e-015 -0.5
vt 0.18512 0.275591
vt 0.113177 0.275591
f 324/809/84 326/810/91 342/811/91 325/812/84 

vt 0.201289 0.19685
v 70.1739 2 -75.1434
vt 0.273233 0.19685
vn -0.707107 5.12429e-015 -0.707107
v 70.1739 1.97398e-014 -75.1434
vt 0.273233 0.275591
vt 0.201289 0.275591
f 326/813/91 343/814/92 344/815/92 342/816/91 

v 71.6595 2 -72.1936
vt -0.234832 0.123476
vt -0.275591 -3.19189e-016
f 326/779/76 345/817/76 343/818/76

v 71.2599 2 -71.2289
vt -0.19685 0.139209
f 326/779/76 346/819/76 345/817/76

f 326/779/76 327/780/76 346/819/76

vt 0.0303165 -9.08281e-032
v 71.2599 7 -71.2289
vt 0.0714271 -9.08281e-032
vt 0.0714271 0.19685
vt 0.0303165 0.19685
f 328/820/85 347/821/84 346/822/84 327/823/85 

f 328/780/76 329/785/76 347/819/76

v 73.7094 7 -68.7794
vt -0.19685 0.275591
f 347/819/76 329/785/76 348/824/76

v 74.1236 7 -68.4616
vt -0.199533 0.29597
f 348/824/76 329/785/76 349/825/76

v 77.1236 7 -66.7295
f 349/825/76 329/785/76 350/786/76

vt -0.339521 0
f 350/731/88 329/826/86 330/733/86 331/734/88 

v 77.952 7 -67.3652
vt -0.32976 0
v 77.952 2 -67.3652
f 351/827/87 350/736/88 331/737/88 352/738/87 

v 75.6413 7 -68.2618
vt -0.23622 0.343782
vt -0.275591 0.433071
f 353/828/76 350/786/76 351/829/76

v 75.1236 7 -68.1936
vt -0.219913 0.331268
f 354/830/76 350/786/76 353/828/76

v 74.606 7 -68.2618
vt -0.2074 0.314961
f 355/831/76 350/786/76 354/830/76

f 349/825/76 350/786/76 355/831/76

vt 0.370354 -1.80685e-017
vn 0.258819 4.32711e-015 -0.965926
v 74.606 2 -68.2618
vt 0.370354 0.19685
v 74.1236 2 -68.4616
vt 0.349799 0.19685
vn 0.5 3.08619e-015 -0.866025
vt 0.349799 -7.35797e-017
f 355/832/93 356/833/93 357/834/94 349/835/94 

vt 0.396687 -3.91483e-020
vn -2.8555e-015 4.82361e-015 -1
v 75.1236 2 -68.1936
vt 0.396687 0.19685
vt 0.376132 0.19685
vt 0.376132 -3.91483e-020
f 354/836/95 358/837/95 356/838/93 355/839/93 

vt 0.396687 3.28742e-017
vn -0.258819 5.49281e-015 -0.965926
v 75.6413 2 -68.2618
vt 0.376132 8.83854e-017
f 353/840/96 359/837/96 358/838/95 354/841/95 

v 76.1236 7 -68.4616
vt 0.370354 -1.94343e-016
vn -0.5 5.74912e-015 -0.866025
v 76.1236 2 -68.4616
vt 0.349799 -1.94343e-016
f 360/842/97 361/833/97 359/834/96 353/843/96 

v 76.5378 7 -68.7794
vt 0.319482 4.64427e-017
vn -0.707107 5.46586e-015 -0.707107
v 76.5378 2 -68.7794
vt 0.319482 0.19685
vt 0.298927 0.19685
vt 0.298927 -9.06844e-018
f 362/844/98 363/845/98 361/846/97 360/847/97 

v 76.8557 7 -69.1936
vt 0.247539 -3.19338e-016
vn -0.866025 6.24847e-015 -0.5
v 76.8557 2 -69.1936
vt 0.247539 0.19685
vt 0.226983 0.19685
vt 0.226983 -3.19338e-016
f 364/848/99 365/849/99 363/850/98 362/851/98 

v 77.0555 7 -69.676
vt 0.159426 -1.25844e-015
vn -0.965926 5.6973e-015 -0.258819
v 77.0555 2 -69.676
vt 0.159426 0.19685
vt 0.138871 0.19685
vt 0.138871 -1.25844e-015
f 366/852/100 367/853/100 365/854/99 364/855/99 

v 77.1236 7 -70.1936
vt 0.0611494 -8.32249e-016
vn -1 3.77829e-015 5.15109e-015
v 77.1236 2 -70.1936
vt 0.0611494 0.19685
vt 0.0405941 0.19685
vt 0.0405941 -8.32249e-016
f 368/856/101 369/857/101 367/858/100 366/859/100 

v 77.0555 7 -70.7112
vt -0.0405941 -7.3349e-016
vn -0.965926 2.20914e-015 0.258819
v 77.0555 2 -70.7112
vt -0.0405941 0.19685
vt -0.0611494 0.19685
vt -0.0611494 -7.3349e-016
f 370/860/102 371/861/102 369/862/101 368/863/101 

v 76.8557 7 -71.1936
vt -0.138871 -7.01047e-016
vn -0.866025 -4.13955e-017 0.5
v 76.8557 2 -71.1936
vt -0.138871 0.19685
vt -0.159426 0.19685
vt -0.159426 -6.45536e-016
f 372/864/103 373/865/103 371/866/102 370/867/102 

v 76.5378 7 -71.6078
vt -0.226983 -5.55457e-017
vn -0.707107 -2.8238e-015 0.707107
v 76.5378 2 -71.6078
vt -0.226983 0.19685
vt -0.247539 0.19685
vt -0.247539 -5.55457e-017
f 374/868/104 375/869/104 373/870/103 372/871/103 

v 76.1236 7 -71.9257
vt -0.298927 3.99324e-016
vn -0.5 -5.03731e-015 0.866025
v 76.1236 2 -71.9257
vt -0.298927 0.19685
vt -0.319482 0.19685
vt -0.319482 3.43813e-016
f 376/872/105 377/873/105 375/874/104 374/875/104 

v 75.6413 7 -72.1255
vt -0.349799 4.33267e-016
vn -0.258819 -5.76326e-015 0.965926
v 75.6413 2 -72.1255
vt -0.349799 0.19685
vt -0.370354 0.19685
vt -0.370354 4.33267e-016
f 378/876/106 379/877/106 377/878/105 376/879/105 

v 75.1236 7 -72.1936
vt -0.376132 8.8724e-017
vn 1.05261e-014 -5.62019e-015 1
v 75.1236 2 -72.1936
vt -0.376132 0.19685
vt -0.396687 0.19685
vt -0.396687 8.8724e-017
f 380/880/107 381/881/107 379/882/106 378/883/106 

v 74.606 7 -72.1255
vt -0.376132 5.63909e-018
vn 0.258819 -6.46857e-015 0.965926
v 74.606 2 -72.1255
vt -0.396687 5.63909e-018
f 382/884/108 383/881/108 381/882/107 380/885/107 

v 74.1236 7 -71.9257
vt -0.349799 -1.17498e-016
vn 0.5 -7.4023e-015 0.866025
v 74.1236 2 -71.9257
vt -0.370354 -1.17498e-016
f 384/886/109 385/877/109 383/878/108 382/887/108 

v 73.7094 7 -71.6078
vt -0.298927 -3.32527e-016
vn 0.707107 -8.43321e-015 0.707107
v 73.7094 2 -71.6078
vt -0.319482 -3.32527e-016
f 386/888/110 387/873/110 385/874/109 384/889/109 

v 73.3916 7 -71.1936
vt -0.226983 -1.08926e-015
vn 0.866025 -7.4728e-015 0.5
v 73.3916 2 -71.1936
vt -0.247539 -1.03375e-015
f 388/890/111 389/869/111 387/870/110 386/891/110 

v 73.1918 7 -70.7112
vt -0.138871 -4.65912e-016
vn 0.965926 -2.71946e-015 0.258819
v 73.1918 2 -70.7112
vt -0.159426 -5.21423e-016
f 390/892/112 391/865/112 389/866/111 388/893/111 

v 73.1236 7 -70.1936
vt -0.0405941 8.91984e-016
vn 1 6.60297e-016 -1.23738e-014
v 73.1236 2 -70.1936
vt -0.0611494 8.91984e-016
f 392/894/113 393/861/113 391/862/112 390/895/112 

v 73.1918 7 -69.676
vt 0.0611494 7.82395e-016
vn 0.965926 1.48116e-015 -0.258819
v 73.1918 2 -69.676
vt 0.0405941 7.82395e-016
f 394/896/114 395/857/114 393/858/113 392/897/113 

v 73.3916 7 -69.1936
vt 0.159426 4.87178e-016
vn 0.866025 1.2399e-015 -0.5
v 73.3916 2 -69.1936
vt 0.138871 4.87178e-016
f 396/898/115 397/853/115 395/854/114 394/899/114 

vt 0.247539 -1.90562e-016
vn 0.707107 1.54679e-015 -0.707107
v 73.7094 2 -68.7794
vt 0.226983 -1.90562e-016
f 348/900/116 398/849/116 397/850/115 396/901/115 

vt 0.319482 -1.25784e-016
vt 0.298927 -7.02724e-017
f 349/902/94 357/845/94 398/846/116 348/903/116 

vt 0.288649 0.138588
vn 0.5 -0.707107 -0.5
vt 0.298927 0.027708
vt 0.319482 0.027708
vn 0.353553 -0.707107 -0.612372
v 73.1236 -2.81997e-014 -66.7295
vt 0.32976 0.138588
f 339/904/117 398/905/117 357/906/118 399/907/118 

vt 0.216706 0.0879353
vn 0.612372 -0.707107 -0.353553
vt 0.226983 -0.0229448
vt 0.247539 -0.0229448
vt 0.257816 0.0879353
f 340/908/119 397/909/119 398/910/117 339/911/117 

vt 0.128593 0.0521184
vn 0.683013 -0.707107 -0.183013
vt 0.138871 -0.0587617
vt 0.159426 -0.0587617
vt 0.169704 0.0521184
f 341/912/120 395/913/120 397/914/119 340/915/119 

v 71.1236 -8.4599e-015 -70.1936
vt 0.0303165 0.0335782
vn 0.707107 -0.707107 -1.05121e-014
vt 0.0405941 -0.0773019
vt 0.0611494 -0.0773019
vt 0.0714271 0.0335782
f 400/916/121 393/917/121 395/918/120 341/919/120 

v 71.2599 -2.81997e-015 -71.2289
vt -0.0714271 0.0335782
vn 0.683013 -0.707107 0.183013
vt -0.0611494 -0.0773019
vt -0.0405941 -0.0773019
vt -0.0303165 0.0335782
f 401/920/122 391/921/122 393/922/121 400/923/121 

v 71.6595 1.40998e-015 -72.1936
vt -0.169704 0.0521184
vn 0.612372 -0.707107 0.353553
vt -0.159426 -0.0587617
vt -0.138871 -0.0587617
vt -0.128593 0.0521184
f 402/924/123 389/925/123 391/926/122 401/927/122 

v 72.2952 4.22995e-015 -73.022
vt -0.257816 0.0879353
vn 0.5 -0.707107 0.5
vt -0.247539 -0.0229448
vt -0.226983 -0.0229448
vt -0.216706 0.0879353
f 403/928/124 387/929/124 389/930/123 402/931/123 

v 73.1236 5.63993e-015 -73.6577
vt -0.32976 0.138588
vn 0.353553 -0.707107 0.612372
vt -0.319482 0.027708
vt -0.298927 0.027708
vt -0.288649 0.138588
f 404/932/125 385/933/125 387/934/124 403/935/124 

v 74.0883 5.63993e-015 -74.0573
vt -0.380632 0.200625
vn 0.183013 -0.707107 0.683013
vt -0.370354 0.0897447
vt -0.349799 0.0897447
vt -0.339521 0.200625
f 405/936/126 383/937/126 385/938/125 404/939/125 

v 75.1236 4.22995e-015 -74.1936
vt -0.406965 0.269818
vn 3.21355e-015 -0.707107 0.707107
vt -0.396687 0.158938
vt -0.376132 0.158938
vt -0.365854 0.269818
f 406/940/127 381/941/127 383/942/126 405/943/126 

v 76.1589 1.40998e-015 -74.0573
vt -0.406965 0.341452
vn -0.183013 -0.707107 0.683013
vt -0.396687 0.230572
vt -0.376132 0.230572
vt -0.365854 0.341452
f 407/944/128 379/945/128 381/946/127 406/947/127 

v 77.1236 -2.81997e-015 -73.6577
vt -0.380632 0.410645
vn -0.353553 -0.707107 0.612372
vt -0.370354 0.299765
vt -0.349799 0.299765
vt -0.339521 0.410645
f 408/948/129 377/949/129 379/950/128 407/951/128 

v 77.952 -5.63993e-015 -73.022
vt -0.32976 0.472681
vn -0.5 -0.707107 0.5
vt -0.319482 0.361801
vt -0.298927 0.361801
vt -0.288649 0.472681
f 409/952/130 375/953/130 377/954/129 408/955/129 

v 78.5877 -1.12799e-014 -72.1936
vt -0.257816 0.523334
vn -0.612372 -0.707107 0.353553
vt -0.247539 0.412454
vt -0.226983 0.412454
vt -0.216706 0.523334
f 410/956/131 373/957/131 375/958/130 409/959/130 

v 78.9873 -1.69198e-014 -71.2289
vt -0.169704 0.559151
vn -0.683013 -0.707107 0.183013
vt -0.159426 0.448271
vt -0.138871 0.448271
vt -0.128593 0.559151
f 411/960/132 371/961/132 373/962/131 410/963/131 

v 79.1236 -2.25597e-014 -70.1936
vt -0.0714271 0.577691
vn -0.707107 -0.707107 2.47789e-015
vt -0.0611494 0.466811
vt -0.0405941 0.466811
vt -0.0303165 0.577691
f 412/964/133 369/965/133 371/966/132 411/967/132 

v 78.9873 -2.96096e-014 -69.1583
vt 0.0303165 0.577691
vn -0.683013 -0.707107 -0.183013
vt 0.0405941 0.466811
vt 0.0611494 0.466811
vt 0.0714271 0.577691
f 413/968/134 367/969/134 369/970/133 412/971/133 

v 78.5877 -3.38396e-014 -68.1936
vt 0.128593 0.559151
vn -0.612372 -0.707107 -0.353553
vt 0.138871 0.448271
vt 0.159426 0.448271
vt 0.169704 0.559151
f 414/972/135 365/973/135 367/974/134 413/975/134 

v 77.952 -3.66596e-014 -67.3652
vt 0.216706 0.523334
vn -0.5 -0.707107 -0.5
vt 0.226983 0.412454
vt 0.247539 0.412454
vt 0.257816 0.523334
f 415/976/136 363/977/136 365/978/135 414/979/135 

v 77.1236 -3.80695e-014 -66.7295
vt 0.288649 0.472681
vn -0.353553 -0.707107 -0.612372
vt 0.298927 0.361801
vt 0.319482 0.361801
vt 0.32976 0.472681
f 416/980/137 361/981/137 363/982/136 415/983/136 

v 76.1589 -3.80695e-014 -66.3299
vt 0.339521 0.410645
vn -0.183013 -0.707107 -0.683013
vt 0.349799 0.299765
vt 0.370354 0.299765
vt 0.380632 0.410645
f 417/984/138 359/985/138 361/986/137 416/987/137 

v 75.1236 -3.66596e-014 -66.1936
vt 0.365854 0.341452
vn -9.16321e-015 -0.707107 -0.707107
vt 0.376132 0.230572
vt 0.396687 0.230572
vt 0.406965 0.341452
f 418/988/139 358/989/139 359/990/138 417/991/138 

v 74.0883 -3.38396e-014 -66.3299
vt 0.365854 0.269818
vn 0.183013 -0.707107 -0.683013
vt 0.376132 0.158938
vt 0.396687 0.158938
vt 0.406965 0.269818
f 419/992/140 356/993/140 358/994/139 418/995/139 

vt 0.339521 0.200625
vt 0.349799 0.0897447
vt 0.370354 0.0897447
vt 0.380632 0.200625
f 399/996/118 357/997/118 356/998/140 419/999/140 

vt 0.137795 0.514259
vt 0.123476 0.316349
vt 0.139209 0.354331
f 335/1000/90 399/1001/90 419/1002/90

f 335/1000/90 339/805/90 399/1001/90

f 339/805/90 335/1000/90 336/803/90

vt 0.204262 0.541791
f 335/1000/90 419/1002/90 333/1003/90

vt 0.164235 0.386946
f 333/1003/90 419/1002/90 418/1004/90

vt 0.19685 0.411973
f 333/1003/90 418/1004/90 417/1005/90

vt 0.234832 0.427705
f 333/1003/90 417/1005/90 416/1006/90

vt 0.275591 0.551181
f 333/1003/90 416/1006/90 334/1007/90

vt 0.275591 0.433071
f 334/1007/90 416/1006/90 415/1008/90

v 81.1858 -4.51195e-014 -66.6936
vt 0.346919 0.541791
f 334/1007/90 415/1008/90 420/1009/90

vt 0.316349 0.427705
f 420/1009/90 415/1008/90 414/1010/90

vt 0.354331 0.411973
f 420/1009/90 414/1010/90 413/1011/90

v 81.8851 -3.94795e-014 -68.3819
vt 0.413386 0.514259
f 420/1009/90 413/1011/90 421/1012/90

vt 0.386946 0.386946
f 421/1012/90 413/1011/90 412/1013/90

vt 0.411973 0.354331
f 421/1012/90 412/1013/90 411/1014/90

vt 0.427705 0.316349
f 421/1012/90 411/1014/90 410/1015/90

v 82.1236 -3.10196e-014 -70.1936
vt 0.470462 0.470462
f 421/1012/90 410/1015/90 422/1016/90

vt 0.433071 0.275591
f 422/1016/90 410/1015/90 409/1017/90

v 75.1236 1.97398e-014 -77.1936
vt 0.470462 0.0807186
f 422/1016/90 409/1017/90 423/1018/90

vt 0.427705 0.234832
f 408/1019/90 423/1018/90 409/1017/90

v 73.3119 2.25597e-014 -76.9551
vt 0.413386 0.0369221
f 408/1019/90 424/1020/90 423/1018/90

vt 0.411973 0.19685
f 407/1021/90 424/1020/90 408/1019/90

vt 0.386946 0.164235
f 406/1022/90 424/1020/90 407/1021/90

vt 0.354331 0.139209
f 405/1023/90 424/1020/90 406/1022/90

v 71.6236 2.25597e-014 -76.2558
vt 0.346919 0.00939052
f 405/1023/90 425/1024/90 424/1020/90

vt 0.316349 0.123476
f 404/1025/90 425/1024/90 405/1023/90

vt 0.275591 0.11811
f 403/1026/90 425/1024/90 404/1025/90

vt 0.275591 8.32667e-017
f 403/1026/90 344/1027/90 425/1024/90

vt 0.234832 0.123476
f 402/1028/90 344/1027/90 403/1026/90

f 402/1028/90 342/808/90 344/1027/90

vt 0.19685 0.139209
f 401/1029/90 342/808/90 402/1028/90

vt 0.164235 0.164235
f 400/1030/90 342/808/90 401/1029/90

f 341/807/90 342/808/90 400/1030/90

v 71.6236 2 -76.2558
vt 0.345176 0.19685
vn -0.5 5.51525e-015 -0.866025
vt 0.345176 0.275591
f 343/814/92 426/1031/141 425/1032/141 344/815/92 

v 72.2952 2 -73.022
vt -0.275591 0.11811
vt -0.346919 0.00939052
f 343/818/76 427/1033/76 426/1034/76

f 343/818/76 345/817/76 427/1033/76

v 71.6595 7 -72.1936
vt 0.216706 0
v 72.2952 7 -73.022
vt 0.257816 0
vt 0.257816 0.19685
vt 0.216706 0.19685
f 428/1035/91 429/1036/92 427/1037/92 345/1038/91 

vt -0.23622 0.2074
f 428/817/76 390/1039/76 429/1033/76

vt -0.219913 0.219913
f 428/817/76 392/1040/76 390/1039/76

vt -0.2074 0.23622
f 428/817/76 394/1041/76 392/1040/76

vt -0.199533 0.255211
f 428/817/76 396/1042/76 394/1041/76

f 347/819/76 396/1042/76 428/817/76

f 396/1042/76 347/819/76 348/824/76

vt 0.128593 0
vt 0.169704 0
vt 0.169704 0.19685
vt 0.128593 0.19685
f 347/1043/84 428/1044/91 345/1045/91 346/1046/84 

vt -0.255211 0.199533
f 429/1033/76 390/1039/76 388/1047/76

vt -0.275591 0.19685
f 429/1033/76 388/1047/76 386/1048/76

vt -0.29597 0.199533
f 429/1033/76 386/1048/76 384/1049/76

v 73.1236 7 -73.6577
vt -0.316349 0.123476
f 429/1033/76 384/1049/76 430/1050/76

vt -0.314961 0.2074
f 430/1050/76 384/1049/76 382/1051/76

vt -0.331268 0.219913
f 430/1050/76 382/1051/76 380/1052/76

v 74.0883 7 -74.0573
vt -0.354331 0.139209
f 430/1050/76 380/1052/76 431/1053/76

vt -0.343782 0.23622
f 431/1053/76 380/1052/76 378/1054/76

vt -0.351648 0.255211
f 431/1053/76 378/1054/76 376/1055/76

vt -0.354331 0.275591
f 431/1053/76 376/1055/76 374/1056/76

v 79.1236 7 -70.1936
vt -0.386946 0.386946
f 374/1056/76 432/1057/76 431/1053/76

v 78.9873 7 -69.1583
vt -0.354331 0.411973
f 374/1056/76 433/1058/76 432/1057/76

vt -0.351648 0.29597
f 372/1059/76 433/1058/76 374/1056/76

vt -0.343782 0.314961
f 370/1060/76 433/1058/76 372/1059/76

vt -0.331268 0.331268
f 368/1061/76 433/1058/76 370/1060/76

v 78.5877 7 -68.1936
vt -0.316349 0.427705
f 368/1061/76 434/1062/76 433/1058/76

vt -0.314961 0.343782
f 366/1063/76 434/1062/76 368/1061/76

vt -0.29597 0.351648
f 364/1064/76 434/1062/76 366/1063/76

vt -0.275591 0.354331
f 362/1065/76 434/1062/76 364/1064/76

f 362/1065/76 351/829/76 434/1062/76

vt -0.255211 0.351648
f 360/1066/76 351/829/76 362/1065/76

f 353/828/76 351/829/76 360/1066/76

vt -0.257816 -3.67087e-031
vn 0.866025 -4.38412e-015 0.5
vt -0.216706 -3.67087e-031
v 78.5877 2 -68.1936
f 434/1067/142 351/1068/87 352/741/87 435/742/142 

v 81.1858 2 -66.6936
vt -0.346919 0.541791
f 352/829/76 436/1069/76 435/1062/76

f 352/829/76 332/787/76 436/1069/76

f 331/786/76 332/787/76 352/829/76

f 436/762/142 332/763/87 334/764/87 420/765/142 

v 81.8851 2 -68.3819
vn 0.965926 -3.34517e-015 0.258819
f 437/766/143 436/767/142 420/768/142 421/769/143 

v 78.9873 2 -69.1583
vt -0.413386 0.514259
f 438/1058/76 436/1069/76 437/1070/76

f 435/1062/76 436/1069/76 438/1058/76

vt -0.169704 -4.07217e-031
vt -0.128593 -4.07217e-031
f 433/1071/143 434/1072/142 435/745/142 438/746/143 

vt -0.0714271 -5.55112e-017
vn 1 -2.07826e-015 -9.51833e-015
vt -0.0303165 -2.13995e-031
v 79.1236 2 -70.1936
f 432/1073/144 433/1074/143 438/783/143 439/784/144 

f 438/1058/76 437/1070/76 439/1057/76

v 78.9873 2 -71.2289
vt -0.411973 0.354331
f 439/1057/76 437/1070/76 440/1075/76

v 78.5877 2 -72.1936
vt -0.427705 0.316349
f 440/1075/76 437/1070/76 441/1076/76

v 82.1236 2 -70.1936
vt -0.470462 0.470462
f 441/1076/76 437/1070/76 442/1077/76

vn 1 -2.07826e-015 -8.11857e-015
f 442/770/145 437/771/143 421/772/143 422/773/145 

v 81.8851 2 -72.0053
vn 0.965926 -6.69713e-016 -0.258819
v 81.8851 -2.11497e-014 -72.0053
f 443/774/146 442/775/145 422/776/145 444/777/146 

v 75.1236 2 -77.1936
vt -0.470462 0.0807186
vt -0.514259 0.413386
f 445/1078/76 442/1077/76 443/1079/76

v 77.952 2 -73.022
vt -0.433071 0.275591
f 445/1078/76 446/1080/76 442/1077/76

v 77.1236 2 -73.6577
vt -0.427705 0.234832
f 445/1078/76 447/1081/76 446/1080/76

v 73.3119 2 -76.9551
vt -0.413386 0.0369221
f 448/1082/76 447/1081/76 445/1078/76

v 76.1589 2 -74.0573
vt -0.411973 0.19685
f 448/1082/76 449/1083/76 447/1081/76

v 75.1236 2 -74.1936
vt -0.386946 0.164235
f 448/1082/76 450/1084/76 449/1083/76

v 74.0883 2 -74.0573
f 448/1082/76 451/1053/76 450/1084/76

f 426/1034/76 451/1053/76 448/1082/76

v 73.1236 2 -73.6577
f 426/1034/76 452/1050/76 451/1053/76

f 426/1034/76 427/1033/76 452/1050/76

vt 0.288649 0
vt 0.32976 0
vt 0.32976 0.19685
vt 0.288649 0.19685
f 429/1085/92 430/1086/141 452/1087/141 427/1088/92 

vt 0.339521 0
vt 0.380632 0
vn -0.258819 5.53036e-015 -0.965926
vt 0.380632 0.19685
vt 0.339521 0.19685
f 430/1089/141 431/1090/147 451/1091/147 452/1092/141 

vt 0.365854 8.30365e-032
v 75.1236 7 -74.1936
vt 0.406965 8.30365e-032
vn -1.04702e-014 5.16859e-015 -1
vt 0.406965 0.19685
vt 0.365854 0.19685
f 431/1093/147 453/1094/148 450/1095/148 451/1096/147 

f 431/1053/76 432/1057/76 453/1084/76

v 76.1589 7 -74.0573
f 453/1084/76 432/1057/76 454/1083/76

v 78.9873 7 -71.2289
f 454/1083/76 432/1057/76 455/1075/76

vt 0.0303165 -5.55112e-017
vt 0.0714271 -5.55112e-017
f 455/1097/146 432/1098/144 439/822/144 440/823/146 

v 78.5877 7 -72.1936
vt 0.128593 -5.55112e-017
vn 0.866025 7.8447e-016 -0.5
vt 0.169704 -5.55112e-017
f 456/1099/149 455/1100/146 440/1045/146 441/1046/149 

f 454/1083/76 455/1075/76 456/1076/76

v 77.1236 7 -73.6577
f 454/1083/76 456/1076/76 457/1081/76

v 77.952 7 -73.022
f 457/1081/76 456/1076/76 458/1080/76

vt 0.216706 -5.55112e-017
vn 0.707107 2.18519e-015 -0.707107
vt 0.257816 -5.55112e-017
f 458/1101/150 456/1102/149 441/1037/149 446/1038/150 

f 441/1076/76 442/1077/76 446/1080/76

vn 0.5 3.437e-015 -0.866025
vt 0.32976 -5.55112e-017
f 457/1085/151 458/1103/150 446/1087/150 447/1088/151 

vn 0.258819 4.45458e-015 -0.965926
f 454/1089/152 457/1090/151 447/1091/151 449/1092/152 

vt 0.365854 -1.63298e-031
vt 0.406965 -1.63298e-031
f 453/1104/148 454/1105/152 449/1095/152 450/1096/148 

vt 0.324105 0.19685
vt 0.396048 0.19685
vt 0.396048 0.275591
vt 0.324105 0.275591
f 426/1106/141 448/1107/147 424/1108/147 425/1109/141 

vt 0.350438 0.19685
vt 0.422381 0.19685
vn -8.11857e-015 5.16859e-015 -1
vt 0.422381 0.275591
vt 0.350438 0.275591
f 448/1110/147 445/1111/153 423/1112/153 424/1113/147 

v 76.9354 2 -76.9551
v 76.9354 1.69198e-014 -76.9551
f 445/1110/153 459/1111/152 460/1112/152 423/1113/153 

vt -0.514259 0.137795
f 445/1078/76 443/1079/76 459/1114/76

v 78.6236 2 -76.2558
vt -0.541791 0.204262
f 459/1114/76 443/1079/76 461/1115/76

v 81.1858 2 -73.6936
vt -0.541791 0.346919
f 461/1115/76 443/1079/76 462/1116/76

v 81.1858 -1.12799e-014 -73.6936
f 462/809/149 443/810/146 444/811/146 463/812/149 

vt 0.514259 0.413386
v 78.6236 7.04992e-015 -76.2558
vt 0.541791 0.204262
vt 0.541791 0.346919
f 444/1117/90 464/1118/90 463/1119/90

vt 0.514259 0.137795
f 444/1117/90 460/1120/90 464/1118/90

f 422/1016/90 460/1120/90 444/1117/90

f 422/1016/90 423/1018/90 460/1120/90

f 459/1106/152 461/1107/151 464/1108/151 460/1109/152 

v 80.0734 2 -75.1434
v 80.0734 -1.40998e-015 -75.1434
f 461/814/151 465/1031/150 466/1032/150 464/815/151 

vt -0.551181 0.275591
f 461/1115/76 462/1116/76 465/1121/76

f 465/813/150 462/814/149 463/815/149 466/816/150 

vt 0.551181 0.275591
f 463/1119/90 464/1118/90 466/1122/90

g Mesh4 Difference1 Model

v 114.183 0 -66.9577
vt 0.113177 0
v 115.871 0 -66.2584
vt 0.18512 0
v 115.871 2 -66.2584
vt 0.18512 0.0787402
v 114.183 2 -66.9577
vt 0.113177 0.0787402
f 467/1123/8 468/1124/9 469/1125/9 470/1126/8 

v 114.183 0 -79.0821
f 467/778/3 471/754/3 468/779/3

v 112.733 0 -68.0701
f 472/755/3 471/754/3 467/778/3

v 112.733 0 -77.9696
f 472/755/3 473/756/3 471/754/3

v 111.621 0 -69.5199
f 474/757/3 473/756/3 472/755/3

v 111.621 0 -76.5199
f 474/757/3 475/758/3 473/756/3

v 110.922 0 -74.8316
f 474/757/3 476/760/3 475/758/3

v 110.922 0 -71.2082
f 477/759/3 476/760/3 474/757/3

v 110.683 0 -73.0199
f 476/760/3 477/759/3 478/761/3

vt -0.273233 0
vt -0.201289 0
v 110.922 2 -71.2082
vt -0.201289 0.0787402
v 110.683 2 -73.0199
vt -0.273233 0.0787402
f 478/1127/4 477/1128/5 479/1129/5 480/1130/4 

vt -0.18512 0
vt -0.113177 0
v 111.621 2 -69.5199
vt -0.113177 0.0787402
vt -0.18512 0.0787402
f 477/1131/5 474/1132/6 481/1133/6 479/1134/5 

vt -0.0868436 0
vt -0.0149 0
v 112.733 2 -68.0701
vt -0.0149 0.0787402
vt -0.0868436 0.0787402
f 474/1135/6 472/1136/7 482/1137/7 481/1138/6 

vt 0.0149 0
vt 0.0868436 0
vt 0.0868436 0.0787402
vt 0.0149 0.0787402
f 472/1139/7 467/1140/8 470/1141/8 482/1142/7 

v 112.733 2 -77.9696
f 483/803/12 482/802/12 470/804/12

v 111.621 2 -76.5199
f 484/801/12 482/802/12 483/803/12

f 484/801/12 481/800/12 482/802/12

v 110.922 2 -74.8316
f 485/799/12 481/800/12 484/801/12

f 485/799/12 479/798/12 481/800/12

f 479/798/12 485/799/12 480/761/12

vt -0.345176 0
vt -0.345176 0.0787402
f 476/1143/13 478/1127/4 480/1130/4 485/1144/13 

vt -0.396048 0
vt -0.324105 0
vt -0.324105 0.0787402
vt -0.396048 0.0787402
f 475/1145/17 476/1146/13 485/1147/13 484/1148/17 

vt -0.422381 0
vt -0.350438 0
vt -0.350438 0.0787402
vt -0.422381 0.0787402
f 473/1149/16 475/1150/17 484/1151/17 483/1152/16 

v 114.183 2 -79.0821
f 471/1149/15 473/1150/16 483/1151/16 486/1152/15 

v 113.683 2 -73.0199
f 487/805/12 486/1000/12 483/803/12

v 113.819 2 -74.0552
f 486/1000/12 487/805/12 488/1001/12

vt 0.288649 -0.00120282
vn 0.707107 0.707107 7.99332e-015
v 115.683 0 -73.0199
vt 0.298927 -0.112083
v 115.751 0 -73.5375
vt 0.319482 -0.112083
vn 0.683013 0.707107 0.183013
vt 0.32976 -0.00120282
f 487/1153/154 489/1154/154 490/1155/155 488/1156/155 

v 113.819 2 -71.9846
vt 0.216706 -0.0518556
vn 0.683013 0.707107 -0.183013
v 115.751 0 -72.5022
vt 0.226983 -0.162736
vt 0.247539 -0.162736
vt 0.257816 -0.0518556
f 491/1157/156 492/1158/156 489/1159/154 487/1160/154 

v 114.219 2 -71.0199
vt 0.128593 -0.0876725
vn 0.612372 0.707107 -0.353553
v 115.951 0 -72.0199
vt 0.138871 -0.198553
vt 0.159426 -0.198553
vt 0.169704 -0.0876725
f 493/1161/157 494/1162/157 492/1163/156 491/1164/156 

v 114.855 2 -70.1915
vt 0.0303165 -0.106213
vn 0.5 0.707107 -0.5
v 116.269 0 -71.6057
vt 0.0405941 -0.217093
vt 0.0611494 -0.217093
vt 0.0714271 -0.106213
f 495/1165/158 496/1166/158 494/1167/157 493/1168/157 

v 115.683 2 -69.5558
vt -0.0714271 -0.106213
vn 0.353553 0.707107 -0.612372
v 116.683 0 -71.2878
vt -0.0611494 -0.217093
vt -0.0405941 -0.217093
vt -0.0303165 -0.106213
f 497/1169/159 498/1170/159 496/1171/158 495/1172/158 

v 116.648 2 -69.1562
vt -0.169704 -0.0876725
vn 0.183013 0.707107 -0.683013
v 117.165 0 -71.088
vt -0.159426 -0.198553
vt -0.138871 -0.198553
vt -0.128593 -0.0876725
f 499/1173/160 500/1174/160 498/1175/159 497/1176/159 

v 117.683 2 -69.0199
vt -0.257816 -0.0518556
vn -2.63424e-015 0.707107 -0.707107
v 117.683 0 -71.0199
vt -0.247539 -0.162736
vt -0.226983 -0.162736
vt -0.216706 -0.0518556
f 501/1177/161 502/1178/161 500/1179/160 499/1180/160 

v 118.718 2 -69.1562
vt -0.32976 -0.00120282
vn -0.183013 0.707107 -0.683013
v 118.201 0 -71.088
vt -0.319482 -0.112083
vt -0.298927 -0.112083
vt -0.288649 -0.00120282
f 503/1181/162 504/1182/162 502/1183/161 501/1184/161 

v 119.683 2 -69.5558
vt -0.380632 0.0608339
vn -0.353553 0.707107 -0.612372
v 118.683 0 -71.2878
vt -0.370354 -0.0500462
vt -0.349799 -0.0500462
vt -0.339521 0.0608339
f 505/1185/163 506/1186/163 504/1187/162 503/1188/162 

v 120.511 2 -70.1915
vt -0.406965 0.130027
vn -0.5 0.707107 -0.5
v 119.097 0 -71.6057
vt -0.396687 0.0191468
vt -0.376132 0.0191468
vt -0.365854 0.130027
f 507/1189/164 508/1190/164 506/1191/163 505/1192/163 

v 121.147 2 -71.0199
vt -0.406965 0.201661
vn -0.612372 0.707107 -0.353553
v 119.415 0 -72.0199
vt -0.396687 0.0907806
vt -0.376132 0.0907806
vt -0.365854 0.201661
f 509/1193/165 510/1194/165 508/1195/164 507/1196/164 

v 121.547 2 -71.9846
vt -0.380632 0.270854
vn -0.683013 0.707107 -0.183013
v 119.615 0 -72.5022
vt -0.370354 0.159974
vt -0.349799 0.159974
vt -0.339521 0.270854
f 511/1197/166 512/1198/166 510/1199/165 509/1200/165 

v 121.683 2 -73.0199
vt -0.32976 0.33289
vn -0.707107 0.707107 6.92708e-015
v 119.683 0 -73.0199
vt -0.319482 0.22201
vt -0.298927 0.22201
vt -0.288649 0.33289
f 513/1201/167 514/1202/167 512/1203/166 511/1204/166 

v 121.547 2 -74.0552
vt -0.257816 0.383543
vn -0.683013 0.707107 0.183013
v 119.615 0 -73.5375
vt -0.247539 0.272663
vt -0.226983 0.272663
vt -0.216706 0.383543
f 515/1205/168 516/1206/168 514/1207/167 513/1208/167 

v 121.147 2 -75.0199
vt -0.169704 0.41936
vn -0.612372 0.707107 0.353553
v 119.415 0 -74.0199
vt -0.159426 0.30848
vt -0.138871 0.30848
vt -0.128593 0.41936
f 517/1209/169 518/1210/169 516/1211/168 515/1212/168 

v 120.511 2 -75.8483
vt -0.0714271 0.4379
vn -0.5 0.707107 0.5
v 119.097 0 -74.4341
vt -0.0611494 0.32702
vt -0.0405941 0.32702
vt -0.0303165 0.4379
f 519/1213/170 520/1214/170 518/1215/169 517/1216/169 

v 119.683 2 -76.484
vt 0.0303165 0.4379
vn -0.353553 0.707107 0.612372
v 118.683 0 -74.7519
vt 0.0405941 0.32702
vt 0.0611494 0.32702
vt 0.0714271 0.4379
f 521/1217/171 522/1218/171 520/1219/170 519/1220/170 

v 118.718 2 -76.8836
vt 0.128593 0.41936
vn -0.183013 0.707107 0.683013
v 118.201 0 -74.9517
vt 0.138871 0.30848
vt 0.159426 0.30848
vt 0.169704 0.41936
f 523/1221/172 524/1222/172 522/1223/171 521/1224/171 

v 117.683 2 -77.0199
vt 0.216706 0.383543
vn 4.02105e-015 0.707107 0.707107
v 117.683 0 -75.0199
vt 0.226983 0.272663
vt 0.247539 0.272663
vt 0.257816 0.383543
f 525/1225/173 526/1226/173 524/1227/172 523/1228/172 

v 116.648 2 -76.8836
vt 0.288649 0.33289
vn 0.183013 0.707107 0.683013
v 117.165 0 -74.9517
vt 0.298927 0.22201
vt 0.319482 0.22201
vt 0.32976 0.33289
f 527/1229/174 528/1230/174 526/1231/173 525/1232/173 

v 115.683 2 -76.484
vt 0.339521 0.270854
vn 0.353553 0.707107 0.612372
v 116.683 0 -74.7519
vt 0.349799 0.159974
vt 0.370354 0.159974
vt 0.380632 0.270854
f 529/1233/175 530/1234/175 528/1235/174 527/1236/174 

v 114.855 2 -75.8483
vt 0.365854 0.201661
vn 0.5 0.707107 0.5
v 116.269 0 -74.4341
vt 0.376132 0.0907806
vt 0.396687 0.0907806
vt 0.406965 0.201661
f 531/1237/176 532/1238/176 530/1239/175 529/1240/175 

v 114.219 2 -75.0199
vt 0.365854 0.130027
vn 0.612372 0.707107 0.353553
v 115.951 0 -74.0199
vt 0.376132 0.0191468
vt 0.396687 0.0191468
vt 0.406965 0.130027
f 533/1241/177 534/1242/177 532/1243/176 531/1244/176 

vt 0.339521 0.0608339
vt 0.349799 -0.0500462
vt 0.370354 -0.0500462
vt 0.380632 0.0608339
f 488/1245/155 490/1246/155 534/1247/177 533/1248/177 

v 115.871 0 -79.7814
f 490/825/3 535/753/3 534/831/3

f 489/824/3 535/753/3 490/825/3

f 535/753/3 489/824/3 471/754/3

f 468/779/3 471/754/3 489/824/3

f 468/779/3 489/824/3 492/1042/3

f 468/779/3 492/1042/3 494/1041/3

v 117.683 0 -66.0199
vt -0.275591 0
f 468/779/3 494/1041/3 536/1249/3

f 536/1249/3 494/1041/3 496/1040/3

f 536/1249/3 496/1040/3 498/1039/3

f 536/1249/3 498/1039/3 500/1047/3

f 536/1249/3 500/1047/3 502/1048/3

f 536/1249/3 502/1048/3 504/1049/3

v 119.495 0 -66.2584
f 536/1249/3 504/1049/3 537/1034/3

f 537/1034/3 504/1049/3 506/1051/3

f 537/1034/3 506/1051/3 508/1052/3

f 537/1034/3 508/1052/3 510/1054/3

f 537/1034/3 510/1054/3 512/1055/3

v 121.183 0 -66.9577
f 537/1034/3 512/1055/3 538/1082/3

f 538/1082/3 512/1055/3 514/1056/3

v 121.183 0 -79.0821
f 538/1082/3 514/1056/3 539/1070/3

f 516/1059/3 539/1070/3 514/1056/3

v 119.495 0 -79.7814
f 516/1059/3 540/1069/3 539/1070/3

f 518/1060/3 540/1069/3 516/1059/3

f 520/1061/3 540/1069/3 518/1060/3

f 522/1063/3 540/1069/3 520/1061/3

f 524/1064/3 540/1069/3 522/1063/3

f 526/1065/3 540/1069/3 524/1064/3

v 117.683 0 -80.0199
f 526/1065/3 541/787/3 540/1069/3

f 528/1066/3 541/787/3 526/1065/3

f 530/828/3 541/787/3 528/1066/3

f 532/830/3 541/787/3 530/828/3

f 534/831/3 541/787/3 532/830/3

f 534/831/3 535/753/3 541/787/3

vn 2.2676e-015 0 -1
v 115.871 2 -79.7814
v 117.683 2 -80.0199
f 541/1143/178 535/1127/22 542/1130/22 543/1144/178 

f 535/1145/22 471/1146/15 486/1147/15 542/1148/22 

f 486/1000/12 533/1002/12 542/1003/12

f 486/1000/12 488/1001/12 533/1002/12

f 542/1003/12 533/1002/12 531/1004/12

f 542/1003/12 531/1004/12 529/1005/12

f 542/1003/12 529/1005/12 527/1006/12

f 542/1003/12 527/1006/12 543/1007/12

f 543/1007/12 527/1006/12 525/1008/12

v 119.495 2 -79.7814
f 543/1007/12 525/1008/12 544/1009/12

f 544/1009/12 525/1008/12 523/1010/12

f 544/1009/12 523/1010/12 521/1011/12

v 121.183 2 -79.0821
f 544/1009/12 521/1011/12 545/1012/12

f 545/1012/12 521/1011/12 519/1013/12

f 545/1012/12 519/1013/12 517/1014/12

f 545/1012/12 517/1014/12 515/1015/12

v 122.633 2 -77.9696
f 545/1012/12 515/1015/12 546/1016/12

f 546/1016/12 515/1015/12 513/1017/12

v 122.633 2 -68.0701
f 546/1016/12 513/1017/12 547/1018/12

f 511/1019/12 547/1018/12 513/1017/12

v 121.183 2 -66.9577
f 511/1019/12 548/1020/12 547/1018/12

f 509/1021/12 548/1020/12 511/1019/12

f 507/1022/12 548/1020/12 509/1021/12

f 505/1023/12 548/1020/12 507/1022/12

v 119.495 2 -66.2584
f 505/1023/12 549/1024/12 548/1020/12

f 503/1025/12 549/1024/12 505/1023/12

f 501/1026/12 549/1024/12 503/1025/12

v 117.683 2 -66.0199
vt 0.275591 0
f 501/1026/12 550/1250/12 549/1024/12

f 499/1028/12 550/1250/12 501/1026/12

f 499/1028/12 469/808/12 550/1250/12

f 497/1029/12 469/808/12 499/1028/12

f 495/1030/12 469/808/12 497/1029/12

f 493/807/12 469/808/12 495/1030/12

f 493/807/12 470/804/12 469/808/12

f 491/806/12 470/804/12 493/807/12

f 487/805/12 470/804/12 491/806/12

f 483/803/12 470/804/12 487/805/12

vt 0.201289 0
vt 0.273233 0
vt 0.273233 0.0787402
vt 0.201289 0.0787402
f 468/1251/9 536/1252/10 550/1253/10 469/1254/9 

vt 0.345176 0
vt 0.345176 0.0787402
f 536/1252/10 537/1255/18 549/1256/18 550/1253/10 

vt 0.324105 0
vt 0.396048 0
vt 0.396048 0.0787402
vt 0.324105 0.0787402
f 537/1257/18 538/1258/21 548/1259/21 549/1260/18 

vt 0.350438 0
v 122.633 0 -68.0701
vt 0.422381 0
vt 0.422381 0.0787402
vt 0.350438 0.0787402
f 538/1261/21 551/1262/26 547/1263/26 548/1264/21 

v 122.633 0 -77.9696
f 538/1082/3 552/1077/3 551/1078/3

f 538/1082/3 539/1070/3 552/1077/3

f 552/1135/19 539/1136/25 545/1137/25 546/1138/19 

f 539/1131/25 540/1132/24 544/1133/24 545/1134/25 

f 540/1127/24 541/1128/178 543/1129/178 544/1130/24 

v 123.745 0 -76.5199
v 123.745 2 -76.5199
f 553/1139/11 552/1140/19 546/1141/19 554/1142/11 

f 551/1078/3 552/1077/3 553/1079/3

v 123.745 0 -69.5199
f 551/1078/3 553/1079/3 555/1114/3

v 124.445 0 -74.8316
f 555/1114/3 553/1079/3 556/1116/3

v 124.445 2 -74.8316
f 556/1123/1 553/1124/11 554/1125/11 557/1126/1 

v 124.445 2 -71.2082
f 554/1117/12 558/1118/12 557/1119/12

v 123.745 2 -69.5199
f 554/1117/12 559/1120/12 558/1118/12

f 546/1016/12 559/1120/12 554/1117/12

f 546/1016/12 547/1018/12 559/1120/12

f 551/1261/26 555/1262/29 559/1263/29 547/1264/26 

v 124.445 0 -71.2082
f 555/1257/29 560/1258/28 558/1259/28 559/1260/29 

f 555/1114/3 556/1116/3 560/1115/3

v 124.683 0 -73.0199
f 560/1115/3 556/1116/3 561/1121/3

v 124.683 2 -73.0199
f 561/1251/32 556/1252/1 557/1253/1 562/1254/32 

f 557/1119/12 558/1118/12 562/1122/12

f 560/1252/28 561/1255/32 562/1256/32 558/1253/28 

g Mesh5 Model

v 55.6267 1.19849e-014 -63.9104
vt -2.19003 2.51616
v 55.4384 1.19849e-014 -57.149
vt -2.18262 2.24996
v 53.9384 1.19849e-014 -63.2111
vt -2.12356 2.48863
f 563/1265/3 564/1266/3 565/1267/3

v 55.5066 1.19849e-014 -57.6666
vt -2.1853 2.27034
f 564/1266/3 563/1265/3 566/1268/3

v 55.7064 1.19849e-014 -58.149
vt -2.19317 2.28933
f 566/1268/3 563/1265/3 567/1269/3

v 57.4384 1.19849e-014 -64.149
vt -2.26136 2.52555
f 567/1269/3 563/1265/3 568/1270/3

vt -2.57166 4.71845e-016
vn 7.9786e-016 0 -1
vt -2.49972 4.71845e-016
v 55.6267 2 -63.9104
vt -2.49972 0.0787402
v 57.4384 2 -64.149
vt -2.57166 0.0787402
f 568/1271/179 563/1272/22 569/1273/22 570/1274/179 

vt -2.98621 4.71845e-016
vt -2.91427 4.71845e-016
v 53.9384 2 -63.2111
vt -2.91427 0.0787402
vt -2.98621 0.0787402
f 563/1275/22 565/1276/15 571/1277/15 569/1278/22 

vt -3.19971 4.71845e-016
v 52.4887 1.23374e-014 -62.0987
vt -3.12777 4.85723e-016
v 52.4887 2 -62.0987
vt -3.12777 0.0787402
vt -3.19971 0.0787402
f 565/1279/15 572/1280/16 573/1281/16 571/1282/15 

v 52.4887 1.23374e-014 -52.1992
vt -2.06648 2.05509
vt -2.06648 2.44483
f 574/1283/3 572/1284/3 565/1267/3

v 51.3763 1.23374e-014 -53.649
vt -2.02269 2.11216
f 575/1285/3 572/1284/3 574/1283/3

v 51.3763 1.19849e-014 -60.649
vt -2.02269 2.38775
f 575/1285/3 576/1286/3 572/1284/3

v 50.677 1.19849e-014 -55.3372
vt -1.99516 2.17863
f 577/1287/3 576/1286/3 575/1285/3

v 50.677 1.19849e-014 -58.9607
vt -1.99516 2.32129
f 577/1287/3 578/1288/3 576/1286/3

v 50.4384 1.23374e-014 -57.149
vt -1.98577 2.24996
f 578/1288/3 577/1287/3 579/1289/3

vt -1.97152 4.85723e-016
vt -1.89957 4.71845e-016
v 50.677 2 -55.3372
vt -1.89957 0.0787402
v 50.4384 2 -57.149
vt -1.97152 0.0787402
f 579/1290/14 577/1291/5 580/1292/5 581/1293/14 

vt -1.24928 4.71845e-016
vt -1.17734 4.85723e-016
v 51.3763 2 -53.649
vt -1.17734 0.0787402
vt -1.24928 0.0787402
f 577/1294/5 575/1295/6 582/1296/6 580/1297/5 

vt -0.444358 4.85723e-016
vt -0.372414 4.85723e-016
v 52.4887 2 -52.1992
vt -0.372414 0.0787402
vt -0.444358 0.0787402
f 575/1298/6 574/1299/7 583/1300/7 582/1301/6 

vt 0.388394 4.85723e-016
v 53.9384 1.19849e-014 -51.0868
vt 0.460338 4.71845e-016
v 53.9384 2 -51.0868
vt 0.460338 0.0787402
vt 0.388394 0.0787402
f 574/1302/7 584/1303/8 585/1304/8 583/1305/7 

vt -2.12356 2.01129
f 574/1283/3 565/1267/3 584/1306/3

v 55.6267 1.23374e-014 -50.3875
vt -2.19003 1.98376
f 584/1306/3 565/1267/3 586/1307/3

f 586/1307/3 565/1267/3 564/1266/3

v 55.5066 1.19849e-014 -56.6313
vt -2.1853 2.22958
f 586/1307/3 564/1266/3 587/1308/3

vt 1.92527 4.71845e-016
vt 1.94582 4.71845e-016
v 55.4384 2 -57.149
vt 1.94582 0.0787402
v 55.5066 2 -56.6313
vt 1.92527 0.0787402
f 587/1309/1 564/1310/2 588/1311/2 589/1312/1 

vt 2.5156 4.71845e-016
vt 2.53615 4.71845e-016
v 55.5066 2 -57.6666
vt 2.53615 0.0787402
vt 2.5156 0.0787402
f 564/1313/2 566/1314/28 590/1315/28 588/1316/2 

vt 2.9338 4.71845e-016
vt 2.95435 4.71845e-016
v 55.7064 2 -58.149
vt 2.95435 0.0787402
vt 2.9338 0.0787402
f 566/1317/28 567/1318/29 591/1319/29 590/1320/28 

vt 3.15136 4.71845e-016
v 56.0242 1.19849e-014 -58.5632
vt 3.17192 4.71845e-016
v 56.0242 2 -58.5632
vt 3.17192 0.0787402
vt 3.15136 0.0787402
f 567/1321/29 592/1322/26 593/1323/26 591/1324/29 

vt -2.20568 2.30564
f 567/1269/3 568/1270/3 592/1325/3

v 56.4384 1.19849e-014 -58.881
vt -2.22199 2.31815
f 592/1325/3 568/1270/3 594/1326/3

v 56.9208 1.19849e-014 -59.0808
vt -2.24098 2.32602
f 594/1326/3 568/1270/3 595/1327/3

v 57.4384 1.19849e-014 -59.149
vt -2.26136 2.3287
f 595/1327/3 568/1270/3 596/1328/3

v 57.9561 1.19849e-014 -59.0808
vt -2.28174 2.32602
f 596/1328/3 568/1270/3 597/1329/3

v 59.2502 1.23374e-014 -63.9104
vt -2.33268 2.51616
f 597/1329/3 568/1270/3 598/1330/3

vt -1.9843 4.85723e-016
vt -1.91236 4.71845e-016
vt -1.91236 0.0787402
v 59.2502 2 -63.9104
vt -1.9843 0.0787402
f 598/1331/24 568/1332/179 570/1333/179 599/1334/24 

vt 2.26136 2.52555
v 57.9561 2 -59.0808
vt 2.28174 2.32602
vt 2.33268 2.51616
f 570/1335/12 600/1336/12 599/1337/12

v 57.4384 2 -59.149
vt 2.26136 2.3287
f 570/1335/12 601/1338/12 600/1336/12

v 56.9208 2 -59.0808
vt 2.24098 2.32602
f 570/1335/12 602/1339/12 601/1338/12

v 56.4384 2 -58.881
vt 2.22199 2.31815
f 570/1335/12 603/1340/12 602/1339/12

vt 2.20568 2.30564
f 570/1335/12 593/1341/12 603/1340/12

vt 2.19317 2.28933
f 570/1335/12 591/1342/12 593/1341/12

vt 2.19003 2.51616
f 569/1343/12 591/1342/12 570/1335/12

vt 2.1853 2.27034
f 569/1343/12 590/1344/12 591/1342/12

vt 2.18262 2.24996
f 569/1343/12 588/1345/12 590/1344/12

vt 2.12356 2.48863
f 588/1345/12 569/1343/12 571/1346/12

v 55.6267 2 -50.3875
vt 2.19003 1.98376
f 571/1346/12 604/1347/12 588/1345/12

vt 2.12356 2.01129
f 571/1346/12 585/1348/12 604/1347/12

vt 2.06648 2.44483
f 573/1349/12 585/1348/12 571/1346/12

vt 2.06648 2.05509
f 573/1349/12 583/1350/12 585/1348/12

v 51.3763 2 -60.649
vt 2.02269 2.38775
f 605/1351/12 583/1350/12 573/1349/12

vt 2.02269 2.11216
f 605/1351/12 582/1352/12 583/1350/12

v 50.677 2 -58.9607
vt 1.99516 2.32129
f 606/1353/12 582/1352/12 605/1351/12

vt 1.99516 2.17863
f 606/1353/12 580/1354/12 582/1352/12

vt 1.98577 2.24996
f 580/1354/12 606/1353/12 581/1355/12

vt -2.56185 4.71845e-016
vt -2.4899 4.85723e-016
vt -2.4899 0.0787402
vt -2.56185 0.0787402
f 578/1356/13 579/1357/14 581/1358/14 606/1359/13 

vt -2.98005 4.71845e-016
vt -2.9081 4.71845e-016
vt -2.9081 0.0787402
vt -2.98005 0.0787402
f 576/1360/17 578/1361/13 606/1362/13 605/1363/17 

vt -3.19761 4.85723e-016
vt -3.12567 4.71845e-016
vt -3.12567 0.0787402
vt -3.19761 0.0787402
f 572/1364/16 576/1365/17 605/1366/17 573/1367/16 

vt 1.19223 4.71845e-016
vt 1.26417 4.85723e-016
vt 1.26417 0.0787402
vt 1.19223 0.0787402
f 584/1368/8 586/1369/9 604/1370/9 585/1371/8 

vt 1.91236 4.85723e-016
v 57.4384 1.19849e-014 -50.149
vt 1.9843 4.71845e-016
vn 7.27872e-016 0 1
v 57.4384 2 -50.149
vt 1.9843 0.0787402
vt 1.91236 0.0787402
f 586/1372/9 607/1373/180 608/1374/180 604/1375/9 

v 55.7064 1.19849e-014 -56.149
vt -2.19317 2.21059
vt -2.26136 1.97437
f 586/1307/3 609/1376/3 607/1377/3

f 586/1307/3 587/1308/3 609/1376/3

vt 1.20303 4.71845e-016
vt 1.22359 4.71845e-016
vt 1.22359 0.0787402
v 55.7064 2 -56.149
vt 1.20303 0.0787402
f 609/1378/11 587/1379/1 589/1380/1 610/1381/11 

vt 2.1853 2.22958
vt 2.19317 2.21059
f 589/1382/12 604/1347/12 610/1383/12

f 588/1345/12 604/1347/12 589/1382/12

vt 2.26136 1.97437
f 610/1383/12 604/1347/12 608/1384/12

v 56.0242 2 -55.7347
vt 2.20568 2.19428
f 610/1383/12 608/1384/12 611/1385/12

v 56.4384 2 -55.4169
vt 2.22199 2.18177
f 611/1385/12 608/1384/12 612/1386/12

v 56.9208 2 -55.2171
vt 2.24098 2.1739
f 612/1386/12 608/1384/12 613/1387/12

v 57.4384 2 -55.149
vt 2.26136 2.17122
f 613/1387/12 608/1384/12 614/1388/12

v 59.2502 2 -50.3875
vt 2.33268 1.98376
f 614/1388/12 608/1384/12 615/1389/12

vt 2.49972 4.71845e-016
v 59.2502 1.19849e-014 -50.3875
vt 2.57166 4.71845e-016
vt 2.57166 0.0787402
vt 2.49972 0.0787402
f 607/1390/180 616/1391/18 615/1392/18 608/1393/180 

v 57.4384 1.19849e-014 -55.149
vt -2.26136 2.17122
vt -2.33268 1.98376
f 607/1377/3 617/1394/3 616/1395/3

v 56.9208 1.19849e-014 -55.2171
vt -2.24098 2.1739
f 607/1377/3 618/1396/3 617/1394/3

v 56.4384 1.19849e-014 -55.4169
vt -2.22199 2.18177
f 607/1377/3 619/1397/3 618/1396/3

v 56.0242 1.19849e-014 -55.7347
vt -2.20568 2.19428
f 607/1377/3 620/1398/3 619/1397/3

f 607/1377/3 609/1376/3 620/1398/3

vt 0.398109 4.71845e-016
vt 0.418664 4.71845e-016
vt 0.418664 0.0787402
vt 0.398109 0.0787402
f 620/1399/19 609/1400/11 610/1401/11 611/1402/19 

vt -0.434644 4.71845e-016
vt -0.414088 4.71845e-016
vt -0.414088 0.0787402
vt -0.434644 0.0787402
f 619/1403/25 620/1404/19 611/1405/19 612/1406/25 

vt -1.23848 4.71845e-016
vt -1.21792 4.71845e-016
vt -1.21792 0.0787402
vt -1.23848 0.0787402
f 618/1407/24 619/1408/25 612/1409/25 613/1410/24 

vt -1.95861 4.71845e-016
vt -1.93805 4.71845e-016
vt -1.93805 0.0787402
vt -1.95861 0.0787402
f 617/1411/23 618/1412/24 613/1413/24 614/1414/23 

v 57.9561 1.19849e-014 -55.2171
vt -2.54597 4.71845e-016
vt -2.52541 4.71845e-016
vt -2.52541 0.0787402
v 57.9561 2 -55.2171
vt -2.54597 0.0787402
f 621/1415/22 617/1416/23 614/1417/23 622/1418/22 

vt -2.28174 2.1739
f 616/1395/3 617/1394/3 621/1419/3

v 58.4384 1.19849e-014 -55.4169
vt -2.30073 2.18177
f 616/1395/3 621/1419/3 623/1420/3

vt -2.96052 4.71845e-016
vt -2.93996 4.71845e-016
vt -2.93996 0.0787402
v 58.4384 2 -55.4169
vt -2.96052 0.0787402
f 623/1421/15 621/1422/22 622/1423/22 624/1424/15 

vt 2.28174 2.1739
vt 2.30073 2.18177
f 622/1425/12 615/1389/12 624/1426/12

f 614/1388/12 615/1389/12 622/1425/12

v 58.8527 2 -55.7347
vt 2.31703 2.19428
f 624/1426/12 615/1389/12 625/1427/12

v 59.1705 2 -56.149
vt 2.32955 2.21059
f 625/1427/12 615/1389/12 626/1428/12

v 59.3703 2 -56.6313
vt 2.33741 2.22958
f 626/1428/12 615/1389/12 627/1429/12

v 60.9384 2 -51.0868
vt 2.39915 2.01129
f 627/1429/12 615/1389/12 628/1430/12

vt 2.91427 4.71845e-016
v 60.9384 1.19849e-014 -51.0868
vt 2.98621 4.71845e-016
vt 2.98621 0.0787402
vt 2.91427 0.0787402
f 616/1431/18 629/1432/21 628/1433/21 615/1434/18 

v 59.3703 1.19849e-014 -56.6313
vt -2.33741 2.22958
vt -2.39915 2.01129
f 616/1395/3 630/1435/3 629/1436/3

v 59.1705 1.19849e-014 -56.149
vt -2.32955 2.21059
f 616/1395/3 631/1437/3 630/1435/3

v 58.8527 1.19849e-014 -55.7347
vt -2.31703 2.19428
f 616/1395/3 632/1438/3 631/1437/3

f 616/1395/3 623/1420/3 632/1438/3

vt -3.17402 4.71845e-016
vt -3.15347 4.71845e-016
vt -3.15347 0.0787402
vt -3.17402 0.0787402
f 632/1439/16 623/1440/15 624/1441/15 625/1442/16 

vt -3.17192 4.71845e-016
vt -3.15136 4.71845e-016
vt -3.15136 0.0787402
vt -3.17192 0.0787402
f 631/1443/17 632/1444/16 625/1445/16 626/1446/17 

vt -2.95435 4.71845e-016
vt -2.9338 4.71845e-016
vt -2.9338 0.0787402
vt -2.95435 0.0787402
f 630/1447/13 631/1448/17 626/1449/17 627/1450/13 

v 59.4384 1.19849e-014 -57.149
vt -2.53615 4.71845e-016
vt -2.5156 4.71845e-016
vt -2.5156 0.0787402
v 59.4384 2 -57.149
vt -2.53615 0.0787402
f 633/1451/14 630/1452/13 627/1453/13 634/1454/14 

vt -2.3401 2.24996
f 629/1436/3 630/1435/3 633/1455/3

v 60.9384 1.19849e-014 -63.2111
vt -2.39915 2.48863
f 633/1455/3 635/1456/3 629/1436/3

v 59.3703 1.19849e-014 -57.6666
vt -2.33741 2.27034
f 636/1457/3 635/1456/3 633/1455/3

f 636/1457/3 598/1330/3 635/1456/3

v 59.1705 1.19849e-014 -58.149
vt -2.32955 2.28933
f 637/1458/3 598/1330/3 636/1457/3

v 58.8527 1.19849e-014 -58.5632
vt -2.31703 2.30564
f 638/1459/3 598/1330/3 637/1458/3

v 58.4384 1.19849e-014 -58.881
vt -2.30073 2.31815
f 639/1460/3 598/1330/3 638/1459/3

f 597/1329/3 598/1330/3 639/1460/3

vt 1.21792 4.71845e-016
vt 1.23848 4.71845e-016
v 58.4384 2 -58.881
vt 1.23848 0.0787402
vt 1.21792 0.0787402
f 597/1461/9 639/1462/8 640/1463/8 600/1464/9 

vt 0.414088 4.71845e-016
vt 0.434644 4.71845e-016
v 58.8527 2 -58.5632
vt 0.434644 0.0787402
vt 0.414088 0.0787402
f 639/1465/8 638/1466/7 641/1467/7 640/1468/8 

vt -0.418664 4.71845e-016
vt -0.398109 4.71845e-016
v 59.1705 2 -58.149
vt -0.398109 0.0787402
vt -0.418664 0.0787402
f 638/1469/7 637/1470/6 642/1471/6 641/1472/7 

vt -1.22359 4.71845e-016
vt -1.20303 4.71845e-016
v 59.3703 2 -57.6666
vt -1.20303 0.0787402
vt -1.22359 0.0787402
f 637/1473/6 636/1474/5 643/1475/5 642/1476/6 

vt -1.94582 4.71845e-016
vt -1.92527 4.71845e-016
vt -1.92527 0.0787402
vt -1.94582 0.0787402
f 636/1477/5 633/1478/14 634/1479/14 643/1480/5 

v 60.9384 2 -63.2111
vt 2.39915 2.48863
vt 2.33741 2.27034
vt 2.3401 2.24996
f 644/1481/12 643/1482/12 634/1483/12

f 599/1337/12 643/1482/12 644/1481/12

vt 2.32955 2.28933
f 599/1337/12 642/1484/12 643/1482/12

vt 2.31703 2.30564
f 599/1337/12 641/1485/12 642/1484/12

vt 2.30073 2.31815
f 599/1337/12 640/1486/12 641/1485/12

f 599/1337/12 600/1336/12 640/1486/12

vt -1.26417 4.71845e-016
vt -1.19223 4.85723e-016
vt -1.19223 0.0787402
vt -1.26417 0.0787402
f 635/1487/25 598/1488/24 599/1489/24 644/1490/25 

v 62.3882 1.23374e-014 -62.0987
vt -0.460338 4.85723e-016
vt -0.388394 4.71845e-016
vt -0.388394 0.0787402
v 62.3882 2 -62.0987
vt -0.460338 0.0787402
f 645/1491/19 635/1492/25 644/1493/25 646/1494/19 

v 62.3882 1.23374e-014 -52.1992
vt -2.45623 2.05509
vt -2.45623 2.44483
f 647/1495/3 635/1456/3 645/1496/3

f 629/1436/3 635/1456/3 647/1495/3

vt 3.12777 4.71845e-016
vt 3.19971 4.85723e-016
v 62.3882 2 -52.1992
vt 3.19971 0.0787402
vt 3.12777 0.0787402
f 629/1497/21 647/1498/26 648/1499/26 628/1500/21 

vt 3.12567 4.85723e-016
v 63.5006 1.19849e-014 -53.649
vt 3.19761 4.71845e-016
v 63.5006 2 -53.649
vt 3.19761 0.0787402
vt 3.12567 0.0787402
f 647/1501/26 649/1502/29 650/1503/29 648/1504/26 

v 63.5006 1.23374e-014 -60.649
vt -2.50002 2.38775
vt -2.50002 2.11216
f 647/1495/3 651/1505/3 649/1506/3

f 647/1495/3 645/1496/3 651/1505/3

vt 0.372414 4.85723e-016
vt 0.444358 4.85723e-016
vt 0.444358 0.0787402
v 63.5006 2 -60.649
vt 0.372414 0.0787402
f 651/1507/11 645/1508/19 646/1509/19 652/1510/11 

vt 2.45623 2.44483
vt 2.50002 2.11216
vt 2.50002 2.38775
f 646/1511/12 650/1512/12 652/1513/12

vt 2.45623 2.05509
f 646/1511/12 648/1514/12 650/1512/12

f 644/1481/12 648/1514/12 646/1511/12

f 644/1481/12 628/1430/12 648/1514/12

f 644/1481/12 634/1483/12 628/1430/12

f 627/1429/12 628/1430/12 634/1483/12

v 64.1999 2 -55.3372
vt 2.52756 2.17863
f 652/1513/12 650/1512/12 653/1515/12

vt 2.9081 4.71845e-016
v 64.1999 1.19849e-014 -55.3372
vt 2.98005 4.71845e-016
vt 2.98005 0.0787402
vt 2.9081 0.0787402
f 649/1516/29 654/1517/28 653/1518/28 650/1519/29 

vt -2.52756 2.17863
f 649/1506/3 651/1505/3 654/1520/3

v 64.1999 1.19849e-014 -58.9607
vt -2.52756 2.32129
f 654/1520/3 651/1505/3 655/1521/3

vt 1.17734 4.71845e-016
vt 1.24928 4.85723e-016
vt 1.24928 0.0787402
v 64.1999 2 -58.9607
vt 1.17734 0.0787402
f 655/1522/1 651/1523/11 652/1524/11 656/1525/1 

vt 2.52756 2.32129
f 652/1513/12 653/1515/12 656/1526/12

v 64.4384 2 -57.149
vt 2.53695 2.24996
f 656/1526/12 653/1515/12 657/1527/12

vt 2.4899 4.71845e-016
v 64.4384 1.16324e-014 -57.149
vt 2.56185 4.57967e-016
vn 1 0 5.72499e-015
vt 2.56185 0.0787402
vt 2.4899 0.0787402
f 654/1528/28 658/1529/181 657/1530/181 653/1531/28 

vt -2.53695 2.24996
f 654/1520/3 655/1521/3 658/1532/3

vt 1.89957 4.57967e-016
vt 1.97152 4.71845e-016
vt 1.97152 0.0787402
vt 1.89957 0.0787402
f 658/1533/181 655/1534/1 656/1535/1 657/1536/181 

vt 1.93805 4.71845e-016
vt 1.95861 4.71845e-016
vt 1.95861 0.0787402
vt 1.93805 0.0787402
f 596/1537/10 597/1538/9 600/1539/9 601/1540/10 

vt 2.52541 4.71845e-016
vt 2.54597 4.71845e-016
vt 2.54597 0.0787402
vt 2.52541 0.0787402
f 595/1541/18 596/1542/10 601/1543/10 602/1544/18 

vt 2.93996 4.71845e-016
vt 2.96052 4.71845e-016
vt 2.96052 0.0787402
vt 2.93996 0.0787402
f 594/1545/21 595/1546/18 602/1547/18 603/1548/21 

vt 3.15347 4.71845e-016
vt 3.17402 4.71845e-016
vt 3.17402 0.0787402
vt 3.15347 0.0787402
f 592/1549/26 594/1550/21 603/1551/21 593/1552/26 

