# Alias OBJ Model File
# Exported from SketchUp, (c) 2000-2012 Trimble Navigation Limited
# File units = millimeters

mtllib meat_tooth_wheel.mtl

g Mesh1 Model

usemtl FrontColor
v 78.5933 0.8 -63.6131
vt -3.09422 2.50445
vn 0 -1 -0
v 76.0534 0.8 -60.7223
vt -2.99423 2.39064
v 76.0534 0.8 -63.3104
vt -2.99423 2.49254
f 1/1/1 2/2/1 3/3/1

v 78.5933 0.8 -60.4196
vt -3.09422 2.37872
f 2/2/1 1/1/1 4/4/1

v 79.1065 0.8 -58.5043
vt -3.11443 2.30332
f 4/4/1 1/1/1 5/5/1

v 79.0831 0.8 -62.0163
vt -3.11351 2.44159
f 5/5/1 1/1/1 6/6/1

v 79.1065 0.8 -65.5284
vt -3.11443 2.57986
f 7/7/1 6/6/1 1/1/1

v 79.1444 0.8 -62.4822
vt -3.11592 2.45993
f 6/6/1 7/7/1 8/8/1

v 80.7032 0.8 -68.2941
vt -3.17729 2.68874
f 7/7/1 9/9/1 8/8/1

v 78.3523 0.8 -69.3019
vt -3.08474 2.72842
f 7/7/1 10/10/1 9/9/1

v 77.0582 0.8 -67.0604
vt -3.03379 2.64017
f 10/10/1 7/7/1 11/11/1

vt 0.84804 0.0314961
vn -0.598959 0 0.80078
vt 0.948741 0.0314961
v 79.1065 16.8 -65.5284
vt 0.948741 0.661417
v 77.0582 16.8 -67.0604
vt 0.84804 0.661417
f 11/12/2 7/13/2 12/14/2 13/15/2 

v 78.5933 16.8 -63.6131
vt -3.21996 0.661417
vn -0.965926 0 -0.258819
vt -3.29803 0.661417
vt -3.29803 0.0314961
vt -3.21996 0.0314961
f 14/16/3 12/17/3 7/18/3 1/19/3 

v 76.0534 16.8 -63.3104
f 15/3/1 13/11/1 12/7/1 14/1/1 

vt -3.33542 0.661417
vn -0.965926 -1.36555e-029 -0.258819
vt -3.18257 0.661417
v 76.0534 21.6 -63.3104
vt -3.18257 0.850394
v 77.0582 21.6 -67.0604
vt -3.33542 0.850394
f 13/20/4 15/21/4 16/22/4 17/23/4 

vt -2.49254 0.0314961
vn -1 -6.7581e-033 8.71641e-015
vt -2.39064 0.0314961
v 76.0534 16.8 -60.7223
vt -2.39064 0.661417
v 76.0534 21.6 -60.7223
vt -2.39064 0.850394
vt -2.49254 0.850394
vt -2.49254 0.661417
f 3/24/5 2/25/5 18/26/5 19/27/5 16/28/5 15/29/5 

vt 2.69033 0.0314961
vn -0.118324 0 0.992975
vt 2.79103 0.0314961
v 78.5933 16.8 -60.4196
vt 2.79103 0.661417
vt 2.69033 0.661417
f 2/30/6 4/31/6 20/32/6 18/33/6 

v 79.1065 16.8 -58.5043
vt -1.41876 0.661417
vn -0.965926 0 0.258819
vt -1.49683 0.661417
vt -1.49683 0.0314961
vt -1.41876 0.0314961
f 21/34/7 20/35/7 4/36/7 5/37/7 

v 77.0582 16.8 -56.9723
vt -3.03379 2.243
f 22/38/1 18/2/1 20/4/1 21/5/1 

vt -1.53422 0.661417
vt -1.38137 0.661417
v 77.0582 21.6 -56.9723
vt -1.38137 0.850394
vt -1.53422 0.850394
f 18/39/7 22/40/7 23/41/7 19/42/7 

v 77.0582 0.8 -56.9723
vt -0.425602 0.0314961
vn -0.866025 1.19528e-018 0.5
v 78.3523 0.8 -54.7308
vt -0.323705 0.0314961
v 78.3523 16.8 -54.7308
vt -0.323705 0.661417
v 78.3523 21.6 -54.7308
vt -0.323705 0.850394
vt -0.425602 0.850394
vt -0.425602 0.661417
f 24/43/8 25/44/8 26/45/8 27/46/8 23/47/8 22/48/8 

vt -3.08474 2.15476
f 5/5/1 25/49/1 24/38/1

v 80.7032 0.8 -55.7386
vt -3.17729 2.19443
f 25/49/1 5/5/1 28/50/1

v 79.1444 0.8 -61.5505
vt -3.11592 2.42325
f 28/50/1 5/5/1 29/51/1

f 5/5/1 6/6/1 29/51/1

vt 1.99581 0.0314961
vn 0.965926 0 -0.258819
vt 2.01431 0.0314961
vn 1 0 -0
v 79.0831 3.3 -62.0163
vt 2.01431 0.129921
v 79.1444 3.3 -61.5505
vt 1.99581 0.129921
f 29/52/9 6/53/10 30/54/10 31/55/9 

vt 2.82709 0.0314961
vt 2.84559 0.0314961
vn 0.965926 0 0.258819
v 79.1444 3.3 -62.4822
vt 2.84559 0.129921
vt 2.82709 0.129921
f 6/56/10 8/57/11 32/58/11 30/59/10 

vt 3.46509 0.0314961
v 79.3242 0.8 -62.9163
vt 3.48359 0.0314961
vn 0.866025 0 0.5
v 79.3242 3.3 -62.9163
vt 3.48359 0.129921
vt 3.46509 0.129921
f 8/60/11 33/61/12 34/62/12 32/63/11 

vt -3.123 2.47702
f 8/8/1 9/9/1 33/64/1

v 79.6103 0.8 -63.2891
vt -3.13426 2.4917
f 33/64/1 9/9/1 35/65/1

v 79.9831 0.8 -63.5752
vt -3.14894 2.50296
f 35/65/1 9/9/1 36/66/1

v 80.4172 0.8 -63.755
vt -3.16603 2.51004
f 36/66/1 9/9/1 37/67/1

v 80.8831 0.8 -63.8163
vt -3.18437 2.51245
f 37/67/1 9/9/1 38/68/1

v 82.1053 0.8 -69.6962
vt -3.23249 2.74394
f 38/68/1 9/9/1 39/69/1

v 80.7032 16.8 -68.2941
vt -4.14791 0.661417
vn -0.707107 0 -0.707107
v 82.1053 16.8 -69.6962
vt -4.22598 0.661417
vt -4.22598 0.0314961
vt -4.14791 0.0314961
f 40/70/13 41/71/13 39/72/13 9/73/13 

v 78.3523 16.8 -69.3019
v 81.0975 16.8 -72.0471
vt -3.19282 2.8365
f 42/10/1 43/74/1 41/69/1 40/9/1 

vt -4.26337 0.661417
vt -4.11052 0.661417
v 78.3523 21.6 -69.3019
vt -4.11052 0.850394
v 81.0975 21.6 -72.0471
vt -4.26337 0.850394
f 43/75/13 42/76/13 44/77/13 45/78/13 

vt -3.90525 0.0314961
vn -0.866025 2.17704e-018 -0.5
vt -3.80335 0.0314961
vt -3.80335 0.661417
vt -3.80335 0.850394
vt -3.90525 0.850394
vt -3.90525 0.661417
f 10/79/14 11/80/14 13/81/14 17/82/14 44/83/14 42/84/14 

vt 3.03379 2.64017
vn 1.11859e-015 1 1.21931e-015
v 77.8037 21.6 -66.7517
vt 3.06314 2.62802
vt 3.08474 2.72842
f 17/85/15 46/86/15 44/87/15

v 76.8534 21.6 -63.2051
vt 3.02573 2.48839
f 17/85/15 47/88/15 46/86/15

vt 2.99423 2.39064
f 17/85/15 19/89/15 47/88/15

vt 2.99423 2.49254
f 19/89/15 17/85/15 16/90/15

v 76.8534 21.6 -60.8276
vt 3.02573 2.39479
f 19/89/15 48/91/15 47/88/15

vt 3.03379 2.243
f 48/91/15 19/89/15 23/92/15

v 77.8037 21.6 -57.281
vt 3.06314 2.25516
f 48/91/15 23/92/15 49/93/15

vt 3.08474 2.15476
f 49/93/15 23/92/15 27/94/15

v 78.9925 21.6 -55.222
vt 3.10994 2.1741
f 49/93/15 27/94/15 50/95/15

v 81.0975 21.6 -51.9856
vt 3.19282 2.04668
f 50/95/15 27/94/15 51/96/15

vt 0.657596 0.661417
vn -0.707107 0 0.707107
v 81.0975 16.8 -51.9856
vt 0.810442 0.661417
vt 0.810442 0.850394
vt 0.657596 0.850394
f 26/97/16 52/98/16 51/99/16 27/100/16 

vt -3.19282 2.04668
v 80.7032 16.8 -55.7386
v 82.1053 16.8 -54.3365
vt -3.23249 2.13923
f 52/101/1 26/49/1 53/50/1 54/102/1 

vt 3.6842 0.0314961
vn 0.394016 0 0.919104
vt 3.7849 0.0314961
vt 3.7849 0.661417
vt 3.6842 0.661417
f 25/103/17 28/104/17 53/105/17 26/106/17 

vt 0.773052 0.661417
vt 0.694986 0.661417
vt 0.694986 0.0314961
v 82.1053 0.8 -54.3365
vt 0.773052 0.0314961
f 54/107/16 53/108/16 28/109/16 55/110/16 

v 80.8831 0.8 -60.2163
vt -3.18437 2.37072
f 28/50/1 56/111/1 55/102/1

v 80.4172 0.8 -60.2777
vt -3.16603 2.37314
f 28/50/1 57/112/1 56/111/1

v 79.9831 0.8 -60.4575
vt -3.14894 2.38022
f 28/50/1 58/113/1 57/112/1

v 79.6103 0.8 -60.7436
vt -3.13426 2.39148
f 28/50/1 59/114/1 58/113/1

v 79.3242 0.8 -61.1163
vt -3.123 2.40616
f 28/50/1 60/115/1 59/114/1

f 28/50/1 29/51/1 60/115/1

vt 1.02788 0.0314961
vn 0.866025 0 -0.5
vt 1.04638 0.0314961
vt 1.04638 0.129921
v 79.3242 3.3 -61.1163
vt 1.02788 0.129921
f 60/116/18 29/117/9 31/118/9 61/119/18 

v 79.6103 3.3 -63.2891
v 79.6537 3.3 -63.3225
vt -3.13597 2.49301
v 79.6266 3.3 -63.1163
vt -3.1349 2.4849
v 81.4831 3.3 -63.1163
vt -3.20799 2.4849
v 81.4831 3.3 -60.9163
vt -3.20799 2.39828
v 79.6266 3.3 -60.9163
vt -3.1349 2.39828
v 79.6537 3.3 -60.7102
vt -3.13597 2.39017
v 79.6103 3.3 -60.7436
f 62/65/1 63/120/1 64/121/1 65/122/1 66/123/1 67/124/1 68/125/1 69/114/1 61/115/1 31/51/1 30/6/1 32/8/1 34/64/1 

vt 4.00343 0.0314961
vn 0.707107 -3.03265e-016 0.707107
vt 4.02193 0.0314961
vn 0.5 -3.03265e-016 0.866025
v 79.9831 2.5 -63.5752
vt 4.02193 0.0984252
v 79.822 2.5 -63.4516
vt 4.01394 0.0984252
vn 0.608761 -6.01341e-016 0.793353
v 79.6537 2.5 -63.3225
vt 4.00558 0.0984252
vt 4.00558 0.129921
vt 4.00343 0.129921
f 35/126/19 36/127/20 70/128/20 71/129/21 72/130/21 63/131/21 62/132/19 

vt 3.86708 0.0314961
vt 3.88558 0.0314961
vn 0.258819 0 0.965926
v 80.4172 2.5 -63.755
vt 3.88558 0.0984252
vt 3.86708 0.0984252
f 36/133/20 37/134/22 73/135/22 70/136/20 

vt 3.46657 0.0314961
vt 3.48507 0.0314961
vn 0 0 1
v 80.8831 2.5 -63.8163
vt 3.48507 0.0984252
vt 3.46657 0.0984252
f 37/137/22 38/138/23 74/139/23 73/140/22 

vt 2.82919 0.0314961
v 81.3489 0.8 -63.755
vt 2.84769 0.0314961
vn -0.258819 0 0.965926
v 81.3489 2.5 -63.755
vt 2.84769 0.0984252
vt 2.82919 0.0984252
f 38/141/23 75/142/24 76/143/24 74/144/23 

vt -3.20271 2.51004
f 38/68/1 39/69/1 75/145/1

v 81.7831 0.8 -63.5752
vt -3.21981 2.50296
f 75/145/1 39/69/1 77/146/1

v 82.1559 0.8 -63.2891
vt -3.23448 2.4917
f 77/146/1 39/69/1 78/147/1

v 83.339 0.8 -73.3412
vt -3.28106 2.88745
f 39/69/1 79/148/1 78/147/1

v 81.0975 0.8 -72.0471
f 79/148/1 39/69/1 80/74/1

vt -1.34902 0.0314961
vn -0.919104 0 0.394016
vt -1.24831 0.0314961
vt -1.24831 0.661417
vt -1.34902 0.661417
f 80/149/25 39/150/25 41/151/25 43/152/25 

vt -4.28521 0.0314961
vn -0.5 -1.5794e-018 -0.866025
vt -4.18331 0.0314961
vt -4.18331 0.661417
vt -4.18331 0.850394
v 83.339 21.6 -73.3412
vt -4.28521 0.850394
v 83.339 16.8 -73.3412
vt -4.28521 0.661417
f 79/153/26 80/154/26 43/155/26 45/156/26 81/157/26 82/158/26 

vt 3.19282 2.8365
v 81.5887 21.6 -71.4069
vt 3.21215 2.8113
vt 3.28106 2.88745
f 45/159/15 83/160/15 81/161/15

v 78.9925 21.6 -68.8107
vt 3.10994 2.70908
f 45/159/15 84/162/15 83/160/15

f 44/87/15 84/162/15 45/159/15

f 44/87/15 46/86/15 84/162/15

v 77.8037 17.6 -66.7517
vt 3.8075 0.692913
vn 0.866025 -1.57838e-015 0.5
v 78.9925 17.6 -68.8107
vt 3.9011 0.692913
vt 3.9011 0.850394
vt 3.8075 0.850394
f 85/163/27 86/164/27 84/165/27 46/166/27 

vn 1.17758e-015 1 1.31206e-015
v 77.8037 17.6 -57.281
f 85/86/28 87/93/28 86/162/28

v 76.8534 17.6 -60.8276
f 85/86/28 88/91/28 87/93/28

v 76.8534 17.6 -63.2051
f 88/91/28 85/86/28 89/88/28

vt 3.18672 0.692913
vn 0.965926 -1.39606e-015 0.258819
vt 3.33127 0.692913
vt 3.33127 0.850394
vt 3.18672 0.850394
f 89/167/29 85/168/29 46/169/29 47/170/29 

vt 2.39479 0.692913
vn 1 -1.11859e-015 -9.48866e-015
vt 2.48839 0.692913
vt 2.48839 0.850394
vt 2.39479 0.850394
f 88/171/30 89/172/30 47/173/30 48/174/30 

vt 1.38552 0.692913
vn 0.965926 -7.64898e-016 -0.258819
vt 1.53007 0.692913
vt 1.53007 0.850394
vt 1.38552 0.850394
f 87/175/31 88/176/31 48/177/31 49/178/31 

v 78.9925 17.6 -55.222
vt 0.327851 0.692913
vn 0.866025 -3.59077e-016 -0.5
vt 0.421456 0.692913
vt 0.421456 0.850394
vt 0.327851 0.850394
f 90/179/32 87/180/32 49/181/32 50/182/32 

f 86/162/28 87/93/28 90/95/28

v 79.6266 17.6 -63.1163
vt 3.1349 2.4849
f 86/162/28 90/95/28 91/183/28

v 79.6266 17.6 -60.9163
vt 3.1349 2.39828
f 91/183/28 90/95/28 92/184/28

v 79.7851 17.6 -59.7125
vt 3.14114 2.35089
f 90/95/28 93/185/28 92/184/28

v 81.5887 17.6 -52.6258
vt 3.21215 2.07188
f 93/185/28 90/95/28 94/186/28

vt -0.806295 0.692913
vn 0.707107 7.12142e-017 -0.707107
vt -0.661743 0.692913
vt -0.661743 0.850394
v 81.5887 21.6 -52.6258
vt -0.806295 0.850394
f 94/187/33 90/188/33 50/189/33 95/190/33 

f 50/95/15 51/96/15 95/186/15

v 83.339 21.6 -50.6915
vt 3.28106 1.99573
f 95/186/15 51/96/15 96/191/15

v 81.0975 0.8 -51.9856
vt 1.74172 0.0314961
vn -0.5 -3.8775e-018 0.866025
v 83.339 0.8 -50.6915
vt 1.84362 0.0314961
v 83.339 16.8 -50.6915
vt 1.84362 0.661417
vt 1.84362 0.850394
vt 1.74172 0.850394
vt 1.74172 0.661417
f 97/192/34 98/193/34 99/194/34 96/195/34 51/196/34 52/197/34 

vt -3.28106 1.99573
f 55/102/1 98/198/1 97/101/1

v 82.1559 0.8 -60.7436
vt -3.23448 2.39148
f 98/198/1 55/102/1 100/199/1

v 81.7831 0.8 -60.4575
vt -3.21981 2.38022
f 55/102/1 101/200/1 100/199/1

v 81.3489 0.8 -60.2777
vt -3.20271 2.37314
f 55/102/1 102/201/1 101/200/1

f 55/102/1 56/111/1 102/201/1

vt -3.48507 0.0314961
vn -0.258819 0 -0.965926
vt -3.46657 0.0314961
vn 0 0 -1
v 80.8831 2.5 -60.2163
vt -3.46657 0.0984252
v 81.3489 2.5 -60.2777
vt -3.48507 0.0984252
f 102/202/35 56/203/36 103/204/36 104/205/35 

vt -2.84769 0.0314961
vt -2.82919 0.0314961
vn 0.258819 0 -0.965926
v 80.4172 2.5 -60.2777
vt -2.82919 0.0984252
vt -2.84769 0.0984252
f 56/206/36 57/207/37 105/208/37 103/209/36 

vt -2.01687 0.0314961
vt -1.99837 0.0314961
vn 0.5 -8.4481e-017 -0.866025
v 79.9831 2.5 -60.4575
vt -1.99837 0.0984252
vt -2.01687 0.0984252
f 57/210/37 58/211/38 106/212/38 105/213/37 

vt -1.04924 0.0314961
vt -1.03074 0.0314961
vn 0.707107 -8.4481e-017 -0.707107
vt -1.03074 0.129921
vt -1.03289 0.129921
vn 0.608761 -1.67516e-016 -0.793353
v 79.6537 2.5 -60.7102
vt -1.03289 0.0984252
v 79.822 2.5 -60.5811
vt -1.04125 0.0984252
vt -1.04924 0.0984252
f 58/214/38 59/215/39 69/216/39 68/217/40 107/218/40 108/219/40 106/220/38 

vt -0.0107307 0.0314961
vt 0.00776912 0.0314961
vt 0.00776912 0.129921
vt -0.0107307 0.129921
f 59/221/39 60/222/18 61/223/18 69/224/39 

vt 1.96858 0.692913
vn 0.991445 6.60143e-017 -0.130526
vt 1.92077 0.692913
vn 0.965926 3.3292e-017 -0.258819
v 79.7851 2.5 -59.7125
vt 1.92077 0.0984252
vt 1.96039 0.0984252
vt 1.96039 0.129921
vt 1.96858 0.129921
f 92/225/41 93/226/42 109/227/42 107/228/41 68/229/41 67/230/41 

vt 0.969872 0.692913
v 80.6743 17.6 -57.5657
vt 0.878388 0.692913
v 80.6743 2.5 -57.5657
vt 0.878388 0.0984252
vt 0.969872 0.0984252
f 93/231/42 110/232/18 111/233/18 109/234/42 

vt 3.17615 2.26637
f 93/185/28 94/186/28 110/235/28

v 82.0889 17.6 -55.7222
vt 3.23185 2.19379
f 110/235/28 94/186/28 112/236/28

v 83.6478 17.6 -51.437
vt 3.29322 2.02508
f 112/236/28 94/186/28 113/237/28

vt -1.83947 0.692913
vn 0.5 4.96653e-016 -0.866025
vt -1.74587 0.692913
vt -1.74587 0.850394
v 83.6478 21.6 -51.437
vt -1.83947 0.850394
f 113/238/43 94/239/43 95/240/43 114/241/43 

f 95/186/15 96/191/15 114/237/15

v 87.089 21.6 -49.6867
vt 3.4287 1.95617
f 114/237/15 96/191/15 115/242/15

vt 2.65273 0.661417
v 87.089 16.8 -49.6867
vt 2.80558 0.661417
vt 2.80558 0.850394
vt 2.65273 0.850394
f 99/243/24 116/244/24 115/245/24 96/246/24 

vt -3.4287 1.95617
v 84.871 16.8 -52.7398
vt -3.34138 2.07637
v 86.7863 16.8 -52.2266
vt -3.41678 2.05616
f 116/247/1 99/198/1 117/248/1 118/249/1 

vt 3.56336 0.0314961
vn 0.80078 0 0.598959
v 84.871 0.8 -52.7398
vt 3.66406 0.0314961
vt 3.66406 0.661417
vt 3.56336 0.661417
f 98/250/44 119/251/44 117/252/44 99/253/44 

f 98/198/1 79/148/1 119/248/1

v 82.6831 0.8 -62.0163
vt -3.25524 2.44159
f 120/254/1 79/148/1 98/198/1

v 82.6217 0.8 -62.4822
vt -3.25282 2.45993
f 121/255/1 79/148/1 120/254/1

v 82.4419 0.8 -62.9163
vt -3.24574 2.47702
f 122/256/1 79/148/1 121/255/1

f 78/147/1 79/148/1 122/256/1

vt -0.00776912 0.0314961
vt 0.0107307 0.0314961
vn -0.866025 0 0.5
v 82.4419 2.5 -62.9163
vt 0.0107307 0.0984252
v 82.1559 2.5 -63.2891
vt -0.00776912 0.0984252
f 78/257/16 122/258/45 123/259/45 124/260/16 

vt -1.04638 0.0314961
vt -1.02788 0.0314961
v 82.6217 2.5 -62.4822
vt -1.02788 0.0984252
vt -1.04638 0.0984252
f 122/261/45 121/262/7 125/263/7 123/264/45 

vt -2.01431 0.0314961
vt -1.99581 0.0314961
vn -1 0 -0
v 82.6831 2.5 -62.0163
vt -1.99581 0.0984252
vt -2.01431 0.0984252
f 121/265/7 120/266/46 126/267/46 125/268/7 

vt -2.84559 0.0314961
v 82.6217 0.8 -61.5505
vt -2.82709 0.0314961
v 82.6217 2.5 -61.5505
vt -2.82709 0.0984252
vt -2.84559 0.0984252
f 120/269/46 127/270/3 128/271/3 126/272/46 

vt -3.25282 2.42325
f 98/198/1 127/273/1 120/254/1

v 82.4419 0.8 -61.1163
vt -3.24574 2.40616
f 98/198/1 129/274/1 127/273/1

f 98/198/1 100/199/1 129/274/1

vt -3.88482 0.0314961
vn -0.866025 0 -0.5
vt -3.86632 0.0314961
v 82.1559 2.5 -60.7436
vt -3.86632 0.0984252
v 82.4419 2.5 -61.1163
vt -3.88482 0.0984252
f 129/275/47 100/276/13 130/277/13 131/278/47 

vt -4.02193 0.0314961
vt -4.00343 0.0314961
vn -0.5 0 -0.866025
v 81.7831 2.5 -60.4575
vt -4.00343 0.0984252
vt -4.02193 0.0984252
f 100/279/13 101/280/48 132/281/48 130/282/13 

vt -3.88558 0.0314961
vt -3.86708 0.0314961
vt -3.86708 0.0984252
vt -3.88558 0.0984252
f 101/283/48 102/284/35 104/285/35 132/286/48 

v 89.9419 2.5 -53.6163
vt 3.54102 2.11088
vn -3.13554e-017 1 -1.3886e-016
v 89.8183 2.5 -53.4553
vt 3.53615 2.10454
v 89.6892 2.5 -53.287
vt 3.53107 2.09791
v 90.6869 2.5 -53.4184
vt 3.57035 2.10308
v 92.8337 2.5 -54.3076
vt 3.65487 2.13809
v 94.6772 2.5 -55.7222
vt 3.72745 2.19379
v 96.0918 2.5 -57.5657
vt 3.78314 2.26637
v 96.981 2.5 -59.7125
vt 3.81815 2.35089
v 97.1124 2.5 -60.7102
vt 3.82332 2.39017
v 96.9441 2.5 -60.5811
vt 3.8167 2.38508
v 96.7831 2.5 -60.4575
vt 3.81036 2.38022
v 96.3489 2.5 -60.2777
vt 3.79327 2.37314
v 95.8831 2.5 -60.2163
vt 3.77492 2.37072
v 95.4172 2.5 -60.2777
vt 3.75658 2.37314
v 94.9831 2.5 -60.4575
vt 3.73949 2.38022
v 94.6103 2.5 -60.7436
vt 3.72481 2.39148
v 94.3242 2.5 -61.1163
vt 3.71355 2.40616
v 94.1444 2.5 -61.5505
vt 3.70647 2.42325
v 94.0831 2.5 -62.0163
vt 3.70406 2.44159
v 94.1444 2.5 -62.4822
vt 3.70647 2.45993
v 94.3242 2.5 -62.9163
vt 3.71355 2.47702
v 94.6103 2.5 -63.2891
vt 3.72481 2.4917
v 94.9831 2.5 -63.5752
vt 3.73949 2.50296
v 95.4172 2.5 -63.755
vt 3.75658 2.51004
v 95.8831 2.5 -63.8163
vt 3.77492 2.51245
v 96.3489 2.5 -63.755
vt 3.79327 2.51004
v 96.7831 2.5 -63.5752
vt 3.81036 2.50296
v 96.9441 2.5 -63.4516
vt 3.8167 2.4981
v 97.1124 2.5 -63.3225
vt 3.82332 2.49301
v 96.981 2.5 -64.3202
vt 3.81815 2.53229
v 96.0918 2.5 -66.467
vt 3.78314 2.61681
v 94.6772 2.5 -68.3105
vt 3.72745 2.68939
v 92.8337 2.5 -69.7251
vt 3.65487 2.74508
v 90.6869 2.5 -70.6143
vt 3.57035 2.78009
v 89.6892 2.5 -70.7457
vt 3.53107 2.78526
v 89.8183 2.5 -70.5774
vt 3.53615 2.77864
v 89.9419 2.5 -70.4163
vt 3.54102 2.7723
v 90.1217 2.5 -69.9822
vt 3.5481 2.75521
v 90.1831 2.5 -69.5163
vt 3.55051 2.73686
v 90.1217 2.5 -69.0505
vt 3.5481 2.71852
v 89.9419 2.5 -68.6163
vt 3.54102 2.70143
v 89.6559 2.5 -68.2436
vt 3.52976 2.68675
v 89.2831 2.5 -67.9575
vt 3.51508 2.67549
v 88.8489 2.5 -67.7777
vt 3.49799 2.66841
v 88.3831 2.5 -67.7163
vt 3.47965 2.666
v 87.9172 2.5 -67.7777
vt 3.46131 2.66841
v 87.4831 2.5 -67.9575
vt 3.44421 2.67549
v 87.1103 2.5 -68.2436
vt 3.42954 2.68675
v 86.8242 2.5 -68.6163
vt 3.41828 2.70143
v 86.6444 2.5 -69.0505
vt 3.4112 2.71852
v 86.5831 2.5 -69.5163
vt 3.40878 2.73686
v 86.6444 2.5 -69.9822
vt 3.4112 2.75521
v 86.8242 2.5 -70.4163
vt 3.41828 2.7723
v 86.9478 2.5 -70.5774
vt 3.42314 2.77864
v 87.0769 2.5 -70.7457
vt 3.42823 2.78526
v 86.0792 2.5 -70.6143
vt 3.38895 2.78009
v 83.9324 2.5 -69.7251
vt 3.30443 2.74508
v 82.0889 2.5 -68.3105
vt 3.23185 2.68939
v 80.6743 2.5 -66.467
vt 3.17615 2.61681
v 79.7851 2.5 -64.3202
vt 3.14114 2.53229
vt 3.13597 2.49301
vt 3.1426 2.4981
vt 3.14894 2.50296
vt 3.16603 2.51004
vt 3.18437 2.51245
vt 3.20271 2.51004
v 81.7831 2.5 -63.5752
vt 3.21981 2.50296
vt 3.23448 2.4917
vt 3.24574 2.47702
vt 3.25282 2.45993
vt 3.25524 2.44159
vt 3.25282 2.42325
vt 3.24574 2.40616
vt 3.23448 2.39148
vt 3.21981 2.38022
vt 3.20271 2.37314
vt 3.18437 2.37072
vt 3.16603 2.37314
vt 3.14894 2.38022
vt 3.1426 2.38508
vt 3.13597 2.39017
v 82.0889 2.5 -55.7222
v 83.9324 2.5 -54.3076
vt 3.30443 2.13809
v 86.0792 2.5 -53.4184
vt 3.38895 2.10308
v 87.0769 2.5 -53.287
vt 3.42823 2.09791
v 86.9478 2.5 -53.4553
vt 3.42314 2.10454
v 86.8242 2.5 -53.6163
vt 3.41828 2.11088
v 86.6444 2.5 -54.0505
vt 3.4112 2.12797
v 86.5831 2.5 -54.5163
vt 3.40878 2.14631
v 86.6444 2.5 -54.9822
vt 3.4112 2.16465
v 86.8242 2.5 -55.4163
vt 3.41828 2.18175
v 87.1103 2.5 -55.7891
vt 3.42954 2.19642
v 87.4831 2.5 -56.0752
vt 3.44421 2.20768
v 87.9172 2.5 -56.255
vt 3.46131 2.21476
v 88.3831 2.5 -56.3163
vt 3.47965 2.21718
v 88.8489 2.5 -56.255
vt 3.49799 2.21476
v 89.2831 2.5 -56.0752
vt 3.51508 2.20768
v 89.6559 2.5 -55.7891
vt 3.52976 2.19642
v 89.9419 2.5 -55.4163
vt 3.54102 2.18175
v 90.1217 2.5 -54.9822
vt 3.5481 2.16465
v 90.1831 2.5 -54.5163
vt 3.55051 2.14631
v 90.1217 2.5 -54.0505
vt 3.5481 2.12797
f 133/287/49 134/288/49 135/289/49 136/290/49 137/291/49 138/292/49 139/293/49 140/294/49 141/295/49 142/296/49 143/297/49 144/298/49 145/299/49 146/300/49 147/301/49 148/302/49 149/303/49 150/304/49 151/305/49 152/306/49 153/307/49 154/308/49 155/309/49 156/310/49 157/311/49 158/312/49 159/313/49 160/314/49 161/315/49 162/316/49 163/317/49 164/318/49 165/319/49 166/320/49 167/321/49 168/322/49 169/323/49 170/324/49 171/325/49 172/326/49 173/327/49 174/328/49 175/329/49 176/330/49 177/331/49 178/332/49 179/333/49 180/334/49 181/335/49 182/336/49 183/337/49 184/338/49 185/339/49 186/340/49 187/341/49 188/342/49 189/343/49 190/344/49 191/345/49 192/346/49 72/347/49 71/348/49 70/349/49 73/350/49 74/351/49 76/352/49 193/353/49 124/354/49 123/355/49 125/356/49 126/357/49 128/358/49 131/359/49 130/360/49 132/361/49 104/362/49 103/363/49 105/364/49 106/365/49 108/366/49 107/367/49 109/185/49 111/235/49 194/236/49 195/368/49 196/369/49 197/370/49 198/371/49 199/372/49 200/373/49 201/374/49 202/375/49 203/376/49 204/377/49 205/378/49 206/379/49 207/380/49 208/381/49 209/382/49 210/383/49 211/384/49 212/385/49 213/386/49 214/387/49 

v 89.9419 0.8 -53.6163
vt -3.83031 0.0314961
vn -0.866025 -6.04364e-016 -0.5
v 89.6559 0.8 -53.2436
vt -3.81181 0.0314961
vn -0.707107 -6.04364e-016 -0.707107
v 89.6559 3.3 -53.2436
vt -3.81181 0.129921
v 89.6892 3.3 -53.287
vt -3.81397 0.129921
vn -0.793353 -1.19839e-015 -0.608761
vt -3.81397 0.0984252
vt -3.82232 0.0984252
vt -3.83031 0.0984252
f 215/388/50 216/389/51 217/390/51 218/391/52 135/392/52 134/393/52 133/394/50 

v 89.6772 0.8 -49.6867
vt -3.5306 1.95617
vt -3.52976 2.0962
vt -3.54102 2.11088
f 219/395/1 216/396/1 215/397/1

v 89.2831 0.8 -52.9575
vt -3.51508 2.08494
f 219/395/1 220/398/1 216/396/1

v 88.8489 0.8 -52.7777
vt -3.49799 2.07786
f 219/395/1 221/399/1 220/398/1

v 88.3831 0.8 -52.7163
vt -3.47965 2.07545
f 219/395/1 222/400/1 221/399/1

v 87.9172 0.8 -52.7777
vt -3.46131 2.07786
f 219/395/1 223/401/1 222/400/1

v 87.4831 0.8 -52.9575
vt -3.44421 2.08494
f 219/395/1 224/402/1 223/401/1

v 87.1103 0.8 -53.2436
vt -3.42954 2.0962
f 219/395/1 225/403/1 224/402/1

v 87.089 0.8 -49.6867
f 226/247/1 225/403/1 219/395/1

v 86.8242 0.8 -53.6163
vt -3.41828 2.11088
f 226/247/1 227/404/1 225/403/1

v 86.7863 0.8 -52.2266
f 228/249/1 227/404/1 226/247/1

v 86.6444 0.8 -54.0505
vt -3.4112 2.12797
f 228/249/1 229/405/1 227/404/1

v 86.5831 0.8 -54.5163
vt -3.40878 2.14631
f 228/249/1 230/406/1 229/405/1

v 84.871 0.8 -71.2929
vt -3.34138 2.80681
f 228/249/1 231/407/1 230/406/1

f 119/248/1 231/407/1 228/249/1

f 119/248/1 79/148/1 231/407/1

vt 0.246287 0.0314961
vn 0.80078 0 -0.598959
vt 0.346988 0.0314961
vt 0.346988 0.661417
v 84.871 16.8 -71.2929
vt 0.246287 0.661417
f 231/408/53 79/409/53 82/410/53 232/411/53 

v 87.089 16.8 -74.346
vt -3.4287 2.92701
v 86.7863 16.8 -71.8061
vt -3.41678 2.82701
f 82/148/1 233/412/1 234/413/1 232/407/1 

vt -4.06943 0.661417
vt -3.91659 0.661417
vt -3.91659 0.850394
v 87.089 21.6 -74.346
vt -4.06943 0.850394
f 233/414/35 82/415/35 81/416/35 235/417/35 

v 83.6478 21.6 -72.5957
vt 3.29322 2.8581
vt 3.4287 2.92701
f 81/161/15 236/418/15 235/419/15

f 81/161/15 83/160/15 236/418/15

v 81.5887 17.6 -71.4069
vt 4.18746 0.692913
vn 0.5 -1.61525e-015 0.866025
v 83.6478 17.6 -72.5957
vt 4.28106 0.692913
vt 4.28106 0.850394
vt 4.18746 0.850394
f 237/420/54 238/421/54 236/422/54 83/423/54 

v 82.0889 17.6 -68.3105
f 237/160/28 239/344/28 238/418/28

v 80.6743 17.6 -66.467
f 237/160/28 240/345/28 239/344/28

v 79.7851 17.6 -64.3202
f 237/160/28 241/346/28 240/345/28

f 86/162/28 241/346/28 237/160/28

f 86/162/28 91/183/28 241/346/28

vt 2.92063 0.692913
vn 0.965926 -3.23672e-018 0.258819
vt 2.87282 0.692913
vn 0.991445 -6.41806e-018 0.130526
vt 2.87282 0.129921
vt 2.88101 0.129921
vt 2.88101 0.0984252
vt 2.92063 0.0984252
f 241/424/55 91/425/56 64/426/56 63/427/56 72/428/56 192/429/55 

vt -3.1349 0.692913
v 81.4831 17.6 -63.1163
vt -3.20799 0.692913
vt -3.20799 0.129921
vt -3.1349 0.129921
f 91/430/36 242/431/36 65/432/36 64/433/36 

v 81.4831 17.6 -60.9163
vt 3.20799 2.39828
vt 3.20799 2.4849
f 91/183/28 243/434/28 242/435/28

f 243/434/28 91/183/28 92/184/28

vt 3.20799 0.692913
vt 3.1349 0.692913
vt 3.1349 0.129921
vt 3.20799 0.129921
f 243/436/23 92/437/23 67/438/23 66/439/23 

vt 2.4849 0.692913
vt 2.39828 0.692913
vt 2.39828 0.129921
vt 2.4849 0.129921
f 242/440/10 243/441/10 66/442/10 65/443/10 

vt 3.63308 0.692913
vt 3.54159 0.692913
vt 3.54159 0.0984252
vt 3.63308 0.0984252
f 240/444/12 241/445/55 192/446/55 191/447/12 

vt 4.10106 0.692913
vn 0.707107 0 0.707107
vt 4.00958 0.692913
vt 4.00958 0.0984252
vt 4.10106 0.0984252
f 239/448/57 240/449/12 191/450/12 190/451/57 

v 83.9324 17.6 -69.7251
vt 4.29268 0.692913
vn 0.5 0 0.866025
vt 4.20119 0.692913
vt 4.20119 0.0984252
vt 4.29268 0.0984252
f 244/452/58 239/453/57 190/454/57 189/455/58 

f 238/418/28 239/344/28 244/343/28

v 87.1943 17.6 -73.546
vt 3.43285 2.89551
f 238/418/28 244/343/28 245/456/28

v 86.0792 17.6 -70.6143
f 245/456/28 244/343/28 246/342/28

vt 4.19487 0.692913
vn 0.258819 -7.9762e-018 0.965926
vt 4.10339 0.692913
vt 4.10339 0.0984252
vt 4.19487 0.0984252
f 246/457/59 244/458/58 189/459/58 188/460/59 

v 87.2831 17.6 -70.7728
vt 3.77063 0.692913
vn 0.130526 -1.58159e-017 0.991445
vt 3.72283 0.692913
vt 3.72283 0.0984252
vt 3.76245 0.0984252
v 87.0769 3.3 -70.7457
vt 3.76245 0.129921
v 87.2831 3.3 -70.7728
vt 3.77063 0.129921
f 247/461/60 246/462/59 188/463/59 187/464/60 248/465/60 249/466/60 

vt 3.43634 2.78633
f 245/456/28 246/342/28 247/467/28

v 89.5718 17.6 -73.546
vt 3.52645 2.89551
f 245/456/28 247/467/28 250/468/28

v 89.4831 17.6 -70.7728
vt 3.52296 2.78633
f 250/468/28 247/467/28 251/469/28

v 89.4831 17.6 -68.9163
vt 3.52296 2.71324
f 251/469/28 247/467/28 252/470/28

v 87.2831 17.6 -68.9163
vt 3.43634 2.71324
f 252/470/28 247/467/28 253/471/28

vt -2.71324 0.692913
vt -2.78633 0.692913
vt -2.78633 0.129921
v 87.2831 3.3 -68.9163
vt -2.71324 0.129921
f 253/472/46 247/473/46 249/474/46 254/475/46 

v 89.6559 3.3 -70.7891
vt -3.52976 2.78697
vn -2.87824e-033 -1 -2.78697e-016
v 89.6892 3.3 -70.7457
vt -3.53107 2.78526
v 89.4831 3.3 -70.7728
vt -3.52296 2.78633
v 89.4831 3.3 -68.9163
vt -3.52296 2.71324
vt -3.43634 2.71324
vt -3.43634 2.78633
vt -3.42823 2.78526
v 87.1103 3.3 -70.7891
vt -3.42954 2.78697
v 87.4831 3.3 -71.0752
vt -3.44421 2.79824
v 87.9172 3.3 -71.255
vt -3.46131 2.80532
v 88.3831 3.3 -71.3163
vt -3.47965 2.80773
v 88.8489 3.3 -71.255
vt -3.49799 2.80532
v 89.2831 3.3 -71.0752
vt -3.51508 2.79824
f 255/476/61 256/477/61 257/478/61 258/479/61 254/480/61 249/481/61 248/482/61 259/483/61 260/484/61 261/485/61 262/486/61 263/487/61 264/488/61 

v 89.6559 0.8 -70.7891
vt -0.0622746 0.0314961
vn -0.707107 -1.29971e-017 0.707107
v 89.9419 0.8 -70.4163
vt -0.0437748 0.0314961
vn -0.866025 -1.29971e-017 0.5
vt -0.0437748 0.0984252
vt -0.0517666 0.0984252
vn -0.793353 -2.57718e-017 0.608761
vt -0.0601182 0.0984252
vt -0.0601182 0.129921
vt -0.0622746 0.129921
f 265/489/62 266/490/63 169/491/63 168/492/64 167/493/64 256/494/64 255/495/62 

v 89.6772 0.8 -74.346
vt -3.5306 2.92701
vt -3.54102 2.7723
f 265/476/1 267/496/1 266/497/1

v 89.2831 0.8 -71.0752
f 268/488/1 267/496/1 265/476/1

v 88.8489 0.8 -71.255
f 269/487/1 267/496/1 268/488/1

v 88.3831 0.8 -71.3163
f 270/486/1 267/496/1 269/487/1

v 87.9172 0.8 -71.255
f 271/485/1 267/496/1 270/486/1

v 87.4831 0.8 -71.0752
f 272/484/1 267/496/1 271/485/1

v 87.1103 0.8 -70.7891
f 273/483/1 267/496/1 272/484/1

v 87.089 0.8 -74.346
f 273/483/1 274/412/1 267/496/1

v 86.8242 0.8 -70.4163
vt -3.41828 2.7723
f 275/498/1 274/412/1 273/483/1

v 86.7863 0.8 -71.8061
f 275/498/1 276/413/1 274/412/1

v 86.6444 0.8 -69.9822
vt -3.4112 2.75521
f 277/499/1 276/413/1 275/498/1

v 86.5831 0.8 -69.5163
vt -3.40878 2.73686
f 278/500/1 276/413/1 277/499/1

f 276/413/1 278/500/1 231/407/1

f 230/406/1 231/407/1 278/500/1

v 86.6444 0.8 -69.0505
vt -3.4112 2.71852
f 279/501/1 230/406/1 278/500/1

v 86.6444 0.8 -54.9822
vt -3.4112 2.16465
f 230/406/1 279/501/1 280/502/1

v 86.8242 0.8 -68.6163
vt -3.41828 2.70143
f 280/502/1 279/501/1 281/503/1

vt 1.18768 0.0314961
vt 1.20618 0.0314961
vt 1.20618 0.0984252
vt 1.18768 0.0984252
f 281/504/18 279/505/9 182/506/9 181/507/18 

vt 2.25001 0.0314961
vt 2.26851 0.0314961
vt 2.26851 0.0984252
vt 2.25001 0.0984252
f 279/508/9 278/509/10 183/510/10 182/511/9 

vt 3.15839 0.0314961
vt 3.17688 0.0314961
vt 3.17688 0.0984252
vt 3.15839 0.0984252
f 278/512/10 277/513/11 184/514/11 183/515/10 

vt 3.85089 0.0314961
vt 3.86939 0.0314961
vn 0.866025 -1.29971e-017 0.5
vt 3.86939 0.0984252
vt 3.85089 0.0984252
f 277/516/11 275/517/65 185/518/65 184/519/11 

vt 4.28033 0.0314961
vt 4.29883 0.0314961
vn 0.707107 -1.29971e-017 0.707107
vt 4.29883 0.129921
vt 4.29667 0.129921
vn 0.793353 -2.57718e-017 0.608761
vt 4.29667 0.0984252
vt 4.28832 0.0984252
vt 4.28033 0.0984252
f 275/520/65 273/521/66 259/522/66 248/523/67 187/524/67 186/525/67 185/526/65 

vt 4.41744 0.0314961
vt 4.43594 0.0314961
vt 4.43594 0.129921
vt 4.41744 0.129921
f 273/527/66 272/528/58 260/529/58 259/530/66 

vt 4.25288 0.0314961
vt 4.27138 0.0314961
vt 4.27138 0.129921
vt 4.25288 0.129921
f 272/531/58 271/532/22 261/533/22 260/534/58 

vt 3.79786 0.0314961
vt 3.81636 0.0314961
vt 3.81636 0.129921
vt 3.79786 0.129921
f 271/535/22 270/536/23 262/537/23 261/538/22 

vt 3.0834 0.0314961
vt 3.1019 0.0314961
vt 3.1019 0.129921
vt 3.0834 0.129921
f 270/539/23 269/540/24 263/541/24 262/542/23 

vt 2.15817 0.0314961
vt 2.17667 0.0314961
vn -0.5 0 0.866025
vt 2.17667 0.129921
vt 2.15817 0.129921
f 269/543/24 268/544/68 264/545/68 263/546/24 

vt 1.08524 0.0314961
vt 1.10374 0.0314961
vt 1.10374 0.129921
vt 1.08524 0.129921
f 268/547/68 265/548/62 255/549/62 264/550/68 

v 87.1103 0.8 -68.2436
vt 0.0437748 0.0314961
vn 0.707107 0 -0.707107
vt 0.0622746 0.0314961
vt 0.0622746 0.0984252
vt 0.0437748 0.0984252
f 282/551/69 281/552/18 181/553/18 180/554/69 

v 86.8242 0.8 -55.4163
vt -3.41828 2.18175
vt -3.42954 2.68675
f 283/555/1 281/503/1 282/556/1

f 280/502/1 281/503/1 283/555/1

vt 3.30529 0.0314961
vt 3.32379 0.0314961
vt 3.32379 0.0984252
vt 3.30529 0.0984252
f 280/557/11 283/558/12 203/559/12 202/560/11 

vt 3.81181 0.0314961
v 87.1103 0.8 -55.7891
vt 3.83031 0.0314961
vt 3.83031 0.0984252
vt 3.81181 0.0984252
f 283/561/12 284/562/57 204/563/57 203/564/12 

vt -3.42954 2.19642
f 283/555/1 282/556/1 284/565/1

v 87.4831 0.8 -67.9575
vt -3.44421 2.67549
f 284/565/1 282/556/1 285/566/1

vt -1.10374 0.0314961
vn 0.5 0 -0.866025
vt -1.08524 0.0314961
vt -1.08524 0.0984252
vt -1.10374 0.0984252
f 285/567/70 282/568/69 180/569/69 179/570/70 

v 87.9172 0.8 -67.7777
vt -2.17667 0.0314961
vt -2.15817 0.0314961
vt -2.15817 0.0984252
vt -2.17667 0.0984252
f 286/571/37 285/572/70 179/573/70 178/574/37 

v 87.4831 0.8 -56.0752
vt -3.44421 2.20768
vt -3.46131 2.66841
f 287/575/1 285/566/1 286/576/1

f 284/565/1 285/566/1 287/575/1

vt 4.05793 0.0314961
vt 4.07643 0.0314961
vt 4.07643 0.0984252
vt 4.05793 0.0984252
f 284/577/57 287/578/58 205/579/58 204/580/57 

vt 4.02688 0.0314961
v 87.9172 0.8 -56.255
vt 4.04538 0.0314961
vt 4.04538 0.0984252
vt 4.02688 0.0984252
f 287/581/58 288/582/22 206/583/22 205/584/58 

vt -3.46131 2.21476
f 287/575/1 286/576/1 288/585/1

v 88.3831 0.8 -67.7163
vt -3.47965 2.666
f 288/585/1 286/576/1 289/586/1

vt -3.1019 0.0314961
vt -3.0834 0.0314961
vt -3.0834 0.0984252
vt -3.1019 0.0984252
f 289/587/36 286/588/37 178/589/37 177/590/36 

v 88.8489 0.8 -67.7777
vt -3.81636 0.0314961
vt -3.79786 0.0314961
vt -3.79786 0.0984252
vt -3.81636 0.0984252
f 290/591/35 289/592/36 177/593/36 176/594/35 

v 88.3831 0.8 -56.3163
vt -3.47965 2.21718
vt -3.49799 2.66841
f 291/595/1 289/586/1 290/596/1

f 288/585/1 289/586/1 291/595/1

vt 3.72078 0.0314961
vt 3.73928 0.0314961
vt 3.73928 0.0984252
vt 3.72078 0.0984252
f 288/597/22 291/598/23 207/599/23 206/600/22 

vt 3.16048 0.0314961
v 88.8489 0.8 -56.255
vt 3.17898 0.0314961
vt 3.17898 0.0984252
vt 3.16048 0.0984252
f 291/601/23 292/602/24 208/603/24 207/604/23 

vt -3.49799 2.21476
f 291/595/1 290/596/1 292/605/1

v 89.2831 0.8 -67.9575
vt -3.51508 2.67549
f 292/605/1 290/596/1 293/606/1

vt -4.27138 0.0314961
vt -4.25288 0.0314961
vt -4.25288 0.0984252
vt -4.27138 0.0984252
f 293/607/48 290/608/35 176/609/35 175/610/48 

v 89.6559 0.8 -68.2436
vt -4.43594 0.0314961
vt -4.41744 0.0314961
vt -4.41744 0.0984252
vt -4.43594 0.0984252
f 294/611/13 293/612/48 175/613/48 174/614/13 

v 89.2831 0.8 -56.0752
vt -3.51508 2.20768
vt -3.52976 2.68675
f 295/615/1 293/606/1 294/616/1

f 292/605/1 293/606/1 295/615/1

vt 2.38417 0.0314961
vt 2.40267 0.0314961
vt 2.40267 0.0984252
vt 2.38417 0.0984252
f 292/617/24 295/618/68 209/619/68 208/620/24 

vt 1.44475 0.0314961
v 89.6559 0.8 -55.7891
vt 1.46325 0.0314961
vt 1.46325 0.0984252
vt 1.44475 0.0984252
f 295/621/68 296/622/16 210/623/16 209/624/68 

vt -3.52976 2.19642
f 295/615/1 294/616/1 296/625/1

v 89.9419 0.8 -68.6163
vt -3.54102 2.70143
f 296/625/1 294/616/1 297/626/1

vt -4.29883 0.0314961
vt -4.28033 0.0314961
vt -4.28033 0.0984252
vt -4.29883 0.0984252
f 297/627/47 294/628/13 174/629/13 173/630/47 

v 90.1217 0.8 -69.0505
vt -3.86939 0.0314961
vt -3.85089 0.0314961
vt -3.85089 0.0984252
vt -3.86939 0.0984252
f 298/631/3 297/632/47 173/633/47 172/634/3 

v 89.9419 0.8 -55.4163
vt -3.54102 2.18175
vt -3.5481 2.71852
f 299/635/1 297/626/1 298/636/1

f 296/625/1 297/626/1 299/635/1

vt 0.406241 0.0314961
vt 0.424741 0.0314961
vt 0.424741 0.0984252
vt 0.406241 0.0984252
f 296/637/16 299/638/45 211/639/45 210/640/16 

vt -0.660581 0.0314961
v 90.1217 0.8 -54.9822
vt -0.642081 0.0314961
vt -0.642081 0.0984252
vt -0.660581 0.0984252
f 299/641/45 300/642/7 212/643/7 211/644/45 

vt -3.5481 2.16465
f 299/635/1 298/636/1 300/645/1

v 90.1831 0.8 -69.5163
vt -3.55051 2.73686
f 300/645/1 298/636/1 301/646/1

vt -3.17688 0.0314961
vt -3.15839 0.0314961
vt -3.15839 0.0984252
vt -3.17688 0.0984252
f 301/647/46 298/648/3 172/649/3 171/650/46 

v 90.1217 0.8 -69.9822
vt -2.26851 0.0314961
vt -2.25001 0.0314961
vt -2.25001 0.0984252
vt -2.26851 0.0984252
f 302/651/7 301/652/46 171/653/46 170/654/7 

vt -3.5481 2.75521
v 91.8951 0.8 -71.2929
vt -3.61792 2.80681
f 302/655/1 303/656/1 301/646/1

v 89.9798 0.8 -71.8061
vt -3.54251 2.82701
f 302/655/1 304/657/1 303/656/1

f 266/497/1 304/657/1 302/655/1

f 266/497/1 267/496/1 304/657/1

vt 2.38799 0.0314961
vn 0.992975 0 -0.118324
vt 2.48869 0.0314961
v 89.6772 16.8 -74.346
vt 2.48869 0.661417
v 89.9798 16.8 -71.8061
vt 2.38799 0.661417
f 304/658/71 267/659/71 305/660/71 306/661/71 

vt -3.5306 0.0314961
vn 4.35821e-015 -1.63399e-032 -1
vt -3.4287 0.0314961
vt -3.4287 0.661417
vt -3.4287 0.850394
v 89.6772 21.6 -74.346
vt -3.5306 0.850394
vt -3.5306 0.661417
f 267/662/72 274/663/72 233/664/72 235/665/72 307/666/72 305/667/72 

vt -3.31214 0.0314961
vn -0.992975 0 -0.118324
vt -3.21144 0.0314961
vt -3.21144 0.661417
vt -3.31214 0.661417
f 274/668/73 276/669/73 234/670/73 233/671/73 

vt -4.03204 0.0314961
vt -3.95398 0.0314961
vt -3.95398 0.661417
vt -4.03204 0.661417
f 276/672/35 231/673/35 232/674/35 234/675/35 

v 87.1943 21.6 -73.546
vt 3.5306 2.92701
f 235/419/15 308/456/15 307/676/15

f 235/419/15 236/418/15 308/456/15

vt 3.92074 0.692913
vn 0.258819 -1.46727e-015 0.965926
vt 4.06529 0.692913
vt 4.06529 0.850394
vt 3.92074 0.850394
f 238/677/74 245/678/74 308/679/74 236/680/74 

vt 3.43285 0.692913
vn -4.74433e-015 -1.21931e-015 1
vt 3.52645 0.692913
v 89.5718 21.6 -73.546
vt 3.52645 0.850394
vt 3.43285 0.850394
f 245/681/75 250/682/75 309/683/75 308/684/75 

vt 2.65688 0.692913
vn -0.258819 -8.88245e-016 0.965926
v 93.1184 17.6 -72.5957
vt 2.80143 0.692913
v 93.1184 21.6 -72.5957
vt 2.80143 0.850394
vt 2.65688 0.850394
f 250/685/76 310/686/76 311/687/76 309/688/76 

v 90.6869 17.6 -70.6143
vt 3.66608 2.8581
f 250/468/28 312/320/28 310/689/28

f 250/468/28 251/469/28 312/320/28

vt 3.17693 0.692913
vn -0.258819 -2.77433e-018 0.965926
vt 3.12913 0.692913
vn -0.130526 -5.50119e-018 0.991445
vt 3.12913 0.129921
vt 3.13731 0.129921
vt 3.13731 0.0984252
vt 3.17693 0.0984252
f 312/690/77 251/691/78 257/692/78 256/693/78 167/694/78 166/695/77 

vt 2.78633 0.692913
vt 2.71324 0.692913
vt 2.71324 0.129921
vt 2.78633 0.129921
f 251/696/10 252/697/10 258/698/10 257/699/10 

vt 3.52296 0.692913
vt 3.43634 0.692913
vt 3.43634 0.129921
vt 3.52296 0.129921
f 252/700/23 253/701/23 254/702/23 258/703/23 

v 92.8337 17.6 -69.7251
vt 2.32616 0.692913
vt 2.23468 0.692913
vt 2.23468 0.0984252
vt 2.32616 0.0984252
f 313/704/68 312/705/77 166/706/77 165/707/68 

f 310/689/28 312/320/28 313/319/28

v 94.6772 17.6 -68.3105
f 310/689/28 313/319/28 314/318/28

vt 1.31999 0.692913
vt 1.2285 0.692913
vt 1.2285 0.0984252
vt 1.31999 0.0984252
f 314/708/16 313/709/68 165/710/68 164/711/16 

v 96.0918 17.6 -66.467
vt 0.226975 0.692913
vt 0.135491 0.692913
vt 0.135491 0.0984252
vt 0.226975 0.0984252
f 315/712/45 314/713/16 164/714/16 163/715/45 

v 95.1774 17.6 -71.4069
vt 3.74714 2.8113
f 316/716/28 314/318/28 315/317/28

f 310/689/28 314/318/28 316/716/28

vt 1.74587 0.692913
vn -0.5 -4.96653e-016 0.866025
vt 1.83947 0.692913
v 95.1774 21.6 -71.4069
vt 1.83947 0.850394
vt 1.74587 0.850394
f 310/717/79 316/718/79 317/719/79 311/720/79 

vt 0.661743 0.692913
vn -0.707107 -7.12142e-017 0.707107
v 97.7736 17.6 -68.8107
vt 0.806295 0.692913
v 97.7736 21.6 -68.8107
vt 0.806295 0.850394
vt 0.661743 0.850394
f 316/721/80 318/722/80 319/723/80 317/724/80 

vt 3.84936 2.70908
f 316/716/28 315/317/28 318/725/28

v 96.981 17.6 -64.3202
f 318/725/28 315/317/28 320/316/28

vt -0.878388 0.692913
vn -0.965926 -2.42754e-018 0.258819
vt -0.969872 0.692913
vt -0.969872 0.0984252
vt -0.878388 0.0984252
f 320/726/81 315/727/45 163/728/45 162/729/81 

v 97.1395 17.6 -63.1163
vt -1.96445 0.692913
vn -0.991445 -4.81354e-018 0.130526
vt -2.01226 0.692913
vt -2.01226 0.0984252
vt -1.97264 0.0984252
v 97.1124 3.3 -63.3225
vt -1.97264 0.129921
v 97.1395 3.3 -63.1163
vt -1.96445 0.129921
f 321/730/82 320/731/81 162/732/81 161/733/82 322/734/82 323/735/82 

vt 3.82439 2.4849
f 318/725/28 320/316/28 321/736/28

v 97.7736 17.6 -55.222
vt 3.84936 2.1741
f 321/736/28 324/737/28 318/725/28

v 97.1395 17.6 -60.9163
vt 3.82439 2.39828
f 325/738/28 324/737/28 321/736/28

v 96.981 17.6 -59.7125
f 326/294/28 324/737/28 325/738/28

v 96.0918 17.6 -57.5657
f 327/293/28 324/737/28 326/294/28

v 95.1774 17.6 -52.6258
vt 3.74714 2.07188
f 327/293/28 328/739/28 324/737/28

v 94.6772 17.6 -55.7222
f 329/292/28 328/739/28 327/293/28

v 93.1184 17.6 -51.437
vt 3.66608 2.02508
f 329/292/28 330/740/28 328/739/28

v 92.8337 17.6 -54.3076
f 331/291/28 330/740/28 329/292/28

v 90.6869 17.6 -53.4184
f 332/290/28 330/740/28 331/291/28

v 89.5718 17.6 -50.4867
vt 3.52645 1.98767
f 332/290/28 333/741/28 330/740/28

v 89.4831 17.6 -53.2599
vt 3.52296 2.09685
f 334/742/28 333/741/28 332/290/28

v 87.2831 17.6 -55.1163
vt 3.43634 2.16993
f 335/743/28 333/741/28 334/742/28

v 87.2831 17.6 -53.2599
vt 3.43634 2.09685
f 336/744/28 333/741/28 335/743/28

v 87.1943 17.6 -50.4867
vt 3.43285 1.98767
f 336/744/28 337/745/28 333/741/28

v 86.0792 17.6 -53.4184
f 338/369/28 337/745/28 336/744/28

v 83.9324 17.6 -54.3076
f 339/368/28 337/745/28 338/369/28

f 339/368/28 113/237/28 337/745/28

f 112/236/28 113/237/28 339/368/28

vt -1.2285 0.692913
vt -1.31999 0.692913
vt -1.31999 0.0984252
vt -1.2285 0.0984252
f 112/746/69 339/747/70 195/748/70 194/749/69 

vt -2.23468 0.692913
vt -2.32616 0.692913
vn 0.258819 5.5371e-017 -0.965926
vt -2.32616 0.0984252
vt -2.23468 0.0984252
f 339/750/70 338/751/83 196/752/83 195/753/70 

vt -3.08545 0.692913
vt -3.13325 0.692913
vn 0.130526 1.09795e-016 -0.991445
v 87.2831 3.3 -53.2599
vt -3.13325 0.129921
v 87.0769 3.3 -53.287
vt -3.12506 0.129921
vt -3.12506 0.0984252
vt -3.08545 0.0984252
f 338/754/83 336/755/84 340/756/84 341/757/84 197/758/84 196/759/83 

vt -2.09685 0.692913
vt -2.16993 0.692913
v 87.2831 3.3 -55.1163
vt -2.16993 0.129921
vt -2.09685 0.129921
f 336/760/46 335/761/46 342/762/46 340/763/46 

vt -3.43634 0.692913
v 89.4831 17.6 -55.1163
vt -3.52296 0.692913
v 89.4831 3.3 -55.1163
vt -3.52296 0.129921
vt -3.43634 0.129921
f 335/764/36 343/765/36 344/766/36 342/767/36 

vt 3.52296 2.16993
f 343/768/28 335/743/28 334/742/28

vt 2.16993 0.692913
vt 2.09685 0.692913
v 89.4831 3.3 -53.2599
vt 2.09685 0.129921
vt 2.16993 0.129921
f 343/769/10 334/770/10 345/771/10 344/772/10 

vt -3.76651 0.692913
vn -0.130526 9.78754e-017 -0.991445
vt -3.81431 0.692913
vn -0.258819 4.936e-017 -0.965926
vt -3.81431 0.0984252
vt -3.77469 0.0984252
vt -3.77469 0.129921
vt -3.76651 0.129921
f 334/773/85 332/774/86 136/775/86 135/776/85 218/777/85 345/778/85 

vt -4.10339 0.692913
vt -4.19487 0.692913
vt -4.19487 0.0984252
vt -4.10339 0.0984252
f 332/779/86 331/780/48 137/781/48 136/782/86 

vt -4.20119 0.692913
vt -4.29268 0.692913
vt -4.29268 0.0984252
vt -4.20119 0.0984252
f 331/783/48 329/784/13 138/785/13 137/786/48 

vt -4.00958 0.692913
vt -4.10106 0.692913
vt -4.10106 0.0984252
vt -4.00958 0.0984252
f 329/787/13 327/788/47 139/789/47 138/790/13 

vt -3.54159 0.692913
vt -3.63308 0.692913
vn -0.965926 5.58334e-017 -0.258819
vt -3.63308 0.0984252
vt -3.54159 0.0984252
f 327/791/47 326/792/87 140/793/87 139/794/47 

vt -2.82914 0.692913
vt -2.87695 0.692913
vn -0.991445 1.10712e-016 -0.130526
v 97.1395 3.3 -60.9163
vt -2.87695 0.129921
v 97.1124 3.3 -60.7102
vt -2.86876 0.129921
vt -2.86876 0.0984252
vt -2.82914 0.0984252
f 326/795/87 325/796/88 346/797/88 347/798/88 141/799/88 140/800/87 

vt 3.82439 0.692913
v 95.2831 17.6 -60.9163
vt 3.7513 0.692913
v 95.2831 3.3 -60.9163
vt 3.7513 0.129921
vt 3.82439 0.129921
f 325/801/23 348/802/23 349/803/23 346/804/23 

v 95.2831 17.6 -63.1163
vt 3.7513 2.4849
vt 3.7513 2.39828
f 325/738/28 350/805/28 348/806/28

f 350/805/28 325/738/28 321/736/28

vt -3.7513 0.692913
vt -3.82439 0.692913
vt -3.82439 0.129921
v 95.2831 3.3 -63.1163
vt -3.7513 0.129921
f 350/807/36 321/808/36 323/809/36 351/810/36 

v 97.1559 3.3 -60.7436
vt -3.82503 2.39148
vn 2.78697e-016 -1 1.34443e-030
vt -3.82332 2.39017
vt -3.82439 2.39828
vt -3.7513 2.39828
vt -3.7513 2.4849
vt -3.82439 2.4849
vt -3.82332 2.49301
v 97.1559 3.3 -63.2891
vt -3.82503 2.4917
v 97.4419 3.3 -62.9163
vt -3.8363 2.47702
v 97.6217 3.3 -62.4822
vt -3.84338 2.45993
v 97.6831 3.3 -62.0163
vt -3.84579 2.44159
v 97.6217 3.3 -61.5505
vt -3.84338 2.42325
v 97.4419 3.3 -61.1163
vt -3.8363 2.40616
f 352/811/89 347/812/89 346/813/89 349/814/89 351/815/89 323/816/89 322/817/89 353/818/89 354/819/89 355/820/89 356/821/89 357/822/89 358/823/89 

v 97.1559 0.8 -60.7436
vt -4.49044 0.0314961
vn -0.707107 -3.14096e-016 -0.707107
v 96.7831 0.8 -60.4575
vt -4.47194 0.0314961
vn -0.5 -3.14096e-016 -0.866025
vt -4.47194 0.0984252
vt -4.47993 0.0984252
vn -0.608761 -6.22818e-016 -0.793353
vt -4.48829 0.0984252
vt -4.48829 0.129921
vt -4.49044 0.129921
f 359/824/90 360/825/91 143/826/91 142/827/92 141/828/92 347/829/92 352/830/90 

v 98.4138 0.8 -54.7308
vt -3.87456 2.15476
vt -3.81036 2.38022
f 361/831/1 360/832/1 359/811/1

v 96.3489 0.8 -60.2777
vt -3.79327 2.37314
f 361/831/1 362/833/1 360/832/1

v 96.0629 0.8 -55.7386
vt -3.782 2.19443
f 363/834/1 362/833/1 361/831/1

v 95.8831 0.8 -60.2163
vt -3.77492 2.37072
f 363/834/1 364/835/1 362/833/1

v 95.4172 0.8 -60.2777
vt -3.75658 2.37314
f 363/834/1 365/836/1 364/835/1

v 94.9831 0.8 -60.4575
vt -3.73949 2.38022
f 363/834/1 366/837/1 365/836/1

v 94.6608 0.8 -54.3365
vt -3.7268 2.13923
f 367/838/1 366/837/1 363/834/1

v 94.6103 0.8 -60.7436
vt -3.72481 2.39148
f 366/837/1 367/838/1 368/839/1

v 94.3242 0.8 -61.1163
vt -3.71355 2.40616
f 367/838/1 369/840/1 368/839/1

v 94.1444 0.8 -61.5505
vt -3.70647 2.42325
f 367/838/1 370/841/1 369/840/1

v 94.0831 0.8 -62.0163
vt -3.70406 2.44159
f 367/838/1 371/842/1 370/841/1

v 93.4272 0.8 -50.6915
vt -3.67823 1.99573
f 367/838/1 372/843/1 371/842/1

v 95.6686 0.8 -51.9856
vt -3.76648 2.04668
f 372/843/1 367/838/1 373/844/1

vt 0.397055 0.0314961
vn 0.919104 0 -0.394016
vt 0.497757 0.0314961
v 94.6608 16.8 -54.3365
vt 0.497757 0.661417
v 95.6686 16.8 -51.9856
vt 0.397055 0.661417
f 373/845/93 367/846/93 374/847/93 375/848/93 

v 96.0629 16.8 -55.7386
vt 4.22598 0.661417
vt 4.14791 0.661417
vt 4.14791 0.0314961
vt 4.22598 0.0314961
f 376/849/57 374/850/57 367/851/57 363/852/57 

v 98.4138 16.8 -54.7308
f 377/831/1 375/844/1 374/838/1 376/834/1 

vt 4.11052 0.661417
vt 4.26337 0.661417
v 98.4138 21.6 -54.7308
vt 4.26337 0.850394
v 95.6686 21.6 -51.9856
vt 4.11052 0.850394
f 375/853/57 377/854/57 378/855/57 379/856/57 

vt 3.80335 0.0314961
vn 0.866025 4.55329e-018 0.5
v 99.7079 0.8 -56.9723
vt 3.90525 0.0314961
v 99.7079 16.8 -56.9723
vt 3.90525 0.661417
v 99.7079 21.6 -56.9723
vt 3.90525 0.850394
vt 3.80335 0.850394
vt 3.80335 0.661417
f 361/857/94 380/858/94 381/859/94 382/860/94 378/861/94 377/862/94 

v 97.6596 0.8 -58.5043
vt -3.84487 2.30332
vt -3.92551 2.243
f 361/831/1 383/863/1 380/864/1

f 361/831/1 359/811/1 383/863/1

v 97.4419 0.8 -61.1163
f 383/863/1 359/811/1 384/823/1

vt -4.24432 0.0314961
vt -4.22582 0.0314961
vt -4.22582 0.129921
vt -4.24432 0.129921
f 384/865/47 359/866/90 352/867/90 358/868/47 

v 97.6217 0.8 -61.5505
vt -3.70958 0.0314961
vt -3.69108 0.0314961
vt -3.69108 0.129921
vt -3.70958 0.129921
f 385/869/3 384/870/47 358/871/47 357/872/3 

f 383/863/1 384/823/1 385/822/1

v 97.6831 0.8 -62.0163
f 386/821/1 383/863/1 385/822/1

v 98.1728 0.8 -60.4196
vt -3.86507 2.37872
f 383/863/1 386/821/1 387/873/1

v 98.1728 0.8 -63.6131
vt -3.86507 2.50445
f 386/821/1 388/874/1 387/873/1

v 97.6596 0.8 -65.5284
vt -3.84487 2.57986
f 386/821/1 389/875/1 388/874/1

v 97.6217 0.8 -62.4822
f 389/875/1 386/821/1 390/820/1

vt -1.93722 0.0314961
vt -1.91872 0.0314961
vt -1.91872 0.129921
vt -1.93722 0.129921
f 390/876/7 386/877/46 356/878/46 355/879/7 

vt -2.92268 0.0314961
vt -2.90418 0.0314961
vt -2.90418 0.129921
vt -2.92268 0.129921
f 386/880/46 385/881/3 357/882/3 356/883/46 

v 97.4419 0.8 -62.9163
vt -0.820383 0.0314961
vt -0.801883 0.0314961
vt -0.801883 0.129921
vt -0.820383 0.129921
f 391/884/45 390/885/7 355/886/7 354/887/45 

f 391/819/1 389/875/1 390/820/1

v 97.1559 0.8 -63.2891
f 392/818/1 389/875/1 391/819/1

v 98.4138 0.8 -69.3019
vt -3.87456 2.72842
f 392/818/1 393/888/1 389/875/1

v 96.7831 0.8 -63.5752
vt -3.81036 2.50296
f 394/889/1 393/888/1 392/818/1

v 96.3489 0.8 -63.755
vt -3.79327 2.51004
f 395/890/1 393/888/1 394/889/1

v 96.0629 0.8 -68.2941
vt -3.782 2.68874
f 395/890/1 396/891/1 393/888/1

v 95.8831 0.8 -63.8163
vt -3.77492 2.51245
f 397/892/1 396/891/1 395/890/1

v 95.4172 0.8 -63.755
vt -3.75658 2.51004
f 398/893/1 396/891/1 397/892/1

v 94.9831 0.8 -63.5752
vt -3.73949 2.50296
f 399/894/1 396/891/1 398/893/1

v 94.6608 0.8 -69.6962
vt -3.7268 2.74394
f 399/894/1 400/895/1 396/891/1

v 94.6103 0.8 -63.2891
vt -3.72481 2.4917
f 400/895/1 399/894/1 401/896/1

vt 4.47194 0.0314961
vt 4.49044 0.0314961
vt 4.49044 0.0984252
vt 4.47194 0.0984252
f 401/897/57 399/898/58 155/899/58 154/900/57 

vt 4.41268 0.0314961
vt 4.43118 0.0314961
vt 4.43118 0.0984252
vt 4.41268 0.0984252
f 399/901/58 398/902/22 156/903/22 155/904/58 

vt 4.05207 0.0314961
vt 4.07057 0.0314961
vt 4.07057 0.0984252
vt 4.05207 0.0984252
f 398/905/22 397/906/23 157/907/23 156/908/22 

vt 3.41469 0.0314961
vt 3.43319 0.0314961
vt 3.43319 0.0984252
vt 3.41469 0.0984252
f 397/909/23 395/910/24 158/911/24 157/912/23 

vt 2.54397 0.0314961
vt 2.56247 0.0314961
vn -0.5 4.46233e-016 0.866025
vt 2.56247 0.0984252
vt 2.54397 0.0984252
f 395/913/24 394/914/95 159/915/95 158/916/24 

vt 1.49925 0.0314961
vt 1.51775 0.0314961
vn -0.707107 4.46233e-016 0.707107
vt 1.51775 0.129921
vt 1.5156 0.129921
vn -0.608761 8.8483e-016 0.793353
vt 1.5156 0.0984252
vt 1.50725 0.0984252
vt 1.49925 0.0984252
f 394/917/95 392/918/96 353/919/96 322/920/97 161/921/97 160/922/97 159/923/95 

vt 0.351736 0.0314961
vt 0.370235 0.0314961
vt 0.370235 0.129921
vt 0.351736 0.129921
f 392/924/96 391/925/45 354/926/45 353/927/96 

v 94.3242 0.8 -62.9163
vt 4.22582 0.0314961
vt 4.24432 0.0314961
vt 4.24432 0.0984252
vt 4.22582 0.0984252
f 402/928/12 401/929/57 154/930/57 153/931/12 

vt -3.71355 2.47702
f 402/932/1 400/895/1 401/896/1

v 94.1444 0.8 -62.4822
vt -3.70647 2.45993
f 403/933/1 400/895/1 402/932/1

f 371/842/1 400/895/1 403/933/1

v 93.4272 0.8 -73.3412
vt -3.67823 2.88745
f 371/842/1 404/934/1 400/895/1

f 372/843/1 404/934/1 371/842/1

v 91.8951 0.8 -52.7398
vt -3.61792 2.07637
f 405/935/1 404/934/1 372/843/1

f 405/935/1 303/656/1 404/934/1

v 90.1831 0.8 -54.5163
vt -3.55051 2.14631
f 405/935/1 406/936/1 303/656/1

v 90.1217 0.8 -54.0505
vt -3.5481 2.12797
f 405/935/1 407/937/1 406/936/1

v 89.9798 0.8 -52.2266
vt -3.54251 2.05616
f 408/938/1 407/937/1 405/935/1

f 408/938/1 215/397/1 407/937/1

f 219/395/1 215/397/1 408/938/1

vt 2.36018 0.0314961
vn 0.992975 0 0.118324
vt 2.46088 0.0314961
v 89.9798 16.8 -52.2266
vt 2.46088 0.661417
v 89.6772 16.8 -49.6867
vt 2.36018 0.661417
f 219/939/98 408/940/98 409/941/98 410/942/98 

v 91.8951 16.8 -52.7398
vt 4.03204 0.661417
vt 3.95398 0.661417
vt 3.95398 0.0314961
vt 4.03204 0.0314961
f 411/943/22 409/944/22 408/945/22 405/946/22 

v 93.4272 16.8 -50.6915
f 412/843/1 410/395/1 409/938/1 411/935/1 

vt 3.91659 0.661417
vt 4.06943 0.661417
v 93.4272 21.6 -50.6915
vt 4.06943 0.850394
v 89.6772 21.6 -49.6867
vt 3.91659 0.850394
f 410/947/22 412/948/22 413/949/22 414/950/22 

vt 4.18331 0.0314961
vn 0.5 -9.2455e-020 0.866025
vt 4.28521 0.0314961
vt 4.28521 0.661417
vt 4.28521 0.850394
vt 4.18331 0.850394
vt 4.18331 0.661417
f 372/951/99 373/952/99 375/953/99 379/954/99 413/955/99 412/956/99 

v 95.1774 21.6 -52.6258
vt 3.67823 1.99573
vt 3.76648 2.04668
f 415/739/15 413/957/15 379/958/15

v 93.1184 21.6 -51.437
f 416/740/15 413/957/15 415/739/15

vt 3.5306 1.95617
f 416/740/15 414/959/15 413/957/15

v 89.5718 21.6 -50.4867
f 417/741/15 414/959/15 416/740/15

v 87.1943 21.6 -50.4867
f 418/745/15 414/959/15 417/741/15

f 418/745/15 115/242/15 414/959/15

f 114/237/15 115/242/15 418/745/15

vt -2.80143 0.692913
vn 0.258819 8.88245e-016 -0.965926
vt -2.65688 0.692913
vt -2.65688 0.850394
vt -2.80143 0.850394
f 337/960/100 113/961/100 114/962/100 418/963/100 

vt -3.52645 0.692913
vn 2.89239e-030 1.21931e-015 -1
vt -3.43285 0.692913
vt -3.43285 0.850394
vt -3.52645 0.850394
f 333/964/101 337/965/101 418/966/101 417/967/101 

vt -4.06529 0.692913
vn -0.258819 1.46727e-015 -0.965926
vt -3.92074 0.692913
vt -3.92074 0.850394
vt -4.06529 0.850394
f 330/968/102 333/969/102 417/970/102 416/971/102 

vt -4.28106 0.692913
vn -0.5 1.61525e-015 -0.866025
vt -4.18746 0.692913
vt -4.18746 0.850394
vt -4.28106 0.850394
f 328/972/103 330/973/103 416/974/103 415/975/103 

vt -4.25922 0.692913
vn -0.707107 1.65314e-015 -0.707107
vt -4.11467 0.692913
vt -4.11467 0.850394
v 97.7736 21.6 -55.222
vt -4.25922 0.850394
f 324/976/104 328/977/104 415/978/104 419/979/104 

f 415/739/15 379/958/15 419/737/15

vt 3.87456 2.15476
f 419/737/15 379/958/15 378/980/15

v 98.9624 21.6 -57.281
vt 3.89616 2.25516
f 419/737/15 378/980/15 420/981/15

vt 3.92551 2.243
f 420/981/15 378/980/15 382/982/15

v 99.9127 21.6 -60.8276
vt 3.93357 2.39479
f 420/981/15 382/982/15 421/983/15

v 100.713 21.6 -60.7223
vt 3.96507 2.39064
f 421/983/15 382/982/15 422/984/15

vt 3.18257 0.661417
v 100.713 16.8 -60.7223
vt 3.33542 0.661417
vt 3.33542 0.850394
vt 3.18257 0.850394
f 381/985/11 423/986/11 422/987/11 382/988/11 

vt -3.96507 2.39064
v 97.6596 16.8 -58.5043
v 98.1728 16.8 -60.4196
f 423/989/1 381/864/1 424/863/1 425/873/1 

vt -1.8 0.0314961
vn 0.598959 0 -0.80078
vt -1.6993 0.0314961
vt -1.6993 0.661417
vt -1.8 0.661417
f 380/990/105 383/991/105 424/992/105 381/993/105 

vt 3.29803 0.661417
vt 3.21996 0.661417
vt 3.21996 0.0314961
vt 3.29803 0.0314961
f 425/994/11 424/995/11 383/996/11 387/997/11 

vt 4.11938 0.0314961
vn 0.118324 0 0.992975
v 100.713 0.8 -60.7223
vt 4.22008 0.0314961
vt 4.22008 0.661417
vt 4.11938 0.661417
f 387/998/106 426/999/106 423/1000/106 425/1001/106 

f 387/873/1 388/874/1 426/989/1

v 100.713 0.8 -63.3104
vt -3.96507 2.49254
f 426/989/1 388/874/1 427/1002/1

vt -3.64229 0.0314961
vn 0.118324 0 -0.992975
vt -3.54158 0.0314961
v 98.1728 16.8 -63.6131
vt -3.54158 0.661417
v 100.713 16.8 -63.3104
vt -3.64229 0.661417
f 427/1003/107 388/1004/107 428/1005/107 429/1006/107 

v 97.6596 16.8 -65.5284
vt 1.49683 0.661417
vt 1.41876 0.661417
vt 1.41876 0.0314961
vt 1.49683 0.0314961
f 430/1007/9 428/1008/9 388/1009/9 389/1010/9 

v 99.7079 16.8 -67.0604
vt -3.92551 2.64017
f 431/1011/1 429/1002/1 428/874/1 430/875/1 

vt 1.38137 0.661417
vt 1.53422 0.661417
v 99.7079 21.6 -67.0604
vt 1.53422 0.850394
v 100.713 21.6 -63.3104
vt 1.38137 0.850394
f 429/1012/9 431/1013/9 432/1014/9 433/1015/9 

v 99.7079 0.8 -67.0604
vt 0.323705 0.0314961
vn 0.866025 4.47972e-019 -0.5
vt 0.425602 0.0314961
v 98.4138 16.8 -69.3019
vt 0.425602 0.661417
v 98.4138 21.6 -69.3019
vt 0.425602 0.850394
vt 0.323705 0.850394
vt 0.323705 0.661417
f 434/1016/108 393/1017/108 435/1018/108 436/1019/108 432/1020/108 431/1021/108 

f 389/875/1 393/888/1 434/1011/1

vt 4.62412 0.0314961
vn 0.598959 0 0.80078
vt 4.72482 0.0314961
vt 4.72482 0.661417
vt 4.62412 0.661417
f 389/1022/109 434/1023/109 431/1024/109 430/1025/109 

vt -4.63616 0.0314961
vn -0.394016 0 -0.919104
vt -4.53546 0.0314961
v 96.0629 16.8 -68.2941
vt -4.53546 0.661417
vt -4.63616 0.661417
f 393/1026/110 396/1027/110 437/1028/110 435/1029/110 

v 94.6608 16.8 -69.6962
vt -0.694986 0.661417
vt -0.773052 0.661417
vt -0.773052 0.0314961
vt -0.694986 0.0314961
f 438/1030/69 437/1031/69 396/1032/69 400/1033/69 

v 95.6686 16.8 -72.0471
vt -3.76648 2.8365
f 439/1034/1 435/888/1 437/891/1 438/895/1 

vt -0.810442 0.661417
vn 0.707107 -1.99931e-029 -0.707107
vt -0.657596 0.661417
v 95.6686 21.6 -72.0471
vt -0.657596 0.850394
vt -0.810442 0.850394
f 435/1035/111 439/1036/111 440/1037/111 436/1038/111 

v 95.6686 0.8 -72.0471
vt -1.84362 0.0314961
vn 0.5 5.54936e-018 -0.866025
vt -1.74172 0.0314961
v 93.4272 16.8 -73.3412
vt -1.74172 0.661417
v 93.4272 21.6 -73.3412
vt -1.74172 0.850394
vt -1.84362 0.850394
vt -1.84362 0.661417
f 441/1039/112 404/1040/112 442/1041/112 443/1042/112 440/1043/112 439/1044/112 

f 400/895/1 404/934/1 441/1034/1

vt 3.99039 0.0314961
vn 0.919104 0 0.394016
vt 4.09109 0.0314961
vt 4.09109 0.661417
vt 3.99039 0.661417
f 400/1045/113 441/1046/113 439/1047/113 438/1048/113 

vt -4.51532 0.0314961
vn -0.80078 0 -0.598959
vt -4.41462 0.0314961
v 91.8951 16.8 -71.2929
vt -4.41462 0.661417
vt -4.51532 0.661417
f 404/1049/114 303/1050/114 444/1051/114 442/1052/114 

vt -2.76819 0.0314961
vt -2.69012 0.0314961
vt -2.69012 0.661417
vt -2.76819 0.661417
f 303/1053/37 304/1054/37 306/1055/37 444/1056/37 

f 305/496/1 442/934/1 444/656/1 306/657/1 

vt -2.80558 0.661417
vt -2.65273 0.661417
vt -2.65273 0.850394
vt -2.80558 0.850394
f 442/1057/37 305/1058/37 307/1059/37 443/1060/37 

vt 3.67823 2.88745
f 307/676/15 311/689/15 443/1061/15

f 307/676/15 309/468/15 311/689/15

f 307/676/15 308/456/15 309/468/15

f 443/1061/15 311/689/15 317/716/15

vt 3.76648 2.8365
f 443/1061/15 317/716/15 440/1062/15

f 440/1062/15 317/716/15 319/725/15

vt 3.87456 2.72842
f 440/1062/15 319/725/15 436/1063/15

v 98.9624 21.6 -66.7517
vt 3.89616 2.62802
f 436/1063/15 319/725/15 445/1064/15

vt -0.421456 0.692913
vn -0.866025 3.59077e-016 0.5
v 98.9624 17.6 -66.7517
vt -0.327851 0.692913
vt -0.327851 0.850394
vt -0.421456 0.850394
f 318/1065/115 446/1066/115 445/1067/115 319/1068/115 

f 318/725/28 324/737/28 446/1064/28

v 98.9624 17.6 -57.281
f 446/1064/28 324/737/28 447/981/28

vt -3.9011 0.692913
vn -0.866025 1.57838e-015 -0.5
vt -3.8075 0.692913
vt -3.8075 0.850394
vt -3.9011 0.850394
f 447/1069/116 324/1070/116 419/1071/116 420/1072/116 

v 99.9127 17.6 -60.8276
vt -3.33127 0.692913
vn -0.965926 1.39606e-015 -0.258819
vt -3.18672 0.692913
vt -3.18672 0.850394
vt -3.33127 0.850394
f 448/1073/117 447/1074/117 420/1075/117 421/1076/117 

f 446/1064/28 447/981/28 448/983/28

v 99.9127 17.6 -63.2051
vt 3.93357 2.48839
f 446/1064/28 448/983/28 449/1077/28

vt -2.48839 0.692913
vn -1 1.11859e-015 -4.74433e-015
vt -2.39479 0.692913
vt -2.39479 0.850394
v 99.9127 21.6 -63.2051
vt -2.48839 0.850394
f 449/1078/118 448/1079/118 421/1080/118 450/1081/118 

f 421/983/15 422/984/15 450/1077/15

vt 3.96507 2.49254
f 433/1082/15 450/1077/15 422/984/15

vt 3.92551 2.64017
f 432/1083/15 450/1077/15 433/1082/15

f 432/1083/15 445/1064/15 450/1077/15

f 436/1063/15 445/1064/15 432/1083/15

vt -1.53007 0.692913
vn -0.965926 7.64898e-016 0.258819
vt -1.38552 0.692913
vt -1.38552 0.850394
vt -1.53007 0.850394
f 446/1084/119 449/1085/119 450/1086/119 445/1087/119 

vt 2.39064 0.0314961
vn 1 8.16994e-033 4.35821e-015
vt 2.49254 0.0314961
vt 2.49254 0.661417
vt 2.49254 0.850394
vt 2.39064 0.850394
vt 2.39064 0.661417
f 426/1088/120 427/1089/120 429/1090/120 433/1091/120 422/1092/120 423/1093/120 

vt 3.4287 0.0314961
vt 3.5306 0.0314961
vt 3.5306 0.661417
vt 3.5306 0.850394
vt 3.4287 0.850394
vt 3.4287 0.661417
f 226/1094/23 219/1095/23 410/1096/23 414/1097/23 115/1098/23 116/1099/23 

vt -1.63743 0.0314961
vn -0.992975 0 0.118324
vt -1.53673 0.0314961
vt -1.53673 0.661417
vt -1.63743 0.661417
f 228/1100/121 226/1101/121 116/1102/121 118/1103/121 

vt 2.76819 0.661417
vt 2.69012 0.661417
vt 2.69012 0.0314961
vt 2.76819 0.0314961
f 118/1104/24 117/1105/24 119/1106/24 228/1107/24 

vt 0.504271 0.0314961
vn -0.80078 0 0.598959
vt 0.604972 0.0314961
vt 0.604972 0.661417
vt 0.504271 0.661417
f 405/1108/122 372/1109/122 412/1110/122 411/1111/122 

vt -3.32379 0.0314961
vt -3.30529 0.0314961
vt -3.30529 0.0984252
vt -3.32379 0.0984252
f 407/1112/3 215/1113/50 133/1114/50 214/1115/3 

vt -2.59139 0.0314961
vt -2.57289 0.0314961
vt -2.57289 0.0984252
vt -2.59139 0.0984252
f 406/1116/46 407/1117/3 214/1118/3 213/1119/46 

vt -1.68302 0.0314961
vt -1.66452 0.0314961
vt -1.66452 0.0984252
vt -1.68302 0.0984252
f 300/1120/7 406/1121/46 213/1122/46 212/1123/7 

f 300/645/1 301/646/1 406/936/1

f 301/646/1 303/656/1 406/936/1

vt 2.90418 0.0314961
vt 2.92268 0.0314961
vt 2.92268 0.0984252
vt 2.90418 0.0984252
f 371/1124/10 403/1125/11 152/1126/11 151/1127/10 

vt 3.69108 0.0314961
vt 3.70958 0.0314961
vt 3.70958 0.0984252
vt 3.69108 0.0984252
f 403/1128/11 402/1129/12 153/1130/12 152/1131/11 

vt 1.91872 0.0314961
vt 1.93722 0.0314961
vt 1.93722 0.0984252
vt 1.91872 0.0984252
f 370/1132/9 371/1133/10 151/1134/10 150/1135/9 

vt 0.801883 0.0314961
vt 0.820383 0.0314961
vt 0.820383 0.0984252
vt 0.801883 0.0984252
f 369/1136/18 370/1137/9 150/1138/9 149/1139/18 

vt -0.370235 0.0314961
vt -0.351736 0.0314961
vt -0.351736 0.0984252
vt -0.370235 0.0984252
f 368/1140/69 369/1141/18 149/1142/18 148/1143/69 

vt -1.51775 0.0314961
vt -1.49925 0.0314961
vt -1.49925 0.0984252
vt -1.51775 0.0984252
f 366/1144/70 368/1145/69 148/1146/69 147/1147/70 

vt -2.56247 0.0314961
vt -2.54397 0.0314961
vt -2.54397 0.0984252
vt -2.56247 0.0984252
f 365/1148/37 366/1149/70 147/1150/70 146/1151/37 

vt -3.43319 0.0314961
vt -3.41469 0.0314961
vt -3.41469 0.0984252
vt -3.43319 0.0984252
f 364/1152/36 365/1153/37 146/1154/37 145/1155/36 

vt -4.07057 0.0314961
vt -4.05207 0.0314961
vt -4.05207 0.0984252
vt -4.07057 0.0984252
f 362/1156/35 364/1157/36 145/1158/36 144/1159/35 

vt -4.43118 0.0314961
vt -4.41268 0.0314961
vt -4.41268 0.0984252
vt -4.43118 0.0984252
f 360/1160/91 362/1161/35 144/1162/35 143/1163/91 

vt 2.61141 0.0314961
vn -0.394016 0 0.919104
vt 2.71211 0.0314961
vt 2.71211 0.661417
vt 2.61141 0.661417
f 363/1164/123 361/1165/123 377/1166/123 376/1167/123 

vt -2.39828 0.692913
vt -2.4849 0.692913
vt -2.4849 0.129921
vt -2.39828 0.129921
f 348/1168/46 350/1169/46 351/1170/46 349/1171/46 

v 87.1103 3.3 -53.2436
vn 1.43912e-033 -1 2.78697e-016
vt -3.42823 2.09791
vt -3.43634 2.09685
vt -3.43634 2.16993
vt -3.52296 2.16993
vt -3.52296 2.09685
vt -3.53107 2.09791
v 89.2831 3.3 -52.9575
v 88.8489 3.3 -52.7777
v 88.3831 3.3 -52.7163
v 87.9172 3.3 -52.7777
v 87.4831 3.3 -52.9575
f 451/403/124 341/1172/124 340/1173/124 342/1174/124 344/1175/124 345/1176/124 218/1177/124 217/396/124 452/398/124 453/399/124 454/400/124 455/401/124 456/402/124 

vt -0.424741 0.0314961
vn 0.707107 -6.00031e-016 -0.707107
vt -0.406241 0.0314961
vn 0.866025 -6.00031e-016 -0.5
vt -0.406241 0.0984252
vt -0.414233 0.0984252
vn 0.793353 -1.1898e-015 -0.608761
vt -0.422585 0.0984252
vt -0.422585 0.129921
vt -0.424741 0.129921
f 225/1178/125 227/1179/126 199/1180/126 198/1181/127 197/1182/127 341/1183/127 451/1184/125 

vt 0.642081 0.0314961
vt 0.660581 0.0314961
vt 0.660581 0.0984252
vt 0.642081 0.0984252
f 227/1185/126 229/1186/9 200/1187/9 199/1188/126 

vt 1.66452 0.0314961
vt 1.68302 0.0314961
vt 1.68302 0.0984252
vt 1.66452 0.0984252
f 229/1189/9 230/1190/10 201/1191/10 200/1192/9 

vt 2.57289 0.0314961
vt 2.59139 0.0314961
vt 2.59139 0.0984252
vt 2.57289 0.0984252
f 230/1193/10 280/1194/11 202/1195/11 201/1196/10 

vt -1.46325 0.0314961
vt -1.44475 0.0314961
vt -1.44475 0.129921
vt -1.46325 0.129921
f 224/1197/70 225/1198/125 451/1199/125 456/1200/70 

vt -2.40267 0.0314961
vt -2.38417 0.0314961
vt -2.38417 0.129921
vt -2.40267 0.129921
f 223/1201/37 224/1202/70 456/1203/70 455/1204/37 

vt -3.17898 0.0314961
vt -3.16048 0.0314961
vt -3.16048 0.129921
vt -3.17898 0.129921
f 222/1205/36 223/1206/37 455/1207/37 454/1208/36 

vt -3.73928 0.0314961
vt -3.72078 0.0314961
vt -3.72078 0.129921
vt -3.73928 0.129921
f 221/1209/35 222/1210/36 454/1211/36 453/1212/35 

vt -4.04538 0.0314961
vt -4.02688 0.0314961
vt -4.02688 0.129921
vt -4.04538 0.129921
f 220/1213/48 221/1214/35 453/1215/35 452/1216/48 

vt -4.07643 0.0314961
vt -4.05793 0.0314961
vt -4.05793 0.129921
vt -4.07643 0.129921
f 216/1217/51 220/1218/48 452/1219/48 217/1220/51 

vt -0.135491 0.692913
vt -0.226975 0.692913
vt -0.226975 0.0984252
vt -0.135491 0.0984252
f 110/1221/18 112/1222/69 194/1223/69 111/1224/18 

vt -1.20618 0.0314961
vt -1.18768 0.0314961
vt -1.18768 0.0984252
vt -1.20618 0.0984252
f 266/1225/63 302/1226/7 170/1227/7 169/1228/63 

vt 4.11467 0.692913
vn 0.707107 -1.65314e-015 0.707107
vt 4.25922 0.692913
vt 4.25922 0.850394
vt 4.11467 0.850394
f 86/1229/128 237/1230/128 83/1231/128 84/1232/128 

vt 1.99837 0.0314961
vt 2.01687 0.0314961
vt 2.01687 0.0984252
vt 1.99837 0.0984252
f 75/1233/24 77/1234/68 193/1235/68 76/1236/24 

vt 1.03074 0.0314961
vt 1.04924 0.0314961
vt 1.04924 0.0984252
vt 1.03074 0.0984252
f 77/1237/68 78/1238/16 124/1239/16 193/1240/68 

vt -3.48359 0.0314961
vt -3.46509 0.0314961
vt -3.46509 0.0984252
vt -3.48359 0.0984252
f 127/1241/3 129/1242/47 131/1243/47 128/1244/3 

vt -3.23983 0.0314961
vn -0.919104 0 -0.394016
vt -3.13913 0.0314961
vt -3.13913 0.661417
vt -3.23983 0.661417
f 55/1245/129 97/1246/129 52/1247/129 54/1248/129 

vt 3.86632 0.0314961
vt 3.88482 0.0314961
vt 3.88482 0.129921
vt 3.86632 0.129921
f 33/1249/12 35/1250/19 62/1251/19 34/1252/12 

vt -1.86085 0.0314961
vn 0.394016 0 -0.919104
vt -1.76015 0.0314961
vt -1.76015 0.661417
vt -1.86085 0.661417
f 9/1253/130 10/1254/130 42/1255/130 40/1256/130 

vt -3.87356 0.0314961
vn -0.598959 0 -0.80078
vt -3.77286 0.0314961
vt -3.77286 0.661417
vt -3.87356 0.661417
f 5/1257/131 24/1258/131 22/1259/131 21/1260/131 

vt -3.36882 0.0314961
vn -0.118324 0 -0.992975
vt -3.26812 0.0314961
vt -3.26812 0.661417
vt -3.36882 0.661417
f 1/1261/132 3/1262/132 15/1263/132 14/1264/132 

