# Alias OBJ Model File
# Exported from SketchUp, (c) 2000-2012 Trimble Navigation Limited
# File units = millimeters

mtllib perehodnik.mtl

g Mesh1 Group1 Model

usemtl FrontColor
v 64.7568 0 -86.9355
vt 0.389904 0
vn 0.9734 0 -0.229113
v 62.7225 0 -92.3063
vt 0.616012 0
vn 0.880933 0 -0.47324
v 62.7225 5 -92.3063
vt 0.616012 0.19685
v 64.7568 5 -86.9355
vt 0.389904 0.19685
f 1/1/1 2/2/2 3/3/2 4/4/1 

v 64.408 0 -75.5528
vt -1.69511 0.616042
vn 0 -1 -0
vt -1.62875 1.27563
vt -1.70884 1.06418
f 5/5/3 2/6/3 1/7/3

v 62.4414 0 -79.2716
vt -1.61768 0.76245
f 5/5/3 6/8/3 2/6/3

v 62.3392 0 -78.4952
vt -1.61366 0.731881
f 5/5/3 7/9/3 6/8/3

v 62.0487 0 -70.3167
vt -1.60222 0.409893
f 8/10/3 7/9/3 5/5/3

v 62.0395 0 -77.7716
vt -1.60186 0.703395
f 8/10/3 9/11/3 7/9/3

v 61.5627 0 -77.1503
vt -1.58309 0.678933
f 8/10/3 10/12/3 9/11/3

v 60.9414 0 -76.6735
vt -1.55863 0.660163
f 8/10/3 11/13/3 10/12/3

v 60.2179 0 -76.3738
vt -1.53014 0.648364
f 8/10/3 12/14/3 11/13/3

v 59.4414 0 -76.2716
vt -1.49957 0.64434
f 8/10/3 13/15/3 12/14/3

v 58.665 0 -76.3738
vt -1.469 0.648364
f 8/10/3 14/16/3 13/15/3

v 58.4146 0 -65.8695
vt -1.45914 0.234809
f 15/17/3 14/16/3 8/10/3

v 57.9414 0 -76.6735
vt -1.44052 0.660163
f 15/17/3 16/18/3 14/16/3

v 57.3201 0 -77.1503
vt -1.41605 0.678933
f 15/17/3 17/19/3 16/18/3

v 56.8434 0 -77.7716
vt -1.39729 0.703395
f 15/17/3 18/20/3 17/19/3

v 56.6586 0 -78.2176
vt -1.39001 0.720953
f 15/17/3 19/21/3 18/20/3

v 56.5437 0 -78.4952
vt -1.38549 0.731881
f 15/17/3 20/22/3 19/21/3

v 53.7533 0 -62.5145
vt -1.27563 0.102722
f 21/23/3 20/22/3 15/17/3

v 56.4414 0 -79.2716
vt -1.38146 0.76245
f 21/23/3 22/24/3 20/22/3

v 54.9204 0 -100.602
vt -1.32158 1.60222
f 21/23/3 23/25/3 22/24/3

v 50.2314 0 -81.6215
vt -1.13697 0.854964
f 24/26/3 23/25/3 21/23/3

v 49.6842 0 -102.961
vt -1.11543 1.69511
f 24/26/3 25/27/3 23/25/3

v 48.7377 0 -86.1865
vt -1.07817 1.03469
f 24/26/3 26/28/3 25/27/3

v 47.9288 0 -83.4295
vt -1.04632 0.926146
f 26/28/3 24/26/3 27/29/3

vt 0.250971 0
vn -0.617579 0 0.786509
vt 0.366231 0
v 50.2314 5 -81.6215
vt 0.366231 0.19685
v 47.9288 5 -83.4295
vt 0.250971 0.19685
f 27/30/4 24/31/4 28/32/4 29/33/4 

vt -1.4175 0
vn -0.531516 0 -0.847048
v 47.842 0 -80.1222
vt -1.30644 0
v 47.842 5 -80.1222
vt -1.30644 0.19685
vt -1.4175 0.19685
f 24/34/5 30/35/5 31/36/5 28/37/5 

v 48.5667 0 -77.396
vt -1.07143 0.688606
vt -1.0429 0.795936
f 24/26/3 32/38/3 30/39/3

f 21/23/3 32/38/3 24/26/3

v 48.3825 0 -60.4803
vt -1.06418 0.0226331
f 33/40/3 32/38/3 21/23/3

v 45.6496 0 -77.6444
vt -0.956587 0.698385
f 33/40/3 34/41/3 32/38/3

v 44.3606 0 -75.0765
vt -0.905839 0.597288
f 33/40/3 35/42/3 34/41/3

v 42.6682 0 -59.9054
vt -0.839207 0
f 36/43/3 35/42/3 33/40/3

v 42.3774 0 -77.1555
vt -0.827761 0.679139
f 36/43/3 37/44/3 35/42/3

v 39.6603 0 -76.0654
vt -0.720788 0.636223
f 36/43/3 38/45/3 37/44/3

v 36.9998 0 -60.8291
vt -0.616042 0.0363654
f 39/46/3 38/45/3 36/43/3

v 39.5566 0 -78.8844
vt -0.716704 0.747204
f 39/46/3 40/47/3 38/45/3

v 36.8333 0 -79.6199
vt -0.609489 0.776162
f 39/46/3 41/48/3 40/47/3

v 36.3397 0 -94.4106
vt -0.590055 1.35847
f 39/46/3 42/49/3 41/48/3

v 36.0158 0 -69.4278
vt -0.577304 0.374896
f 39/46/3 43/50/3 42/49/3

v 35.9561 0 -68.6469
vt -0.574952 0.344153
f 39/46/3 44/51/3 43/50/3

v 35.6963 0 -67.9081
vt -0.564722 0.315067
f 39/46/3 45/52/3 44/51/3

v 35.2541 0 -67.2617
vt -0.547313 0.289619
f 39/46/3 46/53/3 45/52/3

v 34.6597 0 -66.7518
vt -0.523911 0.269544
f 39/46/3 47/54/3 46/53/3

v 33.9535 0 -66.4131
vt -0.49611 0.25621
f 39/46/3 48/55/3 47/54/3

v 33.1838 0 -66.2687
vt -0.465806 0.250525
f 39/46/3 49/56/3 48/55/3

v 32.4029 0 -66.3285
vt -0.435063 0.252878
f 39/46/3 50/57/3 49/56/3

v 31.7636 0 -63.1884
vt -0.409893 0.129251
f 51/58/3 50/57/3 39/46/3

v 31.6641 0 -66.5883
vt -0.405976 0.263107
f 51/58/3 52/59/3 50/57/3

v 31.122 0 -66.9413
vt -0.384632 0.277003
f 51/58/3 53/60/3 52/59/3

v 31.0177 0 -67.0305
vt -0.380528 0.280516
f 51/58/3 54/61/3 53/60/3

v 30.5078 0 -67.6249
vt -0.360453 0.303918
f 51/58/3 55/62/3 54/61/3

v 30.1691 0 -68.331
vt -0.347119 0.331719
f 51/58/3 56/63/3 55/62/3

v 29.54 0 -65.0054
vt -0.322351 0.200789
f 57/64/3 56/63/3 51/58/3

v 30.0248 0 -69.1008
vt -0.341435 0.362023
f 56/63/3 57/64/3 58/65/3

v 30.0845 0 -69.8817
vt -0.343787 0.392766
f 57/64/3 59/66/3 58/65/3

v 32.9307 0 -101.276
vt -0.455842 1.62875
f 57/64/3 60/67/3 59/66/3

v 28.2694 0 -97.9206
vt -0.272327 1.49666
f 57/64/3 61/68/3 60/67/3

v 27.3165 0 -66.8225
vt -0.234809 0.272327
f 62/69/3 61/68/3 57/64/3

v 24.6353 0 -93.4735
vt -0.129251 1.32158
f 62/69/3 63/70/3 61/68/3

v 23.9615 0 -71.4838
vt -0.102722 0.455842
f 64/71/3 63/70/3 62/69/3

v 22.276 0 -88.2373
vt -0.0363654 1.11543
f 64/71/3 65/72/3 63/70/3

v 21.9272 0 -76.8546
vt -0.0226331 0.667291
f 66/73/3 65/72/3 64/71/3

v 21.3523 0 -82.5689
vt 0 0.892264
f 65/72/3 66/73/3 67/74/3

vt -0.887783 0
vn -0.999531 0 -0.0306287
vt -0.661674 0
vn -0.9734 0 0.229113
v 21.9272 5 -76.8546
vt -0.661674 0.19685
v 21.3523 5 -82.5689
vt -0.887783 0.19685
f 67/75/6 66/76/7 68/77/7 69/78/6 

vt -0.616012 0
vt -0.389904 0
vn -0.880933 0 0.47324
v 23.9615 5 -71.4838
vt -0.389904 0.19685
vt -0.616012 0.19685
f 66/79/7 64/80/8 70/81/8 68/82/7 

vt -0.309966 0
vt -0.0838576 0
vn -0.728433 0 0.685117
v 27.3165 5 -66.8225
vt -0.0838576 0.19685
vt -0.309966 0.19685
f 64/83/8 62/84/9 71/85/9 70/86/8 

vt 0.00949959 0
vt 0.122554 0
vn -0.632775 0 0.774336
v 29.54 5 -65.0054
vt 0.122554 0.19685
vt 0.00949959 0.19685
f 62/87/9 57/88/10 72/89/10 71/90/9 

vt 0.235608 0
vn -0.526291 0 0.850305
v 31.7636 5 -63.1884
vt 0.235608 0.19685
f 57/88/10 51/91/11 73/92/11 72/89/10 

vt 0.320613 0
vt 0.546722 0
vn -0.288283 0 0.957545
v 36.9998 5 -60.8291
vt 0.546722 0.19685
vt 0.320613 0.19685
f 51/93/11 39/94/12 74/95/12 73/96/11 

vt 0.602173 0
vt 0.828282 0
vn -0.0306287 0 0.999531
v 42.6682 5 -59.9054
vt 0.828282 0.19685
vt 0.602173 0.19685
f 39/97/12 36/98/13 75/99/13 74/100/12 

vt 0.834992 0
vt 1.0611 0
vn 0.229113 0 0.9734
v 48.3825 5 -60.4803
vt 1.0611 0.19685
vt 0.834992 0.19685
f 36/101/13 33/102/14 76/103/14 75/104/13 

vt 1.0032 0
vt 1.22931 0
vn 0.47324 0 0.880933
v 53.7533 5 -62.5145
vt 1.22931 0.19685
vt 1.0032 0.19685
f 33/105/14 21/106/15 77/107/15 76/108/14 

vt 1.09534 0
vt 1.32145 0
vn 0.685117 0 0.728433
v 58.4146 5 -65.8695
vt 1.32145 0.19685
vt 1.09534 0.19685
f 21/109/15 15/110/16 78/111/16 77/112/15 

vt 1.10513 0
vt 1.33124 0
vn 0.850305 0 0.526291
v 62.0487 5 -70.3167
vt 1.33124 0.19685
vt 1.10513 0.19685
f 15/113/16 8/114/17 79/115/17 78/116/16 

vt 1.0319 0
vt 1.25801 0
vn 0.957545 0 0.288283
v 64.408 5 -75.5528
vt 1.25801 0.19685
vt 1.0319 0.19685
f 8/117/17 5/118/18 80/119/18 79/120/17 

vt 0.880649 0
v 65.3317 0 -81.2212
vt 1.10676 0
vn 0.999531 0 0.0306287
v 65.3317 5 -81.2212
vt 1.10676 0.19685
vt 0.880649 0.19685
f 5/121/18 81/122/19 82/123/19 80/124/18 

v 65.2639 0 -81.8951
vt -1.7288 0.865735
vt -1.73147 0.839207
f 5/5/3 83/125/3 81/126/3

f 5/5/3 1/7/3 83/125/3

vt 0.688337 0
vn 0.994978 0 -0.100098
vt 0.887783 0
vt 0.887783 0.19685
v 65.2639 5 -81.8951
vt 0.688337 0.19685
f 83/127/20 1/128/1 4/129/1 84/130/20 

vt 1.70884 1.06418
vn 0 1 -0
vt 1.69511 0.616042
vt 1.7288 0.865735
f 4/131/21 80/132/21 84/133/21

vt 1.62875 1.27563
f 3/134/21 80/132/21 4/131/21

v 62.4414 5 -79.2716
vt 1.61768 0.76245
f 85/135/21 80/132/21 3/134/21

v 62.3392 5 -78.4952
vt 1.61366 0.731881
f 86/136/21 80/132/21 85/135/21

vt 1.60222 0.409893
f 86/136/21 79/137/21 80/132/21

v 62.0395 5 -77.7716
vt 1.60186 0.703395
f 87/138/21 79/137/21 86/136/21

v 61.5627 5 -77.1503
vt 1.58309 0.678933
f 88/139/21 79/137/21 87/138/21

v 60.9414 5 -76.6735
vt 1.55863 0.660163
f 89/140/21 79/137/21 88/139/21

v 60.2179 5 -76.3738
vt 1.53014 0.648364
f 90/141/21 79/137/21 89/140/21

v 59.4414 5 -76.2716
vt 1.49957 0.64434
f 91/142/21 79/137/21 90/141/21

v 58.665 5 -76.3738
vt 1.469 0.648364
f 92/143/21 79/137/21 91/142/21

vt 1.45914 0.234809
f 92/143/21 78/144/21 79/137/21

v 57.9414 5 -76.6735
vt 1.44052 0.660163
f 93/145/21 78/144/21 92/143/21

v 57.3201 5 -77.1503
vt 1.41605 0.678933
f 94/146/21 78/144/21 93/145/21

v 56.8434 5 -77.7716
vt 1.39729 0.703395
f 95/147/21 78/144/21 94/146/21

v 56.6586 5 -78.2176
vt 1.39001 0.720953
f 96/148/21 78/144/21 95/147/21

v 56.5437 5 -78.4952
vt 1.38549 0.731881
f 97/149/21 78/144/21 96/148/21

vt 1.27563 0.102722
f 97/149/21 77/150/21 78/144/21

v 56.4414 5 -79.2716
vt 1.38146 0.76245
f 98/151/21 77/150/21 97/149/21

v 54.9204 5 -100.602
vt 1.32158 1.60222
f 99/152/21 77/150/21 98/151/21

vt 1.13697 0.854964
f 99/152/21 28/153/21 77/150/21

v 49.6842 5 -102.961
vt 1.11543 1.69511
f 100/154/21 28/153/21 99/152/21

v 48.7377 5 -86.1865
vt 1.07817 1.03469
f 101/155/21 28/153/21 100/154/21

vt 1.04632 0.926146
f 28/153/21 101/155/21 29/156/21

vt -1.29637 0
vn -0.959553 0 -0.281529
vt -1.18326 0
vt -1.18326 0.19685
vt -1.29637 0.19685
f 26/157/22 27/158/22 29/159/22 101/160/22 

v 45.8694 0 -86.0189
vt 1.02358 0
vn 0.0583452 0 0.998296
vt 1.1367 0
vt 1.1367 0.19685
v 45.8694 5 -86.0189
vt 1.02358 0.19685
f 102/161/23 26/162/23 101/163/23 103/164/23 

vt -0.965239 1.02809
f 102/165/3 25/27/3 26/28/3

v 44.626 0 -88.6693
vt -0.916286 1.13244
f 104/166/3 25/27/3 102/165/3

v 44.0158 0 -103.885
vt -0.892264 1.73147
f 104/166/3 105/167/3 25/27/3

v 42.6274 0 -86.6787
vt -0.8376 1.05407
f 106/168/3 105/167/3 104/166/3

v 40.5483 0 -97.4582
vt -0.755748 1.47846
f 107/169/3 105/167/3 106/168/3

v 40.3667 0 -98.22
vt -0.748597 1.50845
f 108/170/3 105/167/3 107/169/3

v 39.9941 0 -98.9088
vt -0.733928 1.53557
f 109/171/3 105/167/3 108/170/3

v 39.4559 0 -99.4778
vt -0.712739 1.55797
f 110/172/3 105/167/3 109/171/3

v 38.7888 0 -99.888
vt -0.686475 1.57412
f 111/173/3 105/167/3 110/172/3

v 38.3015 0 -103.31
vt -0.667291 1.70884
f 111/173/3 112/174/3 105/167/3

v 38.0382 0 -100.112
vt -0.656926 1.58292
f 113/175/3 112/174/3 111/173/3

v 37.2554 0 -100.133
vt -0.626105 1.58378
f 114/176/3 112/174/3 113/175/3

v 36.4936 0 -99.9517
vt -0.596112 1.57663
f 115/177/3 112/174/3 114/176/3

v 35.8047 0 -99.5791
vt -0.568993 1.56196
f 116/178/3 112/174/3 115/177/3

v 35.2358 0 -99.041
vt -0.546594 1.54077
f 117/179/3 112/174/3 116/178/3

f 117/179/3 60/67/3 112/174/3

v 34.8255 0 -98.3738
vt -0.530442 1.51451
f 118/180/3 60/67/3 117/179/3

v 34.6019 0 -97.6233
vt -0.521638 1.48496
f 119/181/3 60/67/3 118/180/3

v 33.5004 0 -72.2106
vt -0.478271 0.484456
f 120/182/3 60/67/3 119/181/3

v 32.8568 0 -72.2598
vt -0.452933 0.486395
f 121/183/3 60/67/3 120/182/3

v 32.0871 0 -72.1154
vt -0.422628 0.48071
f 122/184/3 60/67/3 121/183/3

v 31.3809 0 -71.7767
vt -0.394828 0.467376
f 123/185/3 60/67/3 122/184/3

v 30.7865 0 -71.2668
vt -0.371426 0.447301
f 124/186/3 60/67/3 123/185/3

v 30.3443 0 -70.6205
vt -0.354017 0.421853
f 125/187/3 60/67/3 124/186/3

f 59/66/3 60/67/3 125/187/3

vt 0.484578 0
vn 0.978595 0 0.205795
vt 0.515411 0
vn 0.891987 0 0.452062
v 30.3443 5 -70.6205
vt 0.515411 0.19685
v 30.0845 5 -69.8817
vt 0.484578 0.19685
f 59/188/24 125/189/25 126/190/25 127/191/24 

vt 0.548062 0
vt 0.578895 0
vn 0.744591 0 0.667521
v 30.7865 5 -71.2668
vt 0.578895 0.19685
vt 0.548062 0.19685
f 125/192/25 124/193/26 128/194/26 126/195/25 

vt 0.573146 0
vt 0.603979 0
vn 0.546452 0 0.83749
v 31.3809 5 -71.7767
vt 0.603979 0.19685
vt 0.573146 0.19685
f 124/196/26 123/197/27 129/198/27 128/199/26 

vt 0.55812 0
vt 0.588953 0
vn 0.311074 0 0.950386
v 32.0871 5 -72.1154
vt 0.588953 0.19685
vt 0.55812 0.19685
f 123/200/27 122/201/28 130/202/28 129/203/27 

vt 0.504009 0
vt 0.534842 0
vn 0.0544962 0 0.998514
v 32.8568 5 -72.2598
vt 0.534842 0.19685
vt 0.504009 0.19685
f 122/204/28 121/205/29 131/206/29 130/207/28 

vt 0.414499 0
vt 0.439912 0
vn -0.0763023 0 0.997085
v 33.5004 5 -72.2106
vt 0.439912 0.19685
vt 0.414499 0.19685
f 121/208/29 120/209/30 132/210/30 131/211/29 

v 33.6377 0 -72.2001
vt 0.445332 0
vn -0.205795 0 0.978595
v 33.6377 5 -72.2001
vt 0.445332 0.19685
f 120/209/30 133/212/31 134/213/31 132/210/30 

vt -0.483676 0.484042
f 120/182/3 119/181/3 133/214/3

v 34.5802 0 -96.8404
vt -0.520783 1.45414
f 133/214/3 119/181/3 135/215/3

vt 1.46803 0
vn 0.994686 0 -0.102958
vt 1.49886 0
vn 0.98744 0 0.157994
v 34.6019 5 -97.6233
vt 1.49886 0.19685
v 34.5802 5 -96.8404
vt 1.46803 0.19685
f 135/216/32 119/217/33 136/218/33 137/219/32 

vt 1.57208 0
vt 1.60291 0
vn 0.912902 0 0.408179
v 34.8255 5 -98.3738
vt 1.60291 0.19685
vt 1.57208 0.19685
f 119/220/33 118/221/34 138/222/34 136/223/33 

vt 1.56795 0
vt 1.59878 0
vn 0.776151 0 0.630547
v 35.2358 5 -99.041
vt 1.59878 0.19685
vt 1.56795 0.19685
f 118/224/34 117/225/35 139/226/35 138/227/34 

vt 1.45591 0
vt 1.48674 0
vn 0.586507 0 0.809944
v 35.8047 5 -99.5791
vt 1.48674 0.19685
vt 1.45591 0.19685
f 117/228/35 116/229/36 140/230/36 139/231/35 

vt 1.2436 0
vt 1.27444 0
vn 0.356893 0 0.934145
v 36.4936 5 -99.9517
vt 1.27444 0.19685
vt 1.2436 0.19685
f 116/232/36 115/233/37 141/234/37 140/235/36 

vt 0.945496 0
vt 0.976329 0
vn 0.102958 0 0.994686
v 37.2554 5 -100.133
vt 0.976329 0.19685
vt 0.945496 0.19685
f 115/236/37 114/237/38 142/238/38 141/239/37 

vt 0.581905 0
vt 0.612738 0
vn -0.157994 0 0.98744
v 38.0382 5 -100.112
vt 0.612738 0.19685
vt 0.581905 0.19685
f 114/240/38 113/241/39 143/242/39 142/243/38 

vt 0.177607 0
vt 0.20844 0
vn -0.408179 0 0.912902
v 38.7888 5 -99.888
vt 0.20844 0.19685
vt 0.177607 0.19685
f 113/244/39 111/245/40 144/246/40 143/247/39 

vt -0.239844 0
vt -0.209011 0
vn -0.630547 0 0.776151
v 39.4559 5 -99.4778
vt -0.209011 0.19685
vt -0.239844 0.19685
f 111/248/40 110/249/41 145/250/41 144/251/40 

vt -0.642002 0
vt -0.611169 0
vn -0.809944 0 0.586507
v 39.9941 5 -98.9088
vt -0.611169 0.19685
vt -0.642002 0.19685
f 110/252/41 109/253/42 146/254/42 145/255/41 

vt -1.00146 0
vt -0.970625 0
vn -0.934145 0 0.356893
v 40.3667 5 -98.22
vt -0.970625 0.19685
vt -1.00146 0.19685
f 109/256/42 108/257/43 147/258/43 146/259/42 

vt -1.29372 0
vt -1.26288 0
vn -0.994686 0 0.102958
v 40.5483 5 -97.4582
vt -1.26288 0.19685
vt -1.29372 0.19685
f 108/260/43 107/261/44 148/262/44 147/263/43 

vt -1.49886 0
v 40.5266 0 -96.6753
vt -1.46803 0
vn -0.98744 0 -0.157994
v 40.5266 5 -96.6753
vt -1.46803 0.19685
vt -1.49886 0.19685
f 107/264/44 149/265/45 150/266/45 148/267/44 

vt -0.754892 1.44764
f 106/168/3 149/268/3 107/169/3

v 40.303 0 -95.9248
vt -0.746088 1.41809
f 106/168/3 151/269/3 149/268/3

v 40.1342 0 -87.9983
vt -0.739445 1.10602
f 152/270/3 151/269/3 106/168/3

v 39.8927 0 -95.2577
vt -0.729937 1.39182
f 152/270/3 153/271/3 151/269/3

v 39.7197 0 -85.1002
vt -0.723126 0.99192
f 154/272/3 153/271/3 152/270/3

v 39.3238 0 -94.7195
vt -0.707538 1.37063
f 154/272/3 155/273/3 153/271/3

v 38.6349 0 -94.3469
vt -0.680418 1.35596
f 154/272/3 156/274/3 155/273/3

v 37.8731 0 -94.1653
vt -0.650426 1.34881
f 154/272/3 157/275/3 156/274/3

v 37.0903 0 -94.187
vt -0.619604 1.34967
f 154/272/3 158/276/3 157/275/3

v 36.9276 0 -84.4222
vt -0.613201 0.965228
f 159/277/3 158/276/3 154/272/3

f 41/48/3 158/276/3 159/277/3

f 158/276/3 41/48/3 42/49/3

vt -0.20844 0
vn 0.157994 0 -0.98744
vt -0.177607 0
vn 0.408179 0 -0.912902
v 36.3397 5 -94.4106
vt -0.177607 0.19685
v 37.0903 5 -94.187
vt -0.20844 0.19685
f 158/278/46 42/279/47 160/280/47 161/281/46 

vt 0.209011 0
v 35.6726 0 -94.8209
vt 0.239844 0
vn 0.630547 0 -0.776151
v 35.6726 5 -94.8209
vt 0.239844 0.19685
vt 0.209011 0.19685
f 42/282/47 162/283/48 163/284/48 160/285/47 

v 35.8119 0 -70.3216
vt -0.569276 0.410088
vt -0.563791 1.37462
f 164/286/3 162/287/3 42/49/3

v 35.5328 0 -70.9036
vt -0.558286 0.433002
f 165/288/3 162/287/3 164/286/3

v 35.1344 0 -95.3898
vt -0.542602 1.39702
f 165/288/3 166/289/3 162/287/3

v 35.0229 0 -71.498
vt -0.538211 0.456404
f 167/290/3 166/289/3 165/288/3

v 34.7618 0 -96.0786
vt -0.527933 1.42414
f 167/290/3 168/291/3 166/289/3

f 167/290/3 135/215/3 168/291/3

v 34.3765 0 -71.9402
vt -0.512763 0.473813
f 135/215/3 167/290/3 169/292/3

vt 0.155683 0
vn -0.452062 0 0.891987
vt 0.186516 0
vn -0.667521 0 0.744591
v 35.0229 5 -71.498
vt 0.186516 0.19685
v 34.3765 5 -71.9402
vt 0.155683 0.19685
f 169/293/49 167/294/50 170/295/50 171/296/49 

vt 0.00401427 0
vt 0.0348472 0
vn -0.83749 0 0.546452
v 35.5328 5 -70.9036
vt 0.0348472 0.19685
vt 0.00401427 0.19685
f 167/297/50 165/298/51 172/299/51 170/300/50 

vt -0.148979 0
vt -0.123566 0
vn -0.901652 0 0.432463
v 35.8119 5 -70.3216
vt -0.123566 0.19685
vt -0.148979 0.19685
f 165/301/51 164/302/52 173/303/52 172/304/51 

v 35.8715 0 -70.1975
vt -0.118146 0
vn -0.950386 0 0.311074
v 35.8715 5 -70.1975
vt -0.118146 0.19685
f 164/302/52 174/305/53 175/306/53 173/303/52 

vt -0.57162 0.405201
f 164/286/3 42/49/3 174/307/3

f 174/307/3 42/49/3 43/50/3

vt -0.29287 0
vt -0.262037 0
vn -0.998514 0 0.0544962
v 36.0158 5 -69.4278
vt -0.262037 0.19685
vt -0.29287 0.19685
f 174/308/53 43/309/54 176/310/54 175/311/53 

vt -0.417853 0
vt -0.38702 0
vn -0.978595 0 -0.205795
v 35.9561 5 -68.6469
vt -0.38702 0.19685
vt -0.417853 0.19685
f 43/312/54 44/313/55 177/314/55 176/315/54 

vt -0.515411 0
vt -0.484578 0
vn -0.891987 0 -0.452062
v 35.6963 5 -67.9081
vt -0.484578 0.19685
vt -0.515411 0.19685
f 44/316/55 45/317/56 178/318/56 177/319/55 

vt -0.578895 0
vt -0.548062 0
vn -0.744591 0 -0.667521
v 35.2541 5 -67.2617
vt -0.548062 0.19685
vt -0.578895 0.19685
f 45/320/56 46/321/57 179/322/57 178/323/56 

vt -0.603979 0
vt -0.573146 0
vn -0.546452 0 -0.83749
v 34.6597 5 -66.7518
vt -0.573146 0.19685
vt -0.603979 0.19685
f 46/324/57 47/325/58 180/326/58 179/327/57 

vt -0.588953 0
vt -0.55812 0
vn -0.311074 0 -0.950386
v 33.9535 5 -66.4131
vt -0.55812 0.19685
vt -0.588953 0.19685
f 47/328/58 48/329/59 181/330/59 180/331/58 

vt -0.534842 0
vt -0.504009 0
vn -0.0544962 0 -0.998514
v 33.1838 5 -66.2687
vt -0.504009 0.19685
vt -0.534842 0.19685
f 48/332/59 49/333/60 182/334/60 181/335/59 

vt -0.445332 0
vt -0.414499 0
vn 0.205795 0 -0.978595
v 32.4029 5 -66.3285
vt -0.414499 0.19685
vt -0.445332 0.19685
f 49/336/60 50/337/61 183/338/61 182/339/60 

vt -0.326525 0
vt -0.295692 0
vn 0.441832 0 -0.897098
v 31.6641 5 -66.5883
vt -0.295692 0.19685
vt -0.326525 0.19685
f 50/340/61 52/341/62 184/342/62 183/343/61 

vt -0.196676 0
vt -0.171207 0
vn 0.599242 0 -0.800568
v 31.122 5 -66.9413
vt -0.171207 0.19685
vt -0.196676 0.19685
f 52/344/62 53/345/63 185/346/63 184/347/62 

vt -0.11205 0
vt -0.106648 0
vn 0.706747 0 -0.707467
v 31.0177 5 -67.0305
vt -0.106648 0.19685
vt -0.11205 0.19685
f 53/348/63 54/349/64 186/350/64 185/351/63 

vt -0.0348472 0
vt -0.00401427 0
vn 0.83749 0 -0.546452
v 30.5078 5 -67.6249
vt -0.00401427 0.19685
vt -0.0348472 0.19685
f 54/352/64 55/353/65 187/354/65 186/355/64 

vt 0.118146 0
vt 0.148979 0
vn 0.950386 0 -0.311074
v 30.1691 5 -68.331
vt 0.148979 0.19685
vt 0.118146 0.19685
f 55/356/65 56/357/66 188/358/66 187/359/65 

vt 0.262037 0
vt 0.29287 0
vn 0.998514 0 -0.0544962
v 30.0248 5 -69.1008
vt 0.29287 0.19685
vt 0.262037 0.19685
f 56/360/66 58/361/67 189/362/67 188/363/66 

vt 0.38702 0
vt 0.417853 0
vt 0.417853 0.19685
vt 0.38702 0.19685
f 58/364/67 59/365/24 127/366/24 189/367/67 

vt 0.343787 0.392766
vt 0.322351 0.200789
vt 0.341435 0.362023
f 127/368/21 72/369/21 189/370/21

v 32.9307 5 -101.276
vt 0.455842 1.62875
f 190/371/21 72/369/21 127/368/21

v 28.2694 5 -97.9206
vt 0.272327 1.49666
f 191/372/21 72/369/21 190/371/21

vt 0.234809 0.272327
f 191/372/21 71/373/21 72/369/21

v 24.6353 5 -93.4735
vt 0.129251 1.32158
f 192/374/21 71/373/21 191/372/21

vt 0.102722 0.455842
f 192/374/21 70/375/21 71/373/21

v 22.276 5 -88.2373
vt 0.0363654 1.11543
f 193/376/21 70/375/21 192/374/21

vt 0.0226331 0.667291
f 193/376/21 68/377/21 70/375/21

f 68/377/21 193/376/21 69/74/21

vt -1.10676 0
vn -0.957545 0 -0.288283
vt -0.880649 0
vt -0.880649 0.19685
vt -1.10676 0.19685
f 65/378/68 67/379/6 69/380/6 193/381/68 

vt -1.25801 0
vn -0.850305 0 -0.526291
vt -1.0319 0
vt -1.0319 0.19685
vt -1.25801 0.19685
f 63/382/69 65/383/68 193/384/68 192/385/69 

vt -1.33124 0
vn -0.685117 0 -0.728433
vt -1.10513 0
vt -1.10513 0.19685
vt -1.33124 0.19685
f 61/386/70 63/387/69 192/388/69 191/389/70 

vt -1.32145 0
vn -0.47324 0 -0.880933
vt -1.09534 0
vt -1.09534 0.19685
vt -1.32145 0.19685
f 60/390/71 61/391/70 191/392/70 190/393/71 

vt -1.22931 0
vn -0.229113 0 -0.9734
vt -1.0032 0
vt -1.0032 0.19685
v 38.3015 5 -103.31
vt -1.22931 0.19685
f 112/394/72 60/395/71 190/396/71 194/397/72 

vt 0.546594 1.54077
vt 0.667291 1.70884
f 190/371/21 139/398/21 194/399/21

vt 0.530442 1.51451
f 190/371/21 138/400/21 139/398/21

vt 0.521638 1.48496
f 190/371/21 136/401/21 138/400/21

vt 0.478271 0.484456
f 190/371/21 132/402/21 136/401/21

vt 0.452933 0.486395
f 190/371/21 131/403/21 132/402/21

vt 0.422628 0.48071
f 190/371/21 130/404/21 131/403/21

vt 0.394828 0.467376
f 190/371/21 129/405/21 130/404/21

vt 0.371426 0.447301
f 190/371/21 128/406/21 129/405/21

vt 0.354017 0.421853
f 190/371/21 126/407/21 128/406/21

f 190/371/21 127/368/21 126/407/21

vt 0.483676 0.484042
f 136/401/21 132/402/21 134/408/21

vt 0.520783 1.45414
f 136/401/21 134/408/21 137/409/21

vt 0.512763 0.473813
f 137/409/21 134/408/21 171/410/21

vt 0.295692 0
vt 0.326525 0
vt 0.326525 0.19685
vt 0.295692 0.19685
f 133/411/31 169/412/49 171/413/49 134/414/31 

f 133/214/3 135/215/3 169/292/3

vt 0.538211 0.456404
f 170/415/21 137/409/21 171/410/21

v 34.7618 5 -96.0786
vt 0.527933 1.42414
f 137/409/21 170/415/21 195/416/21

v 35.1344 5 -95.3898
vt 0.542602 1.39702
f 195/416/21 170/415/21 196/417/21

vt 0.558286 0.433002
f 196/417/21 170/415/21 172/418/21

vt 0.563791 1.37462
f 196/417/21 172/418/21 163/419/21

vt 0.569276 0.410088
f 163/419/21 172/418/21 173/420/21

vt 0.590055 1.35847
f 163/419/21 173/420/21 160/421/21

vt 0.57162 0.405201
f 160/421/21 173/420/21 175/422/21

vt 0.577304 0.374896
f 160/421/21 175/422/21 176/423/21

vt 0.616042 0.0363654
f 176/423/21 74/424/21 160/421/21

vt 0.574952 0.344153
f 177/425/21 74/424/21 176/423/21

vt 0.564722 0.315067
f 178/426/21 74/424/21 177/425/21

vt 0.547313 0.289619
f 179/427/21 74/424/21 178/426/21

vt 0.523911 0.269544
f 180/428/21 74/424/21 179/427/21

vt 0.49611 0.25621
f 181/429/21 74/424/21 180/428/21

vt 0.465806 0.250525
f 182/430/21 74/424/21 181/429/21

vt 0.435063 0.252878
f 183/431/21 74/424/21 182/430/21

vt 0.409893 0.129251
f 183/431/21 73/432/21 74/424/21

vt 0.405976 0.263107
f 184/433/21 73/432/21 183/431/21

vt 0.384632 0.277003
f 185/434/21 73/432/21 184/433/21

vt 0.380528 0.280516
f 186/435/21 73/432/21 185/434/21

vt 0.360453 0.303918
f 187/436/21 73/432/21 186/435/21

vt 0.347119 0.331719
f 188/437/21 73/432/21 187/436/21

f 188/437/21 72/369/21 73/432/21

f 72/369/21 188/437/21 189/370/21

v 36.8333 5 -79.6199
vt 0.609489 0.776162
f 160/421/21 74/424/21 197/438/21

v 39.5566 5 -78.8844
vt 0.716704 0.747204
f 197/438/21 74/424/21 198/439/21

v 39.6603 5 -76.0654
vt 0.720788 0.636223
f 198/439/21 74/424/21 199/440/21

vt 0.839207 0
f 199/440/21 74/424/21 75/441/21

v 42.3774 5 -77.1555
vt 0.827761 0.679139
f 199/440/21 75/441/21 200/442/21

v 44.3606 5 -75.0765
vt 0.905839 0.597288
f 200/442/21 75/441/21 201/443/21

vt 1.06418 0.0226331
f 201/443/21 75/441/21 76/444/21

v 45.6496 5 -77.6444
vt 0.956587 0.698385
f 201/443/21 76/444/21 202/445/21

v 48.5667 5 -77.396
vt 1.07143 0.688606
f 202/445/21 76/444/21 203/446/21

f 203/446/21 76/444/21 77/150/21

f 203/446/21 77/150/21 28/153/21

vt 1.0429 0.795936
f 28/153/21 31/447/21 203/446/21

vt -0.501317 0
vn -0.966441 0 0.256887
vt -0.390261 0
vt -0.390261 0.19685
vt -0.501317 0.19685
f 30/448/73 32/449/73 203/450/73 31/451/73 

vt -1.00914 0
vn 0.0848441 0 -0.996394
vt -0.893884 0
vt -0.893884 0.19685
vt -1.00914 0.19685
f 32/452/74 34/453/74 202/454/74 203/455/74 

vt -1.05331 0
vn -0.893723 0 -0.44862
vt -0.940187 0
vt -0.940187 0.19685
vt -1.05331 0.19685
f 34/456/75 35/457/75 201/458/75 202/459/75 

vt -0.19305 0
vn 0.723587 0 -0.690233
vt -0.0799311 0
vt -0.0799311 0.19685
vt -0.19305 0.19685
f 35/460/76 37/461/76 200/462/76 201/463/76 

vt -1.02111 0
vn -0.372347 0 -0.928094
vt -0.905855 0
vt -0.905855 0.19685
vt -1.02111 0.19685
f 37/464/77 38/465/77 199/466/77 200/467/77 

vt 0.60928 0
vn 0.999323 0 -0.0367825
vt 0.720336 0
vt 0.720336 0.19685
vt 0.60928 0.19685
f 38/468/78 40/469/78 198/470/78 199/471/78 

vt -0.497077 0
vn 0.26075 0 -0.965406
vt -0.38602 0
vt -0.38602 0.19685
vt -0.497077 0.19685
f 40/472/79 41/473/79 197/474/79 198/475/79 

vt 0.985255 0
vn 0.820481 0 0.571674
v 38.507 0 -82.022
vt 1.10052 0
v 38.507 5 -82.022
vt 1.10052 0.19685
vt 0.985255 0.19685
f 41/476/80 204/477/80 205/478/80 197/479/80 

vt -0.67538 0.870731
f 204/480/3 41/48/3 159/277/3

vt 0.356149 0
vn 0.835378 0 -0.549677
vt 0.469268 0
v 36.9276 5 -84.4222
vt 0.469268 0.19685
vt 0.356149 0.19685
f 204/481/81 159/482/81 206/483/81 205/484/81 

vt 0.823646 0
vn 0.235966 0 0.971761
vt 0.936765 0
v 39.7197 5 -85.1002
vt 0.936765 0.19685
vt 0.823646 0.19685
f 159/485/82 154/486/82 207/487/82 206/488/82 

vt 1.08431 0
vn 0.989926 0 0.141585
vt 1.19957 0
v 40.1342 5 -87.9983
vt 1.19957 0.19685
vt 1.08431 0.19685
f 154/489/83 152/490/83 208/491/83 207/492/83 

vt 0.13614 0
vn -0.467807 0 0.883831
vt 0.247197 0
v 42.6274 5 -86.6787
vt 0.247197 0.19685
vt 0.13614 0.19685
f 152/493/84 106/494/84 209/495/84 208/496/84 

vt 1.3373 0
vn 0.705691 0 0.708519
vt 1.44836 0
v 44.626 5 -88.6693
vt 1.44836 0.19685
vt 1.3373 0.19685
f 106/497/85 104/498/85 210/499/85 209/500/85 

vt -0.636059 0
vn -0.905325 0 0.42472
vt -0.520799 0
vt -0.520799 0.19685
vt -0.636059 0.19685
f 104/501/86 102/502/86 103/503/86 210/504/86 

vt 0.916286 1.13244
vt 0.965239 1.02809
f 100/154/21 210/505/21 103/506/21

v 44.0158 5 -103.885
vt 0.892264 1.73147
f 211/507/21 210/505/21 100/154/21

vt 0.8376 1.05407
f 211/507/21 209/508/21 210/505/21

vt 0.755748 1.47846
f 211/507/21 148/509/21 209/508/21

vt 0.748597 1.50845
f 211/507/21 147/510/21 148/509/21

vt 0.733928 1.53557
f 211/507/21 146/511/21 147/510/21

vt 0.712739 1.55797
f 211/507/21 145/512/21 146/511/21

vt 0.686475 1.57412
f 211/507/21 144/513/21 145/512/21

f 194/399/21 144/513/21 211/507/21

vt 0.656926 1.58292
f 194/399/21 143/514/21 144/513/21

vt 0.626105 1.58378
f 194/399/21 142/515/21 143/514/21

vt 0.596112 1.57663
f 194/399/21 141/516/21 142/515/21

vt 0.568993 1.56196
f 194/399/21 140/517/21 141/516/21

f 194/399/21 139/398/21 140/517/21

vt -1.0611 0
vn 0.0306287 0 -0.999531
vt -0.834992 0
vt -0.834992 0.19685
vt -1.0611 0.19685
f 105/518/87 112/519/72 194/520/72 211/521/87 

vt -0.828282 0
vn 0.288283 0 -0.957545
vt -0.602173 0
vt -0.602173 0.19685
vt -0.828282 0.19685
f 25/522/88 105/523/87 211/524/87 100/525/88 

vt -0.546722 0
vn 0.526291 0 -0.850305
vt -0.320613 0
vt -0.320613 0.19685
vt -0.546722 0.19685
f 23/526/89 25/527/88 100/528/88 99/529/89 

v 59.3675 0 -96.9676
vt -0.235608 0
vn 0.728433 0 -0.685117
vt -0.00949959 0
vt -0.00949959 0.19685
v 59.3675 5 -96.9676
vt -0.235608 0.19685
f 212/530/90 23/531/89 99/532/89 213/533/90 

v 56.5437 0 -80.0481
vt -1.38549 0.793019
vt -1.49666 1.45914
f 214/534/3 23/25/3 212/535/3

f 23/25/3 214/534/3 22/24/3

vt 0.936244 0
vn 1 0 6.18691e-015
vt 0.967077 0
vn 0.965926 0 0.258819
v 56.5437 5 -80.0481
vt 0.967077 0.19685
vt 0.936244 0.19685
f 22/536/91 214/537/92 215/538/92 98/539/91 

vt 1.26286 0
v 56.8434 0 -80.7716
vt 1.29369 0
vn 0.866025 0 0.5
v 56.8434 5 -80.7716
vt 1.29369 0.19685
vt 1.26286 0.19685
f 214/540/92 216/541/93 217/542/93 215/543/92 

vt -1.39729 0.821505
f 214/534/3 212/535/3 216/544/3

v 57.1289 0 -81.1438
vt -1.40853 0.836157
f 216/544/3 212/535/3 218/545/3

v 57.3201 0 -81.3929
vt -1.41605 0.845966
f 218/545/3 212/535/3 219/546/3

v 57.9414 0 -81.8697
vt -1.44052 0.864736
f 219/546/3 212/535/3 220/547/3

v 58.665 0 -82.1694
vt -1.469 0.876536
f 220/547/3 212/535/3 221/548/3

v 59.4414 0 -82.2716
vt -1.49957 0.88056
f 221/548/3 212/535/3 222/549/3

f 222/549/3 212/535/3 2/6/3

vt 0.0838576 0
vt 0.309966 0
vt 0.309966 0.19685
vt 0.0838576 0.19685
f 2/550/2 212/551/90 213/552/90 3/553/2 

vt 1.49666 1.45914
v 59.4414 5 -82.2716
vt 1.49957 0.88056
f 213/554/21 223/555/21 3/134/21

v 58.665 5 -82.1694
vt 1.469 0.876536
f 213/554/21 224/556/21 223/555/21

v 57.9414 5 -81.8697
vt 1.44052 0.864736
f 213/554/21 225/557/21 224/556/21

v 57.3201 5 -81.3929
vt 1.41605 0.845966
f 213/554/21 226/558/21 225/557/21

v 57.1289 5 -81.1438
vt 1.40853 0.836157
f 213/554/21 227/559/21 226/558/21

vt 1.39729 0.821505
f 213/554/21 217/560/21 227/559/21

vt 1.38549 0.793019
f 213/554/21 215/561/21 217/560/21

f 99/152/21 215/561/21 213/554/21

f 215/561/21 99/152/21 98/151/21

vt 1.50236 0
vt 1.52083 0
vn 0.793353 0 0.608761
vt 1.52083 0.19685
vt 1.50236 0.19685
f 216/562/93 218/563/94 227/564/94 217/565/93 

vt 1.53319 0
vn 0.707107 0 0.707107
vt 1.53319 0.19685
f 218/563/94 219/566/95 226/567/95 227/564/94 

vt 1.63842 0
vt 1.66926 0
vn 0.5 0 0.866025
vt 1.66926 0.19685
vt 1.63842 0.19685
f 219/568/95 220/569/96 225/570/96 226/571/95 

vt 1.66178 0
vt 1.69262 0
vn 0.258819 0 0.965926
vt 1.69262 0.19685
vt 1.66178 0.19685
f 220/572/96 221/573/97 224/574/97 225/575/96 

vt 1.57085 0
vt 1.60168 0
vn -6.18691e-015 0 1
vt 1.60168 0.19685
vt 1.57085 0.19685
f 221/576/97 222/577/98 223/578/98 224/579/97 

vt 1.37181 0
v 60.2179 0 -82.1694
vt 1.40264 0
vn -0.258819 0 0.965926
v 60.2179 5 -82.1694
vt 1.40264 0.19685
vt 1.37181 0.19685
f 222/580/98 228/581/99 229/582/99 223/583/98 

vt -1.53014 0.876536
f 222/549/3 2/6/3 228/584/3

v 60.9414 0 -81.8697
vt -1.55863 0.864736
f 228/584/3 2/6/3 230/585/3

v 61.5627 0 -81.3929
vt -1.58309 0.845966
f 230/585/3 2/6/3 231/586/3

v 62.0395 0 -80.7716
vt -1.60186 0.821505
f 231/586/3 2/6/3 232/587/3

v 62.3392 0 -80.0481
vt -1.61366 0.793019
f 232/587/3 2/6/3 233/588/3

f 233/588/3 2/6/3 6/8/3

vt -0.57561 0
vn -0.965926 0 0.258819
vt -0.544777 0
vn -1 0 -0
vt -0.544777 0.19685
v 62.3392 5 -80.0481
vt -0.57561 0.19685
f 233/589/100 6/590/101 85/591/101 234/592/100 

vt -0.967077 0
vt -0.936244 0
vn -0.965926 0 -0.258819
vt -0.936244 0.19685
vt -0.967077 0.19685
f 6/593/101 7/594/102 86/595/102 85/596/101 

vt -1.29369 0
vt -1.26286 0
vn -0.866025 0 -0.5
vt -1.26286 0.19685
vt -1.29369 0.19685
f 7/597/102 9/598/103 87/599/103 86/600/102 

vt -1.53319 0
vt -1.50236 0
vn -0.707107 0 -0.707107
vt -1.50236 0.19685
vt -1.53319 0.19685
f 9/601/103 10/602/104 88/603/104 87/604/103 

vt -1.66926 0
vt -1.63842 0
vn -0.5 0 -0.866025
vt -1.63842 0.19685
vt -1.66926 0.19685
f 10/605/104 11/606/105 89/607/105 88/608/104 

vt -1.69262 0
vt -1.66178 0
vn -0.258819 0 -0.965926
vt -1.66178 0.19685
vt -1.69262 0.19685
f 11/609/105 12/610/106 90/611/106 89/612/105 

vt -1.60168 0
vt -1.57085 0
vn 0 0 -1
vt -1.57085 0.19685
vt -1.60168 0.19685
f 12/613/106 13/614/107 91/615/107 90/616/106 

vt -1.40264 0
vt -1.37181 0
vn 0.258819 0 -0.965926
vt -1.37181 0.19685
vt -1.40264 0.19685
f 13/617/107 14/618/108 92/619/108 91/620/107 

vt -1.10906 0
vt -1.07823 0
vn 0.5 0 -0.866025
vt -1.07823 0.19685
vt -1.10906 0.19685
f 14/621/108 16/622/109 93/623/109 92/624/108 

vt -0.740956 0
vt -0.710124 0
vn 0.707107 0 -0.707107
vt -0.710124 0.19685
vt -0.740956 0.19685
f 16/625/109 17/626/110 94/627/110 93/628/109 

vt -0.323406 0
vt -0.292573 0
vn 0.866025 0 -0.5
vt -0.292573 0.19685
vt -0.323406 0.19685
f 17/629/110 18/630/111 95/631/111 94/632/110 

vt 0.115134 0
vt 0.134139 0
vn 0.92388 0 -0.382683
vt 0.134139 0.19685
vt 0.115134 0.19685
f 18/633/111 19/634/112 96/635/112 95/636/111 

vt 0.145967 0
vn 0.965926 0 -0.258819
vt 0.145967 0.19685
f 19/634/112 20/637/113 97/638/113 96/635/112 

vt 0.544777 0
vt 0.57561 0
vt 0.57561 0.19685
vt 0.544777 0.19685
f 20/639/113 22/640/91 98/641/91 97/642/113 

vt 1.61366 0.793019
f 3/134/21 234/643/21 85/135/21

v 62.0395 5 -80.7716
vt 1.60186 0.821505
f 3/134/21 235/644/21 234/643/21

v 61.5627 5 -81.3929
vt 1.58309 0.845966
f 3/134/21 236/645/21 235/644/21

v 60.9414 5 -81.8697
vt 1.55863 0.864736
f 3/134/21 237/646/21 236/645/21

vt 1.53014 0.876536
f 3/134/21 229/647/21 237/646/21

f 3/134/21 223/555/21 229/647/21

vt 1.07823 0
vt 1.10906 0
vn -0.5 0 0.866025
vt 1.10906 0.19685
vt 1.07823 0.19685
f 228/648/99 230/649/114 237/650/114 229/651/99 

vt 0.710124 0
vt 0.740956 0
vn -0.707107 0 0.707107
vt 0.740956 0.19685
vt 0.710124 0.19685
f 230/652/114 231/653/115 236/654/115 237/655/114 

vt 0.292573 0
vt 0.323406 0
vn -0.866025 0 0.5
vt 0.323406 0.19685
vt 0.292573 0.19685
f 231/656/115 232/657/116 235/658/116 236/659/115 

vt -0.145967 0
vt -0.115134 0
vt -0.115134 0.19685
vt -0.145967 0.19685
f 232/660/116 233/661/100 234/662/100 235/663/116 

vt 0.754892 1.44764
f 150/664/21 209/508/21 148/509/21

v 40.303 5 -95.9248
vt 0.746088 1.41809
f 238/665/21 209/508/21 150/664/21

vt 0.739445 1.10602
f 238/665/21 208/666/21 209/508/21

v 39.8927 5 -95.2577
vt 0.729937 1.39182
f 239/667/21 208/666/21 238/665/21

vt 0.723126 0.99192
f 239/667/21 207/668/21 208/666/21

v 39.3238 5 -94.7195
vt 0.707538 1.37063
f 240/669/21 207/668/21 239/667/21

v 38.6349 5 -94.3469
vt 0.680418 1.35596
f 241/670/21 207/668/21 240/669/21

v 37.8731 5 -94.1653
vt 0.650426 1.34881
f 242/671/21 207/668/21 241/670/21

vt 0.619604 1.34967
f 161/672/21 207/668/21 242/671/21

vt 0.613201 0.965228
f 161/672/21 206/673/21 207/668/21

f 161/672/21 197/438/21 206/673/21

f 197/438/21 161/672/21 160/421/21

vt 0.67538 0.870731
f 205/674/21 206/673/21 197/438/21

vt -0.612738 0
vn -0.102958 0 -0.994686
vt -0.581905 0
vt -0.581905 0.19685
vt -0.612738 0.19685
f 157/675/117 158/676/46 161/677/46 242/678/117 

vt -0.976329 0
vn -0.356893 0 -0.934145
vt -0.945496 0
vt -0.945496 0.19685
vt -0.976329 0.19685
f 156/679/118 157/680/117 242/681/117 241/682/118 

vt -1.27444 0
vn -0.586507 0 -0.809944
vt -1.2436 0
vt -1.2436 0.19685
vt -1.27444 0.19685
f 155/683/119 156/684/118 241/685/118 240/686/119 

vt -1.48674 0
vn -0.776151 0 -0.630547
vt -1.45591 0
vt -1.45591 0.19685
vt -1.48674 0.19685
f 153/687/120 155/688/119 240/689/119 239/690/120 

vt -1.59878 0
vn -0.912902 0 -0.408179
vt -1.56795 0
vt -1.56795 0.19685
vt -1.59878 0.19685
f 151/691/121 153/692/120 239/693/120 238/694/121 

vt -1.60291 0
vt -1.57208 0
vt -1.57208 0.19685
vt -1.60291 0.19685
f 149/695/45 151/696/121 238/697/121 150/698/45 

f 100/154/21 103/506/21 101/155/21

vt 0.611169 0
vt 0.642002 0
vn 0.809944 0 -0.586507
vt 0.642002 0.19685
vt 0.611169 0.19685
f 162/699/48 166/700/122 196/701/122 163/702/48 

vt 0.970625 0
vt 1.00146 0
vn 0.934145 0 -0.356893
vt 1.00146 0.19685
vt 0.970625 0.19685
f 166/703/122 168/704/123 195/705/123 196/706/122 

vt 1.26288 0
vt 1.29372 0
vt 1.29372 0.19685
vt 1.26288 0.19685
f 168/707/123 135/708/32 137/709/32 195/710/123 

vt 1.73147 0.839207
f 84/133/21 80/132/21 82/711/21

vt 0.661674 0
vt 0.661674 0.19685
f 81/712/19 83/127/20 84/130/20 82/713/19 

