# Alias OBJ Model File
# Exported from SketchUp, (c) 2000-2012 Trimble Navigation Limited
# File units = millimeters

mtllib Sergey_fara_dodel.mtl

g Mesh1 Model

usemtl FrontColor
v 151.373 6.62588e-008 -76.9003
vt -6.64513 2.60861e-009
vn -0.339219 4.71803e-015 -0.940708
v 141.126 8.119e-008 -73.0263
vt -6.2138 3.19645e-009
vn -0.367917 1.1539e-014 -0.929858
v 141.126 16 -73.0263
vt -6.2138 0.629921
v 151.373 16 -76.9003
vt -6.64513 0.629921
f 1/1/1 2/2/2 3/3/2 4/4/1 

v 203.35 0 -91.3011
vt -8.00589 3.59453
vn 1.67423e-010 -1 1.93561e-009
v 204.51 1.79088e-007 -89.5018
vt -8.05156 3.52369
v 193.85 1.46673e-008 -87.252
vt -7.6319 3.43512
v 183.265 2.75172e-008 -84.6761
vt -7.21515 3.33371
v 175.055 1.79088e-007 -82.4094
vt -6.89192 3.24447
v 172.763 1.79088e-007 -81.7768
vt -6.80171 3.21956
v 162.356 1.79088e-007 -78.5566
vt -6.39196 3.09278
v 161.217 1.79088e-007 -78.1655
vt -6.34712 3.07738
v 152.052 6.91287e-008 -75.0187
vt -5.9863 2.95349
v 141.861 8.39763e-008 -71.1664
vt -5.5851 2.80183
v 131.794 9.92895e-008 -67.0032
vt -5.18874 2.63792
v 121.859 1.15054e-007 -62.5332
vt -4.79759 2.46194
v 112.066 1.31255e-007 -57.7605
vt -4.41203 2.27403
v 102.423 1.47876e-007 -52.6896
vt -4.03242 2.07439
v 93.9139 1.63157e-007 -47.8755
vt -3.6974 1.88486
v 93.9139 1.5901e-007 -50.1734
vt -3.6974 1.97533
v 101.465 1.4545e-007 -54.4454
vt -3.9947 2.14352
v 111.162 1.28735e-007 -59.5449
vt -4.37645 2.34429
v 121.01 1.12443e-007 -64.3445
vt -4.76418 2.53325
v 131.001 9.65894e-008 -68.8397
vt -5.15753 2.71022
vt -5.55612 2.87505
vt -5.95958 3.02757
v 161.319 5.23902e-008 -80.3153
vt -6.35115 3.16202
v 161.735 1.79088e-007 -80.4582
vt -6.36753 3.16764
v 172.202 1.79088e-007 -83.6965
vt -6.77959 3.29514
v 180.683 1.79088e-007 -86.0381
vt -7.11351 3.38733
v 182.762 2.44128e-008 -86.6122
vt -7.19536 3.40993
v 193.407 1.14905e-008 -89.2025
vt -7.61446 3.51191
f 5/5/3 6/6/3 7/7/3 8/8/3 9/9/3 10/10/3 11/11/3 12/12/3 13/13/3 14/14/3 15/15/3 16/16/3 17/17/3 18/18/3 19/19/3 20/20/3 21/21/3 22/22/3 23/23/3 24/24/3 2/25/3 1/26/3 25/27/3 26/28/3 27/29/3 28/30/3 29/31/3 30/32/3 

vt -1.40142 7.05079e-009
vn 0.840459 -8.64024e-015 -0.541875
vt -1.31714 7.49663e-014
v 203.35 16 -91.3011
vt -1.31714 0.629921
v 204.51 16 -89.5018
vt -1.40142 0.629921
f 6/33/4 5/34/4 31/35/4 32/36/4 

v 193.407 16 -89.2025
vt -8.17558 0.629921
vn -0.221504 -6.65095e-015 -0.975159
vt -8.57565 0.629921
vn -0.206519 -1.59386e-015 -0.978443
vt -8.57565 2.97044e-015
vt -8.17558 4.52385e-010
f 33/37/5 31/38/6 5/39/6 30/40/5 

v 91.9297 16 -49.0509
vt 3.61928 1.93114
vn 3.54675e-016 1 9.02459e-016
v 82.5904 16 -43.3823
vt 3.25159 1.70796
v 83.1898 16 -42.3137
vt 3.27519 1.66589
v 84.5925 16 -42.2579
vt 3.33041 1.6637
v 92.9412 16 -47.3253
vt 3.6591 1.8632
v 102.423 16 -52.6896
vt 4.03242 2.07439
v 112.066 16 -57.7605
vt 4.41203 2.27403
v 121.859 16 -62.5332
vt 4.79759 2.46194
v 131.794 16 -67.0032
vt 5.18874 2.63792
v 141.861 16 -71.1664
vt 5.5851 2.80183
v 152.052 16 -75.0187
vt 5.9863 2.95349
v 162.356 16 -78.5566
vt 6.39196 3.09278
v 172.763 16 -81.7768
vt 6.80171 3.21956
v 183.265 16 -84.6761
vt 7.21515 3.33371
v 193.85 16 -87.252
vt 7.6319 3.43512
vt 8.05156 3.52369
vt 8.00589 3.59453
vt 7.61446 3.51191
v 182.762 16 -86.6122
vt 7.19536 3.40993
v 172.202 16 -83.6965
vt 6.77959 3.29514
v 161.735 16 -80.4582
vt 6.36753 3.16764
vt 5.95958 3.02757
vt 5.55612 2.87505
v 131.001 16 -68.8397
vt 5.15753 2.71022
v 121.01 16 -64.3445
vt 4.76418 2.53325
v 111.162 16 -59.5449
vt 4.37645 2.34429
v 101.465 16 -54.4454
vt 3.9947 2.14352
f 34/41/7 35/42/7 36/43/7 37/44/7 38/45/7 39/46/7 40/47/7 41/48/7 42/49/7 43/50/7 44/51/7 45/52/7 46/53/7 47/54/7 48/55/7 32/56/7 31/57/7 33/58/7 49/59/7 50/60/7 51/61/7 4/62/7 3/63/7 52/64/7 53/65/7 54/66/7 55/67/7 

vt -4.09596 0.629921
vn -0.505688 9.63887e-015 -0.862716
v 91.9297 3.68386 -49.0509
vt -4.09596 0.145034
v 82.5904 3.25638 -43.3823
vt -3.66585 0.128204
vn -0.518863 1.33242e-014 -0.854857
vt -3.66585 0.629921
f 34/68/8 56/69/8 57/70/9 35/71/9 

vt -4.53233 5.72638e-009
vn -0.478984 7.70566e-015 -0.877823
vt -4.19075 6.26025e-009
vn -0.492394 5.95132e-015 -0.870372
v 93.9019 0.835992 -50.1666
vt -4.19021 0.0329131
v 93.9073 3.76074 -50.1696
vt -4.19045 0.148061
vt -4.101 0.145034
vt -4.101 0.629921
vt -4.53233 0.629921
f 21/72/10 20/73/11 58/74/11 59/75/11 56/76/8 34/77/8 55/78/10 

v 93.8966 3.37594 -47.8657
vt -1.89465 0.123763
vn -0.999993 -0.00247812 -0.00275231
vt -1.98535 0.138912
vt -1.98523 0.023765
vt -1.9855 -0.0091491
vt -1.89503 -0.00914971
v 93.8931 1.44934 -47.8637
vt -1.89457 0.0479127
f 60/79/12 59/80/12 58/81/12 20/82/12 19/83/12 61/84/12 

vt -4.13202 0.71969
vn -0.0549124 -0.984808 -0.164737
vt -4.10294 0.632447
v 92.9412 3.3388 -47.3253
vt -4.06053 0.624027
v 84.1076 2.93447 -41.9636
vt -3.66384 0.532355
v 83.4504 2.97143 -41.9655
vt -3.63932 0.540736
vt -3.62484 0.605341
vt -4.04423 0.70226
f 59/85/13 60/86/13 62/87/13 63/88/13 64/89/13 57/90/13 56/91/13 

vt 4.10221 0.629921
vn 0.505688 3.27026e-014 0.862716
vt 4.10221 0.131449
vt 4.14543 0.132911
vn 0.492394 1.19697e-014 0.870372
vt 4.14527 0.0570606
vt 4.14621 6.42351e-009
vt 4.53112 5.8219e-009
vn 0.478984 3.34912e-016 0.877823
vt 4.53112 0.629921
f 38/92/14 62/93/14 60/94/15 61/95/15 19/96/15 18/97/16 39/98/16 

vt 4.09476 0.629921
vt 3.71026 0.629921
vn 0.518863 5.34279e-014 0.854857
vt 3.68793 0.11553
vt 4.09476 0.131449
f 38/99/14 37/100/17 63/101/17 62/102/14 

vt 3.27077 0.674203
vn -0.0346342 0.0250153 0.999087
vt 3.21551 0.67421
v 83.2014 15.4208 -42.2982
vt 3.21598 0.6514
vt 3.22623 0.161101
vt 3.2521 0.159667
f 37/103/18 36/104/18 65/105/18 64/106/18 63/107/18 

vt 0.27323 0.618024
vn -0.855142 -0.00324594 0.518384
vt 0.22502 0.116304
vt 0.290272 0.105085
vt 0.273988 0.595221
f 36/108/19 57/109/19 64/110/19 65/111/19 

vt 0.101124 0.128204
vn -0.87216 1.5769e-015 0.48922
vt 0.149361 0.629921
vt 0.101124 0.629921
f 57/112/20 36/113/20 35/114/20

vt 4.53451 5.82191e-009
vt 4.96342 5.1675e-009
vn 0.45183 -1.48031e-014 0.892104
vt 4.96342 0.629921
vt 4.53451 0.629921
f 18/115/16 17/116/21 40/117/21 39/118/16 

vt 4.96234 5.1675e-009
vt 5.39125 4.52968e-009
vn 0.424249 -1.30118e-014 0.905545
vt 5.39125 0.629921
vt 4.96234 0.629921
f 17/119/21 16/120/22 41/121/22 40/122/21 

vt 5.3853 4.52968e-009
vt 5.81421 3.90903e-009
vn 0.39627 1.93624e-015 0.918134
vt 5.81421 0.629921
vt 5.3853 0.629921
f 16/123/22 15/124/23 42/125/23 41/126/22 

vt 5.80299 3.90904e-009
vt 6.2319 3.30616e-009
vn 0.367917 6.54163e-015 0.929858
vt 6.2319 0.629921
vt 5.80299 0.629921
f 15/127/23 14/128/24 43/129/24 42/130/23 

vt 6.21501 3.30615e-009
vt 6.64392 2.7216e-009
vn 0.339219 -7.87238e-016 0.940708
vt 6.64392 0.629921
vt 6.21501 0.629921
f 14/131/24 13/132/25 44/133/25 43/134/24 

vt 6.62098 2.7216e-009
vt 7.00248 7.05071e-009
vn 0.324748 -3.06626e-015 0.945801
vt 7.04989 7.05071e-009
vn 0.3102 -1.53331e-015 0.950671
vt 7.04989 0.629921
vt 6.62098 0.629921
f 13/135/25 12/136/26 11/137/27 45/138/27 44/139/25 

vt 7.02052 7.05072e-009
vt 7.44943 7.05072e-009
vn 0.28089 -9.13124e-015 0.95974
vt 7.44943 0.629921
vt 7.02052 0.629921
f 11/140/27 10/141/28 46/142/28 45/143/27 

vt 7.41324 7.05069e-009
vt 7.50683 7.05069e-009
vn 0.266134 -1.82603e-014 0.963936
vt 7.84216 1.08333e-009
vn 0.251316 -1.83206e-014 0.967905
vt 7.84216 0.629921
vt 7.41324 0.629921
f 10/144/28 9/145/29 8/146/30 47/147/30 46/148/28 

vt 7.79879 1.08333e-009
vt 8.2277 5.77423e-010
vn 0.221504 -8.97376e-015 0.975159
vt 8.2277 0.629921
vt 7.79879 0.629921
f 8/149/30 7/150/31 48/151/31 47/152/30 

vt 8.17679 5.77452e-010
vt 8.6057 7.05072e-009
vn 0.206519 4.31108e-016 0.978443
vt 8.6057 0.629921
vt 8.17679 0.629921
f 7/153/31 6/154/32 32/155/32 48/156/31 

vt -4.96463 5.06829e-009
vn -0.45183 -1.23838e-015 -0.892104
vt -4.5333 5.72638e-009
vt -4.5333 0.629921
vt -4.96463 0.629921
f 22/157/33 21/158/10 55/159/10 54/160/33 

vt -5.39246 4.42688e-009
vn -0.424249 -1.09857e-014 -0.905545
vt -4.96114 5.06829e-009
vt -4.96114 0.629921
vt -5.39246 0.629921
f 23/161/34 22/162/33 54/163/33 53/164/34 

vt -5.81542 3.80274e-009
vn -0.39627 1.81921e-015 -0.918134
vt -5.38409 4.42688e-009
vt -5.38409 0.629921
vt -5.81542 0.629921
f 24/165/35 23/166/34 53/167/34 52/168/35 

vt -6.23311 3.19645e-009
vt -5.80178 3.80272e-009
vt -5.80178 0.629921
vt -6.23311 0.629921
f 2/169/2 24/170/35 52/171/35 3/172/2 

vt -8.22891 4.524e-010
vt -7.79758 9.61153e-010
vn -0.251316 -8.56527e-015 -0.967905
vt -7.79758 0.629921
vt -8.22891 0.629921
f 30/173/5 29/174/36 49/175/36 33/176/5 

vt -7.84336 9.61142e-010
vt -7.75845 7.05072e-009
vn -0.266134 -5.42205e-015 -0.963936
vt -7.41204 7.05072e-009
vn -0.28089 -2.71134e-015 -0.95974
vt -7.41204 0.629921
vt -7.84336 0.629921
f 29/177/36 28/178/37 27/179/38 50/180/38 49/181/36 

vt -7.45064 7.05072e-009
vt -7.01931 7.05072e-009
vn -0.3102 1.588e-017 -0.950671
vt -7.01931 0.629921
vt -7.45064 0.629921
f 27/182/38 26/183/39 51/184/39 50/185/38 

vt -7.0511 7.05072e-009
vt -7.03378 2.06261e-009
vn -0.324748 3.17563e-017 -0.945801
vt -6.61977 2.60861e-009
vt -6.61977 0.629921
vt -7.0511 0.629921
f 26/186/39 25/187/40 1/188/1 4/189/1 51/190/39 

