# Alias OBJ Model File
# Exported from SketchUp, (c) 2000-2012 Trimble Navigation Limited
# File units = millimeters

mtllib shlyapa_dodel.mtl

g Mesh1 Model

usemtl FrontColor
v 199.897 50 -162.155
vt 5.3022 -1.35375
vn 0.928477 0.371391 1.17441e-015
v 219.897 0 -162.155
vt 5.19943 -3.4714
v 217.683 0 -178.978
vt 5.86748 -3.4714
vn 0.89684 0.371391 -0.240307
v 198.364 50 -173.802
vt 5.7647 -1.35375
f 1/1/1 2/2/1 3/3/2 4/4/2 

v 198.364 50 -150.508
vt 6.89419 -0.739372
vn 0.89684 0.371391 0.240307
v 217.683 0 -145.332
vt 6.79141 -2.85702
vt 7.45946 -2.85702
vt 7.35668 -0.739372
f 5/5/3 6/6/3 2/7/1 1/8/1 

v 193.869 50 -139.655
vt 8.00058 0.00596654
vn 0.804084 0.371391 0.464238
v 211.189 0 -129.655
vt 7.89781 -2.11168
vt 8.56585 -2.11168
vt 8.46308 0.00596654
f 7/9/4 8/10/4 6/11/3 5/12/3 

v 186.717 50 -130.335
vt 8.54599 0.831472
vn 0.656532 0.371391 0.656532
v 200.859 0 -116.193
vt 8.44322 -1.28618
vt 9.11126 -1.28618
vt 9.00849 0.831472
f 9/13/5 10/14/5 8/15/4 7/16/4 

v 177.397 50 -123.184
vt 8.49325 1.68089
vn 0.464238 0.371391 0.804084
v 187.397 0 -105.863
vt 8.39047 -0.436762
vt 9.05852 -0.436762
vt 8.95574 1.68089
f 11/17/6 12/18/6 10/19/5 9/20/5 

v 166.544 50 -118.688
vt 7.84594 2.49633
vn 0.240307 0.371391 0.89684
v 171.721 0 -99.3699
vt 7.74317 0.378678
vt 8.41121 0.378678
vt 8.30844 2.49633
f 13/21/7 14/22/7 12/23/6 11/24/6 

v 154.897 50 -117.155
vt 6.64819 3.22222
vn 1.04858e-016 0.371391 0.928477
v 154.897 0 -97.1551
vt 6.54542 1.10457
vt 7.21346 1.10457
vt 7.11069 3.22222
f 15/25/8 16/26/8 14/27/7 13/28/7 

v 143.251 50 -118.688
vt 4.98162 3.8091
vn -0.240307 0.371391 0.89684
v 138.074 0 -99.3699
vt 4.87884 1.69145
vt 5.54689 1.69145
vt 5.44411 3.8091
f 17/29/9 18/30/9 16/31/8 15/32/8 

v 132.397 50 -123.184
vt 2.9598 4.21697
vn -0.464238 0.371391 0.804084
v 122.397 0 -105.863
vt 2.85702 2.09932
vt 3.52507 2.09932
vt 3.42229 4.21697
f 19/33/10 20/34/10 18/35/9 17/36/9 

v 123.078 50 -130.335
vt 0.72051 4.41804
vn -0.656532 0.371391 0.656532
v 108.936 0 -116.193
vt 0.617733 2.30038
vt 1.28578 2.30038
vt 1.183 4.41804
f 21/37/11 22/38/11 20/39/10 19/40/10 

v 115.926 50 -139.655
vt -1.58364 4.39859
vn -0.804084 0.371391 0.464238
v 98.6058 0 -129.655
vt -1.68641 2.28094
vt -1.01837 2.28094
vt -1.12114 4.39859
f 23/41/12 24/42/12 22/43/11 21/44/11 

v 111.431 50 -150.508
vt -3.79562 4.15996
vn -0.89684 0.371391 0.240307
v 92.1123 0 -145.332
vt -3.8984 2.04231
vt -3.23035 2.04231
vt -3.33313 4.15996
f 25/45/13 26/46/13 24/47/12 23/48/12 

v 109.897 50 -162.155
vt -5.7647 3.71842
vn -0.928477 0.371391 -0
v 89.8974 0 -162.155
vt -5.86748 1.60077
vt -5.19943 1.60077
vt -5.3022 3.71842
f 27/49/14 28/50/14 26/51/13 25/52/13 

v 111.431 50 -173.802
vt -7.35668 3.10404
vn -0.89684 0.371391 -0.240307
v 92.1123 0 -178.978
vt -7.45946 0.986389
vt -6.79141 0.986389
vt -6.89419 3.10404
f 29/53/15 30/54/15 28/55/14 27/56/14 

v 115.926 50 -184.655
vt -8.46308 2.3587
vn -0.804084 0.371391 -0.464238
v 98.6058 0 -194.655
vt -8.56585 0.241051
vt -7.89781 0.241051
vt -8.00058 2.3587
f 31/57/16 32/58/16 30/59/15 29/60/15 

v 123.078 50 -193.975
vt -9.00849 1.5332
vn -0.656532 0.371391 -0.656532
v 108.936 0 -208.117
vt -9.11126 -0.584454
vt -8.44322 -0.584454
vt -8.54599 1.5332
f 33/61/17 34/62/17 32/63/16 31/64/16 

v 132.397 50 -201.126
vt -8.95574 0.68378
vn -0.464238 0.371391 -0.804084
v 122.397 0 -218.447
vt -9.05852 -1.43387
vt -8.39047 -1.43387
vt -8.49325 0.68378
f 35/65/18 36/66/18 34/67/17 33/68/17 

v 143.251 50 -205.622
vt -8.30844 -0.131661
vn -0.240307 0.371391 -0.89684
v 138.074 0 -224.94
vt -8.41121 -2.24931
vt -7.74317 -2.24931
vt -7.84594 -0.131661
f 37/69/19 38/70/19 36/71/18 35/72/18 

v 154.897 50 -207.155
vt -7.11069 -0.857555
vn 1.30723e-015 0.371391 -0.928477
v 154.897 0 -227.155
vt -7.21346 -2.97521
vt -6.54542 -2.97521
vt -6.64819 -0.857555
f 39/73/20 40/74/20 38/75/19 37/76/19 

v 166.544 50 -205.622
vt -5.44411 -1.44443
vn 0.240307 0.371391 -0.89684
v 171.721 0 -224.94
vt -5.54689 -3.56208
vt -4.87884 -3.56208
vt -4.98162 -1.44443
f 41/77/21 42/78/21 40/79/20 39/80/20 

v 177.397 50 -201.126
vt -3.42229 -1.8523
vn 0.464238 0.371391 -0.804084
v 187.397 0 -218.447
vt -3.52507 -3.96995
vt -2.85702 -3.96995
vt -2.9598 -1.8523
f 43/81/22 44/82/22 42/83/21 41/84/21 

v 186.717 50 -193.975
vt -1.183 -2.05337
vn 0.656532 0.371391 -0.656532
v 200.859 0 -208.117
vt -1.28578 -4.17102
vt -0.617733 -4.17102
vt -0.72051 -2.05337
f 45/85/23 46/86/23 44/87/22 43/88/22 

v 193.869 50 -184.655
vt 1.12114 -2.03392
vn 0.804084 0.371391 -0.464238
v 211.189 0 -194.655
vt 1.01837 -4.15157
vt 1.68641 -4.15157
vt 1.58364 -2.03392
f 47/89/24 48/90/24 46/91/23 45/92/23 

vt 3.33313 -1.7953
vt 3.23035 -3.91295
vt 3.8984 -3.91295
vt 3.79562 -1.7953
f 4/93/2 3/94/2 48/95/24 47/96/24 

v 216.708 0 -178.717
vt -8.53183 7.03611
vn 0 -1 -0
vt -8.31453 7.66359
vt -8.57018 7.04639
f 49/97/25 48/98/25 3/99/25

v 210.316 0 -194.151
vt -8.28014 7.64373
f 50/100/25 48/98/25 49/97/25

vt -7.90785 8.19358
f 50/100/25 46/101/25 48/98/25

v 200.146 0 -207.404
vt -7.87977 8.16551
f 51/102/25 46/101/25 50/100/25

vt -7.37785 8.60027
f 51/102/25 44/103/25 46/101/25

v 186.893 0 -217.573
vt -7.358 8.56588
f 52/104/25 44/103/25 51/102/25

vt -6.76066 8.85592
f 52/104/25 42/105/25 44/103/25

v 171.46 0 -223.966
vt -6.75038 8.81756
f 53/106/25 42/105/25 52/104/25

vt -6.09832 8.94311
f 53/106/25 40/107/25 42/105/25

v 154.897 0 -226.146
vt -6.09832 8.9034
f 54/108/25 40/107/25 53/106/25

v 138.335 0 -223.966
vt -5.44627 8.81756
f 55/109/25 40/107/25 54/108/25

vt -5.43599 8.85592
f 55/109/25 38/110/25 40/107/25

v 122.902 0 -217.573
vt -4.83865 8.56588
f 56/111/25 38/110/25 55/109/25

vt -4.8188 8.60027
f 56/111/25 36/112/25 38/110/25

v 109.649 0 -207.404
vt -4.31688 8.16551
f 57/113/25 36/112/25 56/111/25

vt -4.2888 8.19358
f 57/113/25 34/114/25 36/112/25

v 99.4793 0 -194.151
vt -3.91651 7.64373
f 58/115/25 34/114/25 57/113/25

vt -3.88212 7.66359
f 58/115/25 32/116/25 34/114/25

v 93.0865 0 -178.717
vt -3.66482 7.03611
f 59/117/25 32/116/25 58/115/25

vt -3.62647 7.04639
f 59/117/25 30/118/25 32/116/25

v 90.9061 0 -162.155
vt -3.57898 6.38406
f 60/119/25 30/118/25 59/117/25

vt -3.53927 6.38406
f 30/118/25 60/119/25 28/120/25

vt -3.62647 5.72173
f 60/119/25 26/121/25 28/120/25

v 93.0865 0 -145.593
vt -3.66482 5.732
f 26/121/25 60/119/25 61/122/25

vt 5.86229 1.61528
vn 0.928477 -0.371391 4.05451e-016
v 110.906 50 -162.155
vt 5.75952 3.73293
v 112.405 50 -150.769
vt 5.30739 3.73293
vn 0.89684 -0.371391 -0.240307
vt 5.20461 1.61528
f 60/123/26 62/124/26 63/125/27 61/126/27 

vt 7.45427 1.0009
vn 0.89684 -0.371391 0.240307
v 112.405 50 -173.541
vt 7.3515 3.11855
vt 6.89937 3.11855
vt 6.79659 1.0009
f 59/127/28 64/128/28 62/129/26 60/130/26 

vt 8.56067 0.255565
vn 0.804084 -0.371391 0.464238
v 116.8 50 -184.151
vt 8.45789 2.37322
vt 8.00577 2.37322
vt 7.90299 0.255565
f 58/131/29 65/132/29 64/133/28 59/134/28 

vt 9.10608 -0.569941
vn 0.656532 -0.371391 0.656532
v 123.791 50 -193.262
vt 9.0033 1.54771
vt 8.55118 1.54771
vt 8.4484 -0.569941
f 57/135/30 66/136/30 65/137/29 58/138/29 

vt 9.05334 -1.41936
vn 0.464238 -0.371391 0.804084
v 132.902 50 -200.253
vt 8.95056 0.698294
vt 8.49843 0.698294
vt 8.39565 -1.41936
f 56/139/31 67/140/31 66/141/30 57/142/30 

vt 8.40603 -2.2348
vn 0.240307 -0.371391 0.89684
v 143.512 50 -204.648
vt 8.30326 -0.117147
vt 7.85113 -0.117147
vt 7.74835 -2.2348
f 55/143/32 68/144/32 67/145/31 56/146/31 

vt 7.20828 -2.96069
vn -1.38413e-015 -0.371391 0.928477
v 154.897 50 -206.146
vt 7.1055 -0.843041
vt 6.65338 -0.843041
vt 6.5506 -2.96069
f 54/147/33 69/148/33 68/149/32 55/150/32 

vt 5.54171 -3.54757
vn -0.240307 -0.371391 0.89684
v 166.283 50 -204.648
vt 5.43893 -1.42992
vt 4.9868 -1.42992
vt 4.88402 -3.54757
f 53/151/34 70/152/34 69/153/33 54/154/33 

vt 3.51988 -3.95544
vn -0.464238 -0.371391 0.804084
v 176.893 50 -200.253
vt 3.41711 -1.83779
vt 2.96498 -1.83779
vt 2.8622 -3.95544
f 52/155/35 71/156/35 70/157/34 53/158/34 

vt 1.2806 -4.1565
vn -0.656532 -0.371391 0.656532
v 186.004 50 -193.262
vt 1.17782 -2.03885
vt 0.725693 -2.03885
vt 0.622916 -4.1565
f 51/159/36 72/160/36 71/161/35 52/162/35 

vt -1.02355 -4.13706
vn -0.804084 -0.371391 0.464238
v 192.995 50 -184.151
vt -1.12633 -2.01941
vt -1.57845 -2.01941
vt -1.68123 -4.13706
f 50/163/37 73/164/37 72/165/36 51/166/36 

vt -3.23553 -3.89843
vn -0.89684 -0.371391 0.240307
v 197.39 50 -173.541
vt -3.33831 -1.78078
vt -3.79044 -1.78078
vt -3.89321 -3.89843
f 49/167/38 74/168/38 73/169/37 50/170/37 

v 218.889 0 -162.155
vt -5.20461 -3.45689
vn -0.928477 -0.371391 -1.22334e-015
v 198.889 50 -162.155
vt -5.30739 -1.33924
vt -5.75952 -1.33924
vt -5.86229 -3.45689
f 75/171/39 76/172/39 74/173/38 49/174/38 

v 216.708 0 -145.593
vt -6.79659 -2.84251
vn -0.89684 -0.371391 -0.240307
v 197.39 50 -150.769
vt -6.89937 -0.724858
vt -7.3515 -0.724858
vt -7.45427 -2.84251
f 77/175/40 78/176/40 76/177/39 75/178/39 

v 210.316 0 -130.159
vt -7.90299 -2.09717
vn -0.804084 -0.371391 -0.464238
v 192.995 50 -140.159
vt -8.00577 0.0204802
vt -8.45789 0.0204802
vt -8.56067 -2.09717
f 79/179/41 80/180/41 78/181/40 77/182/40 

v 200.146 0 -116.906
vt -8.4484 -1.27167
vn -0.656532 -0.371391 -0.656532
v 186.004 50 -131.049
vt -8.55118 0.845986
vt -9.0033 0.845986
vt -9.10608 -1.27167
f 81/183/42 82/184/42 80/185/41 79/186/41 

v 186.893 0 -106.737
vt -8.39565 -0.422249
vn -0.464238 -0.371391 -0.804084
v 176.893 50 -124.057
vt -8.49843 1.6954
vt -8.95056 1.6954
vt -9.05334 -0.422249
f 83/187/43 84/188/43 82/189/42 81/190/42 

v 171.46 0 -100.344
vt -7.74835 0.393192
vn -0.240307 -0.371391 -0.89684
v 166.283 50 -119.663
vt -7.85113 2.51084
vt -8.30326 2.51084
vt -8.40603 0.393192
f 85/191/44 86/192/44 84/193/43 83/194/43 

v 154.897 0 -98.1637
vt -6.5506 1.11909
vn 4.40404e-016 -0.371391 -0.928477
v 154.897 50 -118.164
vt -6.65338 3.23674
vt -7.1055 3.23674
vt -7.20828 1.11909
f 87/195/45 88/196/45 86/197/44 85/198/44 

v 138.335 0 -100.344
vt -4.88402 1.70597
vn 0.240307 -0.371391 -0.89684
v 143.512 50 -119.663
vt -4.9868 3.82362
vt -5.43893 3.82362
vt -5.54171 1.70597
f 89/199/46 90/200/46 88/201/45 87/202/45 

v 122.902 0 -106.737
vt -2.8622 2.11383
vn 0.464238 -0.371391 -0.804084
v 132.902 50 -124.057
vt -2.96498 4.23149
vt -3.41711 4.23149
vt -3.51988 2.11383
f 91/203/47 92/204/47 90/205/46 89/206/46 

v 109.649 0 -116.906
vt -0.622916 2.3149
vn 0.656532 -0.371391 -0.656532
v 123.791 50 -131.049
vt -0.725693 4.43255
vt -1.17782 4.43255
vt -1.2806 2.3149
f 93/207/48 94/208/48 92/209/47 91/210/47 

v 99.4793 0 -130.159
vt 1.68123 2.29545
vn 0.804084 -0.371391 -0.464238
v 116.8 50 -140.159
vt 1.57845 4.41311
vt 1.12633 4.41311
vt 1.02355 2.29545
f 95/211/49 96/212/49 94/213/48 93/214/48 

vt 3.89321 2.05683
vt 3.79044 4.17448
vt 3.33831 4.17448
vt 3.23553 2.05683
f 61/215/27 63/216/27 96/217/49 95/218/49 

vt 4.4254 5.9358
vn 0 1 -0
vt 4.56403 5.49823
vt 4.59842 5.51809
f 63/219/50 23/220/50 96/221/50

vt 4.38704 5.92552
f 63/219/50 25/222/50 23/220/50

vt 4.36638 6.38406
f 62/223/50 25/222/50 63/219/50

vt 4.32667 6.38406
f 25/222/50 62/223/50 27/224/50

vt 4.38704 6.8426
f 62/223/50 29/225/50 27/224/50

vt 4.4254 6.83232
f 29/225/50 62/223/50 64/226/50

vt 4.56403 7.26989
f 29/225/50 64/226/50 31/227/50

vt 4.59842 7.25003
f 31/227/50 64/226/50 65/228/50

vt 4.84558 7.63681
f 31/227/50 65/228/50 33/229/50

vt 4.87366 7.60873
f 33/229/50 65/228/50 66/230/50

vt 5.2125 7.91836
f 33/229/50 66/230/50 35/231/50

vt 5.23235 7.88397
f 35/231/50 66/230/50 67/232/50

vt 5.63979 8.09535
f 35/231/50 67/232/50 37/233/50

vt 5.65006 8.05699
f 37/233/50 67/232/50 68/234/50

vt 6.09832 8.15571
f 37/233/50 68/234/50 39/235/50

vt 6.09832 8.116
f 39/235/50 68/234/50 69/236/50

vt 6.54658 8.05699
f 39/235/50 69/236/50 70/237/50

vt 6.55686 8.09535
f 39/235/50 70/237/50 41/238/50

vt 6.9643 7.88397
f 41/238/50 70/237/50 71/239/50

vt 6.98415 7.91836
f 41/238/50 71/239/50 43/240/50

vt 7.32299 7.60873
f 43/240/50 71/239/50 72/241/50

vt 7.35107 7.63681
f 43/240/50 72/241/50 45/242/50

vt 7.59823 7.25003
f 45/242/50 72/241/50 73/243/50

vt 7.63262 7.26989
f 45/242/50 73/243/50 47/244/50

vt 7.77125 6.83232
f 47/244/50 73/243/50 74/245/50

vt 7.80961 6.8426
f 47/244/50 74/245/50 4/246/50

vt 7.83027 6.38406
f 4/246/50 74/245/50 76/247/50

vt 7.86998 6.38406
f 4/246/50 76/247/50 1/248/50

vt 7.80961 5.92552
f 76/247/50 5/249/50 1/248/50

vt 7.77125 5.9358
f 78/250/50 5/249/50 76/247/50

vt 7.63262 5.49823
f 78/250/50 7/251/50 5/249/50

vt 7.59823 5.51809
f 80/252/50 7/251/50 78/250/50

vt 7.35107 5.13131
f 80/252/50 9/253/50 7/251/50

vt 7.32299 5.15939
f 82/254/50 9/253/50 80/252/50

vt 6.98415 4.84976
f 82/254/50 11/255/50 9/253/50

vt 6.9643 4.88415
f 84/256/50 11/255/50 82/254/50

vt 6.55686 4.67277
f 84/256/50 13/257/50 11/255/50

vt 6.54658 4.71113
f 86/258/50 13/257/50 84/256/50

vt 6.09832 4.61241
f 86/258/50 15/259/50 13/257/50

vt 6.09832 4.65212
f 88/260/50 15/259/50 86/258/50

vt 5.65006 4.71113
f 90/261/50 15/259/50 88/260/50

vt 5.63979 4.67277
f 90/261/50 17/262/50 15/259/50

vt 5.23235 4.88415
f 92/263/50 17/262/50 90/261/50

vt 5.2125 4.84976
f 92/263/50 19/264/50 17/262/50

vt 4.87366 5.15939
f 94/265/50 19/264/50 92/263/50

vt 4.84558 5.13131
f 94/265/50 21/266/50 19/264/50

f 96/221/50 21/266/50 94/265/50

f 96/221/50 23/220/50 21/266/50

vt -3.88212 5.10453
vt -3.91651 5.12439
f 24/267/25 61/122/25 95/268/25

f 26/121/25 61/122/25 24/267/25

vt -4.2888 4.57453
f 24/267/25 95/268/25 22/269/25

vt -4.31688 4.60261
f 22/269/25 95/268/25 93/270/25

vt -4.8188 4.16785
f 22/269/25 93/270/25 20/271/25

vt -4.83865 4.20224
f 20/271/25 93/270/25 91/272/25

vt -5.43599 3.9122
f 20/271/25 91/272/25 18/273/25

vt -5.44627 3.95056
f 18/273/25 91/272/25 89/274/25

vt -6.09832 3.825
f 18/273/25 89/274/25 16/275/25

vt -6.09832 3.86471
f 16/275/25 89/274/25 87/276/25

vt -6.75038 3.95056
f 16/275/25 87/276/25 85/277/25

vt -6.76066 3.9122
f 16/275/25 85/277/25 14/278/25

vt -7.358 4.20224
f 14/278/25 85/277/25 83/279/25

vt -7.37785 4.16785
f 14/278/25 83/279/25 12/280/25

vt -7.87977 4.60261
f 12/280/25 83/279/25 81/281/25

vt -7.90785 4.57453
f 12/280/25 81/281/25 10/282/25

vt -8.28014 5.12439
f 10/282/25 81/281/25 79/283/25

vt -8.31453 5.10453
f 10/282/25 79/283/25 8/284/25

vt -8.53183 5.732
f 8/284/25 79/283/25 77/285/25

vt -8.57018 5.72173
f 8/284/25 77/285/25 6/286/25

vt -8.61767 6.38406
f 6/286/25 77/285/25 75/287/25

vt -8.65738 6.38406
f 6/286/25 75/287/25 2/288/25

f 75/287/25 3/99/25 2/288/25

f 49/97/25 3/99/25 75/287/25

