# Alias OBJ Model File
# Exported from SketchUp, (c) 2000-2012 Trimble Navigation Limited
# File units = millimeters

mtllib window_V2.mtl

g Mesh1 OuterShell Model

usemtl FrontColor
v 100.701 0 -136.43
vt 0.431674 -0.182836
vn 0.803699 0.5547 -0.21535
v 98.7696 3 -135.912
vt 0.441952 -0.0412577
v 99.2192 3 -134.827
vt 0.395703 -0.0412577
vn 0.720577 0.5547 -0.416025
v 100.951 0 -135.827
vt 0.40598 -0.182836
f 1/1/1 2/2/1 3/3/2 4/4/2 

v 100.616 0 -137.077
vt 0.52848 -0.115
vn 0.83205 0.5547 4.57216e-015
v 98.6163 3 -137.077
vt 0.538757 0.0265779
vt 0.492508 0.0265779
vt 0.502786 -0.115
f 5/5/3 6/6/3 2/7/1 1/8/1 

v 100.701 0 -137.724
vt 0.590146 -0.0356607
vn 0.803699 0.5547 0.21535
v 98.7696 3 -138.241
vt 0.600423 0.105918
vt 0.554174 0.105918
vt 0.564452 -0.0356607
f 7/9/4 8/10/4 6/11/3 5/12/3 

v 100.951 0 -138.327
vt 0.61247 0.049776
vn 0.720577 0.5547 0.416025
v 99.2192 3 -139.327
vt 0.622747 0.191354
vt 0.576498 0.191354
vt 0.586776 0.049776
f 9/13/5 10/14/5 8/15/4 7/16/4 

v 101.349 0 -138.844
vt 0.59393 0.135488
vn 0.588348 0.5547 0.588348
v 99.9343 3 -140.259
vt 0.604208 0.277066
vt 0.557959 0.277066
vt 0.568236 0.135488
f 11/17/6 12/18/6 10/19/5 9/20/5 

v 101.866 0 -139.242
vt 0.535791 0.215633
vn 0.416025 0.5547 0.720577
v 100.866 3 -140.974
vt 0.546069 0.357211
vt 0.499819 0.357211
vt 0.510097 0.215633
f 13/21/7 14/22/7 12/23/6 11/24/6 

v 102.469 0 -139.491
vt 0.442014 0.28475
vn 0.21535 0.5547 0.803699
v 101.952 3 -141.423
vt 0.452292 0.426328
vt 0.406042 0.426328
vt 0.41632 0.28475
f 15/25/8 16/26/8 14/27/7 13/28/7 

v 103.116 0 -139.577
vt 0.31899 0.338128
vn -5.72393e-015 0.5547 0.83205
v 103.116 3 -141.577
vt 0.329268 0.479707
vt 0.283018 0.479707
vt 0.293296 0.338128
f 17/29/9 18/30/9 16/31/8 15/32/8 

v 103.763 0 -139.491
vt 0.175103 0.372131
vn -0.21535 0.5547 0.803699
v 104.281 3 -141.423
vt 0.185381 0.513709
vt 0.139131 0.513709
vt 0.149409 0.372131
f 19/33/10 20/34/10 18/35/9 17/36/9 

v 104.366 0 -139.242
vt 0.0201584 0.384441
vn -0.416025 0.5547 0.720577
v 105.366 3 -140.974
vt 0.0304361 0.526019
vt -0.0158133 0.526019
vt -0.00553568 0.384441
f 21/37/11 22/38/11 20/39/10 19/40/10 

v 104.884 0 -138.844
vt -0.135284 0.374218
vn -0.588348 0.5547 0.588348
v 106.298 3 -140.259
vt -0.125007 0.515796
vt -0.171256 0.515796
vt -0.160979 0.374218
f 23/41/12 24/42/12 22/43/11 21/44/11 

v 105.281 0 -138.327
vt -0.280632 0.34216
vn -0.720577 0.5547 0.416025
v 107.013 3 -139.327
vt -0.270355 0.483738
vt -0.316604 0.483738
vt -0.306327 0.34216
f 25/45/13 26/46/13 24/47/12 23/48/12 

v 105.531 0 -137.724
vt -0.40598 0.290451
vn -0.803699 0.5547 0.21535
v 107.463 3 -138.241
vt -0.395703 0.432029
vt -0.441952 0.432029
vt -0.431674 0.290451
f 27/49/14 28/50/14 26/51/13 25/52/13 

v 105.616 0 -137.077
vt -0.502786 0.222615
vn -0.83205 0.5547 6.49177e-015
v 107.616 3 -137.077
vt -0.492508 0.364194
vt -0.538757 0.364194
vt -0.52848 0.222615
f 29/53/15 30/54/15 28/55/14 27/56/14 

v 105.531 0 -136.43
vt -0.564452 0.143276
vn -0.803699 0.5547 -0.21535
v 107.463 3 -135.912
vt -0.554174 0.284854
vt -0.600423 0.284854
vt -0.590146 0.143276
f 31/57/16 32/58/16 30/59/15 29/60/15 

v 105.281 0 -135.827
vt -0.586776 0.057839
vn -0.720577 0.5547 -0.416025
v 107.013 3 -134.827
vt -0.576498 0.199417
vt -0.622747 0.199417
vt -0.61247 0.057839
f 33/61/17 34/62/17 32/63/16 31/64/16 

v 104.884 0 -135.309
vt -0.568236 -0.0278724
vn -0.588348 0.5547 -0.588348
v 106.298 3 -133.895
vt -0.557959 0.113706
vt -0.604208 0.113706
vt -0.59393 -0.0278724
f 35/65/18 36/66/18 34/67/17 33/68/17 

v 104.366 0 -134.912
vt -0.510097 -0.108018
vn -0.416025 0.5547 -0.720577
v 105.366 3 -133.18
vt -0.499819 0.0335607
vt -0.546069 0.0335607
vt -0.535791 -0.108018
f 37/69/19 38/70/19 36/71/18 35/72/18 

v 103.763 0 -134.662
vt -0.41632 -0.177135
vn -0.21535 0.5547 -0.803699
v 104.281 3 -132.73
vt -0.406042 -0.0355563
vt -0.452292 -0.0355563
vt -0.442014 -0.177135
f 39/73/20 40/74/20 38/75/19 37/76/19 

v 103.116 0 -134.577
vt -0.293296 -0.230513
vn -1.20272e-014 0.5547 -0.83205
v 103.116 3 -132.577
vt -0.283018 -0.088935
vt -0.329268 -0.088935
vt -0.31899 -0.230513
f 41/77/21 42/78/21 40/79/20 39/80/20 

v 102.469 0 -134.662
vt -0.149409 -0.264516
vn 0.21535 0.5547 -0.803699
v 101.952 3 -132.73
vt -0.139131 -0.122938
vt -0.185381 -0.122938
vt -0.175103 -0.264516
f 43/81/22 44/82/22 42/83/21 41/84/21 

v 101.866 0 -134.912
vt 0.00553568 -0.276825
vn 0.416025 0.5547 -0.720577
v 100.866 3 -133.18
vt 0.0158133 -0.135247
vt -0.0304361 -0.135247
vt -0.0201584 -0.276825
f 45/85/23 46/86/23 44/87/22 43/88/22 

v 101.349 0 -135.309
vt 0.160979 -0.266603
vn 0.588348 0.5547 -0.588348
v 99.9343 3 -133.895
vt 0.171256 -0.125025
vt 0.125007 -0.125025
vt 0.135284 -0.266603
f 47/89/24 48/90/24 46/91/23 45/92/23 

vt 0.306327 -0.234545
vt 0.316604 -0.0929665
vt 0.270355 -0.0929665
vt 0.280632 -0.234545
f 4/93/2 3/94/2 48/95/24 47/96/24 

v 106.875 3 -124.64
vt 0.384201 0.0615379
vn -1.00894e-017 1 9.01925e-018
v 107.616 3 -124.35
vt 0.413386 0.0501497
vt 0.413386 0.551181
vt 0.407349 0.505327
vt 0.38965 0.462598
vt 0.361495 0.425906
vt 0.324803 0.397751
vt 0.282074 0.380053
vt 0.23622 0.374016
vt 0.190367 0.380053
vt 0.147638 0.397751
vt 0.110946 0.425906
vt 0.0827908 0.462598
vt 0.0650919 0.505327
vt 0.0590551 0.551181
vt 0.0650919 0.597035
vt 0.0827908 0.639764
vt 0.110946 0.676456
vt 0.147638 0.704611
vt 0.190367 0.72231
vt 0.23622 0.728346
vt 0.282074 0.72231
vt 0.324803 0.704611
vt 0.361495 0.676456
vt 0.38965 0.639764
vt 0.407349 0.597035
v 107.616 3 -137.077
v 107.616 3 -142.037
vt 0.413386 0.746454
v 107.163 3 -142.026
vt 0.395558 0.746056
v 106.63 3 -142.106
vt 0.37454 0.749185
v 106.116 3 -142.273
vt 0.354331 0.755754
v 104.669 3 -142.872
vt 0.297359 0.779353
v 103.116 3 -143.077
vt 0.23622 0.787402
v 101.563 3 -142.872
vt 0.175082 0.779353
v 100.116 3 -142.273
vt 0.11811 0.755754
v 98.8736 3 -141.319
vt 0.0691874 0.718214
v 97.9201 3 -140.077
vt 0.0316475 0.669291
v 97.3207 3 -138.63
vt 0.00804902 0.612319
v 97.1163 3 -137.077
vt 1.19167e-018 0.551181
v 97.3207 3 -135.524
vt 0.00804902 0.490043
v 97.9575 3 -133.771
vt 0.0331175 0.421023
v 98.7766 3 -132.095
vt 0.0653673 0.355052
v 99.7689 3 -130.516
vt 0.104434 0.292875
v 100.923 3 -129.051
vt 0.149878 0.235193
v 102.226 3 -127.716
vt 0.201184 0.182659
v 103.664 3 -126.528
vt 0.257775 0.135865
v 105.219 3 -125.498
vt 0.319011 0.0953385
f 49/97/25 50/98/25 30/99/25 32/100/25 34/101/25 36/102/25 38/103/25 40/104/25 42/105/25 44/106/25 46/107/25 48/108/25 3/109/25 2/110/25 6/111/25 8/112/25 10/113/25 12/114/25 14/115/25 16/116/25 18/117/25 20/118/25 22/119/25 24/120/25 26/121/25 28/122/25 51/99/25 52/123/25 53/124/25 54/125/25 55/126/25 56/127/25 57/128/25 58/129/25 59/130/25 60/131/25 61/132/25 62/133/25 63/134/25 64/135/25 65/136/25 66/137/25 67/138/25 68/139/25 69/140/25 70/141/25 71/142/25 

v 106.875 0 -124.64
vt 0.335547 0
vn -0.412489 0 0.910963
v 108.613 0 -123.962
vt 0.408979 0
vn -0.313511 0 0.949584
v 108.613 3 -123.962
vt 0.408979 0.11811
vt 0.366876 0.11811
vn -0.363513 0 0.931589
vt 0.335547 0.11811
f 72/143/26 73/144/27 74/145/27 50/146/28 49/147/26 

vt -0.384201 0.0615379
vn 0 -1 -0
v 107.163 0 -142.026
vt -0.395558 0.746056
vt -0.452609 0.0348445
f 72/148/29 75/149/29 73/150/29

v 106.63 0 -142.106
vt -0.37454 0.749185
f 72/148/29 76/151/29 75/149/29

v 106.116 0 -142.273
vt -0.354331 0.755754
f 72/148/29 77/152/29 76/151/29

vt -0.334646 0.551181
f 72/148/29 29/153/29 77/152/29

vt -0.331292 0.525707
f 72/148/29 31/154/29 29/153/29

vt -0.321459 0.501969
f 72/148/29 33/155/29 31/154/29

v 105.219 0 -125.498
vt -0.319011 0.0953385
f 78/156/29 33/155/29 72/148/29

vt -0.305818 0.481584
f 78/156/29 35/157/29 33/155/29

vt -0.285433 0.465942
f 78/156/29 37/158/29 35/157/29

vt -0.261695 0.45611
f 78/156/29 39/159/29 37/158/29

v 103.664 0 -126.528
vt -0.257775 0.135865
f 79/160/29 39/159/29 78/156/29

vt -0.23622 0.452756
f 79/160/29 41/161/29 39/159/29

vt -0.210746 0.45611
f 79/160/29 43/162/29 41/161/29

v 102.226 0 -127.716
vt -0.201184 0.182659
f 80/163/29 43/162/29 79/160/29

vt -0.187008 0.465942
f 80/163/29 45/164/29 43/162/29

vt -0.166623 0.481584
f 80/163/29 47/165/29 45/164/29

vt -0.150982 0.501969
f 80/163/29 4/166/29 47/165/29

v 100.923 0 -129.051
vt -0.149878 0.235193
f 81/167/29 4/166/29 80/163/29

vt -0.141149 0.525707
f 81/167/29 1/168/29 4/166/29

vt -0.137795 0.551181
f 81/167/29 5/169/29 1/168/29

v 100.116 0 -142.273
vt -0.11811 0.755754
f 81/167/29 82/170/29 5/169/29

v 99.7689 0 -130.516
vt -0.104434 0.292875
f 83/171/29 82/170/29 81/167/29

v 98.8736 0 -141.319
vt -0.0691874 0.718214
f 83/171/29 84/172/29 82/170/29

v 98.7766 0 -132.095
vt -0.0653673 0.355052
f 85/173/29 84/172/29 83/171/29

v 97.9575 0 -133.771
vt -0.0331175 0.421023
f 86/174/29 84/172/29 85/173/29

v 97.9201 0 -140.077
vt -0.0316475 0.669291
f 86/174/29 87/175/29 84/172/29

v 97.3207 0 -135.524
vt -0.00804902 0.490043
f 88/176/29 87/175/29 86/174/29

v 97.3207 0 -138.63
vt -0.00804902 0.612319
f 88/176/29 89/177/29 87/175/29

v 97.1163 0 -137.077
vt 0 0.551181
f 89/177/29 88/176/29 90/178/29

vt -0.546466 0
vn -1 0 -0
vt -0.4848 0
vn -0.991445 0 0.130526
vt -0.4848 0.11811
vt -0.546466 0.11811
f 90/179/30 88/180/31 64/181/31 63/182/30 

vt -0.457855 0
vn -0.939923 0 0.341386
vt -0.384423 0
vn -0.920461 0 0.390835
vt -0.384423 0.11811
vt -0.457855 0.11811
f 88/183/32 86/184/33 65/185/33 64/186/32 

vt -0.363702 0
vt -0.29027 0
vn -0.873799 0 0.486286
vt -0.29027 0.11811
vt -0.363702 0.11811
f 86/187/33 85/188/34 66/189/34 65/190/33 

vt -0.265857 0
vt -0.192425 0
vn -0.817275 0 0.576249
vt -0.192425 0.11811
vt -0.265857 0.11811
f 85/191/34 83/192/35 67/193/35 66/194/34 

vt -0.165426 0
vt -0.0919945 0
vn -0.751524 0 0.659706
vt -0.0919945 0.11811
vt -0.165426 0.11811
f 83/195/35 81/196/36 68/197/36 67/198/35 

vt -0.0635423 0
vt 0.00988941 0
vn -0.67729 0 0.735716
vt 0.00988941 0.11811
vt -0.0635423 0.11811
f 81/199/36 80/200/37 69/201/37 68/202/36 

vt 0.0386444 0
vt 0.112076 0
vn -0.595411 0 0.803421
vt 0.112076 0.11811
vt 0.0386444 0.11811
f 80/203/37 79/204/38 70/205/38 69/206/37 

vt 0.13998 0
vt 0.213412 0
vn -0.50681 0 0.862058
vt 0.213412 0.11811
vt 0.13998 0.11811
f 79/207/38 78/208/39 71/209/39 70/210/38 

vt 0.239322 0
vt 0.312754 0
vt 0.312754 0.11811
vt 0.239322 0.11811
f 78/211/39 72/212/26 49/213/26 71/214/39 

vt -0.608132 0
vn -0.965926 0 -0.258819
vt -0.608132 0.11811
f 89/215/40 90/179/30 63/182/30 62/216/40 

vt -0.630456 0
vn -0.866025 0 -0.5
vt -0.56879 0
vt -0.56879 0.11811
vt -0.630456 0.11811
f 87/217/41 89/218/40 62/219/40 61/220/41 

vt -0.611916 0
vn -0.707107 0 -0.707107
vt -0.55025 0
vt -0.55025 0.11811
vt -0.611916 0.11811
f 84/221/42 87/222/41 61/223/41 60/224/42 

vt -0.553777 0
vn -0.5 0 -0.866025
vt -0.492111 0
vt -0.492111 0.11811
vt -0.553777 0.11811
f 82/225/43 84/226/42 60/227/42 59/228/43 

v 101.563 0 -142.872
vt -0.46 0
vn -0.258819 0 -0.965926
vt -0.398334 0
vt -0.398334 0.11811
vt -0.46 0.11811
f 91/229/44 82/230/43 59/231/43 58/232/44 

vt -0.141149 0.576655
vt -0.175082 0.779353
f 7/233/29 82/170/29 91/234/29

f 82/170/29 7/233/29 5/169/29

vt -0.150982 0.600394
f 7/233/29 91/234/29 9/235/29

vt -0.166623 0.620778
f 9/235/29 91/234/29 11/236/29

vt -0.187008 0.63642
f 11/236/29 91/234/29 13/237/29

v 103.116 0 -143.077
vt -0.23622 0.787402
f 13/237/29 91/234/29 92/238/29

vt -0.336976 0
vn 6.66283e-015 0 -1
vt -0.27531 0
vt -0.27531 0.11811
vt -0.336976 0.11811
f 92/239/45 91/240/44 58/241/44 57/242/45 

v 104.669 0 -142.872
vt -0.193089 0
vn 0.258819 0 -0.965926
vt -0.131423 0
vt -0.131423 0.11811
vt -0.193089 0.11811
f 93/243/46 92/244/45 57/245/45 56/246/46 

vt -0.23622 0.649606
vt -0.297359 0.779353
f 17/247/29 92/238/29 93/248/29

vt -0.210746 0.646253
f 15/249/29 92/238/29 17/247/29

f 13/237/29 92/238/29 15/249/29

vt -0.261695 0.646253
f 17/247/29 93/248/29 19/250/29

vt -0.285433 0.63642
f 19/250/29 93/248/29 21/251/29

vt -0.305818 0.620778
f 21/251/29 93/248/29 23/252/29

f 23/252/29 93/248/29 77/152/29

vt -0.0381443 0
vn 0.382683 0 -0.92388
vt 0.0235216 0
vt 0.0235216 0.11811
vt -0.0381443 0.11811
f 77/253/47 93/254/46 56/255/46 55/256/47 

vt -0.124587 0
vn 0.228982 0 -0.973431
vt -0.103337 0
vn 0.309144 0 -0.951015
vt -0.103337 0.11811
vt -0.124587 0.11811
f 76/257/48 77/258/49 55/259/49 54/260/48 

vt -0.281403 0
vn 0.0644653 0 -0.99792
vt -0.260153 0
vt -0.260153 0.11811
vt -0.281403 0.11811
f 75/261/50 76/262/48 54/263/48 53/264/50 

v 107.703 0 -142.037
vt -0.430727 0
vn -0.101835 0 -0.994801
vt -0.409477 0
vt -0.409477 0.11811
vt -0.427309 0.11811
vn -0.0187497 0 -0.999824
v 107.703 3 -142.037
vt -0.430727 0.11811
f 94/265/51 75/266/50 53/267/50 52/268/52 95/269/51 

vt -0.416805 0.746454
f 73/150/29 75/149/29 94/270/29

v 108.234 0 -142.136
vt -0.437691 0.750369
f 73/150/29 94/270/29 96/271/29

vt -0.568429 0
vn -0.265318 0 -0.964161
vt -0.547179 0
vt -0.547179 0.11811
v 108.234 3 -142.136
vt -0.568429 0.11811
f 96/272/53 94/273/51 95/274/51 97/275/53 

vt -0.547179 0.382884
vn -0.167208 -0.419666 -0.892145
v 109.683 10 -145.7
vt -0.650349 0.686505
vt -0.568429 0.382884
f 95/276/54 98/277/54 97/278/54

vt -0.494736 0.761848
vn 0 -0.463723 -0.88598
vt -0.416805 0.450791
vt -0.413386 0.450791
f 98/279/55 95/280/55 52/281/55

f 98/279/55 95/280/55 52/281/55

vn -1.62308e-013 -0.463723 -0.88598
f 52/281/56 98/279/56 95/280/56

f 98/279/55 95/280/55 52/281/55

f 98/279/55 95/280/55 52/281/55

vt -0.0501497 0.230311
vn -0.959088 0.283108 -0
v 109.683 10 -139.478
vt -0.645733 0.517657
vt -0.890699 0.517657
vt -0.746454 0.230311
vt -0.551181 0.230311
f 50/282/57 99/283/57 98/284/57 52/285/57 30/286/57 

vt -0.105633 0.11811
vn -0.9908 0 -0.135332
v 109.683 16 -139.478
vt -0.706746 0.629921
vt -0.706746 0.393701
f 50/287/58 100/288/58 99/289/58

vt 0.332928 0.264052
vn -0.338479 0.736021 0.586263
v 111.616 16 -138.362
vt 0.193495 1.0201
vt 0.105587 1.0201
f 50/290/59 101/291/59 100/292/59

vt 0.408979 0.225527
vn -0.242597 0.744728 0.621713
vt 0.313058 0.992436
vt 0.366876 0.225527
f 74/293/60 101/294/60 50/295/60

v 110.412 3 -123.472
vt 0.501002 0.192464
vn -0.174088 0.748725 0.639612
vt 0.392786 0.964565
vt 0.427571 0.192464
f 102/296/61 101/297/61 74/298/61

vt 0.468081 0.93013
vn -0.104411 0.753347 0.649282
vt 0.514353 0.151856
v 112.254 3 -123.176
vt 0.587785 0.151856
f 101/299/62 102/300/62 103/301/62

v 110.412 0 -123.472
vt 0.514353 0
vn -0.210995 0 0.977487
v 112.254 0 -123.176
vt 0.587785 0
vn -0.106096 0 0.994356
vt 0.587785 0.11811
vt 0.514353 0.11811
f 104/302/63 105/303/64 103/304/64 102/305/63 

vt -0.523463 0.0155596
v 110.47 0 -144.296
vt -0.525728 0.835412
vt -0.595963 0.00390092
f 104/306/29 106/307/29 105/308/29

v 110.266 0 -143.796
vt -0.51772 0.815728
f 104/306/29 107/309/29 106/307/29

v 109.983 0 -143.337
vt -0.50656 0.797645
f 104/306/29 108/310/29 107/309/29

v 109.627 0 -142.931
vt -0.492557 0.781661
f 104/306/29 109/311/29 108/310/29

v 109.209 0 -142.589
vt -0.476099 0.768219
f 104/306/29 110/312/29 109/311/29

v 108.74 0 -142.322
vt -0.45764 0.757691
f 104/306/29 111/313/29 110/312/29

f 73/150/29 111/313/29 104/306/29

f 73/150/29 96/271/29 111/313/29

vt -0.6907 0
vn -0.421461 0 -0.906847
vt -0.669449 0
vt -0.669449 0.11811
v 108.74 3 -142.322
vt -0.6907 0.11811
f 111/314/65 96/315/53 97/316/53 112/317/65 

vt -0.669449 0.31796
vn -0.319196 -0.376723 -0.869594
vt -0.771356 0.615469
vt -0.6907 0.31796
f 97/318/66 98/319/66 112/320/66

vt -0.772905 0.254844
vn -0.467232 -0.332491 -0.819234
vt -0.871023 0.547059
v 109.209 3 -142.589
vt -0.794155 0.254844
f 112/321/67 98/322/67 113/323/67

vt -0.854684 0.197892
vn -0.60563 -0.288613 -0.741562
vt -0.946593 0.485732
v 109.627 3 -142.931
vt -0.875934 0.197892
f 113/324/68 98/325/68 114/326/68

vt -0.912523 0.150152
vn -0.728893 -0.246886 -0.638562
vt -0.995975 0.434546
v 109.983 3 -143.337
vt -0.933773 0.150152
f 114/327/69 98/328/69 115/329/69

vt -0.944824 0.112951
vn -0.832184 -0.209111 -0.513559
vt -1.0178 0.394773
v 110.266 3 -143.796
vt -0.966074 0.112951
f 115/330/70 98/331/70 116/332/70

vt -0.950691 0.0857891
vn -0.911661 -0.176932 -0.370904
vt -1.01147 0.365797
v 110.47 3 -144.296
vt -0.971941 0.0857891
f 116/333/71 98/334/71 117/335/71

vt -0.929963 0.0665413
vn -0.964627 -0.151728 -0.215578
vt -0.977159 0.34536
v 110.587 3 -144.823
vt -0.951213 0.0665413
f 117/336/72 98/337/72 118/338/72

vt -0.883213 0.0519241
vn -0.989498 -0.134542 -0.0528387
vt -0.915813 0.330043
v 110.616 3 -145.362
vt -0.904463 0.0519241
f 118/339/73 98/340/73 119/341/73

v 110.785 10 -145.552
vt -0.415711 0.422153
vn 0.132911 -0.0301838 -0.990668
vt -0.410111 0.146437
vt -0.371905 0.422153
f 120/342/74 119/343/74 98/344/74

vt -0.445633 0.145213
vn 0.0950767 -0.0293889 -0.995036
vt -0.451545 0.420923
v 111.616 10 -145.473
vt -0.484408 0.420923
f 119/345/75 120/346/75 121/347/75

v 111.893 10 -145.447
vt -0.495351 0.393701
vn 0.0951178 -8.70943e-019 -0.995466
vt -0.484408 0.393701
vt -0.451545 0.393701
v 110.785 16 -145.552
vt -0.451545 0.629921
v 111.893 16 -145.447
vt -0.495351 0.629921
f 122/348/76 121/349/76 120/350/76 123/351/76 124/352/76 

vt -0.495351 0.420923
f 122/353/75 119/345/75 121/347/75

v 114.116 10 -145.362
vt -0.635382 0.410812
vn 0.0380886 -0.0190443 -0.999093
vt -0.497686 0.135171
vt -0.547786 0.410812
f 125/354/77 119/355/77 122/356/77

v 110.616 0 -145.362
vt -0.531496 2.01488e-015
vn 0 -2.2965e-015 -1
vt -0.531496 0.11811
vt -0.669291 0.393701
v 117.616 3 -145.362
vt -0.807087 0.11811
v 117.616 0 -145.362
vt -0.807087 2.01488e-015
f 126/357/78 119/358/78 125/359/78 127/360/78 128/361/78 

vt -0.904463 3.0311e-019
vn -0.998577 6.26319e-019 -0.0533236
v 110.587 0 -144.823
vt -0.883213 3.0311e-019
vn -0.990683 3.14248e-019 -0.136185
vt -0.883213 0.11811
vt -0.904463 0.11811
f 126/362/79 129/363/80 118/364/80 119/365/79 

vt -0.530363 0.85615
vt -0.531496 0.87737
f 105/308/29 129/366/29 126/367/29

f 105/308/29 106/307/29 129/366/29

vt -0.951213 0
vt -0.929963 0
vn -0.954406 0 -0.298511
vt -0.929963 0.11811
vt -0.951213 0.11811
f 129/368/80 106/369/81 117/370/81 118/371/80 

vt -0.971941 0
vt -0.950691 0
vn -0.891725 0 -0.452577
vt -0.950691 0.11811
vt -0.971941 0.11811
f 106/372/81 107/373/82 116/374/82 117/375/81 

vt -0.966074 0
vt -0.944824 0
vn -0.804374 0 -0.594123
vt -0.944824 0.11811
vt -0.966074 0.11811
f 107/376/82 108/377/83 115/378/83 116/379/82 

vt -0.933773 0
vt -0.912523 0
vn -0.694769 0 -0.719233
vt -0.912523 0.11811
vt -0.933773 0.11811
f 108/380/83 109/381/84 114/382/84 115/383/83 

vt -0.875934 0
vt -0.854684 0
vn -0.565944 0 -0.824444
vt -0.854684 0.11811
vt -0.875934 0.11811
f 109/384/84 110/385/85 113/386/85 114/387/84 

vt -0.794155 0
vt -0.772905 0
vt -0.772905 0.11811
vt -0.794155 0.11811
f 110/388/85 111/389/65 112/390/65 113/391/85 

vt -0.807087 0.87737
f 105/308/29 126/367/29 128/392/29

v 114.116 0 -123.077
vt -0.669291 0
f 105/308/29 128/392/29 130/393/29

v 115.979 0 -123.176
vt -0.742619 0.00390092
f 130/393/29 128/392/29 131/394/29

v 117.82 0 -123.472
vt -0.81512 0.0155596
f 131/394/29 128/392/29 132/395/29

v 117.645 0 -144.823
vt -0.80822 0.85615
f 132/395/29 128/392/29 133/396/29

vt 0.811835 1.72717e-019
vn 0.990683 -1.01626e-019 -0.136185
vt 0.833085 1.72717e-019
vn 0.998577 -2.02547e-019 -0.0533236
vt 0.833085 0.11811
v 117.645 3 -144.823
vt 0.811835 0.11811
f 133/397/86 128/398/87 127/399/87 134/400/86 

v 118.55 10 -145.7
vt 0.844435 0.509883
vn 0.989498 -0.134542 -0.0528387
vt 0.811835 0.231763
vt 0.833085 0.231763
f 135/401/88 134/402/88 127/403/88

vt 0.68521 0.543571
vn 0.964627 -0.151728 -0.215578
v 117.763 3 -144.296
vt 0.638013 0.264752
vt 0.659263 0.264752
f 135/404/89 136/405/89 134/406/89

vt 0.467497 0.305166
vn 0.911661 -0.176932 -0.370904
vt 0.507028 0.585174
v 117.966 3 -143.796
vt 0.446247 0.305166
f 136/407/90 135/408/90 137/409/90

vt 0.31482 0.632977
vn 0.832184 -0.209111 -0.513559
v 118.25 3 -143.337
vt 0.241841 0.351156
vt 0.263091 0.351156
f 135/410/91 138/411/91 137/412/91

vt 0.113901 0.683124
vn 0.728893 -0.246886 -0.638562
v 118.605 3 -142.931
vt 0.03045 0.39873
vt 0.0517001 0.39873
f 135/413/92 139/414/92 138/415/92

vt -0.090168 0.730105
vn 0.60563 -0.288613 -0.741562
v 119.023 3 -142.589
vt -0.182077 0.442266
vt -0.160827 0.442266
f 135/416/93 140/417/93 139/418/93

vt -0.291743 0.767554
vn 0.467232 -0.332491 -0.819234
v 119.492 3 -142.322
vt -0.389861 0.475338
vt -0.368611 0.475338
f 135/419/94 141/420/94 140/421/94

vt -0.485247 0.789234
vn 0.319196 -0.376723 -0.869594
v 119.999 3 -142.136
vt -0.587153 0.491724
vt -0.565903 0.491724
f 135/422/95 142/423/95 141/424/95

vt -0.665326 0.789989
vn 0.167208 -0.419666 -0.892145
v 120.529 3 -142.037
vt -0.768495 0.486368
vt -0.747245 0.486368
f 135/425/96 143/426/96 142/427/96

vt -0.843847 0.761848
vn 1.62308e-013 -0.463723 -0.88598
v 120.616 3 -142.037
vt -0.925197 0.450791
vt -0.921778 0.450791
f 135/428/97 144/429/97 143/430/97

vt 0.746454 -0.148652
vn 0.959088 0.283108 -0
vt 0.890699 0.138694
v 118.55 10 -139.478
vt 0.645733 0.138694
v 120.616 3 -124.35
vt 0.0501497 -0.148652
v 120.616 3 -137.077
vt 0.551181 -0.148652
f 144/431/98 135/432/98 145/433/98 146/434/98 147/435/98 

v 126.001 10 -143.78
vt -1.1372 0.815098
vt -0.843847 0.645733
vt -0.843847 0.890699
v 119.646 10 -145.89
vt -0.88701 0.898173
v 120.735 10 -146.122
vt -0.929857 0.907287
v 121.813 10 -146.394
vt -0.972326 0.918026
v 122.881 10 -146.708
vt -1.01436 0.930375
v 123.936 10 -147.062
vt -1.05588 0.944317
v 124.976 10 -147.456
vt -1.09685 0.95983
v 125.209 10 -147.555
vt -1.10601 0.963704
v 125.833 10 -147.651
vt -1.13059 0.967513
v 125.939 10 -147.637
vt -1.13474 0.966955
v 126.042 10 -147.615
vt -1.13883 0.966058
v 126.144 10 -147.583
vt -1.14283 0.964829
v 126.243 10 -147.544
vt -1.14671 0.963276
v 126.338 10 -147.496
vt -1.15046 0.96141
v 126.429 10 -147.441
vt -1.15404 0.959242
v 126.515 10 -147.379
vt -1.15743 0.956788
v 126.596 10 -147.31
vt -1.16061 0.954064
v 126.671 10 -147.234
vt -1.16356 0.951088
v 126.739 10 -147.153
vt -1.16625 0.947881
v 126.8 10 -147.066
vt -1.16867 0.944464
v 126.855 10 -146.974
vt -1.1708 0.94086
v 126.901 10 -146.879
vt -1.17262 0.937094
v 127.004 10 -146.468
vt -1.17669 0.920923
v 127.009 10 -146.362
vt -1.17686 0.91674
v 126.979 10 -146.227
vt -1.17571 0.91144
v 126.963 10 -146.107
vt -1.17505 0.906718
v 126.943 10 -145.988
vt -1.17429 0.902013
v 126.921 10 -145.869
vt -1.17342 0.897326
v 126.896 10 -145.75
vt -1.17244 0.892661
v 126.869 10 -145.632
vt -1.17135 0.88802
v 126.838 10 -145.515
vt -1.17015 0.883405
v 126.805 10 -145.399
vt -1.16885 0.878819
v 126.769 10 -145.283
vt -1.16745 0.874264
v 126.731 10 -145.168
vt -1.16594 0.869743
v 126.69 10 -145.054
vt -1.16432 0.865257
v 126.646 10 -144.941
vt -1.1626 0.860811
v 126.6 10 -144.829
vt -1.16078 0.856405
v 126.551 10 -144.719
vt -1.15886 0.852042
v 126.5 10 -144.609
vt -1.15684 0.847725
v 126.446 10 -144.5
vt -1.15472 0.843456
v 126.39 10 -144.393
vt -1.1525 0.839237
v 126.331 10 -144.287
vt -1.15018 0.83507
v 126.27 10 -144.183
vt -1.14777 0.830958
v 126.206 10 -144.08
vt -1.14526 0.826903
v 126.14 10 -143.978
vt -1.14267 0.822906
v 126.072 10 -143.878
vt -1.13998 0.818971
f 148/436/29 145/437/29 135/438/29 149/439/29 150/440/29 151/441/29 152/442/29 153/443/29 154/444/29 155/445/29 156/446/29 157/447/29 158/448/29 159/449/29 160/450/29 161/451/29 162/452/29 163/453/29 164/454/29 165/455/29 166/456/29 167/457/29 168/458/29 169/459/29 170/460/29 171/461/29 172/462/29 173/463/29 174/464/29 175/465/29 176/466/29 177/467/29 178/468/29 179/469/29 180/470/29 181/471/29 182/472/29 183/473/29 184/474/29 185/475/29 186/476/29 187/477/29 188/478/29 189/479/29 190/480/29 191/481/29 192/482/29 193/483/29 

v 126.001 16 -143.78
vt 1.39239 0.629921
vn 0.5 2.69231e-017 0.866025
v 118.55 16 -139.478
vt 1.05366 0.629921
vt 1.05366 0.393701
vt 1.39239 0.393701
f 194/484/99 195/485/99 145/486/99 148/487/99 

vt 0.58176 0.880707
vn 3.24102e-019 1 -1.57412e-017
vt 0.538152 0.884874
v 109.683 16 -145.7
vt 0.494736 0.890699
v 108.586 16 -145.89
vt 0.451573 0.898173
v 107.498 16 -146.122
vt 0.408725 0.907287
v 106.419 16 -146.394
vt 0.366257 0.918026
v 105.352 16 -146.708
vt 0.324228 0.930375
v 104.297 16 -147.062
vt 0.2827 0.944317
v 103.256 16 -147.456
vt 0.241733 0.95983
v 103.024 16 -147.555
vt 0.232573 0.963704
v 102.399 16 -147.651
vt 0.207995 0.967513
v 102.294 16 -147.637
vt 0.203846 0.966955
v 102.19 16 -147.615
vt 0.199757 0.966058
v 102.088 16 -147.583
vt 0.195755 0.964829
v 101.99 16 -147.544
vt 0.191868 0.963276
v 101.895 16 -147.496
vt 0.188121 0.96141
v 101.804 16 -147.441
vt 0.184539 0.959242
v 101.717 16 -147.379
vt 0.181148 0.956788
v 101.637 16 -147.31
vt 0.177969 0.954064
v 101.562 16 -147.234
vt 0.175025 0.951088
v 101.494 16 -147.153
vt 0.172334 0.947881
v 101.432 16 -147.066
vt 0.169916 0.944464
v 101.378 16 -146.974
vt 0.167786 0.94086
v 101.332 16 -146.879
vt 0.165959 0.937094
v 101.293 16 -146.78
vt 0.164447 0.93319
v 101.263 16 -146.678
vt 0.16326 0.929176
v 101.309 16 -145.783
vt 0.165051 0.893951
v 101.334 16 -145.669
vt 0.166042 0.88945
v 101.362 16 -145.555
vt 0.167141 0.884974
v 101.392 16 -145.442
vt 0.168346 0.880525
v 101.426 16 -145.33
vt 0.169657 0.876107
v 101.462 16 -145.218
vt 0.171074 0.871721
v 101.5 16 -145.108
vt 0.172594 0.86737
v 101.541 16 -144.998
vt 0.174218 0.863057
v 101.585 16 -144.89
vt 0.175945 0.858783
v 101.632 16 -144.782
vt 0.177774 0.854553
v 101.681 16 -144.676
vt 0.179702 0.850367
v 101.732 16 -144.571
vt 0.181731 0.846228
v 101.786 16 -144.467
vt 0.183857 0.842139
v 101.843 16 -144.364
vt 0.186081 0.838102
v 101.902 16 -144.263
vt 0.188401 0.83412
v 101.963 16 -144.164
vt 0.190815 0.830193
v 102.027 16 -144.065
vt 0.193322 0.826326
v 102.093 16 -143.969
vt 0.19592 0.82252
v 102.161 16 -143.874
vt 0.198609 0.818776
v 102.232 16 -143.78
vt 0.201387 0.815098
vt 0.494736 0.645733
vt 0.570866 0.601779
v 114.116 16 -138.362
vt 0.669291 0.601779
v 116.616 16 -138.362
vt 0.767717 0.601779
vt 0.843847 0.645733
vt 1.1372 0.815098
v 126.072 16 -143.878
vt 1.13998 0.818971
v 126.14 16 -143.978
vt 1.14267 0.822906
v 126.206 16 -144.08
vt 1.14526 0.826903
v 126.27 16 -144.183
vt 1.14777 0.830958
v 126.331 16 -144.287
vt 1.15018 0.83507
v 126.39 16 -144.393
vt 1.1525 0.839237
v 126.446 16 -144.5
vt 1.15472 0.843456
v 126.5 16 -144.609
vt 1.15684 0.847725
v 126.551 16 -144.719
vt 1.15886 0.852042
v 126.6 16 -144.829
vt 1.16078 0.856405
v 126.646 16 -144.941
vt 1.1626 0.860811
v 126.69 16 -145.054
vt 1.16432 0.865257
v 126.731 16 -145.168
vt 1.16594 0.869743
v 126.769 16 -145.283
vt 1.16745 0.874264
v 126.805 16 -145.399
vt 1.16885 0.878819
v 126.838 16 -145.515
vt 1.17015 0.883405
v 126.869 16 -145.632
vt 1.17135 0.88802
v 126.896 16 -145.75
vt 1.17244 0.892661
v 126.921 16 -145.869
vt 1.17342 0.897326
v 126.943 16 -145.988
vt 1.17429 0.902013
v 126.963 16 -146.107
vt 1.17505 0.906718
v 126.979 16 -146.227
vt 1.17571 0.91144
v 127.009 16 -146.362
vt 1.17686 0.91674
v 127.004 16 -146.468
vt 1.17669 0.920923
v 126.901 16 -146.879
vt 1.17262 0.937094
v 126.855 16 -146.974
vt 1.1708 0.94086
v 126.8 16 -147.066
vt 1.16867 0.944464
v 126.739 16 -147.153
vt 1.16625 0.947881
v 126.671 16 -147.234
vt 1.16356 0.951088
v 126.596 16 -147.31
vt 1.16061 0.954064
v 126.515 16 -147.379
vt 1.15743 0.956788
v 126.429 16 -147.441
vt 1.15404 0.959242
v 126.338 16 -147.496
vt 1.15046 0.96141
v 126.243 16 -147.544
vt 1.14671 0.963276
v 126.144 16 -147.583
vt 1.14283 0.964829
v 126.042 16 -147.615
vt 1.13883 0.966058
v 125.939 16 -147.637
vt 1.13474 0.966955
v 125.833 16 -147.651
vt 1.13059 0.967513
v 125.209 16 -147.555
vt 1.10601 0.963704
v 124.976 16 -147.456
vt 1.09685 0.95983
v 123.936 16 -147.062
vt 1.05588 0.944317
v 122.881 16 -146.708
vt 1.01436 0.930375
v 121.813 16 -146.394
vt 0.972326 0.918026
v 120.735 16 -146.122
vt 0.929857 0.907287
v 119.646 16 -145.89
vt 0.88701 0.898173
v 118.55 16 -145.7
vt 0.843847 0.890699
v 117.447 16 -145.552
vt 0.80043 0.884874
v 116.34 16 -145.447
vt 0.756823 0.880707
v 114.116 16 -145.362
vt 0.669291 0.87737
f 124/488/100 123/489/100 196/490/100 197/491/100 198/492/100 199/493/100 200/494/100 201/495/100 202/496/100 203/497/100 204/498/100 205/499/100 206/500/100 207/501/100 208/502/100 209/503/100 210/504/100 211/505/100 212/506/100 213/507/100 214/508/100 215/509/100 216/510/100 217/511/100 218/512/100 219/513/100 220/514/100 221/515/100 222/516/100 223/517/100 224/518/100 225/519/100 226/520/100 227/521/100 228/522/100 229/523/100 230/524/100 231/525/100 232/526/100 233/527/100 234/528/100 235/529/100 236/530/100 237/531/100 238/532/100 239/533/100 100/534/100 101/535/100 240/536/100 241/537/100 195/538/100 194/539/100 242/540/100 243/541/100 244/542/100 245/543/100 246/544/100 247/545/100 248/546/100 249/547/100 250/548/100 251/549/100 252/550/100 253/551/100 254/552/100 255/553/100 256/554/100 257/555/100 258/556/100 259/557/100 260/558/100 261/559/100 262/560/100 263/561/100 264/562/100 265/563/100 266/564/100 267/565/100 268/566/100 269/567/100 270/568/100 271/569/100 272/570/100 273/571/100 274/572/100 275/573/100 276/574/100 277/575/100 278/576/100 279/577/100 280/578/100 281/579/100 282/580/100 283/581/100 284/582/100 285/583/100 286/584/100 287/585/100 288/586/100 289/587/100 290/588/100 

vt -0.415711 0.393701
vn 0.132972 1.80524e-031 -0.99112
vt -0.371905 0.393701
vt -0.371905 0.629921
vt -0.415711 0.629921
f 120/589/101 98/590/101 196/591/101 123/592/101 

vt -0.335499 0.393701
vn 0.170632 1.83469e-031 -0.985335
v 108.586 10 -145.89
vt -0.291693 0.393701
vt -0.291693 0.629921
vt -0.335499 0.629921
f 98/593/102 291/594/102 197/595/102 196/596/102 

vt -0.451573 0.898173
vt -0.494736 0.890699
vt -0.494736 0.645733
v 102.232 10 -143.78
vt -0.201387 0.815098
v 102.161 10 -143.874
vt -0.198609 0.818776
v 102.093 10 -143.969
vt -0.19592 0.82252
v 102.027 10 -144.065
vt -0.193322 0.826326
v 101.963 10 -144.164
vt -0.190815 0.830193
v 101.902 10 -144.263
vt -0.188401 0.83412
v 101.843 10 -144.364
vt -0.186081 0.838102
v 101.786 10 -144.467
vt -0.183857 0.842139
v 101.732 10 -144.571
vt -0.181731 0.846228
v 101.681 10 -144.676
vt -0.179702 0.850367
v 101.632 10 -144.782
vt -0.177774 0.854553
v 101.585 10 -144.89
vt -0.175945 0.858783
v 101.541 10 -144.998
vt -0.174218 0.863057
v 101.5 10 -145.108
vt -0.172594 0.86737
v 101.462 10 -145.218
vt -0.171074 0.871721
v 101.426 10 -145.33
vt -0.169657 0.876107
v 101.392 10 -145.442
vt -0.168346 0.880525
v 101.362 10 -145.555
vt -0.167141 0.884974
v 101.334 10 -145.669
vt -0.166042 0.88945
v 101.309 10 -145.783
vt -0.165051 0.893951
v 101.263 10 -146.678
vt -0.16326 0.929176
v 101.293 10 -146.78
vt -0.164447 0.93319
v 101.332 10 -146.879
vt -0.165959 0.937094
v 101.378 10 -146.974
vt -0.167786 0.94086
v 101.432 10 -147.066
vt -0.169916 0.944464
v 101.494 10 -147.153
vt -0.172334 0.947881
v 101.562 10 -147.234
vt -0.175025 0.951088
v 101.637 10 -147.31
vt -0.177969 0.954064
v 101.717 10 -147.379
vt -0.181148 0.956788
v 101.804 10 -147.441
vt -0.184539 0.959242
v 101.895 10 -147.496
vt -0.188121 0.96141
v 101.99 10 -147.544
vt -0.191868 0.963276
v 102.088 10 -147.583
vt -0.195755 0.964829
v 102.19 10 -147.615
vt -0.199757 0.966058
v 102.294 10 -147.637
vt -0.203846 0.966955
v 102.399 10 -147.651
vt -0.207995 0.967513
v 103.024 10 -147.555
vt -0.232573 0.963704
v 103.256 10 -147.456
vt -0.241733 0.95983
v 104.297 10 -147.062
vt -0.2827 0.944317
v 105.352 10 -146.708
vt -0.324228 0.930375
v 106.419 10 -146.394
vt -0.366257 0.918026
v 107.498 10 -146.122
vt -0.408725 0.907287
f 291/597/29 98/598/29 99/599/29 292/600/29 293/601/29 294/602/29 295/603/29 296/604/29 297/605/29 298/606/29 299/607/29 300/608/29 301/609/29 302/610/29 303/611/29 304/612/29 305/613/29 306/614/29 307/615/29 308/616/29 309/617/29 310/618/29 311/619/29 312/620/29 313/621/29 314/622/29 315/623/29 316/624/29 317/625/29 318/626/29 319/627/29 320/628/29 321/629/29 322/630/29 323/631/29 324/632/29 325/633/29 326/634/29 327/635/29 328/636/29 329/637/29 330/638/29 331/639/29 332/640/29 333/641/29 

vt -0.233143 0.393701
vn -0.5 2.69231e-017 0.866025
vt 0.105587 0.393701
vt 0.105587 0.629921
vt -0.233143 0.629921
f 292/642/103 99/643/103 100/644/103 239/645/103 

vt -0.533691 0.393701
vn -0.798001 -1.84381e-031 0.602656
vt -0.529082 0.393701
vt -0.529082 0.629921
vt -0.533691 0.629921
f 293/646/104 292/647/104 239/648/104 238/649/104 

vt -0.553721 0.393701
vn -0.81217 -1.8262e-031 0.583421
vt -0.549112 0.393701
vt -0.549112 0.629921
vt -0.553721 0.629921
f 294/650/105 293/651/105 238/652/105 237/653/105 

vt -0.573437 0.393701
vn -0.825875 -1.80755e-031 0.563853
vt -0.568828 0.393701
vt -0.568828 0.629921
vt -0.573437 0.629921
f 295/654/106 294/655/106 237/656/106 236/657/106 

vt -0.592826 0.393701
vn -0.839109 -1.78787e-031 0.543964
vt -0.588217 0.393701
vt -0.588217 0.629921
vt -0.592826 0.629921
f 296/658/107 295/659/107 236/660/107 235/661/107 

vt -0.611879 0.393701
vn -0.851864 -1.76716e-031 0.523763
vt -0.60727 0.393701
vt -0.60727 0.629921
vt -0.611879 0.629921
f 297/662/108 296/663/108 235/664/108 234/665/108 

vt -0.630584 0.393701
vn -0.864133 -1.74545e-031 0.503264
vt -0.625975 0.393701
vt -0.625975 0.629921
vt -0.630584 0.629921
f 298/666/109 297/667/109 234/668/109 233/669/109 

vt -0.64893 0.393701
vn -0.875908 -1.72274e-031 0.482477
vt -0.644321 0.393701
vt -0.644321 0.629921
vt -0.64893 0.629921
f 299/670/110 298/671/110 233/672/110 232/673/110 

vt -0.666907 0.393701
vn -0.887184 -1.69905e-031 0.461416
vt -0.662298 0.393701
vt -0.662298 0.629921
vt -0.666907 0.629921
f 300/674/111 299/675/111 232/676/111 231/677/111 

vt -0.684504 0.393701
vn -0.897953 -1.67439e-031 0.44009
vt -0.679896 0.393701
vt -0.679896 0.629921
vt -0.684504 0.629921
f 301/678/112 300/679/112 231/680/112 230/681/112 

vt -0.701713 0.393701
vn -0.90821 -1.64878e-031 0.418514
vt -0.697104 0.393701
vt -0.697104 0.629921
vt -0.701713 0.629921
f 302/682/113 301/683/113 230/684/113 229/685/113 

vt -0.718522 0.393701
vn -0.917949 -1.62222e-031 0.396699
vt -0.713913 0.393701
vt -0.713913 0.629921
vt -0.718522 0.629921
f 303/686/114 302/687/114 229/688/114 228/689/114 

vt -0.734922 0.393701
vn -0.927163 -1.59473e-031 0.374657
vt -0.730313 0.393701
vt -0.730313 0.629921
vt -0.734922 0.629921
f 304/690/115 303/691/115 228/692/115 227/693/115 

vt -0.750905 0.393701
vn -0.935849 -1.56634e-031 0.352402
vt -0.746296 0.393701
vt -0.746296 0.629921
vt -0.750905 0.629921
f 305/694/116 304/695/116 227/696/116 226/697/116 

vt -0.76646 0.393701
vn -0.944 -1.53705e-031 0.329945
vt -0.761851 0.393701
vt -0.761851 0.629921
vt -0.76646 0.629921
f 306/698/117 305/699/117 226/700/117 225/701/117 

vt -0.781578 0.393701
vn -0.951613 -1.50689e-031 0.3073
vt -0.77697 0.393701
vt -0.77697 0.629921
vt -0.781578 0.629921
f 307/702/118 306/703/118 225/704/118 224/705/118 

vt -0.796253 0.393701
vn -0.958682 -1.47586e-031 0.28448
vt -0.791644 0.393701
vt -0.791644 0.629921
vt -0.796253 0.629921
f 308/706/119 307/707/119 224/708/119 223/709/119 

vt -0.810473 0.393701
vn -0.965204 -1.444e-031 0.261497
vt -0.805865 0.393701
vt -0.805865 0.629921
vt -0.810473 0.629921
f 309/710/120 308/711/120 223/712/120 222/713/120 

vt -0.824233 0.393701
vn -0.971176 -1.41131e-031 0.238365
vt -0.819624 0.393701
vt -0.819624 0.629921
vt -0.824233 0.629921
f 310/714/121 309/715/121 222/716/121 221/717/121 

vt -0.837524 0.393701
vn -0.976593 -1.37781e-031 0.215097
vt -0.832915 0.393701
vt -0.832915 0.629921
vt -0.837524 0.629921
f 311/718/122 310/719/122 221/720/122 220/721/122 

vt -0.919687 0.393701
vn -0.99871 -1.12446e-031 0.0507779
vt -0.884417 0.393701
vt -0.884417 0.629921
vt -0.919687 0.629921
f 312/722/123 311/723/123 220/724/123 219/725/123 

vt -0.941526 0.393701
vn -0.958978 -5.20958e-032 -0.283481
vt -0.93734 0.393701
vt -0.93734 0.629921
vt -0.941526 0.629921
f 313/726/124 312/727/124 219/728/124 218/729/124 

vt -0.933776 0.393701
vn -0.932493 -3.6271e-032 -0.361189
vt -0.929589 0.393701
vt -0.929589 0.629921
vt -0.933776 0.629921
f 314/730/125 313/731/125 218/732/125 217/733/125 

vt -0.919745 0.393701
vn -0.899722 -2.02019e-032 -0.436463
vt -0.915559 0.393701
vt -0.915559 0.629921
vt -0.919745 0.629921
f 315/734/126 314/735/126 217/736/126 216/737/126 

vt -0.89953 0.393701
vn -0.860888 -3.99652e-033 -0.508795
vt -0.895344 0.393701
vt -0.895344 0.629921
vt -0.89953 0.629921
f 316/738/127 315/739/127 216/740/127 215/741/127 

vt -0.873266 0.393701
vn -0.816251 1.22358e-032 -0.577697
vt -0.86908 0.393701
vt -0.86908 0.629921
vt -0.873266 0.629921
f 317/742/128 316/743/128 215/744/128 214/745/128 

vt -0.84113 0.393701
vn -0.766113 2.83856e-032 -0.642706
vt -0.836944 0.393701
vt -0.836944 0.629921
vt -0.84113 0.629921
f 318/746/129 317/747/129 214/748/129 213/749/129 

vt -0.803339 0.393701
vn -0.710811 4.43441e-032 -0.703383
vt -0.799153 0.393701
vt -0.799153 0.629921
vt -0.803339 0.629921
f 319/750/130 318/751/130 213/752/130 212/753/130 

vt -0.760148 0.393701
vn -0.650718 6.00037e-032 -0.75932
vt -0.755962 0.393701
vt -0.755962 0.629921
vt -0.760148 0.629921
f 320/754/131 319/755/131 212/756/131 211/757/131 

vt -0.711848 0.393701
vn -0.586239 7.52589e-032 -0.810138
vt -0.707661 0.393701
vt -0.707661 0.629921
vt -0.711848 0.629921
f 321/758/132 320/759/132 211/760/132 210/761/132 

vt -0.658763 0.393701
vn -0.517809 9.00068e-032 -0.855496
vt -0.654577 0.393701
vt -0.654577 0.629921
vt -0.658763 0.629921
f 322/762/133 321/763/133 210/764/133 209/765/133 

vt -0.601253 0.393701
vn -0.445889 1.04148e-031 -0.895088
vt -0.597067 0.393701
vt -0.597067 0.629921
vt -0.601253 0.629921
f 323/766/134 322/767/134 209/768/134 208/769/134 

vt -0.539704 0.393701
vn -0.370964 1.17587e-031 -0.928647
vt -0.535518 0.393701
vt -0.535518 0.629921
vt -0.539704 0.629921
f 324/770/135 323/771/135 208/772/135 207/773/135 

vt -0.474532 0.393701
vn -0.293538 1.30234e-031 -0.955947
vt -0.470346 0.393701
vt -0.470346 0.629921
vt -0.474532 0.629921
f 325/774/136 324/775/136 207/776/136 206/777/136 

vt -0.406176 0.393701
vn -0.214134 1.42003e-031 -0.976804
vt -0.40199 0.393701
vt -0.40199 0.629921
vt -0.406176 0.629921
f 326/778/137 325/779/137 206/780/137 205/781/137 

vt -0.335096 0.393701
vn -0.133287 1.52815e-031 -0.991077
vt -0.33091 0.393701
vt -0.33091 0.629921
vt -0.335096 0.629921
f 327/782/138 326/783/138 205/784/138 204/785/138 

vt -0.0822553 0.393701
vn 0.153133 1.82131e-031 -0.988206
vt -0.0573841 0.393701
vt -0.0573841 0.629921
vt -0.0822553 0.629921
f 328/786/139 327/787/139 204/788/139 203/789/139 

vt 0.151222 0.393701
vn 0.38951 1.95425e-031 -0.921022
vt 0.161168 0.393701
vt 0.161168 0.629921
vt 0.151222 0.629921
f 329/790/140 328/791/140 203/792/140 202/793/140 

vt 0.0700423 0.393701
vn 0.35414 1.94128e-031 -0.935192
vt 0.113848 0.393701
vt 0.113848 0.629921
vt 0.0700423 0.629921
f 330/794/141 329/795/141 202/796/141 201/797/141 

vt -0.011271 0.393701
vn 0.318257 1.9255e-031 -0.948005
vt 0.0325347 0.393701
vt 0.0325347 0.629921
vt -0.011271 0.629921
f 331/798/142 330/799/142 201/800/142 200/801/142 

vt -0.0925996 0.393701
vn 0.281911 1.90692e-031 -0.959441
vt -0.048794 0.393701
vt -0.048794 0.629921
vt -0.0925996 0.629921
f 332/802/143 331/803/143 200/804/143 199/805/143 

vt -0.173826 0.393701
vn 0.245156 1.88557e-031 -0.969484
vt -0.13002 0.393701
vt -0.13002 0.629921
vt -0.173826 0.629921
f 333/806/144 332/807/144 199/808/144 198/809/144 

vt -0.254831 0.393701
vn 0.208045 1.86148e-031 -0.978119
vt -0.211026 0.393701
vt -0.211026 0.629921
vt -0.254831 0.629921
f 291/810/145 333/811/145 198/812/145 197/813/145 

vt 0.570866 0.866797
vn -2.85415e-016 0.759669 0.650311
vt 0.595963 0.0797717
vt 0.669291 0.866797
f 101/814/146 103/815/146 240/816/146

vt 0.636378 0.892996
vn -0.0344449 0.761301 0.647483
vt 0.594915 0.10365
v 114.116 3 -123.077
vt 0.668346 0.10365
f 240/817/147 103/818/147 334/819/147

vt 0.594915 0
vt 0.668346 0
vn 3.23115e-016 0 1
vt 0.668346 0.11811
vt 0.594915 0.11811
f 105/820/64 130/821/148 334/822/148 103/823/64 

vt 0.741778 0
vn 0.106096 0 0.994356
v 115.979 3 -123.176
vt 0.741778 0.11811
f 130/821/148 131/824/149 335/825/149 334/822/148 

vt 0.733819 0
vt 0.807251 0
vn 0.210995 0 0.977487
v 117.82 3 -123.472
vt 0.807251 0.11811
vt 0.733819 0.11811
f 131/826/149 132/827/150 336/828/150 335/829/149 

vt 0.790594 0
v 119.62 0 -123.962
vt 0.864026 0
vn 0.313511 0 0.949584
v 119.62 3 -123.962
vt 0.864026 0.11811
vt 0.790594 0.11811
f 132/830/150 337/831/151 338/832/151 336/833/150 

v 117.966 0 -143.796
vt -0.820863 0.815728
vt -0.885974 0.0348445
f 132/395/29 339/834/29 337/835/29

v 117.763 0 -144.296
vt -0.812854 0.835412
f 132/395/29 340/836/29 339/834/29

f 132/395/29 133/396/29 340/836/29

vt 0.638013 0
vn 0.954406 0 -0.298511
vt 0.659263 0
vt 0.659263 0.11811
vt 0.638013 0.11811
f 340/837/152 133/838/86 134/839/86 136/840/152 

vt 0.446247 0
vn 0.891725 0 -0.452577
vt 0.467497 0
vt 0.467497 0.11811
vt 0.446247 0.11811
f 339/841/153 340/842/152 136/843/152 137/844/153 

v 118.25 0 -143.337
vt 0.241841 0
vn 0.804374 0 -0.594123
vt 0.263091 0
vt 0.263091 0.11811
vt 0.241841 0.11811
f 341/845/154 339/846/153 137/847/153 138/848/154 

vt -0.832022 0.797645
f 337/835/29 339/834/29 341/849/29

v 118.605 0 -142.931
vt -0.846025 0.781661
f 337/835/29 341/849/29 342/850/29

vt 0.03045 0
vn 0.694769 0 -0.719233
vt 0.0517001 0
vt 0.0517001 0.11811
vt 0.03045 0.11811
f 342/851/155 341/852/154 138/853/154 139/854/155 

v 119.023 0 -142.589
vt -0.182077 0
vn 0.565944 0 -0.824444
vt -0.160827 0
vt -0.160827 0.11811
vt -0.182077 0.11811
f 343/855/156 342/856/155 139/857/155 140/858/156 

vt -0.862484 0.768219
f 337/835/29 342/850/29 343/859/29

v 119.492 0 -142.322
vt -0.880943 0.757691
f 337/835/29 343/859/29 344/860/29

vt -0.389861 0
vn 0.421461 0 -0.906847
vt -0.368611 0
vt -0.368611 0.11811
vt -0.389861 0.11811
f 344/861/157 343/862/156 140/863/156 141/864/157 

v 119.999 0 -142.136
vt -0.587153 0
vn 0.265318 0 -0.964161
vt -0.565903 0
vt -0.565903 0.11811
vt -0.587153 0.11811
f 345/865/158 344/866/157 141/867/157 142/868/158 

vt -0.900892 0.750369
f 337/835/29 344/860/29 345/869/29

v 121.358 0 -124.64
vt -0.954382 0.0615379
f 337/835/29 345/869/29 346/870/29

v 120.529 0 -142.037
vt -0.921778 0.746454
f 346/870/29 345/869/29 347/871/29

vt -0.768495 0
vn 0.101835 0 -0.994801
vt -0.747245 0
vt -0.747245 0.11811
vt -0.768495 0.11811
f 347/872/159 345/873/158 142/874/158 143/875/159 

v 121.069 0 -142.026
vt -0.92887 0
vn -0.0644653 0 -0.99792
vt -0.90762 0
vt -0.90762 0.11811
vt -0.911038 0.11811
vn 0.0187497 0 -0.999824
v 121.069 3 -142.026
vt -0.92887 0.11811
f 348/876/160 347/877/159 143/878/159 144/879/161 349/880/160 

vt -0.943024 0.746056
f 346/870/29 347/871/29 348/881/29

v 121.603 0 -142.106
vt -0.964043 0.749185
f 346/870/29 348/881/29 350/882/29

vt -1.06384 0
vn -0.228982 0 -0.973431
vt -1.04259 0
vt -1.04259 0.11811
v 121.603 3 -142.106
vt -1.06384 0.11811
f 350/883/162 348/884/160 349/885/160 351/886/162 

vt 0.943024 0.746056
vn 3.88163e-017 1 1.09708e-017
vt 0.925197 0.746454
vt 0.925197 0.551181
v 120.77 3 -138.241
vt 0.931234 0.597035
v 121.219 3 -139.327
vt 0.948933 0.639764
v 121.934 3 -140.259
vt 0.977087 0.676456
v 122.866 3 -140.974
vt 1.01378 0.704611
v 123.952 3 -141.423
vt 1.05651 0.72231
v 125.116 3 -141.577
vt 1.10236 0.728346
v 126.281 3 -141.423
vt 1.14822 0.72231
v 127.366 3 -140.974
vt 1.19094 0.704611
v 128.298 3 -140.259
vt 1.22764 0.676456
v 129.013 3 -139.327
vt 1.25579 0.639764
v 129.463 3 -138.241
vt 1.27349 0.597035
v 129.616 3 -137.077
vt 1.27953 0.551181
v 129.463 3 -135.912
vt 1.27349 0.505327
v 129.013 3 -134.827
vt 1.25579 0.462598
v 128.298 3 -133.895
vt 1.22764 0.425906
v 127.366 3 -133.18
vt 1.19094 0.397751
v 126.281 3 -132.73
vt 1.14822 0.380053
v 125.116 3 -132.577
vt 1.10236 0.374016
v 123.952 3 -132.73
vt 1.05651 0.380053
v 122.866 3 -133.18
vt 1.01378 0.397751
v 121.934 3 -133.895
vt 0.977087 0.425906
v 121.219 3 -134.827
vt 0.948933 0.462598
v 120.77 3 -135.912
vt 0.931234 0.505327
v 120.616 3 -137.077
vt 0.925197 0.0501497
v 121.358 3 -124.64
vt 0.954382 0.0615379
v 123.013 3 -125.498
vt 1.01957 0.0953385
v 124.569 3 -126.528
vt 1.08081 0.135865
v 126.006 3 -127.716
vt 1.1374 0.182659
v 127.309 3 -129.051
vt 1.18871 0.235193
v 128.464 3 -130.516
vt 1.23415 0.292875
v 129.456 3 -132.095
vt 1.27322 0.355052
v 130.275 3 -133.771
vt 1.30547 0.421023
v 130.912 3 -135.524
vt 1.33053 0.490043
v 131.116 3 -137.077
vt 1.33858 0.551181
v 130.912 3 -138.63
vt 1.33053 0.612319
v 130.312 3 -140.077
vt 1.30694 0.669291
v 129.359 3 -141.319
vt 1.2694 0.718214
v 128.116 3 -142.273
vt 1.22047 0.755754
v 126.669 3 -142.872
vt 1.1635 0.779353
v 125.116 3 -143.077
vt 1.10236 0.787402
v 123.563 3 -142.872
vt 1.04122 0.779353
v 122.116 3 -142.273
vt 0.984252 0.755754
vt 0.964043 0.749185
f 349/887/163 144/888/163 147/889/163 352/890/163 353/891/163 354/892/163 355/893/163 356/894/163 357/895/163 358/896/163 359/897/163 360/898/163 361/899/163 362/900/163 363/901/163 364/902/163 365/903/163 366/904/163 367/905/163 368/906/163 369/907/163 370/908/163 371/909/163 372/910/163 373/911/163 374/912/163 375/889/163 146/913/163 376/914/163 377/915/163 378/916/163 379/917/163 380/918/163 381/919/163 382/920/163 383/921/163 384/922/163 385/923/163 386/924/163 387/925/163 388/926/163 389/927/163 390/928/163 391/929/163 392/930/163 393/931/163 351/932/163 

v 122.701 0 -137.724
vt 0.7032 -0.509167
vt 0.713478 -0.367589
vt 0.667228 -0.367589
vn 0.83205 0.5547 6.56856e-015
v 122.616 0 -137.077
vt 0.677506 -0.509167
f 394/933/4 352/934/4 147/935/164 395/936/164 

v 122.951 0 -138.327
vt 0.943928 -0.391462
vt 0.954205 -0.249883
vt 0.907956 -0.249883
vt 0.918234 -0.391462
f 396/937/5 353/938/5 352/939/4 394/940/4 

v 123.349 0 -138.844
vt 1.1212 -0.243412
vt 1.13148 -0.101834
vt 1.08523 -0.101834
vt 1.09551 -0.243412
f 397/941/6 354/942/6 353/943/5 396/944/5 

v 123.866 0 -139.242
vt 1.22295 -0.075107
vt 1.23323 0.0664713
vt 1.18698 0.0664713
vt 1.19725 -0.075107
f 398/945/7 355/946/7 354/947/6 397/948/6 

v 124.469 0 -139.491
vt 1.24222 0.101983
vt 1.2525 0.243561
vt 1.20625 0.243561
vt 1.21653 0.101983
f 399/949/8 356/950/8 355/951/7 398/952/7 

v 125.116 0 -139.577
vt 1.17772 0.27579
vn -1.29766e-014 0.5547 0.83205
vt 1.188 0.417368
vt 1.14175 0.417368
vt 1.15203 0.27579
f 400/953/165 357/954/165 356/955/8 399/956/8 

v 125.763 0 -139.491
vt 1.03383 0.434469
vt 1.04411 0.576048
vt 0.997863 0.576048
vt 1.00814 0.434469
f 401/957/10 358/958/10 357/959/165 400/960/165 

v 126.366 0 -139.242
vt 0.820369 0.567207
vt 0.830647 0.708785
vt 0.784397 0.708785
vt 0.794675 0.567207
f 402/961/11 359/962/11 358/963/10 401/964/10 

v 126.884 0 -138.844
vt 0.551872 0.664958
vt 0.56215 0.806536
vt 0.5159 0.806536
vt 0.526178 0.664958
f 403/965/12 360/966/12 359/967/11 402/968/11 

v 127.281 0 -138.327
vt 0.246641 0.721059
vt 0.256919 0.862637
vt 0.21067 0.862637
vt 0.220947 0.721059
f 404/969/13 361/970/13 360/971/12 403/972/12 

v 127.531 0 -137.724
vt -0.0745221 0.731689
vt -0.0642445 0.873267
vt -0.110494 0.873267
vt -0.100216 0.731689
f 405/973/14 362/974/14 361/975/13 404/976/13 

v 127.616 0 -137.077
vt -0.389731 0.696122
vn -0.83205 0.5547 3.28079e-016
vt -0.379454 0.8377
vt -0.425703 0.8377
vt -0.415426 0.696122
f 406/977/166 363/978/166 362/979/14 405/980/14 

v 127.531 0 -136.43
vt -0.677506 0.616782
vt -0.667228 0.75836
vt -0.713478 0.75836
vt -0.7032 0.616782
f 407/981/16 364/982/16 363/983/166 406/984/166 

v 127.281 0 -135.827
vt -0.918234 0.499077
vt -0.907956 0.640655
vt -0.954205 0.640655
vt -0.943928 0.499077
f 408/985/17 365/986/17 364/987/16 407/988/16 

v 126.884 0 -135.309
vt -1.09551 0.351027
vt -1.08523 0.492605
vt -1.13148 0.492605
vt -1.1212 0.351027
f 409/989/18 366/990/18 365/991/17 408/992/17 

v 126.366 0 -134.912
vt -1.19725 0.182722
vt -1.18698 0.3243
vt -1.23323 0.3243
vt -1.22295 0.182722
f 410/993/19 367/994/19 366/995/18 409/996/18 

v 125.763 0 -134.662
vt -1.21653 0.005632
vt -1.20625 0.14721
vt -1.2525 0.14721
vt -1.24222 0.005632
f 411/997/20 368/998/20 367/999/19 410/1000/19 

v 125.116 0 -134.577
vt -1.15203 -0.168175
vn 5.72393e-015 0.5547 -0.83205
vt -1.14175 -0.0265967
vt -1.188 -0.0265967
vt -1.17772 -0.168175
f 412/1001/167 369/1002/167 368/1003/20 411/1004/20 

v 124.469 0 -134.662
vt -1.00814 -0.326854
vt -0.997863 -0.185276
vt -1.04411 -0.185276
vt -1.03383 -0.326854
f 413/1005/22 370/1006/22 369/1007/167 412/1008/167 

v 123.866 0 -134.912
vt -0.794675 -0.459592
vt -0.784397 -0.318014
vt -0.830647 -0.318014
vt -0.820369 -0.459592
f 414/1009/23 371/1010/23 370/1011/22 413/1012/22 

v 123.349 0 -135.309
vt -0.526178 -0.557343
vt -0.5159 -0.415764
vt -0.56215 -0.415764
vt -0.551872 -0.557343
f 415/1013/24 372/1014/24 371/1015/23 414/1016/23 

v 122.951 0 -135.827
vt -0.220947 -0.613444
vt -0.21067 -0.471866
vt -0.256919 -0.471866
vt -0.246641 -0.613444
f 416/1017/2 373/1018/2 372/1019/24 415/1020/24 

v 122.701 0 -136.43
vt 0.100216 -0.624074
vt 0.110494 -0.482495
vt 0.0642445 -0.482495
vt 0.0745221 -0.624074
f 417/1021/1 374/1022/1 373/1023/2 416/1024/2 

vt 0.415426 -0.588507
vt 0.425703 -0.446928
vt 0.379454 -0.446928
vt 0.389731 -0.588507
f 395/1025/164 147/1026/164 374/1027/1 417/1028/1 

v 123.013 0 -125.498
vt -1.01957 0.0953385
vt -1.00394 0.551181
vt -1.00729 0.525707
f 418/1029/29 395/1030/29 417/1031/29

v 122.116 0 -142.273
vt -0.984252 0.755754
f 418/1029/29 419/1032/29 395/1030/29

f 418/1029/29 350/882/29 419/1032/29

f 346/870/29 350/882/29 418/1029/29

vt 0.875591 0
vn 0.412489 0 0.910963
vt 0.949023 0
vn 0.50681 0 0.862058
vt 0.949023 0.11811
vt 0.875591 0.11811
f 346/1033/168 418/1034/169 377/1035/169 376/1036/168 

vt 0.902855 0
v 124.569 0 -126.528
vt 0.976286 0
vn 0.595411 0 0.803421
vt 0.976286 0.11811
vt 0.902855 0.11811
f 418/1037/169 420/1038/170 378/1039/170 377/1040/169 

vt -1.03277 0.481584
vt -1.08081 0.135865
f 418/1029/29 415/1041/29 420/1042/29

vt -1.01712 0.501969
f 418/1029/29 416/1043/29 415/1041/29

f 418/1029/29 417/1031/29 416/1043/29

vt -1.05315 0.465942
f 420/1042/29 415/1041/29 414/1044/29

vt -1.07689 0.45611
f 420/1042/29 414/1044/29 413/1045/29

vt -1.10236 0.452756
f 420/1042/29 413/1045/29 412/1046/29

v 126.006 0 -127.716
vt -1.1374 0.182659
f 420/1042/29 412/1046/29 421/1047/29

vt -1.12784 0.45611
f 421/1047/29 412/1046/29 411/1048/29

vt -1.15157 0.465942
f 421/1047/29 411/1048/29 410/1049/29

v 127.309 0 -129.051
vt -1.18871 0.235193
f 421/1047/29 410/1049/29 422/1050/29

vt -1.17196 0.481584
f 422/1050/29 410/1049/29 409/1051/29

vt -1.1876 0.501969
f 422/1050/29 409/1051/29 408/1052/29

vt -1.19743 0.525707
f 422/1050/29 408/1052/29 407/1053/29

v 128.464 0 -130.516
vt -1.23415 0.292875
f 422/1050/29 407/1053/29 423/1054/29

vt -1.20079 0.551181
f 423/1054/29 407/1053/29 406/1055/29

v 128.116 0 -142.273
vt -1.22047 0.755754
f 423/1054/29 406/1055/29 424/1056/29

vt -1.19743 0.576655
f 405/1057/29 424/1056/29 406/1055/29

vt -1.1876 0.600394
f 404/1058/29 424/1056/29 405/1057/29

vt -1.17196 0.620778
f 403/1059/29 424/1056/29 404/1058/29

v 126.669 0 -142.872
vt -1.1635 0.779353
f 403/1059/29 425/1060/29 424/1056/29

vt -1.15157 0.63642
f 402/1061/29 425/1060/29 403/1059/29

vt -1.12784 0.646253
f 401/1062/29 425/1060/29 402/1061/29

vt -1.10236 0.649606
f 400/1063/29 425/1060/29 401/1062/29

v 125.116 0 -143.077
vt -1.10236 0.787402
f 400/1063/29 426/1064/29 425/1060/29

vt -1.07689 0.646253
f 399/1065/29 426/1064/29 400/1063/29

vt -1.05315 0.63642
f 398/1066/29 426/1064/29 399/1065/29

v 123.563 0 -142.872
vt -1.04122 0.779353
f 398/1066/29 427/1067/29 426/1064/29

vt -1.03277 0.620778
f 397/1068/29 427/1067/29 398/1066/29

vt -1.01712 0.600394
f 396/1069/29 427/1067/29 397/1068/29

vt -1.00729 0.576655
f 394/1070/29 427/1067/29 396/1069/29

f 394/1070/29 419/1032/29 427/1067/29

f 419/1032/29 394/1070/29 395/1030/29

vt -1.26021 0
vt -1.19854 0
vn -0.382683 0 -0.92388
vt -1.19854 0.11811
vt -1.26021 0.11811
f 427/1071/44 419/1072/171 393/1073/171 392/1074/44 

vt -1.16968 0
vn -0.309144 0 -0.951015
vt -1.14843 0
vt -1.14843 0.11811
vt -1.16968 0.11811
f 419/1075/172 350/1076/162 351/1077/162 393/1078/172 

vt -1.19571 0
vn 6.18691e-015 0 -1
vt -1.13404 0
vt -1.13404 0.11811
vt -1.19571 0.11811
f 426/1079/173 427/1080/44 392/1081/44 391/1082/173 

vt -1.05182 0
vt -0.990155 0
vt -0.990155 0.11811
vt -1.05182 0.11811
f 425/1083/46 426/1084/173 391/1085/173 390/1086/46 

vt -0.838355 0
vn 0.5 0 -0.866025
vt -0.776689 0
vt -0.776689 0.11811
vt -0.838355 0.11811
f 424/1087/174 425/1088/46 390/1089/46 389/1090/174 

v 129.359 0 -141.319
vt -0.569858 0
vn 0.707107 0 -0.707107
vt -0.508192 0
vt -0.508192 0.11811
vt -0.569858 0.11811
f 428/1091/175 424/1092/174 389/1093/174 388/1094/175 

vt -1.2694 0.718214
f 423/1054/29 424/1056/29 428/1095/29

v 129.456 0 -132.095
vt -1.27322 0.355052
f 423/1054/29 428/1095/29 429/1096/29

v 130.312 0 -140.077
vt -1.30694 0.669291
f 429/1096/29 428/1095/29 430/1097/29

vt -0.264627 0
vn 0.866025 0 -0.5
vt -0.202961 0
vt -0.202961 0.11811
vt -0.264627 0.11811
f 430/1098/176 428/1099/175 388/1100/175 387/1101/176 

v 130.912 0 -138.63
vt 0.0565362 0
vn 0.965926 0 -0.258819
vt 0.118202 0
vt 0.118202 0.11811
vt 0.0565362 0.11811
f 431/1102/177 430/1103/176 387/1104/176 386/1105/177 

v 130.912 0 -135.524
vt -1.33053 0.490043
vt -1.33053 0.612319
f 432/1106/29 430/1097/29 431/1107/29

v 130.275 0 -133.771
vt -1.30547 0.421023
f 433/1108/29 430/1097/29 432/1106/29

f 429/1096/29 430/1097/29 433/1108/29

vt 0.87815 0
vn 0.873799 0 0.486286
vt 0.951582 0
vn 0.920461 0 0.390835
vt 0.951582 0.11811
vt 0.87815 0.11811
f 429/1109/178 433/1110/179 383/1111/179 382/1112/178 

vt 0.841396 0
vt 0.914828 0
vn 0.939923 0 0.341386
vt 0.914828 0.11811
vt 0.841396 0.11811
f 433/1113/179 432/1114/180 384/1115/180 383/1116/179 

vt 0.65952 0
vn 0.991445 0 0.130526
v 131.116 0 -137.077
vt 0.721186 0
vn 1 0 6.18691e-015
vt 0.721186 0.11811
vt 0.65952 0.11811
f 432/1117/181 434/1118/182 385/1119/182 384/1120/181 

vt -1.33858 0.551181
f 432/1106/29 431/1107/29 434/1121/29

vt 0.371746 0
vt 0.433411 0
vt 0.433411 0.11811
vt 0.371746 0.11811
f 434/1122/182 431/1123/177 386/1124/177 385/1125/182 

vt 0.904576 0
vn 0.817275 0 0.576249
vt 0.978008 0
vt 0.978008 0.11811
vt 0.904576 0.11811
f 423/1126/183 429/1127/178 382/1128/178 381/1129/183 

vt 0.920378 0
vn 0.751524 0 0.659706
vt 0.993809 0
vt 0.993809 0.11811
vt 0.920378 0.11811
f 422/1130/184 423/1131/183 381/1132/183 380/1133/184 

vt 0.925375 0
vn 0.67729 0 0.735716
vt 0.998807 0
vt 0.998807 0.11811
vt 0.925375 0.11811
f 421/1134/185 422/1135/184 380/1136/184 379/1137/185 

vt 0.919512 0
vt 0.992944 0
vt 0.992944 0.11811
vt 0.919512 0.11811
f 420/1138/170 421/1139/185 379/1140/185 378/1141/170 

vt 0.83803 0
vt 0.911462 0
vt 0.911462 0.11811
vt 0.880133 0.11811
vn 0.363513 0 0.931589
vt 0.83803 0.11811
f 337/1142/151 346/1143/168 376/1144/168 146/1145/186 338/1146/151 

vt 0.933951 0.630057
vn 0.242597 0.744728 0.621713
vt 0.83803 -0.136852
vt 0.880133 -0.136852
f 241/1147/187 338/1148/187 146/1149/187

vt 0.89881 0.701356
vn 0.174088 0.748725 0.639612
vt 0.790594 -0.0707455
vt 0.864026 -0.0707455
f 241/1150/188 336/1151/188 338/1152/188

vt 0.81512 0.0893999
vn -5.88781e-016 0.753297 0.657681
vt 0.767717 0.867606
vt 0.669291 0.867606
f 336/1153/189 241/1154/189 240/1155/189

vt 0.807251 -0.0103822
vn 0.102846 0.761837 0.639553
vt 0.756346 0.779731
vt 0.733819 -0.0103822
f 336/1156/190 240/1157/190 335/1158/190

vt 0.741778 0.0495146
vn 0.0344449 0.761301 0.647483
vt 0.700315 0.838861
vt 0.668346 0.0495146
f 335/1159/191 240/1160/191 334/1161/191

vt 0.965752 0.527485
vn 0.338479 0.736021 0.586263
vt 0.826319 -0.228561
vt 1.05366 0.527485
f 241/1162/192 146/1163/192 195/1164/192

vt 0.525593 0.629921
vn 0.9908 0 -0.135332
vt -0.0755205 0.11811
vt 0.525593 0.393701
f 195/1165/193 146/1166/193 145/1167/193

vt 1.32536 0.393701
vn 0.8123 -1.35788e-032 0.583239
vt 1.33013 0.393701
vn 0.818979 -1.13004e-032 0.573823
vt 1.33013 0.629921
vt 1.32536 0.629921
f 148/1168/194 193/1169/195 242/1170/195 194/1171/194 

vt 1.31942 0.393701
vt 1.32419 0.393701
vn 0.832008 -6.73936e-033 0.554764
vt 1.32419 0.629921
vt 1.31942 0.629921
f 193/1172/195 192/1173/196 243/1174/196 242/1175/195 

vt 1.31278 0.393701
vt 1.31755 0.393701
vn 0.844593 -2.17473e-033 0.535408
vt 1.31755 0.629921
vt 1.31278 0.629921
f 192/1176/196 191/1177/197 244/1178/197 243/1179/196 

vt 1.30544 0.393701
vt 1.31021 0.393701
vn 0.856728 2.39106e-033 0.515768
vt 1.31021 0.629921
vt 1.30544 0.629921
f 191/1180/197 190/1181/198 245/1182/198 244/1183/197 

vt 1.2974 0.393701
vt 1.30216 0.393701
vn 0.868407 6.95558e-033 0.495852
vt 1.30216 0.629921
vt 1.2974 0.629921
f 190/1184/198 189/1185/199 246/1186/199 245/1187/198 

vt 1.28866 0.393701
vt 1.29343 0.393701
vn 0.879623 1.15164e-032 0.475672
vt 1.29343 0.629921
vt 1.28866 0.629921
f 189/1188/199 188/1189/200 247/1190/200 246/1191/199 

vt 1.27924 0.393701
vt 1.28401 0.393701
vn 0.890369 1.60711e-032 0.455239
vt 1.28401 0.629921
vt 1.27924 0.629921
f 188/1192/200 187/1193/201 248/1194/201 247/1195/200 

vt 1.26914 0.393701
vt 1.27391 0.393701
vn 0.900642 2.06172e-032 0.434562
vt 1.27391 0.629921
vt 1.26914 0.629921
f 187/1196/201 186/1197/202 249/1198/202 248/1199/201 

vt 1.25836 0.393701
vt 1.26312 0.393701
vn 0.910434 2.51523e-032 0.413655
vt 1.26312 0.629921
vt 1.25836 0.629921
f 186/1200/202 185/1201/203 250/1202/203 249/1203/202 

vt 1.2469 0.393701
vt 1.25167 0.393701
vn 0.919741 2.9674e-032 0.392526
vt 1.25167 0.629921
vt 1.2469 0.629921
f 185/1204/203 184/1205/204 251/1206/204 250/1207/203 

vt 1.23478 0.393701
vt 1.23955 0.393701
vn 0.928557 3.41799e-032 0.371189
vt 1.23955 0.629921
vt 1.23478 0.629921
f 184/1208/204 183/1209/205 252/1210/205 251/1211/204 

vt 1.222 0.393701
vt 1.22677 0.393701
vn 0.936879 3.86675e-032 0.349654
vt 1.22677 0.629921
vt 1.222 0.629921
f 183/1212/205 182/1213/206 253/1214/206 252/1215/205 

vt 1.20857 0.393701
vt 1.21334 0.393701
vn 0.944701 4.31346e-032 0.327932
vt 1.21334 0.629921
vt 1.20857 0.629921
f 182/1216/206 181/1217/207 254/1218/207 253/1219/206 

vt 1.19449 0.393701
vt 1.19926 0.393701
vn 0.95202 4.75787e-032 0.306035
vt 1.19926 0.629921
vt 1.19449 0.629921
f 181/1220/207 180/1221/208 255/1222/208 254/1223/207 

vt 1.17978 0.393701
vt 1.18454 0.393701
vn 0.958831 5.19974e-032 0.283976
vt 1.18454 0.629921
vt 1.17978 0.629921
f 180/1224/208 179/1225/209 256/1226/209 255/1227/208 

vt 1.16443 0.393701
vt 1.1692 0.393701
vn 0.965132 5.63884e-032 0.261765
vt 1.1692 0.629921
vt 1.16443 0.629921
f 179/1228/209 178/1229/210 257/1230/210 256/1231/209 

vt 1.14846 0.393701
vt 1.15323 0.393701
vn 0.970918 6.07493e-032 0.239414
vt 1.15323 0.629921
vt 1.14846 0.629921
f 178/1232/210 177/1233/211 258/1234/211 257/1235/210 

vt 1.13188 0.393701
vt 1.13665 0.393701
vn 0.976186 6.50779e-032 0.216936
vt 1.13665 0.629921
vt 1.13188 0.629921
f 177/1236/211 176/1237/212 259/1238/212 258/1239/211 

vt 1.1147 0.393701
vt 1.11946 0.393701
vn 0.980934 6.93717e-032 0.194342
vt 1.11946 0.629921
vt 1.1147 0.629921
f 176/1240/212 175/1241/213 260/1242/213 259/1243/212 

vt 1.09691 0.393701
vt 1.10168 0.393701
vn 0.985159 7.36286e-032 0.171645
vt 1.10168 0.629921
vt 1.09691 0.629921
f 175/1244/213 174/1245/214 261/1246/214 260/1247/213 

vt 1.07855 0.393701
vt 1.08331 0.393701
vn 0.988859 7.78463e-032 0.148856
vt 1.08331 0.629921
vt 1.07855 0.629921
f 174/1248/214 173/1249/215 262/1250/215 261/1251/214 

vt 1.0596 0.393701
vt 1.06437 0.393701
vn 0.984525 7.29573e-032 0.175245
vt 1.06437 0.629921
vt 1.0596 0.629921
f 173/1252/215 172/1253/216 263/1254/216 262/1255/215 

vt 1.14076 0.393701
vt 1.14618 0.393701
vn 0.996245 8.90882e-032 0.0865817
vt 1.14618 0.629921
vt 1.14076 0.629921
f 172/1256/216 171/1257/217 264/1258/217 263/1259/216 

vt 0.867659 0.393701
vt 0.871845 0.393701
vn 0.999157 1.10856e-031 -0.0410488
vt 0.871845 0.629921
vt 0.867659 0.629921
f 171/1260/217 170/1261/218 265/1262/218 264/1263/217 

vt 0.606148 0.393701
vn 0.969806 1.41915e-031 -0.243877
vt 0.622823 0.393701
vt 0.622823 0.629921
vt 0.606148 0.629921
f 170/1264/219 169/1265/219 266/1266/219 265/1267/219 

vt 0.331317 0.393701
vn 0.899722 1.67013e-031 -0.436463
vt 0.335503 0.393701
vt 0.335503 0.629921
vt 0.331317 0.629921
f 169/1268/220 168/1269/220 267/1270/220 266/1271/220 

vt 0.21428 0.393701
vn 0.860888 1.75138e-031 -0.508795
vt 0.218466 0.393701
vt 0.218466 0.629921
vt 0.21428 0.629921
f 168/1272/221 167/1273/221 268/1274/221 267/1275/221 

vt 0.0957839 0.393701
vn 0.816251 1.82082e-031 -0.577697
vt 0.0999702 0.393701
vt 0.0999702 0.629921
vt 0.0957839 0.629921
f 167/1276/222 166/1277/222 269/1278/222 268/1279/222 

vt -0.0233716 0.393701
vn 0.766113 1.87799e-031 -0.642706
vt -0.0191853 0.393701
vt -0.0191853 0.629921
vt -0.0233716 0.629921
f 166/1280/223 165/1281/223 270/1282/223 269/1283/223 

vt -0.142384 0.393701
vn 0.710811 1.9225e-031 -0.703383
vt -0.138197 0.393701
vt -0.138197 0.629921
vt -0.142384 0.629921
f 165/1284/224 164/1285/224 271/1286/224 270/1287/224 

vt -0.26045 0.393701
vn 0.650718 1.95406e-031 -0.75932
vt -0.256264 0.393701
vt -0.256264 0.629921
vt -0.26045 0.629921
f 164/1288/225 163/1289/225 272/1290/225 271/1291/225 

vt -0.376775 0.393701
vn 0.586239 1.97244e-031 -0.810138
vt -0.372589 0.393701
vt -0.372589 0.629921
vt -0.376775 0.629921
f 163/1292/226 162/1293/226 273/1294/226 272/1295/226 

vt -0.490575 0.393701
vn 0.517809 1.97753e-031 -0.855496
vt -0.486389 0.393701
vt -0.486389 0.629921
vt -0.490575 0.629921
f 162/1296/227 161/1297/227 274/1298/227 273/1299/227 

vt -0.601083 0.393701
vn 0.445889 1.96929e-031 -0.895088
vt -0.596896 0.393701
vt -0.596896 0.629921
vt -0.601083 0.629921
f 161/1300/228 160/1301/228 275/1302/228 274/1303/228 

vt -0.707553 0.393701
vn 0.370964 1.94778e-031 -0.928647
vt -0.703367 0.393701
vt -0.703367 0.629921
vt -0.707553 0.629921
f 160/1304/229 159/1305/229 276/1306/229 275/1307/229 

vt -0.809268 0.393701
vn 0.293538 1.91314e-031 -0.955947
vt -0.805082 0.393701
vt -0.805082 0.629921
vt -0.809268 0.629921
f 159/1308/230 158/1309/230 277/1310/230 276/1311/230 

vt -0.905544 0.393701
vn 0.214134 1.8656e-031 -0.976804
vt -0.901357 0.393701
vt -0.901357 0.629921
vt -0.905544 0.629921
f 158/1312/231 157/1313/231 278/1314/231 277/1315/231 

vt -0.995729 0.393701
vn 0.133287 1.8055e-031 -0.991077
vt -0.991543 0.393701
vt -0.991543 0.629921
vt -0.995729 0.629921
f 157/1316/232 156/1317/232 279/1318/232 278/1319/232 

vt -1.26541 0.393701
vn -0.153133 1.50267e-031 -0.988206
vt -1.24054 0.393701
vt -1.24054 0.629921
vt -1.26541 0.629921
f 156/1320/233 155/1321/233 280/1322/233 279/1323/233 

vt -1.39403 0.393701
vn -0.38951 1.14375e-031 -0.921022
vt -1.38409 0.393701
vt -1.38409 0.629921
vt -1.39403 0.629921
f 155/1324/234 154/1325/234 281/1326/234 280/1327/234 

vt -1.36568 0.393701
vn -0.35414 1.20438e-031 -0.935192
vt -1.32187 0.393701
vt -1.32187 0.629921
vt -1.36568 0.629921
f 154/1328/235 153/1329/235 282/1330/235 281/1331/235 

vt -1.30152 0.393701
vn -0.318257 1.26327e-031 -0.948005
vt -1.25771 0.393701
vt -1.25771 0.629921
vt -1.30152 0.629921
f 153/1332/236 152/1333/236 283/1334/236 282/1335/236 

vt -1.2355 0.393701
vn -0.281911 1.32031e-031 -0.959441
vt -1.19169 0.393701
vt -1.19169 0.629921
vt -1.2355 0.629921
f 152/1336/237 151/1337/237 284/1338/237 283/1339/237 

vt -1.16771 0.393701
vn -0.245156 1.37545e-031 -0.969484
vt -1.12391 0.393701
vt -1.12391 0.629921
vt -1.16771 0.629921
f 151/1340/238 150/1341/238 285/1342/238 284/1343/238 

vt -1.09827 0.393701
vn -0.208045 1.42858e-031 -0.978119
vt -1.05446 0.393701
vt -1.05446 0.629921
vt -1.09827 0.629921
f 150/1344/239 149/1345/239 286/1346/239 285/1347/239 

vt -1.02726 0.393701
vn -0.170632 1.47964e-031 -0.985335
vt -0.983454 0.393701
vt -0.983454 0.629921
vt -1.02726 0.629921
f 149/1348/240 135/1349/240 287/1350/240 286/1351/240 

vt -0.954791 0.393701
vn -0.132972 1.52855e-031 -0.99112
v 117.447 10 -145.552
vt -0.910985 0.393701
vt -0.910985 0.629921
vt -0.954791 0.629921
f 135/1352/241 435/1353/241 288/1354/241 287/1355/241 

vt -0.916585 0.141064
vn -0.132911 -0.0301838 -0.990668
vt -0.910985 0.41678
vt -0.954791 0.41678
f 127/1356/242 435/1357/242 135/1358/242

vt -0.880968 0.417181
vn -0.0950767 -0.0293889 -0.995036
vt -0.886881 0.141471
v 116.616 10 -145.473
vt -0.848106 0.417181
f 435/1359/243 127/1360/243 436/1361/243

v 116.34 10 -145.447
vt -0.837163 0.417181
f 127/1360/243 437/1362/243 436/1361/243

vt -0.839925 0.1342
vn -0.0380886 -0.0190443 -0.999093
vt -0.702229 0.409841
vt -0.789825 0.409841
f 127/1363/244 125/1364/244 437/1365/244

vt -0.789825 0.393701
vn -0.0380955 -1.03507e-017 -0.999274
vt -0.702229 0.393701
v 114.116 10.5 -145.362
vt -0.702229 0.413386
vt -0.702229 0.629921
vt -0.789825 0.629921
f 437/1366/245 125/1367/245 438/1368/245 290/1369/245 289/1370/245 

vt -0.635382 0.393701
vn 0.0380955 -2.42059e-015 -0.999274
vt -0.547786 0.393701
vt -0.547786 0.629921
vt -0.635382 0.629921
vt -0.635382 0.413386
f 125/1371/246 122/1372/246 124/1373/246 290/1374/246 438/1375/246 

vt -0.880968 0.393701
vn -0.0951178 -1.12803e-015 -0.995466
vt -0.848106 0.393701
vt -0.837163 0.393701
vt -0.837163 0.629921
vt -0.880968 0.629921
f 435/1376/247 436/1377/247 437/1378/247 289/1379/247 288/1380/247 

vt 0.427571 0
vt 0.501002 0
vt 0.501002 0.11811
vt 0.427571 0.11811
f 73/1381/27 104/1382/63 102/1383/63 74/1384/27 

vt -0.321459 0.600394
f 23/252/29 77/152/29 25/1385/29

vt -0.331292 0.576655
f 25/1385/29 77/152/29 27/1386/29

f 27/1386/29 77/152/29 29/153/29

