# Alias OBJ Model File
# Exported from SketchUp, (c) 2000-2012 Trimble Navigation Limited
# File units = millimeters

mtllib zaglushka_2.mtl

g Mesh1 Model

usemtl FrontColor
v 89.8046 -1 -70.9355
vt 3.86989 -0.0393701
vn -1.25978e-015 0 1
v 93.6869 -1 -71.4466
vt 4.02406 -0.0393701
vn 0.258819 0 0.965926
v 93.6869 0.7 -71.4466
vt 4.02406 0.0275591
v 89.8046 0.7 -70.9355
vt 3.86989 0.0275591
f 1/1/1 2/2/2 3/3/2 4/4/1 

vt -3.68846 2.81286
vn 0 -1 -0
vt -3.53562 2.79274
v 85.9224 -1 -71.4466
vt -3.38277 2.81286
v 82.3046 -1 -72.9451
vt -3.24034 2.87185
v 79.198 -1 -75.3289
vt -3.11803 2.9657
v 76.8143 -1 -78.4355
vt -3.02418 3.08801
v 75.3158 -1 -82.0532
vt -2.96519 3.23044
v 74.8046 -1 -85.9355
vt -2.94506 3.38329
v 75.3158 -1 -89.8178
vt -2.96519 3.53613
v 76.8143 -1 -93.4355
vt -3.02418 3.67856
v 79.198 -1 -96.5421
vt -3.11803 3.80087
v 82.3046 -1 -98.9259
vt -3.24034 3.89472
v 85.9224 -1 -100.424
vt -3.38277 3.95372
v 89.8046 -1 -100.935
vt -3.53562 3.97384
v 93.6869 -1 -100.424
vt -3.68846 3.95372
v 97.3046 -1 -98.9259
vt -3.83089 3.89472
v 100.411 -1 -96.5421
vt -3.9532 3.80087
v 102.795 -1 -93.4355
vt -4.04705 3.67856
v 104.294 -1 -89.8178
vt -4.10604 3.53613
v 104.805 -1 -85.9355
vt -4.12617 3.38329
v 104.294 -1 -82.0532
vt -4.10604 3.23044
v 102.795 -1 -78.4355
vt -4.04705 3.08801
v 100.411 -1 -75.3289
vt -3.9532 2.9657
v 97.3046 -1 -72.9451
vt -3.83089 2.87185
f 2/5/3 1/6/3 5/7/3 6/8/3 7/9/3 8/10/3 9/11/3 10/12/3 11/13/3 12/14/3 13/15/3 14/16/3 15/17/3 16/18/3 17/19/3 18/20/3 19/21/3 20/22/3 21/23/3 22/24/3 23/25/3 24/26/3 25/27/3 26/28/3 

vt 2.98668 -0.0393701
vn -0.258819 0 0.965926
vt 3.14084 -0.0393701
vt 3.14084 0.0275591
v 85.9224 0.7 -71.4466
vt 2.98668 0.0275591
f 5/29/4 1/30/1 4/31/1 27/32/4 

v 86.3139 0.7 -72.908
vt 3.39819 2.87039
vn 0 1 -0
vt 3.38277 2.81286
vt 3.53562 2.79274
f 28/33/5 27/34/5 4/35/5

v 83.0611 0.7 -74.2554
vt 3.27012 2.92344
f 29/36/5 27/34/5 28/33/5

v 82.3046 0.7 -72.9451
vt 3.24034 2.87185
f 29/36/5 30/37/5 27/34/5

v 80.2679 0.7 -76.3987
vt 3.16015 3.00782
f 31/38/5 30/37/5 29/36/5

v 79.198 0.7 -75.3289
vt 3.11803 2.9657
f 31/38/5 32/39/5 30/37/5

v 78.1245 0.7 -79.192
vt 3.07577 3.11779
f 33/40/5 32/39/5 31/38/5

v 76.8143 0.7 -78.4355
vt 3.02418 3.08801
f 33/40/5 34/41/5 32/39/5

v 76.7771 0.7 -82.4448
vt 3.02272 3.24586
f 35/42/5 34/41/5 33/40/5

v 76.3176 0.7 -85.9355
vt 3.00463 3.38329
f 36/43/5 34/41/5 35/42/5

v 75.3158 0.7 -89.8178
vt 2.96519 3.53613
f 37/44/5 34/41/5 36/43/5

v 75.3158 0.7 -82.0532
vt 2.96519 3.23044
f 37/44/5 38/45/5 34/41/5

v 74.8046 0.7 -85.9355
vt 2.94506 3.38329
f 38/45/5 37/44/5 39/46/5

vt -3.89292 -0.0393701
vn -0.965926 0 -0.258819
vt -3.73875 -0.0393701
vn -1 0 1.81968e-016
vt -3.73875 0.0275591
vt -3.89292 0.0275591
f 11/47/6 10/48/7 39/49/7 37/50/6 

vt -2.96993 -0.0393701
vt -2.81577 -0.0393701
vn -0.965926 0 0.258819
vt -2.81577 0.0275591
vt -2.96993 0.0275591
f 10/51/7 9/52/8 38/53/8 39/54/7 

vt -1.84981 -0.0393701
vt -1.69565 -0.0393701
vn -0.866025 0 0.5
vt -1.69565 0.0275591
vt -1.84981 0.0275591
f 9/55/8 8/56/9 34/57/9 38/58/8 

vt -0.608878 -0.0393701
vt -0.454713 -0.0393701
vn -0.707107 0 0.707107
vt -0.454713 0.0275591
vt -0.608878 0.0275591
f 8/59/9 7/60/10 32/61/10 34/62/9 

vt 0.668296 -0.0393701
vt 0.822461 -0.0393701
vn -0.5 0 0.866025
vt 0.822461 0.0275591
vt 0.668296 0.0275591
f 7/63/10 6/64/11 30/65/11 32/66/10 

vt 1.89467 -0.0393701
vt 2.04884 -0.0393701
vt 2.04884 0.0275591
vt 1.89467 0.0275591
f 6/67/11 5/68/4 27/69/4 30/70/11 

vt -4.55585 -0.0393701
vn -0.866025 0 -0.5
vt -4.40169 -0.0393701
vt -4.40169 0.0275591
v 76.8143 0.7 -93.4355
vt -4.55585 0.0275591
f 12/71/12 11/72/6 37/73/6 40/74/12 

vt 3.02418 3.67856
f 36/43/5 40/75/5 37/44/5

v 76.7771 0.7 -89.4262
vt 3.02272 3.52072
f 40/75/5 36/43/5 41/76/5

vt 3.88514 0.0275591
vn 0.965926 0 0.258819
vt 3.74653 0.0275591
vn 1 0 -1.56772e-015
v 76.3176 1.2778e-015 -85.9355
vt 3.74653 5.0307e-017
v 76.7771 1.2778e-015 -89.4262
vt 3.88514 5.0307e-017
f 41/77/13 36/78/14 42/79/14 43/80/13 

vt 2.96216 0.0275591
vt 2.82354 0.0275591
vn 0.965926 0 -0.258819
v 76.7771 1.2778e-015 -82.4448
vt 2.82354 5.0307e-017
vt 2.96216 5.0307e-017
f 36/81/14 35/82/15 44/83/15 42/84/14 

vt 1.84204 0.0275591
vt 1.70342 0.0275591
vn 0.866025 0 -0.5
v 78.1245 1.2778e-015 -79.192
vt 1.70342 5.0307e-017
vt 1.84204 5.0307e-017
f 35/85/15 33/86/16 45/87/16 44/88/15 

vt 0.601103 0.0275591
vt 0.462488 0.0275591
vn 0.707107 0 -0.707107
v 80.2679 1.2778e-015 -76.3987
vt 0.462488 5.0307e-017
vt 0.601103 5.0307e-017
f 33/89/16 31/90/17 46/91/17 45/92/16 

vt -0.676071 0.0275591
vt -0.814686 0.0275591
vn 0.5 0 -0.866025
v 83.0611 1.2778e-015 -74.2554
vt -0.814686 5.0307e-017
vt -0.676071 5.0307e-017
f 31/93/17 29/94/18 47/95/18 46/96/17 

vt -1.90245 0.0275591
vt -2.04106 0.0275591
vn 0.258819 0 -0.965926
v 86.3139 1.2778e-015 -72.908
vt -2.04106 5.0307e-017
vt -1.90245 5.0307e-017
f 29/97/18 28/98/19 48/99/19 47/100/18 

vt -2.99445 0.0275591
v 89.8046 0.7 -72.4484
vt -3.13307 0.0275591
vn 2.75752e-015 0 -1
v 89.8046 1.2778e-015 -72.4484
vt -3.13307 5.0307e-017
vt -2.99445 5.0307e-017
f 28/101/19 49/102/20 50/103/20 48/104/19 

vt 3.53562 2.8523
f 28/33/5 4/35/5 49/105/5

vt 3.68846 2.81286
f 49/105/5 4/35/5 3/106/5

v 93.2954 0.7 -72.908
vt 3.67305 2.87039
f 49/105/5 3/106/5 51/107/5

v 96.5482 0.7 -74.2554
vt 3.80111 2.92344
f 51/107/5 3/106/5 52/108/5

v 97.3046 0.7 -72.9451
vt 3.83089 2.87185
f 52/108/5 3/106/5 53/109/5

vt 4.48413 -0.0393701
vt 4.63829 -0.0393701
vn 0.5 0 0.866025
vt 4.63829 0.0275591
vt 4.48413 0.0275591
f 2/110/2 26/111/21 53/112/21 3/113/2 

vt 4.78752 -0.0393701
vt 4.94169 -0.0393701
vn 0.707107 0 0.707107
v 100.411 0.7 -75.3289
vt 4.94169 0.0275591
vt 4.78752 0.0275591
f 26/114/21 25/115/22 54/116/22 53/117/21 

vt 4.75941 -0.0393701
vt 4.91357 -0.0393701
vn 0.866025 0 0.5
v 102.795 0.7 -78.4355
vt 4.91357 0.0275591
vt 4.75941 0.0275591
f 25/118/22 24/119/23 55/120/23 54/121/22 

vt 4.40169 -0.0393701
vt 4.55585 -0.0393701
v 104.294 0.7 -82.0532
vt 4.55585 0.0275591
vt 4.40169 0.0275591
f 24/122/23 23/123/13 56/124/13 55/125/23 

vt 3.73875 -0.0393701
vt 3.89292 -0.0393701
vn 1 0 -1.81968e-016
v 104.805 0.7 -85.9355
vt 3.89292 0.0275591
vt 3.73875 0.0275591
f 23/126/13 22/127/24 57/128/24 56/129/13 

vt 2.81577 -0.0393701
vt 2.96993 -0.0393701
v 104.294 0.7 -89.8178
vt 2.96993 0.0275591
vt 2.81577 0.0275591
f 22/130/24 21/131/15 58/132/15 57/133/24 

vt 1.69565 -0.0393701
vt 1.84981 -0.0393701
v 102.795 0.7 -93.4355
vt 1.84981 0.0275591
vt 1.69565 0.0275591
f 21/134/15 20/135/16 59/136/16 58/137/15 

vt 0.454713 -0.0393701
vt 0.608878 -0.0393701
v 100.411 0.7 -96.5421
vt 0.608878 0.0275591
vt 0.454713 0.0275591
f 20/138/16 19/139/17 60/140/17 59/141/16 

vt -0.822461 -0.0393701
vt -0.668296 -0.0393701
v 97.3046 0.7 -98.9259
vt -0.668296 0.0275591
vt -0.822461 0.0275591
f 19/142/17 18/143/18 61/144/18 60/145/17 

vt -2.04884 -0.0393701
vt -1.89467 -0.0393701
v 93.6869 0.7 -100.424
vt -1.89467 0.0275591
vt -2.04884 0.0275591
f 18/146/18 17/147/19 62/148/19 61/149/18 

vt -3.14084 -0.0393701
vt -2.98668 -0.0393701
vn 0 0 -1
v 89.8046 0.7 -100.935
vt -2.98668 0.0275591
vt -3.14084 0.0275591
f 17/150/19 16/151/25 63/152/25 62/153/19 

vt -4.02406 -0.0393701
vt -3.86989 -0.0393701
vn -0.258819 0 -0.965926
v 85.9224 0.7 -100.424
vt -3.86989 0.0275591
vt -4.02406 0.0275591
f 16/154/25 15/155/26 64/156/26 63/157/25 

vt -4.63829 -0.0393701
vt -4.48413 -0.0393701
vn -0.5 0 -0.866025
v 82.3046 0.7 -98.9259
vt -4.48413 0.0275591
vt -4.63829 0.0275591
f 15/158/26 14/159/27 65/160/27 64/161/26 

vt -4.94169 -0.0393701
vt -4.78752 -0.0393701
vn -0.707107 0 -0.707107
v 79.198 0.7 -96.5421
vt -4.78752 0.0275591
vt -4.94169 0.0275591
f 14/162/27 13/163/28 66/164/28 65/165/27 

vt -4.91357 -0.0393701
vt -4.75941 -0.0393701
vt -4.75941 0.0275591
vt -4.91357 0.0275591
f 13/166/28 12/167/12 40/168/12 66/169/28 

v 78.1245 0.7 -92.679
vt 3.07577 3.64878
vt 3.11803 3.80087
f 40/75/5 67/170/5 66/171/5

f 40/75/5 41/76/5 67/170/5

vt 4.54808 0.0275591
vt 4.40946 0.0275591
vt 4.40946 5.0307e-017
v 78.1245 1.2778e-015 -92.679
vt 4.54808 5.0307e-017
f 67/172/23 41/173/13 43/174/13 68/175/23 

f 43/76/5 44/42/5 68/170/5

f 44/42/5 43/76/5 42/43/5

f 68/170/5 44/42/5 45/40/5

f 68/170/5 45/40/5 46/38/5

v 79.8046 0 -85.9355
vt 3.14192 3.38329
f 68/170/5 46/38/5 69/176/5

v 80.1454 0 -83.3473
vt 3.15533 3.28139
f 69/176/5 46/38/5 70/177/5

v 81.1444 0 -80.9355
vt 3.19466 3.18644
f 70/177/5 46/38/5 71/178/5

f 71/178/5 46/38/5 47/36/5

v 82.7336 0 -78.8644
vt 3.25723 3.1049
f 71/178/5 47/36/5 72/179/5

v 84.8046 0 -77.2752
vt 3.33877 3.04233
f 72/179/5 47/36/5 73/180/5

f 73/180/5 47/36/5 48/33/5

v 87.2165 0 -76.2762
vt 3.43372 3.003
f 73/180/5 48/33/5 74/181/5

f 74/181/5 48/33/5 50/105/5

v 89.8046 0 -75.9355
vt 3.53562 2.98959
f 74/181/5 50/105/5 75/182/5

v 93.2954 1.2778e-015 -72.908
f 75/182/5 50/105/5 76/107/5

vt -3.87767 0.0275591
vt -4.01628 0.0275591
vt -4.01628 5.0307e-017
vt -3.87767 5.0307e-017
f 49/183/20 51/184/26 76/185/26 50/186/20 

vt -4.4919 0.0275591
vt -4.63052 0.0275591
v 96.5482 1.2778e-015 -74.2554
vt -4.63052 5.0307e-017
vt -4.4919 5.0307e-017
f 51/187/26 52/188/27 77/189/27 76/190/26 

vt -4.7953 0.0275591
v 99.3414 0.7 -76.3987
vt -4.93391 0.0275591
v 99.3414 1.2778e-015 -76.3987
vt -4.93391 5.0307e-017
vt -4.7953 5.0307e-017
f 52/191/27 78/192/28 79/193/28 77/194/27 

vt 3.91108 3.00782
f 52/108/5 53/109/5 78/195/5

vt 3.9532 2.9657
f 78/195/5 53/109/5 54/196/5

v 101.485 0.7 -79.192
vt 3.99546 3.11779
f 78/195/5 54/196/5 80/197/5

vt 4.04705 3.08801
f 80/197/5 54/196/5 55/198/5

v 102.832 0.7 -82.4448
vt 4.04851 3.24586
f 80/197/5 55/198/5 81/199/5

vt 4.10604 3.23044
f 81/199/5 55/198/5 56/200/5

v 103.292 0.7 -85.9355
vt 4.0666 3.38329
f 81/199/5 56/200/5 82/201/5

vt 4.10604 3.53613
f 58/202/5 82/201/5 56/200/5

v 102.832 0.7 -89.4262
vt 4.04851 3.52072
f 58/202/5 83/203/5 82/201/5

vt 4.04705 3.67856
f 59/204/5 83/203/5 58/202/5

v 101.485 0.7 -92.679
vt 3.99546 3.64878
f 59/204/5 84/205/5 83/203/5

vt 3.9532 3.80087
f 60/206/5 84/205/5 59/204/5

v 99.3414 0.7 -95.4723
vt 3.91108 3.75875
f 60/206/5 85/207/5 84/205/5

vt 3.83089 3.89472
f 61/208/5 85/207/5 60/206/5

v 96.5482 0.7 -97.6156
vt 3.80111 3.84313
f 61/208/5 86/209/5 85/207/5

vt 3.68846 3.95372
f 62/210/5 86/209/5 61/208/5

v 93.2954 0.7 -98.963
vt 3.67305 3.89618
f 62/210/5 87/211/5 86/209/5

v 89.8046 0.7 -99.4225
vt 3.53562 3.91427
f 62/210/5 88/212/5 87/211/5

vt 3.53562 3.97384
f 63/213/5 88/212/5 62/210/5

v 86.3139 0.7 -98.963
vt 3.39819 3.89618
f 63/213/5 89/214/5 88/212/5

vt 3.38277 3.95372
f 64/215/5 89/214/5 63/213/5

v 83.0611 0.7 -97.6156
vt 3.27012 3.84313
f 64/215/5 90/216/5 89/214/5

vt 3.24034 3.89472
f 65/217/5 90/216/5 64/215/5

v 80.2679 0.7 -95.4723
vt 3.16015 3.75875
f 65/217/5 91/218/5 90/216/5

f 66/171/5 91/218/5 65/217/5

f 66/171/5 67/170/5 91/218/5

vt 4.9058 0.0275591
vt 4.76718 0.0275591
vt 4.76718 5.0307e-017
v 80.2679 1.2778e-015 -95.4723
vt 4.9058 5.0307e-017
f 91/219/22 67/220/23 68/221/23 92/222/22 

f 69/176/5 92/218/5 68/170/5

v 80.1454 0 -88.5237
vt 3.15533 3.48518
f 92/218/5 69/176/5 93/223/5

vt -3.86722 4.63505e-017
vn -0.965926 8.74355e-018 -0.258819
vt -3.76444 4.63505e-017
vn -0.991445 1.73375e-017 -0.130526
v 79.8046 0.5 -85.9355
vt -3.76444 0.019685
v 79.8046 1.5 -85.9355
vt -3.76444 0.0590551
v 80.1454 1.5 -88.5237
vt -3.86722 0.0590551
f 93/224/29 69/225/30 94/226/30 95/227/30 96/228/29 

vt -2.94424 0
vn -0.991445 0 0.130526
vt -2.84146 0
v 80.1454 0.5 -83.3473
vt -2.84146 0.019685
vt -2.94424 0.019685
f 69/229/31 70/230/31 97/231/31 94/232/31 

vt -1.82412 0
vn -0.92388 0 0.382683
vt -1.72134 0
v 81.1444 1.5 -80.9355
vt -1.72134 0.0590551
v 80.1454 1.5 -83.3473
vt -1.82412 0.0590551
vn -0.896873 1.69149e-016 -0.442289
vt -1.82412 0.019685
f 70/233/32 71/234/9 98/235/9 99/236/33 97/237/33 

vt -0.583184 0
vt -0.480407 0
v 82.7336 1.5 -78.8644
vt -0.480407 0.0590551
vt -0.583184 0.0590551
f 71/238/9 72/239/10 100/240/10 98/241/9 

vt 0.69399 0
vt 0.796766 0
v 84.8046 1.5 -77.2752
vt 0.796766 0.0590551
vt 0.69399 0.0590551
f 72/242/10 73/243/11 101/244/11 100/245/10 

vt 1.92037 0
vt 2.02314 0
vn -0.258819 8.74355e-018 0.965926
v 87.2165 1.5 -76.2762
vt 2.02314 0.0590551
vt 1.92037 0.0590551
f 73/246/11 74/247/34 102/248/34 101/249/11 

vt 3.01237 5.93896e-017
vt 3.11515 5.93896e-017
vn -0.130526 1.73375e-017 0.991445
v 89.8046 0.5 -75.9355
vt 3.11515 0.019685
v 89.8046 1.5 -75.9355
vt 3.11515 0.0590551
vt 3.01237 0.0590551
f 74/250/34 75/251/35 103/252/35 104/253/35 102/254/34 

vt 3.89559 0
vn 0.130526 0 0.991445
v 92.3928 0 -76.2762
vt 3.99836 0
v 92.3928 0.5 -76.2762
vt 3.99836 0.019685
vt 3.89559 0.019685
f 75/255/36 105/256/36 106/257/36 103/258/36 

vt 3.63751 3.003
f 75/182/5 76/107/5 105/259/5

v 94.8046 0 -77.2752
vt 3.73247 3.04233
f 105/259/5 76/107/5 107/260/5

f 107/260/5 76/107/5 77/108/5

v 96.8757 0 -78.8644
vt 3.814 3.1049
f 107/260/5 77/108/5 108/261/5

f 108/261/5 77/108/5 79/195/5

v 98.4649 0 -80.9355
vt 3.87657 3.18644
f 108/261/5 79/195/5 109/262/5

v 99.4639 0 -83.3473
vt 3.9159 3.28139
f 109/262/5 79/195/5 110/263/5

v 101.485 1.2778e-015 -79.192
f 110/263/5 79/195/5 111/197/5

vt -4.76718 0.0275591
vt -4.9058 0.0275591
vt -4.9058 5.0307e-017
vt -4.76718 5.0307e-017
f 78/264/28 80/265/12 111/266/12 79/267/28 

vt -4.40946 0.0275591
vt -4.54808 0.0275591
v 102.832 1.2778e-015 -82.4448
vt -4.54808 5.0307e-017
vt -4.40946 5.0307e-017
f 80/268/12 81/269/6 112/270/6 111/271/12 

vt -3.74653 0.0275591
vt -3.88514 0.0275591
vn -1 0 -6.29889e-016
v 103.292 1.2778e-015 -85.9355
vt -3.88514 5.0307e-017
vt -3.74653 5.0307e-017
f 81/272/6 82/273/37 113/274/37 112/275/6 

vt -2.82354 0.0275591
vt -2.96216 0.0275591
v 102.832 1.2778e-015 -89.4262
vt -2.96216 5.0307e-017
vt -2.82354 5.0307e-017
f 82/276/37 83/277/8 114/278/8 113/279/37 

vt -1.70342 0.0275591
vt -1.84204 0.0275591
v 101.485 1.2778e-015 -92.679
vt -1.84204 5.0307e-017
vt -1.70342 5.0307e-017
f 83/280/8 84/281/9 115/282/9 114/283/8 

vt -0.462488 0.0275591
vt -0.601103 0.0275591
v 99.3414 1.2778e-015 -95.4723
vt -0.601103 5.0307e-017
vt -0.462488 5.0307e-017
f 84/284/9 85/285/10 116/286/10 115/287/9 

vt 0.814686 0.0275591
vt 0.676071 0.0275591
v 96.5482 1.2778e-015 -97.6156
vt 0.676071 5.0307e-017
vt 0.814686 5.0307e-017
f 85/288/10 86/289/11 117/290/11 116/291/10 

vt 2.04106 0.0275591
vt 1.90245 0.0275591
v 93.2954 1.2778e-015 -98.963
vt 1.90245 5.0307e-017
vt 2.04106 5.0307e-017
f 86/292/11 87/293/4 118/294/4 117/295/11 

vt 3.13307 0.0275591
vt 2.99445 0.0275591
vn -1.1618e-015 0 1
v 89.8046 1.2778e-015 -99.4225
vt 2.99445 5.0307e-017
vt 3.13307 5.0307e-017
f 87/296/4 88/297/38 119/298/38 118/299/4 

vt 4.01628 0.0275591
vt 3.87767 0.0275591
v 86.3139 1.2778e-015 -98.963
vt 3.87767 5.0307e-017
vt 4.01628 5.0307e-017
f 88/300/38 89/301/2 120/302/2 119/303/38 

vt 4.63052 0.0275591
vt 4.4919 0.0275591
v 83.0611 1.2778e-015 -97.6156
vt 4.4919 5.0307e-017
vt 4.63052 5.0307e-017
f 89/304/2 90/305/21 121/306/21 120/307/2 

vt 4.93391 0.0275591
vt 4.7953 0.0275591
vt 4.7953 5.0307e-017
vt 4.93391 5.0307e-017
f 90/308/21 91/309/22 92/310/22 121/311/21 

v 81.1444 0 -90.9355
vt 3.19466 3.58014
f 92/218/5 122/312/5 121/216/5

f 92/218/5 93/223/5 122/312/5

vt -4.53016 0
vt -4.42738 0
vt -4.42738 0.0590551
v 81.1444 1.5 -90.9355
vt -4.53016 0.0590551
f 122/313/12 93/314/29 96/315/29 123/316/12 

v 77.8046 1.5 -85.9355
vt 3.06317 3.38329
v 82.7336 1.5 -93.0066
vt 3.25723 3.66168
v 84.8046 1.5 -94.5957
vt 3.33877 3.72424
v 87.2165 1.5 -95.5947
vt 3.43372 3.76357
v 86.6988 1.5 -97.5266
vt 3.41334 3.83963
v 83.8046 1.5 -96.3278
vt 3.2994 3.79243
v 81.3194 1.5 -94.4208
vt 3.20155 3.71735
v 79.4123 1.5 -91.9355
vt 3.12647 3.61951
v 78.2135 1.5 -89.0413
vt 3.07927 3.50556
f 124/317/5 95/176/5 96/223/5 123/312/5 125/318/5 126/319/5 127/320/5 128/321/5 129/322/5 130/323/5 131/324/5 132/325/5 

vt 3.06317 0.0590551
vn -1.7219e-016 1.07548e-015 1
vt 3.14192 0.0590551
vt 3.14192 0.019685
v 81.8046 0.5 -85.9355
vt 3.22066 0.019685
v 81.8046 5.83333 -85.9355
vt 3.22066 0.229659
v 79.8046 5.83333 -85.9355
vt 3.14192 0.229659
v 77.8046 3.5 -85.9355
vt 3.06317 0.137795
f 124/326/39 95/327/39 94/328/39 133/329/39 134/330/39 135/331/39 136/332/39 

v 97.8046 0.5 -85.9355
vt 3.85058 3.38329
v 99.8046 0.5 -85.9355
vt 3.92932 3.38329
v 99.4639 0.5 -88.5237
vt 3.9159 3.48518
v 97.5321 0.5 -88.006
vt 3.83984 3.4648
v 96.7328 0.5 -89.9355
vt 3.80838 3.54077
v 95.4615 0.5 -91.5923
vt 3.75833 3.606
v 93.8046 0.5 -92.8637
vt 3.6931 3.65605
v 91.8752 0.5 -93.6629
vt 3.61713 3.68752
v 89.8046 0.5 -93.9355
vt 3.53562 3.69825
v 89.8046 0.5 -95.9355
vt 3.53562 3.77699
v 87.2165 0.5 -95.5947
v 87.7341 0.5 -93.6629
vt 3.4541 3.68752
v 85.8046 0.5 -92.8637
vt 3.37814 3.65605
v 84.1478 0.5 -91.5923
vt 3.31291 3.606
v 82.8764 0.5 -89.9355
vt 3.26285 3.54077
v 82.0772 0.5 -88.006
vt 3.23139 3.4648
vt 3.22066 3.38329
v 82.0772 0.5 -83.8649
vt 3.23139 3.30177
v 82.8764 0.5 -81.9355
vt 3.26285 3.22581
v 84.1478 0.5 -80.2786
vt 3.31291 3.16058
v 85.8046 0.5 -79.0073
vt 3.37814 3.11052
v 87.7341 0.5 -78.2081
vt 3.4541 3.07906
v 89.8046 0.5 -77.9355
vt 3.53562 3.06833
v 91.8752 0.5 -78.2081
vt 3.61713 3.07906
v 93.8046 0.5 -79.0073
vt 3.6931 3.11052
v 95.4615 0.5 -80.2786
vt 3.75833 3.16058
v 96.7328 0.5 -81.9355
vt 3.80838 3.22581
v 97.5321 0.5 -83.8649
vt 3.83984 3.30177
f 137/333/5 138/334/5 139/335/5 140/336/5 141/337/5 142/338/5 143/339/5 144/340/5 145/341/5 146/342/5 147/320/5 148/343/5 149/344/5 150/345/5 151/346/5 152/347/5 133/348/5 94/176/5 97/177/5 153/349/5 154/350/5 155/351/5 156/352/5 157/353/5 158/354/5 103/182/5 106/259/5 159/355/5 160/356/5 161/357/5 162/358/5 163/359/5 

v 101.805 1.5 -85.9355
vt -4.00806 0.0590551
vn 1.7219e-016 1.07548e-015 -1
v 99.8046 1.5 -85.9355
vt -3.92932 0.0590551
vt -3.92932 0.019685
vt -3.85058 0.019685
v 97.8046 5.83333 -85.9355
vt -3.85058 0.229659
v 99.8046 5.83333 -85.9355
vt -3.92932 0.229659
v 101.805 3.5 -85.9355
vt -4.00806 0.137795
f 164/360/40 165/361/40 138/362/40 137/363/40 166/364/40 167/365/40 168/366/40 

vt 4.00806 3.38329
v 99.4639 1.5 -83.3473
v 98.4649 1.5 -80.9355
v 96.8757 1.5 -78.8644
v 94.8046 1.5 -77.2752
v 92.3928 1.5 -76.2762
v 92.9105 1.5 -74.3444
vt 3.65789 2.92694
v 95.8046 1.5 -75.5432
vt 3.77184 2.97414
v 98.2899 1.5 -77.4502
vt 3.86968 3.04922
v 100.197 1.5 -79.9355
vt 3.94476 3.14707
v 101.396 1.5 -82.8297
vt 3.99196 3.26101
f 164/367/5 165/334/5 169/263/5 170/262/5 171/261/5 172/260/5 173/259/5 174/368/5 175/369/5 176/370/5 177/371/5 178/372/5 

vt 3.76444 -5.98853e-017
vn 0.965926 8.74355e-018 0.258819
v 99.8046 0 -85.9355
vt 3.86722 -5.98853e-017
vn 0.991445 1.73375e-017 0.130526
vt 3.86722 0.019685
vt 3.86722 0.0590551
vt 3.76444 0.0590551
f 110/373/41 179/374/42 138/375/42 165/376/42 169/377/41 

f 110/263/5 111/197/5 179/334/5

f 115/205/5 179/334/5 111/197/5

v 99.4639 0 -88.5237
f 115/205/5 180/335/5 179/334/5

f 116/207/5 180/335/5 115/205/5

v 98.4649 0 -90.9355
vt 3.87657 3.58014
f 116/207/5 181/378/5 180/335/5

v 96.8757 0 -93.0066
vt 3.814 3.66168
f 116/207/5 182/379/5 181/378/5

f 117/209/5 182/379/5 116/207/5

v 94.8046 0 -94.5957
vt 3.73247 3.72424
f 117/209/5 183/380/5 182/379/5

f 118/211/5 183/380/5 117/209/5

v 92.3928 0 -95.5947
vt 3.63751 3.76357
f 118/211/5 184/381/5 183/380/5

f 119/212/5 184/381/5 118/211/5

v 89.8046 0 -95.9355
f 119/212/5 185/342/5 184/381/5

v 87.2165 0 -95.5947
f 119/212/5 186/320/5 185/342/5

f 120/214/5 186/320/5 119/212/5

v 84.8046 0 -94.5957
f 120/214/5 187/319/5 186/320/5

f 121/216/5 187/319/5 120/214/5

v 82.7336 0 -93.0066
f 121/216/5 188/318/5 187/319/5

f 121/216/5 122/312/5 188/318/5

vt -4.88788 0
vt -4.7851 0
vt -4.7851 0.0590551
vt -4.88788 0.0590551
f 188/382/28 122/383/12 123/384/12 125/385/28 

vt -4.916 0
vt -4.81322 0
vt -4.81322 0.0590551
vt -4.916 0.0590551
f 187/386/27 188/387/28 125/388/28 126/389/27 

vt -4.6126 0
vn -0.382683 0 -0.92388
vt -4.50982 0
vt -4.50982 0.0590551
vt -4.6126 0.0590551
vn 0.442289 7.35194e-016 -0.896873
vt -4.6126 0.019685
f 186/390/43 187/391/27 126/392/27 127/393/44 147/394/44 

v 87.7341 5.83333 -93.6629
vt 2.66788 0.229659
vn 0.965926 9.69494e-016 -0.258819
vt 2.66788 0.019685
vt 2.74662 0.019685
vt 2.74662 0.0590551
vt 2.82536 0.0590551
v 86.6988 3.5 -97.5266
vt 2.82536 0.137795
v 87.2165 5.83333 -95.5947
vt 2.74662 0.229659
f 189/395/45 148/396/45 147/397/44 127/398/44 128/399/45 190/400/45 191/401/45 

v 85.8046 5.83333 -92.8637
vt 4.5201 0.229659
vn 0.5 -3.48217e-018 0.866025
vt 4.5201 0.019685
vt 4.60232 0.019685
vn 0.382683 -4.8479e-031 0.92388
vt 4.60232 0.229659
f 192/402/46 149/403/46 148/404/47 189/405/47 

v 84.1478 5.83333 -91.5923
vt 4.8235 0.229659
vn 0.707107 3.33341e-031 0.707107
vt 4.8235 0.019685
vt 4.90572 0.019685
vt 4.90572 0.229659
f 193/406/48 150/407/48 149/408/46 192/409/46 

v 82.8764 5.83333 -89.9355
vt 4.79538 0.229659
vn 0.866025 3.48217e-018 0.5
vt 4.79538 0.019685
vt 4.8776 0.019685
vt 4.8776 0.229659
f 194/410/49 151/411/49 150/412/48 193/413/48 

v 82.0772 5.83333 -88.006
vt 4.43766 0.229659
vn 0.965926 1.08791e-018 0.258819
vt 4.43766 0.019685
vt 4.51988 0.019685
vt 4.51988 0.229659
f 195/414/50 152/415/50 151/416/49 194/417/49 

vt 3.77472 0.229659
vn 0.991445 2.1572e-018 0.130526
vt 3.77472 0.019685
vt 3.85694 0.019685
vt 3.85694 0.229659
f 134/418/51 133/419/51 152/420/50 195/421/50 

v 84.8046 5.83333 -94.5957
v 82.7336 5.83333 -93.0066
v 81.1444 5.83333 -90.9355
v 80.1454 5.83333 -88.5237
f 192/344/5 189/343/5 191/320/5 196/319/5 197/318/5 198/312/5 199/223/5 135/176/5 134/348/5 195/347/5 194/346/5 193/345/5 

v 83.8046 3.5 -96.3278
vt -4.49955 -1.34627
vn -0.379628 0.650791 -0.657536
vt -4.50982 -1.22572
vt -4.6126 -1.22572
vn -0.291609 0.647564 -0.704006
vt -4.62288 -1.34627
f 200/422/52 196/423/52 191/424/53 190/425/53 

v 81.3194 3.5 -94.4208
vt -4.80294 -0.542689
vn -0.536875 0.650791 -0.536875
vt -4.81322 -0.422135
vt -4.916 -0.422135
vt -4.92627 -0.542689
f 201/426/54 197/427/54 196/428/52 200/429/52 

v 79.4123 3.5 -91.9355
vt -4.77482 0.284363
vn -0.657536 0.650791 -0.379628
vt -4.7851 0.404917
vt -4.88788 0.404917
vt -4.89815 0.284363
f 202/430/55 198/431/55 197/432/54 201/433/54 

v 78.2135 3.5 -89.0413
vt -4.41711 1.07852
vn -0.733386 0.650791 -0.19651
vt -4.42738 1.19908
vt -4.53016 1.19908
vt -4.54044 1.07852
f 203/434/56 199/435/56 198/436/55 202/437/55 

vt -3.75417 1.78566
vn -0.755492 0.647564 -0.0994624
vt -3.76444 1.90622
vt -3.86722 1.90622
vt -3.8775 1.78566
f 136/438/57 135/439/57 199/440/56 203/441/56 

vt -3.75417 0.0590551
vn -0.991445 0 -0.130526
vt -3.75417 0.137795
vt -3.8775 0.137795
vt -3.8775 0.0590551
f 124/442/58 136/443/58 203/444/6 132/445/6 

vt -4.41711 0.0590551
vt -4.41711 0.137795
vt -4.54044 0.137795
vt -4.54044 0.0590551
f 132/446/6 203/447/6 202/448/12 131/449/12 

vt -4.77482 0.0590551
vt -4.77482 0.137795
vt -4.89815 0.137795
vt -4.89815 0.0590551
f 131/450/12 202/451/12 201/452/28 130/453/28 

vt -4.80294 0.0590551
vt -4.80294 0.137795
vt -4.92627 0.137795
vt -4.92627 0.0590551
f 130/454/28 201/455/28 200/456/27 129/457/27 

vt -4.49955 0.0590551
vt -4.49955 0.137795
vt -4.62288 0.137795
vt -4.62288 0.0590551
f 129/458/27 200/459/27 190/460/43 128/461/43 

vt -3.99836 0
vn -0.130526 0 -0.991445
vt -3.89559 0
vt -3.89559 0.019685
vt -3.99836 0.019685
f 185/462/59 186/463/59 147/464/59 146/465/59 

vt -3.11515 -7.29244e-017
vn 0.258819 8.74355e-018 -0.965926
vt -3.01237 -7.29244e-017
vn 0.130526 1.73375e-017 -0.991445
vt -3.01237 0.019685
v 89.8046 1.5 -95.9355
vt -3.01237 0.0590551
v 92.3928 1.5 -95.5947
vt -3.11515 0.0590551
f 184/466/60 185/467/61 146/468/61 204/469/61 205/470/60 

v 89.8046 1.5 -97.9355
vt -3.85573 0.0590551
vn -1 0 -0
vt -3.77699 0.0590551
vt -3.77699 0.019685
vt -3.69825 0.019685
v 89.8046 5.83333 -93.9355
vt -3.69825 0.229659
v 89.8046 5.83333 -95.9355
vt -3.77699 0.229659
v 89.8046 3.5 -97.9355
vt -3.85573 0.137795
f 206/471/62 204/472/62 146/473/62 145/474/62 207/475/62 208/476/62 209/477/62 

vt 3.53562 3.85573
v 94.8046 1.5 -94.5957
v 96.8757 1.5 -93.0066
v 98.4649 1.5 -90.9355
v 99.4639 1.5 -88.5237
v 101.396 1.5 -89.0413
vt 3.99196 3.50556
v 100.197 1.5 -91.9355
vt 3.94476 3.61951
v 98.2899 1.5 -94.4208
vt 3.86968 3.71735
v 95.8046 1.5 -96.3278
vt 3.77184 3.79243
v 92.9105 1.5 -97.5266
vt 3.65789 3.83963
f 206/478/5 204/342/5 205/381/5 210/380/5 211/379/5 212/378/5 213/335/5 214/479/5 215/480/5 216/481/5 217/482/5 218/483/5 

vt -2.02314 0
vt -1.92037 0
vt -1.92037 0.0590551
vt -2.02314 0.0590551
f 183/484/18 184/485/60 205/486/60 210/487/18 

vt -0.796766 0
vt -0.69399 0
vt -0.69399 0.0590551
vt -0.796766 0.0590551
f 182/488/17 183/489/18 210/490/18 211/491/17 

vt 0.480407 0
vt 0.583184 0
vt 0.583184 0.0590551
vt 0.480407 0.0590551
f 181/492/16 182/493/17 211/494/17 212/495/16 

vt 1.72134 0
vn 0.92388 0 -0.382683
vt 1.82412 0
vt 1.82412 0.0590551
vt 1.72134 0.0590551
vn 0.896873 -7.27297e-017 0.442289
vt 1.72134 0.019685
f 180/496/63 181/497/16 212/498/16 213/499/64 139/500/64 

v 97.5321 5.83333 -88.006
vt 4.60576 0.229659
vn 0.258819 -9.59081e-017 0.965926
vt 4.60576 0.019685
vt 4.6845 0.019685
vt 4.6845 0.0590551
vt 4.76324 0.0590551
v 101.396 3.5 -89.0413
vt 4.76324 0.137795
v 99.4639 5.83333 -88.5237
vt 4.6845 0.229659
f 219/501/65 140/502/65 139/503/64 213/504/64 214/505/65 220/506/65 221/507/65 

v 96.7328 5.83333 -89.9355
vt -1.81384 0.229659
vn -0.866025 -3.48217e-018 0.5
vt -1.81384 0.019685
vt -1.73162 0.019685
vn -0.92388 -9.6958e-031 0.382683
vt -1.73162 0.229659
f 222/508/66 141/509/66 140/510/67 219/511/67 

v 95.4615 5.83333 -91.5923
vt -0.572906 0.229659
vn -0.707107 -3.48217e-018 0.707107
vt -0.572906 0.019685
vt -0.490685 0.019685
vt -0.490685 0.229659
f 223/512/68 142/513/68 141/514/66 222/515/66 

v 93.8046 5.83333 -92.8637
vt 0.704268 0.229659
vn -0.5 -2.71622e-031 0.866025
vt 0.704268 0.019685
vt 0.786489 0.019685
vt 0.786489 0.229659
f 224/516/69 143/517/69 142/518/68 223/519/68 

v 91.8752 5.83333 -93.6629
vt 1.93064 0.229659
vn -0.258819 1.08791e-018 0.965926
vt 1.93064 0.019685
vt 2.01287 0.019685
vt 2.01287 0.229659
f 225/520/70 144/521/70 143/522/69 224/523/69 

vt 3.02265 0.229659
vn -0.130526 2.1572e-018 0.991445
vt 3.02265 0.019685
vt 3.10487 0.019685
vt 3.10487 0.229659
f 207/524/71 145/525/71 144/526/70 225/527/70 

v 92.3928 5.83333 -95.5947
v 98.4649 5.83333 -90.9355
v 96.8757 5.83333 -93.0066
v 94.8046 5.83333 -94.5957
f 226/381/5 208/342/5 207/341/5 225/340/5 224/339/5 223/338/5 222/337/5 219/336/5 221/335/5 227/378/5 228/379/5 229/380/5 

vt -3.00209 -2.66931
vn 0.0994624 0.647564 -0.755492
vt -3.01237 -2.54876
vt -3.11515 -2.54876
vn 0.19651 0.650791 -0.733386
v 92.9105 3.5 -97.5266
vt -3.12543 -2.66931
f 209/528/72 208/529/72 226/530/73 230/531/73 

vt -1.91009 -3.09861
vt -1.92037 -2.97806
vt -2.02314 -2.97806
vn 0.379628 0.650791 -0.657536
v 95.8046 3.5 -96.3278
vt -2.03342 -3.09861
f 230/532/73 226/533/73 229/534/74 231/535/74 

vt -0.683712 -3.33025
vt -0.69399 -3.2097
vt -0.796766 -3.2097
vn 0.536875 0.650791 -0.536875
v 98.2899 3.5 -94.4208
vt -0.807044 -3.33025
f 231/536/74 229/537/74 228/538/75 232/539/75 

vt 0.593461 -3.34846
vt 0.583184 -3.22791
vt 0.480407 -3.22791
vn 0.657536 0.650791 -0.379628
v 100.197 3.5 -91.9355
vt 0.470129 -3.34846
f 232/540/75 228/541/75 227/542/76 233/543/76 

vt 1.83439 -3.15199
vt 1.82412 -3.03144
vt 1.72134 -3.03144
vn 0.704006 0.647564 -0.291609
vt 1.71106 -3.15199
f 233/544/76 227/545/76 221/546/77 220/547/77 

vt 1.83439 0.0590551
vt 1.83439 0.137795
vt 1.71106 0.137795
vt 1.71106 0.0590551
f 215/548/16 233/549/16 220/550/63 214/551/63 

vt 0.593461 0.0590551
vt 0.593461 0.137795
vt 0.470129 0.137795
vt 0.470129 0.0590551
f 216/552/17 232/553/17 233/554/16 215/555/16 

vt -0.683712 0.0590551
vt -0.683712 0.137795
vt -0.807044 0.137795
vt -0.807044 0.0590551
f 217/556/18 231/557/18 232/558/17 216/559/17 

vt -1.91009 0.0590551
vt -1.91009 0.137795
vt -2.03342 0.137795
vt -2.03342 0.0590551
f 218/560/19 230/561/19 231/562/18 217/563/18 

vt -3.00209 0.0590551
vn 0.130526 0 -0.991445
vt -3.00209 0.137795
vt -3.12543 0.137795
vt -3.12543 0.0590551
f 206/564/78 209/565/78 230/566/19 218/567/19 

vt 2.84146 0
vn 0.991445 0 -0.130526
vt 2.94424 0
vt 2.94424 0.019685
vt 2.84146 0.019685
f 179/568/79 180/569/79 139/570/79 138/571/79 

f 115/205/5 111/197/5 112/199/5

f 115/205/5 112/199/5 114/203/5

f 114/203/5 112/199/5 113/201/5

vt 4.42738 0
vt 4.53016 0
vt 4.53016 0.0590551
vt 4.42738 0.0590551
f 109/572/23 110/573/41 169/574/41 170/575/23 

vt 4.7851 0
vt 4.88788 0
vt 4.88788 0.0590551
vt 4.7851 0.0590551
f 108/576/22 109/577/23 170/578/23 171/579/22 

vt 4.81322 0
vn 0.5 3.8368e-031 0.866025
vt 4.916 0
vt 4.916 0.0590551
vt 4.81322 0.0590551
f 107/580/80 108/581/22 171/582/22 172/583/80 

vt 4.50982 1.05172e-030
vn 0.382683 7.60795e-031 0.92388
vt 4.6126 1.05172e-030
vt 4.6126 0.0590551
vt 4.50982 0.0590551
vn -0.442289 -1.19983e-015 0.896873
vt 4.50982 0.019685
f 105/584/81 107/585/80 172/586/80 173/587/82 106/588/82 

v 91.8752 5.83333 -78.2081
vt -2.03796 0.229659
vn -0.965926 -1.58221e-015 0.258819
vt -2.03796 0.019685
vt -1.95922 0.019685
vt -1.95922 0.0590551
vt -1.88048 0.0590551
v 92.9105 3.5 -74.3444
vt -1.88048 0.137795
v 92.3928 5.83333 -76.2762
vt -1.95922 0.229659
f 234/589/83 159/590/83 106/591/82 173/592/82 174/593/83 235/594/83 236/595/83 

v 93.8046 5.83333 -79.0073
vt -4.60232 0.229659
vn -0.5 6.96434e-018 -0.866025
vt -4.60232 0.019685
vt -4.5201 0.019685
vn -0.382683 -8.27588e-031 -0.92388
vt -4.5201 0.229659
f 237/596/84 160/597/84 159/598/85 234/599/85 

v 95.4615 5.83333 -80.2786
vt -4.90572 0.229659
vn -0.707107 -3.24017e-031 -0.707107
vt -4.90572 0.019685
vt -4.8235 0.019685
vt -4.8235 0.229659
f 238/600/86 161/601/86 160/602/84 237/603/84 

v 96.7328 5.83333 -81.9355
vt -4.8776 0.229659
vn -0.866025 -6.96434e-018 -0.5
vt -4.8776 0.019685
vt -4.79538 0.019685
vt -4.79538 0.229659
f 239/604/87 162/605/87 161/606/86 238/607/86 

v 97.5321 5.83333 -83.8649
vt -4.51988 0.229659
vn -0.965926 1.08791e-018 -0.258819
vt -4.51988 0.019685
vt -4.43766 0.019685
vt -4.43766 0.229659
f 240/608/88 163/609/88 162/610/87 239/611/87 

vt -3.85694 0.229659
vn -0.991445 2.1572e-018 -0.130526
vt -3.85694 0.019685
vt -3.77472 0.019685
vt -3.77472 0.229659
f 166/612/89 137/613/89 163/614/88 240/615/88 

v 94.8046 5.83333 -77.2752
v 96.8757 5.83333 -78.8644
v 98.4649 5.83333 -80.9355
v 99.4639 5.83333 -83.3473
f 237/356/5 234/355/5 236/259/5 241/260/5 242/261/5 243/262/5 244/263/5 167/334/5 166/333/5 240/359/5 239/358/5 238/357/5 

v 95.8046 3.5 -75.5432
vt 4.62288 0.949638
vn 0.379628 0.650791 0.657536
vt 4.6126 1.07019
vt 4.50982 1.07019
vn 0.291609 0.647564 0.704006
vt 4.49955 0.949638
f 245/616/90 241/617/90 236/618/91 235/619/91 

v 98.2899 3.5 -77.4502
vt 4.92627 0.146055
vn 0.536875 0.650791 0.536875
vt 4.916 0.266609
vt 4.81322 0.266609
vt 4.80294 0.146055
f 246/620/92 242/621/92 241/622/90 245/623/90 

v 100.197 3.5 -79.9355
vt 4.89815 -0.680997
vn 0.657536 0.650791 0.379628
vt 4.88788 -0.560443
vt 4.7851 -0.560443
vt 4.77482 -0.680997
f 247/624/93 243/625/93 242/626/92 246/627/92 

v 101.396 3.5 -82.8297
vt 4.54044 -1.47516
vn 0.733386 0.650791 0.19651
vt 4.53016 -1.3546
vt 4.42738 -1.3546
vt 4.41711 -1.47516
f 248/628/94 244/629/94 243/630/93 247/631/93 

vt 3.8775 -2.1823
vn 0.755492 0.647564 0.0994624
vt 3.86722 -2.06175
vt 3.76444 -2.06175
vt 3.75417 -2.1823
f 168/632/95 167/633/95 244/634/94 248/635/94 

vt 3.8775 0.0590551
vn 0.991445 0 0.130526
vt 3.8775 0.137795
vt 3.75417 0.137795
vt 3.75417 0.0590551
f 164/636/96 168/637/96 248/638/13 178/639/13 

vt 4.54044 0.0590551
vt 4.54044 0.137795
vt 4.41711 0.137795
vt 4.41711 0.0590551
f 178/640/13 248/641/13 247/642/23 177/643/23 

vt 4.89815 0.0590551
vt 4.89815 0.137795
vt 4.77482 0.137795
vt 4.77482 0.0590551
f 177/644/23 247/645/23 246/646/22 176/647/22 

vt 4.92627 0.0590551
vt 4.92627 0.137795
vt 4.80294 0.137795
vt 4.80294 0.0590551
f 176/648/22 246/649/22 245/650/21 175/651/21 

vt 4.62288 0.0590551
vt 4.62288 0.137795
vt 4.49955 0.137795
vn 0.382683 0 0.92388
vt 4.49955 0.0590551
f 175/652/21 245/653/21 235/654/97 174/655/97 

v 82.0772 5.83333 -83.8649
vt -3.97584 0.229659
vn -0.258819 2.23055e-016 -0.965926
vt -3.97584 0.019685
vt -3.8971 0.019685
vt -3.8971 0.0590551
v 78.2135 1.5 -82.8297
vt -3.81836 0.0590551
v 78.2135 3.5 -82.8297
vt -3.81836 0.137795
v 80.1454 5.83333 -83.3473
vt -3.8971 0.229659
f 249/656/98 153/657/98 97/658/33 99/659/33 250/660/98 251/661/98 252/662/98 

v 82.8764 5.83333 -81.9355
vt 1.73162 0.229659
vn 0.866025 6.96434e-018 -0.5
vt 1.73162 0.019685
vt 1.81384 0.019685
vt 1.81384 0.229659
f 253/663/99 154/664/99 153/665/63 249/666/63 

v 84.1478 5.83333 -80.2786
vt 0.490685 0.229659
vn 0.707107 6.96434e-018 -0.707107
vt 0.490685 0.019685
vt 0.572906 0.019685
vt 0.572906 0.229659
f 254/667/100 155/668/100 154/669/99 253/670/99 

v 85.8046 5.83333 -79.0073
vt -0.786489 0.229659
vn 0.5 8.11523e-031 -0.866025
vt -0.786489 0.019685
vt -0.704268 0.019685
vt -0.704268 0.229659
f 255/671/101 156/672/101 155/673/100 254/674/100 

v 87.7341 5.83333 -78.2081
vt -2.01287 0.229659
vn 0.258819 1.08791e-018 -0.965926
vt -2.01287 0.019685
vt -1.93064 0.019685
vt -1.93064 0.229659
f 256/675/102 157/676/102 156/677/101 255/678/101 

v 89.8046 5.83333 -77.9355
vt -3.10487 0.229659
vn 0.130526 2.1572e-018 -0.991445
vt -3.10487 0.019685
vt -3.02265 0.019685
vt -3.02265 0.229659
f 257/679/103 158/680/103 157/681/102 256/682/102 

v 89.8046 1.5 -73.9355
vt 2.91085 0.0590551
vn 1 -1.69367e-017 -3.03732e-015
vt 2.98959 0.0590551
vt 2.98959 0.019685
vt 3.06833 0.019685
vt 3.06833 0.229659
v 89.8046 5.83333 -75.9355
vt 2.98959 0.229659
v 89.8046 3.5 -73.9355
vt 2.91085 0.137795
f 258/683/104 104/684/104 103/685/104 158/686/104 257/687/104 259/688/104 260/689/104 

vt 3.07927 3.26101
v 79.4123 1.5 -79.9355
vt 3.12647 3.14707
v 81.3194 1.5 -77.4502
vt 3.20155 3.04922
v 83.8046 1.5 -75.5432
vt 3.2994 2.97414
v 86.6988 1.5 -74.3444
vt 3.41334 2.92694
vt 3.53562 2.91085
f 99/177/5 250/690/5 261/691/5 262/692/5 263/693/5 264/694/5 258/695/5 104/182/5 102/181/5 101/180/5 100/179/5 98/178/5 

vt -1.71106 0.0590551
v 79.4123 3.5 -79.9355
vt -1.71106 0.137795
vt -1.83439 0.137795
vt -1.83439 0.0590551
f 261/696/9 265/697/9 251/698/32 250/699/32 

vt -0.470129 0.0590551
v 81.3194 3.5 -77.4502
vt -0.470129 0.137795
vt -0.593461 0.137795
vt -0.593461 0.0590551
f 262/700/10 266/701/10 265/702/9 261/703/9 

vt 0.807044 0.0590551
v 83.8046 3.5 -75.5432
vt 0.807044 0.137795
vt 0.683712 0.137795
vt 0.683712 0.0590551
f 263/704/11 267/705/11 266/706/10 262/707/10 

vt 2.03342 0.0590551
v 86.6988 3.5 -74.3444
vt 2.03342 0.137795
vt 1.91009 0.137795
vt 1.91009 0.0590551
f 264/708/4 268/709/4 267/710/11 263/711/11 

vt 3.12543 0.0590551
vn -0.130526 0 0.991445
vt 3.12543 0.137795
vt 3.00209 0.137795
vt 3.00209 0.0590551
f 258/712/105 260/713/105 268/714/4 264/715/4 

vt 3.12543 2.27268
vn -0.0994624 0.647564 0.755492
vt 3.11515 2.39323
v 87.2165 5.83333 -76.2762
vt 3.01237 2.39323
vn -0.19651 0.650791 0.733386
vt 3.00209 2.27268
f 260/716/106 259/717/106 269/718/107 268/719/107 

v 81.1444 5.83333 -80.9355
v 82.7336 5.83333 -78.8644
v 84.8046 5.83333 -77.2752
f 269/181/5 259/182/5 257/354/5 256/353/5 255/352/5 254/351/5 253/350/5 249/349/5 252/177/5 270/178/5 271/179/5 272/180/5 

vt -1.71106 2.75536
vn -0.657536 0.650791 0.379628
vt -1.72134 2.87591
vt -1.82412 2.87591
vn -0.704006 0.647564 0.291609
vt -1.83439 2.75536
f 265/720/108 270/721/108 252/722/109 251/723/109 

vt -0.470129 2.95183
vn -0.536875 0.650791 0.536875
vt -0.480407 3.07238
vt -0.583184 3.07238
vt -0.593461 2.95183
f 266/724/110 271/725/110 270/726/108 265/727/108 

vt 0.807044 2.93362
vn -0.379628 0.650791 0.657536
vt 0.796766 3.05417
vt 0.69399 3.05417
vt 0.683712 2.93362
f 267/728/111 272/729/111 271/730/110 266/731/110 

vt 2.03342 2.70198
vt 2.02314 2.82253
vt 1.92037 2.82253
vt 1.91009 2.70198
f 268/732/107 269/733/107 272/734/111 267/735/111 

vt 4.12617 3.38329
f 58/202/5 56/200/5 57/736/5

