(kicad_sch
	(version 20231120)
	(generator "eeschema")
	(generator_version "8.0")
	(uuid "9b9e251d-df40-4f16-880b-dab0a6782a23")
	(paper "A4")
	(lib_symbols
		(symbol "Connector:Conn_01x02_Socket"
			(pin_names
				(offset 1.016) hide)
			(exclude_from_sim no)
			(in_bom yes)
			(on_board yes)
			(property "Reference" "J"
				(at 0 2.54 0)
				(effects
					(font
						(size 1.27 1.27)
					)
				)
			)
			(property "Value" "Conn_01x02_Socket"
				(at 0 -5.08 0)
				(effects
					(font
						(size 1.27 1.27)
					)
				)
			)
			(property "Footprint" ""
				(at 0 0 0)
				(effects
					(font
						(size 1.27 1.27)
					)
					(hide yes)
				)
			)
			(property "Datasheet" "~"
				(at 0 0 0)
				(effects
					(font
						(size 1.27 1.27)
					)
					(hide yes)
				)
			)
			(property "Description" "Generic connector, single row, 01x02, script generated"
				(at 0 0 0)
				(effects
					(font
						(size 1.27 1.27)
					)
					(hide yes)
				)
			)
			(property "ki_locked" ""
				(at 0 0 0)
				(effects
					(font
						(size 1.27 1.27)
					)
				)
			)
			(property "ki_keywords" "connector"
				(at 0 0 0)
				(effects
					(font
						(size 1.27 1.27)
					)
					(hide yes)
				)
			)
			(property "ki_fp_filters" "Connector*:*_1x??_*"
				(at 0 0 0)
				(effects
					(font
						(size 1.27 1.27)
					)
					(hide yes)
				)
			)
			(symbol "Conn_01x02_Socket_1_1"
				(arc
					(start 0 -2.032)
					(mid -0.5058 -2.54)
					(end 0 -3.048)
					(stroke
						(width 0.1524)
						(type default)
					)
					(fill
						(type none)
					)
				)
				(polyline
					(pts
						(xy -1.27 -2.54) (xy -0.508 -2.54)
					)
					(stroke
						(width 0.1524)
						(type default)
					)
					(fill
						(type none)
					)
				)
				(polyline
					(pts
						(xy -1.27 0) (xy -0.508 0)
					)
					(stroke
						(width 0.1524)
						(type default)
					)
					(fill
						(type none)
					)
				)
				(arc
					(start 0 0.508)
					(mid -0.5058 0)
					(end 0 -0.508)
					(stroke
						(width 0.1524)
						(type default)
					)
					(fill
						(type none)
					)
				)
				(pin passive line
					(at -5.08 0 0)
					(length 3.81)
					(name "Pin_1"
						(effects
							(font
								(size 1.27 1.27)
							)
						)
					)
					(number "1"
						(effects
							(font
								(size 1.27 1.27)
							)
						)
					)
				)
				(pin passive line
					(at -5.08 -2.54 0)
					(length 3.81)
					(name "Pin_2"
						(effects
							(font
								(size 1.27 1.27)
							)
						)
					)
					(number "2"
						(effects
							(font
								(size 1.27 1.27)
							)
						)
					)
				)
			)
		)
		(symbol "Connector:Conn_01x04_Socket"
			(pin_names
				(offset 1.016) hide)
			(exclude_from_sim no)
			(in_bom yes)
			(on_board yes)
			(property "Reference" "J"
				(at 0 5.08 0)
				(effects
					(font
						(size 1.27 1.27)
					)
				)
			)
			(property "Value" "Conn_01x04_Socket"
				(at 0 -7.62 0)
				(effects
					(font
						(size 1.27 1.27)
					)
				)
			)
			(property "Footprint" ""
				(at 0 0 0)
				(effects
					(font
						(size 1.27 1.27)
					)
					(hide yes)
				)
			)
			(property "Datasheet" "~"
				(at 0 0 0)
				(effects
					(font
						(size 1.27 1.27)
					)
					(hide yes)
				)
			)
			(property "Description" "Generic connector, single row, 01x04, script generated"
				(at 0 0 0)
				(effects
					(font
						(size 1.27 1.27)
					)
					(hide yes)
				)
			)
			(property "ki_locked" ""
				(at 0 0 0)
				(effects
					(font
						(size 1.27 1.27)
					)
				)
			)
			(property "ki_keywords" "connector"
				(at 0 0 0)
				(effects
					(font
						(size 1.27 1.27)
					)
					(hide yes)
				)
			)
			(property "ki_fp_filters" "Connector*:*_1x??_*"
				(at 0 0 0)
				(effects
					(font
						(size 1.27 1.27)
					)
					(hide yes)
				)
			)
			(symbol "Conn_01x04_Socket_1_1"
				(arc
					(start 0 -4.572)
					(mid -0.5058 -5.08)
					(end 0 -5.588)
					(stroke
						(width 0.1524)
						(type default)
					)
					(fill
						(type none)
					)
				)
				(arc
					(start 0 -2.032)
					(mid -0.5058 -2.54)
					(end 0 -3.048)
					(stroke
						(width 0.1524)
						(type default)
					)
					(fill
						(type none)
					)
				)
				(polyline
					(pts
						(xy -1.27 -5.08) (xy -0.508 -5.08)
					)
					(stroke
						(width 0.1524)
						(type default)
					)
					(fill
						(type none)
					)
				)
				(polyline
					(pts
						(xy -1.27 -2.54) (xy -0.508 -2.54)
					)
					(stroke
						(width 0.1524)
						(type default)
					)
					(fill
						(type none)
					)
				)
				(polyline
					(pts
						(xy -1.27 0) (xy -0.508 0)
					)
					(stroke
						(width 0.1524)
						(type default)
					)
					(fill
						(type none)
					)
				)
				(polyline
					(pts
						(xy -1.27 2.54) (xy -0.508 2.54)
					)
					(stroke
						(width 0.1524)
						(type default)
					)
					(fill
						(type none)
					)
				)
				(arc
					(start 0 0.508)
					(mid -0.5058 0)
					(end 0 -0.508)
					(stroke
						(width 0.1524)
						(type default)
					)
					(fill
						(type none)
					)
				)
				(arc
					(start 0 3.048)
					(mid -0.5058 2.54)
					(end 0 2.032)
					(stroke
						(width 0.1524)
						(type default)
					)
					(fill
						(type none)
					)
				)
				(pin passive line
					(at -5.08 2.54 0)
					(length 3.81)
					(name "Pin_1"
						(effects
							(font
								(size 1.27 1.27)
							)
						)
					)
					(number "1"
						(effects
							(font
								(size 1.27 1.27)
							)
						)
					)
				)
				(pin passive line
					(at -5.08 0 0)
					(length 3.81)
					(name "Pin_2"
						(effects
							(font
								(size 1.27 1.27)
							)
						)
					)
					(number "2"
						(effects
							(font
								(size 1.27 1.27)
							)
						)
					)
				)
				(pin passive line
					(at -5.08 -2.54 0)
					(length 3.81)
					(name "Pin_3"
						(effects
							(font
								(size 1.27 1.27)
							)
						)
					)
					(number "3"
						(effects
							(font
								(size 1.27 1.27)
							)
						)
					)
				)
				(pin passive line
					(at -5.08 -5.08 0)
					(length 3.81)
					(name "Pin_4"
						(effects
							(font
								(size 1.27 1.27)
							)
						)
					)
					(number "4"
						(effects
							(font
								(size 1.27 1.27)
							)
						)
					)
				)
			)
		)
		(symbol "Connector:RJ12"
			(pin_names
				(offset 1.016)
			)
			(exclude_from_sim no)
			(in_bom yes)
			(on_board yes)
			(property "Reference" "J"
				(at -5.08 11.43 0)
				(effects
					(font
						(size 1.27 1.27)
					)
					(justify right)
				)
			)
			(property "Value" "RJ12"
				(at 2.54 11.43 0)
				(effects
					(font
						(size 1.27 1.27)
					)
					(justify left)
				)
			)
			(property "Footprint" ""
				(at 0 0.635 90)
				(effects
					(font
						(size 1.27 1.27)
					)
					(hide yes)
				)
			)
			(property "Datasheet" "~"
				(at 0 0.635 90)
				(effects
					(font
						(size 1.27 1.27)
					)
					(hide yes)
				)
			)
			(property "Description" "RJ connector, 6P6C (6 positions 6 connected)"
				(at 0 0 0)
				(effects
					(font
						(size 1.27 1.27)
					)
					(hide yes)
				)
			)
			(property "ki_keywords" "6P6C RJ socket connector"
				(at 0 0 0)
				(effects
					(font
						(size 1.27 1.27)
					)
					(hide yes)
				)
			)
			(property "ki_fp_filters" "6P6C* RJ12* RJ18* RJ25*"
				(at 0 0 0)
				(effects
					(font
						(size 1.27 1.27)
					)
					(hide yes)
				)
			)
			(symbol "RJ12_0_1"
				(polyline
					(pts
						(xy -6.35 -1.905) (xy -5.08 -1.905) (xy -5.08 -1.905)
					)
					(stroke
						(width 0)
						(type default)
					)
					(fill
						(type none)
					)
				)
				(polyline
					(pts
						(xy -6.35 -0.635) (xy -5.08 -0.635) (xy -5.08 -0.635)
					)
					(stroke
						(width 0)
						(type default)
					)
					(fill
						(type none)
					)
				)
				(polyline
					(pts
						(xy -6.35 0.635) (xy -5.08 0.635) (xy -5.08 0.635)
					)
					(stroke
						(width 0)
						(type default)
					)
					(fill
						(type none)
					)
				)
				(polyline
					(pts
						(xy -6.35 1.905) (xy -5.08 1.905) (xy -5.08 1.905)
					)
					(stroke
						(width 0)
						(type default)
					)
					(fill
						(type none)
					)
				)
				(polyline
					(pts
						(xy -6.35 3.175) (xy -5.08 3.175) (xy -5.08 3.175)
					)
					(stroke
						(width 0)
						(type default)
					)
					(fill
						(type none)
					)
				)
				(polyline
					(pts
						(xy -5.08 4.445) (xy -6.35 4.445) (xy -6.35 4.445)
					)
					(stroke
						(width 0)
						(type default)
					)
					(fill
						(type none)
					)
				)
				(polyline
					(pts
						(xy -6.35 -4.445) (xy -6.35 6.985) (xy 3.81 6.985) (xy 3.81 4.445) (xy 5.08 4.445) (xy 5.08 3.175)
						(xy 6.35 3.175) (xy 6.35 -0.635) (xy 5.08 -0.635) (xy 5.08 -1.905) (xy 3.81 -1.905) (xy 3.81 -4.445)
						(xy -6.35 -4.445) (xy -6.35 -4.445)
					)
					(stroke
						(width 0)
						(type default)
					)
					(fill
						(type none)
					)
				)
				(rectangle
					(start 7.62 10.16)
					(end -7.62 -7.62)
					(stroke
						(width 0.254)
						(type default)
					)
					(fill
						(type background)
					)
				)
			)
			(symbol "RJ12_1_1"
				(pin passive line
					(at 10.16 -5.08 180)
					(length 2.54)
					(name "~"
						(effects
							(font
								(size 1.27 1.27)
							)
						)
					)
					(number "1"
						(effects
							(font
								(size 1.27 1.27)
							)
						)
					)
				)
				(pin passive line
					(at 10.16 -2.54 180)
					(length 2.54)
					(name "~"
						(effects
							(font
								(size 1.27 1.27)
							)
						)
					)
					(number "2"
						(effects
							(font
								(size 1.27 1.27)
							)
						)
					)
				)
				(pin passive line
					(at 10.16 0 180)
					(length 2.54)
					(name "~"
						(effects
							(font
								(size 1.27 1.27)
							)
						)
					)
					(number "3"
						(effects
							(font
								(size 1.27 1.27)
							)
						)
					)
				)
				(pin passive line
					(at 10.16 2.54 180)
					(length 2.54)
					(name "~"
						(effects
							(font
								(size 1.27 1.27)
							)
						)
					)
					(number "4"
						(effects
							(font
								(size 1.27 1.27)
							)
						)
					)
				)
				(pin passive line
					(at 10.16 5.08 180)
					(length 2.54)
					(name "~"
						(effects
							(font
								(size 1.27 1.27)
							)
						)
					)
					(number "5"
						(effects
							(font
								(size 1.27 1.27)
							)
						)
					)
				)
				(pin passive line
					(at 10.16 7.62 180)
					(length 2.54)
					(name "~"
						(effects
							(font
								(size 1.27 1.27)
							)
						)
					)
					(number "6"
						(effects
							(font
								(size 1.27 1.27)
							)
						)
					)
				)
			)
		)
		(symbol "MCU_Module:Arduino_UNO_R3"
			(exclude_from_sim no)
			(in_bom yes)
			(on_board yes)
			(property "Reference" "A"
				(at -10.16 23.495 0)
				(effects
					(font
						(size 1.27 1.27)
					)
					(justify left bottom)
				)
			)
			(property "Value" "Arduino_UNO_R3"
				(at 5.08 -26.67 0)
				(effects
					(font
						(size 1.27 1.27)
					)
					(justify left top)
				)
			)
			(property "Footprint" "Module:Arduino_UNO_R3"
				(at 0 0 0)
				(effects
					(font
						(size 1.27 1.27)
						(italic yes)
					)
					(hide yes)
				)
			)
			(property "Datasheet" "https://www.arduino.cc/en/Main/arduinoBoardUno"
				(at 0 0 0)
				(effects
					(font
						(size 1.27 1.27)
					)
					(hide yes)
				)
			)
			(property "Description" "Arduino UNO Microcontroller Module, release 3"
				(at 0 0 0)
				(effects
					(font
						(size 1.27 1.27)
					)
					(hide yes)
				)
			)
			(property "ki_keywords" "Arduino UNO R3 Microcontroller Module Atmel AVR USB"
				(at 0 0 0)
				(effects
					(font
						(size 1.27 1.27)
					)
					(hide yes)
				)
			)
			(property "ki_fp_filters" "Arduino*UNO*R3*"
				(at 0 0 0)
				(effects
					(font
						(size 1.27 1.27)
					)
					(hide yes)
				)
			)
			(symbol "Arduino_UNO_R3_0_1"
				(rectangle
					(start -10.16 22.86)
					(end 10.16 -25.4)
					(stroke
						(width 0.254)
						(type default)
					)
					(fill
						(type background)
					)
				)
			)
			(symbol "Arduino_UNO_R3_1_1"
				(pin no_connect line
					(at -10.16 -20.32 0)
					(length 2.54) hide
					(name "NC"
						(effects
							(font
								(size 1.27 1.27)
							)
						)
					)
					(number "1"
						(effects
							(font
								(size 1.27 1.27)
							)
						)
					)
				)
				(pin bidirectional line
					(at 12.7 -2.54 180)
					(length 2.54)
					(name "A1"
						(effects
							(font
								(size 1.27 1.27)
							)
						)
					)
					(number "10"
						(effects
							(font
								(size 1.27 1.27)
							)
						)
					)
				)
				(pin bidirectional line
					(at 12.7 -5.08 180)
					(length 2.54)
					(name "A2"
						(effects
							(font
								(size 1.27 1.27)
							)
						)
					)
					(number "11"
						(effects
							(font
								(size 1.27 1.27)
							)
						)
					)
				)
				(pin bidirectional line
					(at 12.7 -7.62 180)
					(length 2.54)
					(name "A3"
						(effects
							(font
								(size 1.27 1.27)
							)
						)
					)
					(number "12"
						(effects
							(font
								(size 1.27 1.27)
							)
						)
					)
				)
				(pin bidirectional line
					(at 12.7 -10.16 180)
					(length 2.54)
					(name "SDA/A4"
						(effects
							(font
								(size 1.27 1.27)
							)
						)
					)
					(number "13"
						(effects
							(font
								(size 1.27 1.27)
							)
						)
					)
				)
				(pin bidirectional line
					(at 12.7 -12.7 180)
					(length 2.54)
					(name "SCL/A5"
						(effects
							(font
								(size 1.27 1.27)
							)
						)
					)
					(number "14"
						(effects
							(font
								(size 1.27 1.27)
							)
						)
					)
				)
				(pin bidirectional line
					(at -12.7 15.24 0)
					(length 2.54)
					(name "D0/RX"
						(effects
							(font
								(size 1.27 1.27)
							)
						)
					)
					(number "15"
						(effects
							(font
								(size 1.27 1.27)
							)
						)
					)
				)
				(pin bidirectional line
					(at -12.7 12.7 0)
					(length 2.54)
					(name "D1/TX"
						(effects
							(font
								(size 1.27 1.27)
							)
						)
					)
					(number "16"
						(effects
							(font
								(size 1.27 1.27)
							)
						)
					)
				)
				(pin bidirectional line
					(at -12.7 10.16 0)
					(length 2.54)
					(name "D2"
						(effects
							(font
								(size 1.27 1.27)
							)
						)
					)
					(number "17"
						(effects
							(font
								(size 1.27 1.27)
							)
						)
					)
				)
				(pin bidirectional line
					(at -12.7 7.62 0)
					(length 2.54)
					(name "D3"
						(effects
							(font
								(size 1.27 1.27)
							)
						)
					)
					(number "18"
						(effects
							(font
								(size 1.27 1.27)
							)
						)
					)
				)
				(pin bidirectional line
					(at -12.7 5.08 0)
					(length 2.54)
					(name "D4"
						(effects
							(font
								(size 1.27 1.27)
							)
						)
					)
					(number "19"
						(effects
							(font
								(size 1.27 1.27)
							)
						)
					)
				)
				(pin output line
					(at 12.7 10.16 180)
					(length 2.54)
					(name "IOREF"
						(effects
							(font
								(size 1.27 1.27)
							)
						)
					)
					(number "2"
						(effects
							(font
								(size 1.27 1.27)
							)
						)
					)
				)
				(pin bidirectional line
					(at -12.7 2.54 0)
					(length 2.54)
					(name "D5"
						(effects
							(font
								(size 1.27 1.27)
							)
						)
					)
					(number "20"
						(effects
							(font
								(size 1.27 1.27)
							)
						)
					)
				)
				(pin bidirectional line
					(at -12.7 0 0)
					(length 2.54)
					(name "D6"
						(effects
							(font
								(size 1.27 1.27)
							)
						)
					)
					(number "21"
						(effects
							(font
								(size 1.27 1.27)
							)
						)
					)
				)
				(pin bidirectional line
					(at -12.7 -2.54 0)
					(length 2.54)
					(name "D7"
						(effects
							(font
								(size 1.27 1.27)
							)
						)
					)
					(number "22"
						(effects
							(font
								(size 1.27 1.27)
							)
						)
					)
				)
				(pin bidirectional line
					(at -12.7 -5.08 0)
					(length 2.54)
					(name "D8"
						(effects
							(font
								(size 1.27 1.27)
							)
						)
					)
					(number "23"
						(effects
							(font
								(size 1.27 1.27)
							)
						)
					)
				)
				(pin bidirectional line
					(at -12.7 -7.62 0)
					(length 2.54)
					(name "D9"
						(effects
							(font
								(size 1.27 1.27)
							)
						)
					)
					(number "24"
						(effects
							(font
								(size 1.27 1.27)
							)
						)
					)
				)
				(pin bidirectional line
					(at -12.7 -10.16 0)
					(length 2.54)
					(name "D10"
						(effects
							(font
								(size 1.27 1.27)
							)
						)
					)
					(number "25"
						(effects
							(font
								(size 1.27 1.27)
							)
						)
					)
				)
				(pin bidirectional line
					(at -12.7 -12.7 0)
					(length 2.54)
					(name "D11"
						(effects
							(font
								(size 1.27 1.27)
							)
						)
					)
					(number "26"
						(effects
							(font
								(size 1.27 1.27)
							)
						)
					)
				)
				(pin bidirectional line
					(at -12.7 -15.24 0)
					(length 2.54)
					(name "D12"
						(effects
							(font
								(size 1.27 1.27)
							)
						)
					)
					(number "27"
						(effects
							(font
								(size 1.27 1.27)
							)
						)
					)
				)
				(pin bidirectional line
					(at -12.7 -17.78 0)
					(length 2.54)
					(name "D13"
						(effects
							(font
								(size 1.27 1.27)
							)
						)
					)
					(number "28"
						(effects
							(font
								(size 1.27 1.27)
							)
						)
					)
				)
				(pin power_in line
					(at -2.54 -27.94 90)
					(length 2.54)
					(name "GND"
						(effects
							(font
								(size 1.27 1.27)
							)
						)
					)
					(number "29"
						(effects
							(font
								(size 1.27 1.27)
							)
						)
					)
				)
				(pin input line
					(at 12.7 15.24 180)
					(length 2.54)
					(name "~{RESET}"
						(effects
							(font
								(size 1.27 1.27)
							)
						)
					)
					(number "3"
						(effects
							(font
								(size 1.27 1.27)
							)
						)
					)
				)
				(pin input line
					(at 12.7 5.08 180)
					(length 2.54)
					(name "AREF"
						(effects
							(font
								(size 1.27 1.27)
							)
						)
					)
					(number "30"
						(effects
							(font
								(size 1.27 1.27)
							)
						)
					)
				)
				(pin bidirectional line
					(at 12.7 -17.78 180)
					(length 2.54)
					(name "SDA/A4"
						(effects
							(font
								(size 1.27 1.27)
							)
						)
					)
					(number "31"
						(effects
							(font
								(size 1.27 1.27)
							)
						)
					)
				)
				(pin bidirectional line
					(at 12.7 -20.32 180)
					(length 2.54)
					(name "SCL/A5"
						(effects
							(font
								(size 1.27 1.27)
							)
						)
					)
					(number "32"
						(effects
							(font
								(size 1.27 1.27)
							)
						)
					)
				)
				(pin power_out line
					(at 2.54 25.4 270)
					(length 2.54)
					(name "3V3"
						(effects
							(font
								(size 1.27 1.27)
							)
						)
					)
					(number "4"
						(effects
							(font
								(size 1.27 1.27)
							)
						)
					)
				)
				(pin power_out line
					(at 5.08 25.4 270)
					(length 2.54)
					(name "+5V"
						(effects
							(font
								(size 1.27 1.27)
							)
						)
					)
					(number "5"
						(effects
							(font
								(size 1.27 1.27)
							)
						)
					)
				)
				(pin power_in line
					(at 0 -27.94 90)
					(length 2.54)
					(name "GND"
						(effects
							(font
								(size 1.27 1.27)
							)
						)
					)
					(number "6"
						(effects
							(font
								(size 1.27 1.27)
							)
						)
					)
				)
				(pin power_in line
					(at 2.54 -27.94 90)
					(length 2.54)
					(name "GND"
						(effects
							(font
								(size 1.27 1.27)
							)
						)
					)
					(number "7"
						(effects
							(font
								(size 1.27 1.27)
							)
						)
					)
				)
				(pin power_in line
					(at -2.54 25.4 270)
					(length 2.54)
					(name "VIN"
						(effects
							(font
								(size 1.27 1.27)
							)
						)
					)
					(number "8"
						(effects
							(font
								(size 1.27 1.27)
							)
						)
					)
				)
				(pin bidirectional line
					(at 12.7 0 180)
					(length 2.54)
					(name "A0"
						(effects
							(font
								(size 1.27 1.27)
							)
						)
					)
					(number "9"
						(effects
							(font
								(size 1.27 1.27)
							)
						)
					)
				)
			)
		)
	)
	(junction
		(at 165.1 105.41)
		(diameter 0)
		(color 0 0 0 0)
		(uuid "ad8c1946-84c9-40f6-91d5-71e5a877ad5b")
	)
	(junction
		(at 167.64 105.41)
		(diameter 0)
		(color 0 0 0 0)
		(uuid "e37a9927-78c3-4222-90e9-aef835a9e5f4")
	)
	(wire
		(pts
			(xy 57.15 161.29) (xy 63.5 161.29)
		)
		(stroke
			(width 0)
			(type default)
		)
		(uuid "0c5aa0d7-8ae4-4f84-97ba-00e3d838dbc8")
	)
	(wire
		(pts
			(xy 147.32 80.01) (xy 152.4 80.01)
		)
		(stroke
			(width 0)
			(type default)
		)
		(uuid "0c83f9dc-8d4f-4d5f-963c-1b01f3575acf")
	)
	(wire
		(pts
			(xy 125.73 128.27) (xy 130.81 128.27)
		)
		(stroke
			(width 0)
			(type default)
		)
		(uuid "0f3dadd0-ff03-4981-94b1-1ae94532aef4")
	)
	(wire
		(pts
			(xy 57.15 139.7) (xy 63.5 139.7)
		)
		(stroke
			(width 0)
			(type default)
		)
		(uuid "1522f9f9-9256-4549-ac3a-5851cd151633")
	)
	(wire
		(pts
			(xy 57.15 73.66) (xy 64.77 73.66)
		)
		(stroke
			(width 0)
			(type default)
		)
		(uuid "1598e004-0a31-4a21-a466-8a50df3f1d95")
	)
	(wire
		(pts
			(xy 167.64 105.41) (xy 167.64 100.33)
		)
		(stroke
			(width 0)
			(type default)
		)
		(uuid "1e4e4d42-15d2-4807-9d96-11ea53f573a0")
	)
	(wire
		(pts
			(xy 57.15 129.54) (xy 63.5 129.54)
		)
		(stroke
			(width 0)
			(type default)
		)
		(uuid "1ea2d75c-5701-4aeb-94cc-63f3953d1ff7")
	)
	(wire
		(pts
			(xy 57.15 132.08) (xy 63.5 132.08)
		)
		(stroke
			(width 0)
			(type default)
		)
		(uuid "206206ea-e4b2-4406-b537-d05edaf36f6c")
	)
	(wire
		(pts
			(xy 57.15 156.21) (xy 63.5 156.21)
		)
		(stroke
			(width 0)
			(type default)
		)
		(uuid "23fab0d0-3552-4ee0-9924-6a7b428d99dc")
	)
	(wire
		(pts
			(xy 57.15 50.8) (xy 62.23 50.8)
		)
		(stroke
			(width 0)
			(type default)
		)
		(uuid "290d7849-6f56-4b5c-8eb1-f7f32c7ebef2")
	)
	(wire
		(pts
			(xy 57.15 168.91) (xy 63.5 168.91)
		)
		(stroke
			(width 0)
			(type default)
		)
		(uuid "3612b111-a9d5-46e4-a3ff-b276ef131da4")
	)
	(wire
		(pts
			(xy 165.1 100.33) (xy 165.1 105.41)
		)
		(stroke
			(width 0)
			(type default)
		)
		(uuid "42bc0abf-5d4f-4b9c-afa1-7832501ff008")
	)
	(wire
		(pts
			(xy 147.32 74.93) (xy 152.4 74.93)
		)
		(stroke
			(width 0)
			(type default)
		)
		(uuid "494597ba-01f6-43e2-87a6-b7895506639d")
	)
	(wire
		(pts
			(xy 57.15 127) (xy 63.5 127)
		)
		(stroke
			(width 0)
			(type default)
		)
		(uuid "504c52cb-ca2f-4c06-bfb8-9c753eea8d2a")
	)
	(wire
		(pts
			(xy 57.15 53.34) (xy 62.23 53.34)
		)
		(stroke
			(width 0)
			(type default)
		)
		(uuid "5124b38b-aa05-4e7d-9036-2264059c0445")
	)
	(wire
		(pts
			(xy 165.1 105.41) (xy 167.64 105.41)
		)
		(stroke
			(width 0)
			(type default)
		)
		(uuid "5f658fbb-4ee1-44f0-84f4-9c3cfb4caad7")
	)
	(wire
		(pts
			(xy 57.15 134.62) (xy 63.5 134.62)
		)
		(stroke
			(width 0)
			(type default)
		)
		(uuid "64d9271f-1556-4cfa-90e3-c6d2547e588c")
	)
	(wire
		(pts
			(xy 57.15 158.75) (xy 63.5 158.75)
		)
		(stroke
			(width 0)
			(type default)
		)
		(uuid "6650e74b-5aca-488f-a7c9-1f7f1d806f3b")
	)
	(wire
		(pts
			(xy 57.15 78.74) (xy 63.5 78.74)
		)
		(stroke
			(width 0)
			(type default)
		)
		(uuid "73bed6e9-0f37-463f-bbbe-d85a851d65bb")
	)
	(wire
		(pts
			(xy 147.32 67.31) (xy 152.4 67.31)
		)
		(stroke
			(width 0)
			(type default)
		)
		(uuid "7587b7d2-3d6c-40b5-aef1-013522099705")
	)
	(wire
		(pts
			(xy 57.15 106.68) (xy 63.5 106.68)
		)
		(stroke
			(width 0)
			(type default)
		)
		(uuid "76157254-bcd5-4639-86f0-4d7ee62516f6")
	)
	(wire
		(pts
			(xy 170.18 41.91) (xy 170.18 46.99)
		)
		(stroke
			(width 0)
			(type default)
		)
		(uuid "76c1141d-597f-4f86-b159-19a5142641a4")
	)
	(wire
		(pts
			(xy 57.15 48.26) (xy 62.23 48.26)
		)
		(stroke
			(width 0)
			(type default)
		)
		(uuid "7be9f956-7b83-4bea-9749-8199d28e38e4")
	)
	(wire
		(pts
			(xy 147.32 87.63) (xy 152.4 87.63)
		)
		(stroke
			(width 0)
			(type default)
		)
		(uuid "882d6c1a-495e-4010-81ec-5c3cd6f2791b")
	)
	(wire
		(pts
			(xy 125.73 133.35) (xy 130.81 133.35)
		)
		(stroke
			(width 0)
			(type default)
		)
		(uuid "915d986d-6f59-4bbf-82ab-1551d3ab64cc")
	)
	(wire
		(pts
			(xy 57.15 137.16) (xy 63.5 137.16)
		)
		(stroke
			(width 0)
			(type default)
		)
		(uuid "920c3471-c935-43b8-9da8-c718e49addb0")
	)
	(wire
		(pts
			(xy 147.32 72.39) (xy 152.4 72.39)
		)
		(stroke
			(width 0)
			(type default)
		)
		(uuid "92961f05-6a01-4534-93da-8b826abc4b29")
	)
	(wire
		(pts
			(xy 172.72 41.91) (xy 170.18 41.91)
		)
		(stroke
			(width 0)
			(type default)
		)
		(uuid "9361660b-5385-450a-b722-9e29812de458")
	)
	(wire
		(pts
			(xy 57.15 104.14) (xy 63.5 104.14)
		)
		(stroke
			(width 0)
			(type default)
		)
		(uuid "9745c7fa-08d0-4cfb-8d46-21854c739a53")
	)
	(wire
		(pts
			(xy 127 115.57) (xy 130.81 115.57)
		)
		(stroke
			(width 0)
			(type default)
		)
		(uuid "980ddcf8-88f3-439b-bff4-57dedd250710")
	)
	(wire
		(pts
			(xy 177.8 74.93) (xy 182.88 74.93)
		)
		(stroke
			(width 0)
			(type default)
		)
		(uuid "a0c56203-7772-4b5f-b7e9-91d20a825c29")
	)
	(wire
		(pts
			(xy 170.18 105.41) (xy 167.64 105.41)
		)
		(stroke
			(width 0)
			(type default)
		)
		(uuid "a51d4fe3-abfe-4c11-84b9-3565d3a616d8")
	)
	(wire
		(pts
			(xy 127 118.11) (xy 130.81 118.11)
		)
		(stroke
			(width 0)
			(type default)
		)
		(uuid "b5004e4c-f537-45e4-9a07-03e885da2c10")
	)
	(wire
		(pts
			(xy 147.32 77.47) (xy 152.4 77.47)
		)
		(stroke
			(width 0)
			(type default)
		)
		(uuid "ba24d857-3505-4a01-890b-b4c6b99a31b7")
	)
	(wire
		(pts
			(xy 125.73 135.89) (xy 130.81 135.89)
		)
		(stroke
			(width 0)
			(type default)
		)
		(uuid "bb0cc463-f019-4a80-b6ec-6be3c9c17ed4")
	)
	(wire
		(pts
			(xy 177.8 85.09) (xy 182.88 85.09)
		)
		(stroke
			(width 0)
			(type default)
		)
		(uuid "bbf47896-2e57-4933-8ce4-cb0c4dc70e9b")
	)
	(wire
		(pts
			(xy 162.56 100.33) (xy 162.56 105.41)
		)
		(stroke
			(width 0)
			(type default)
		)
		(uuid "c06720a7-e80f-4fce-84a7-105e0cf74983")
	)
	(wire
		(pts
			(xy 57.15 76.2) (xy 64.77 76.2)
		)
		(stroke
			(width 0)
			(type default)
		)
		(uuid "c4cba49a-317d-442c-84b1-babeeb03a51e")
	)
	(wire
		(pts
			(xy 147.32 85.09) (xy 152.4 85.09)
		)
		(stroke
			(width 0)
			(type default)
		)
		(uuid "c7054313-ac3d-43ee-a252-d4bdcfda5880")
	)
	(wire
		(pts
			(xy 57.15 163.83) (xy 63.5 163.83)
		)
		(stroke
			(width 0)
			(type default)
		)
		(uuid "c77537a6-d8eb-4690-a03e-3a0db6206a8f")
	)
	(wire
		(pts
			(xy 177.8 82.55) (xy 182.88 82.55)
		)
		(stroke
			(width 0)
			(type default)
		)
		(uuid "c84da84b-b2ef-4f80-9907-7d48e7d912a4")
	)
	(wire
		(pts
			(xy 147.32 82.55) (xy 152.4 82.55)
		)
		(stroke
			(width 0)
			(type default)
		)
		(uuid "d2914a36-ed40-437a-95b8-8c94ff4a3f75")
	)
	(wire
		(pts
			(xy 57.15 166.37) (xy 63.5 166.37)
		)
		(stroke
			(width 0)
			(type default)
		)
		(uuid "d598f74c-bf96-4f3d-b028-08c246ba5f36")
	)
	(wire
		(pts
			(xy 147.32 90.17) (xy 152.4 90.17)
		)
		(stroke
			(width 0)
			(type default)
		)
		(uuid "d63ef516-87ec-4422-86c0-d716c20ef073")
	)
	(wire
		(pts
			(xy 147.32 69.85) (xy 152.4 69.85)
		)
		(stroke
			(width 0)
			(type default)
		)
		(uuid "d87f3ea6-d354-4d5b-9204-997edc44b75d")
	)
	(wire
		(pts
			(xy 57.15 45.72) (xy 62.23 45.72)
		)
		(stroke
			(width 0)
			(type default)
		)
		(uuid "ee2e62c2-b8d0-4d46-b766-ef0ae176e22c")
	)
	(wire
		(pts
			(xy 57.15 99.06) (xy 63.5 99.06)
		)
		(stroke
			(width 0)
			(type default)
		)
		(uuid "f07e1eb5-c7ac-4245-a493-7e28a67239a0")
	)
	(wire
		(pts
			(xy 57.15 81.28) (xy 63.5 81.28)
		)
		(stroke
			(width 0)
			(type default)
		)
		(uuid "facbde8d-3132-4053-907e-91e717237ec4")
	)
	(wire
		(pts
			(xy 177.8 72.39) (xy 182.88 72.39)
		)
		(stroke
			(width 0)
			(type default)
		)
		(uuid "fdc251ca-f33d-45af-bafe-ff43bd0dea86")
	)
	(wire
		(pts
			(xy 162.56 105.41) (xy 165.1 105.41)
		)
		(stroke
			(width 0)
			(type default)
		)
		(uuid "feb27843-3ff5-431b-880d-ab0816afd564")
	)
	(wire
		(pts
			(xy 125.73 130.81) (xy 130.81 130.81)
		)
		(stroke
			(width 0)
			(type default)
		)
		(uuid "fef3903a-2d34-452b-b173-386c2d630720")
	)
	(global_label "+5v"
		(shape input)
		(at 62.23 53.34 0)
		(fields_autoplaced yes)
		(effects
			(font
				(size 1.27 1.27)
			)
			(justify left)
		)
		(uuid "039680fe-e0a7-4143-84f2-23b4c545ac15")
		(property "Intersheetrefs" "${INTERSHEET_REFS}"
			(at 68.9647 53.34 0)
			(effects
				(font
					(size 1.27 1.27)
				)
				(justify left)
				(hide yes)
			)
		)
	)
	(global_label "SIG1"
		(shape input)
		(at 147.32 80.01 180)
		(fields_autoplaced yes)
		(effects
			(font
				(size 1.27 1.27)
			)
			(justify right)
		)
		(uuid "0cb39bc2-7531-440d-bba6-ca2f0112c56d")
		(property "Intersheetrefs" "${INTERSHEET_REFS}"
			(at 140.041 80.01 0)
			(effects
				(font
					(size 1.27 1.27)
				)
				(justify right)
				(hide yes)
			)
		)
	)
	(global_label "GND"
		(shape input)
		(at 63.5 104.14 0)
		(fields_autoplaced yes)
		(effects
			(font
				(size 1.27 1.27)
			)
			(justify left)
		)
		(uuid "0d6d739d-df23-49ed-8568-8538354ab7bb")
		(property "Intersheetrefs" "${INTERSHEET_REFS}"
			(at 70.3557 104.14 0)
			(effects
				(font
					(size 1.27 1.27)
				)
				(justify left)
				(hide yes)
			)
		)
	)
	(global_label "INT"
		(shape input)
		(at 63.5 158.75 0)
		(fields_autoplaced yes)
		(effects
			(font
				(size 1.27 1.27)
			)
			(justify left)
		)
		(uuid "0fa26610-23db-4345-bde6-714af8b1785e")
		(property "Intersheetrefs" "${INTERSHEET_REFS}"
			(at 69.3881 158.75 0)
			(effects
				(font
					(size 1.27 1.27)
				)
				(justify left)
				(hide yes)
			)
		)
	)
	(global_label "SIG1"
		(shape input)
		(at 63.5 139.7 0)
		(fields_autoplaced yes)
		(effects
			(font
				(size 1.27 1.27)
			)
			(justify left)
		)
		(uuid "1368359d-a5a1-4dd4-8d63-08e5a45a7333")
		(property "Intersheetrefs" "${INTERSHEET_REFS}"
			(at 70.779 139.7 0)
			(effects
				(font
					(size 1.27 1.27)
				)
				(justify left)
				(hide yes)
			)
		)
	)
	(global_label "U2"
		(shape input)
		(at 64.77 73.66 0)
		(fields_autoplaced yes)
		(effects
			(font
				(size 1.27 1.27)
			)
			(justify left)
		)
		(uuid "155bf943-f3b7-4947-ab06-70aa6b3ec50f")
		(property "Intersheetrefs" "${INTERSHEET_REFS}"
			(at 70.2952 73.66 0)
			(effects
				(font
					(size 1.27 1.27)
				)
				(justify left)
				(hide yes)
			)
		)
	)
	(global_label "GND"
		(shape input)
		(at 63.5 161.29 0)
		(fields_autoplaced yes)
		(effects
			(font
				(size 1.27 1.27)
			)
			(justify left)
		)
		(uuid "173073d1-cdc3-4079-92e0-12c89d575e6a")
		(property "Intersheetrefs" "${INTERSHEET_REFS}"
			(at 70.3557 161.29 0)
			(effects
				(font
					(size 1.27 1.27)
				)
				(justify left)
				(hide yes)
			)
		)
	)
	(global_label "U1"
		(shape input)
		(at 64.77 76.2 0)
		(fields_autoplaced yes)
		(effects
			(font
				(size 1.27 1.27)
			)
			(justify left)
		)
		(uuid "17705078-9360-4be1-b7fe-27722446de74")
		(property "Intersheetrefs" "${INTERSHEET_REFS}"
			(at 70.2952 76.2 0)
			(effects
				(font
					(size 1.27 1.27)
				)
				(justify left)
				(hide yes)
			)
		)
	)
	(global_label "SIG2"
		(shape input)
		(at 63.5 137.16 0)
		(fields_autoplaced yes)
		(effects
			(font
				(size 1.27 1.27)
			)
			(justify left)
		)
		(uuid "29ae4649-fe61-49e0-afba-4a093a8ac791")
		(property "Intersheetrefs" "${INTERSHEET_REFS}"
			(at 70.779 137.16 0)
			(effects
				(font
					(size 1.27 1.27)
				)
				(justify left)
				(hide yes)
			)
		)
	)
	(global_label "TRIG"
		(shape input)
		(at 147.32 69.85 180)
		(fields_autoplaced yes)
		(effects
			(font
				(size 1.27 1.27)
			)
			(justify right)
		)
		(uuid "2c20e1e8-3937-4e13-83e0-24dcddf16668")
		(property "Intersheetrefs" "${INTERSHEET_REFS}"
			(at 140.2224 69.85 0)
			(effects
				(font
					(size 1.27 1.27)
				)
				(justify right)
				(hide yes)
			)
		)
	)
	(global_label "GND"
		(shape input)
		(at 63.5 78.74 0)
		(fields_autoplaced yes)
		(effects
			(font
				(size 1.27 1.27)
			)
			(justify left)
		)
		(uuid "2eb036d6-535e-4e3a-8e8b-6c7ff7335e4c")
		(property "Intersheetrefs" "${INTERSHEET_REFS}"
			(at 70.3557 78.74 0)
			(effects
				(font
					(size 1.27 1.27)
				)
				(justify left)
				(hide yes)
			)
		)
	)
	(global_label "GND"
		(shape input)
		(at 62.23 50.8 0)
		(fields_autoplaced yes)
		(effects
			(font
				(size 1.27 1.27)
			)
			(justify left)
		)
		(uuid "32640b39-ff12-4778-b6a4-2c110cde5e01")
		(property "Intersheetrefs" "${INTERSHEET_REFS}"
			(at 69.0857 50.8 0)
			(effects
				(font
					(size 1.27 1.27)
				)
				(justify left)
				(hide yes)
			)
		)
	)
	(global_label "LED"
		(shape input)
		(at 63.5 156.21 0)
		(fields_autoplaced yes)
		(effects
			(font
				(size 1.27 1.27)
			)
			(justify left)
		)
		(uuid "3ff026f2-91d3-4757-a818-d4da32e0a926")
		(property "Intersheetrefs" "${INTERSHEET_REFS}"
			(at 69.9323 156.21 0)
			(effects
				(font
					(size 1.27 1.27)
				)
				(justify left)
				(hide yes)
			)
		)
	)
	(global_label "SDA"
		(shape input)
		(at 63.5 168.91 0)
		(fields_autoplaced yes)
		(effects
			(font
				(size 1.27 1.27)
			)
			(justify left)
		)
		(uuid "41b7f3b1-4698-4f97-8569-2e74060f6567")
		(property "Intersheetrefs" "${INTERSHEET_REFS}"
			(at 70.0533 168.91 0)
			(effects
				(font
					(size 1.27 1.27)
				)
				(justify left)
				(hide yes)
			)
		)
	)
	(global_label "OUT"
		(shape input)
		(at 147.32 72.39 180)
		(fields_autoplaced yes)
		(effects
			(font
				(size 1.27 1.27)
			)
			(justify right)
		)
		(uuid "4c2f5bcd-ae73-4646-899a-61f8d032ab82")
		(property "Intersheetrefs" "${INTERSHEET_REFS}"
			(at 140.7062 72.39 0)
			(effects
				(font
					(size 1.27 1.27)
				)
				(justify right)
				(hide yes)
			)
		)
	)
	(global_label "SIG3"
		(shape input)
		(at 147.32 82.55 180)
		(fields_autoplaced yes)
		(effects
			(font
				(size 1.27 1.27)
			)
			(justify right)
		)
		(uuid "5af518d8-ff28-4ae9-93d3-a176a8dc0583")
		(property "Intersheetrefs" "${INTERSHEET_REFS}"
			(at 140.041 82.55 0)
			(effects
				(font
					(size 1.27 1.27)
				)
				(justify right)
				(hide yes)
			)
		)
	)
	(global_label "SIG4"
		(shape input)
		(at 63.5 127 0)
		(fields_autoplaced yes)
		(effects
			(font
				(size 1.27 1.27)
			)
			(justify left)
		)
		(uuid "5e96bb2f-c316-45bd-9ae1-f724480473d8")
		(property "Intersheetrefs" "${INTERSHEET_REFS}"
			(at 70.779 127 0)
			(effects
				(font
					(size 1.27 1.27)
				)
				(justify left)
				(hide yes)
			)
		)
	)
	(global_label "+5v"
		(shape input)
		(at 125.73 135.89 180)
		(fields_autoplaced yes)
		(effects
			(font
				(size 1.27 1.27)
			)
			(justify right)
		)
		(uuid "61f4c26a-5359-4f20-91c3-9cb44a4a7faf")
		(property "Intersheetrefs" "${INTERSHEET_REFS}"
			(at 118.9953 135.89 0)
			(effects
				(font
					(size 1.27 1.27)
				)
				(justify right)
				(hide yes)
			)
		)
	)
	(global_label "GND"
		(shape input)
		(at 63.5 132.08 0)
		(fields_autoplaced yes)
		(effects
			(font
				(size 1.27 1.27)
			)
			(justify left)
		)
		(uuid "77c16330-59a9-49d2-a41f-15daf7dda0c7")
		(property "Intersheetrefs" "${INTERSHEET_REFS}"
			(at 70.3557 132.08 0)
			(effects
				(font
					(size 1.27 1.27)
				)
				(justify left)
				(hide yes)
			)
		)
	)
	(global_label "button"
		(shape input)
		(at 127 115.57 180)
		(fields_autoplaced yes)
		(effects
			(font
				(size 1.27 1.27)
			)
			(justify right)
		)
		(uuid "7cd435e2-1775-42a8-aec7-de6d1e63271c")
		(property "Intersheetrefs" "${INTERSHEET_REFS}"
			(at 117.9674 115.57 0)
			(effects
				(font
					(size 1.27 1.27)
				)
				(justify right)
				(hide yes)
			)
		)
	)
	(global_label "SIG4"
		(shape input)
		(at 147.32 85.09 180)
		(fields_autoplaced yes)
		(effects
			(font
				(size 1.27 1.27)
			)
			(justify right)
		)
		(uuid "83405f43-96c0-4890-be9b-2e913fcb7860")
		(property "Intersheetrefs" "${INTERSHEET_REFS}"
			(at 140.041 85.09 0)
			(effects
				(font
					(size 1.27 1.27)
				)
				(justify right)
				(hide yes)
			)
		)
	)
	(global_label "GND"
		(shape input)
		(at 125.73 133.35 180)
		(fields_autoplaced yes)
		(effects
			(font
				(size 1.27 1.27)
			)
			(justify right)
		)
		(uuid "894d3b66-70ef-4e38-a2e0-f4ca89b44719")
		(property "Intersheetrefs" "${INTERSHEET_REFS}"
			(at 118.8743 133.35 0)
			(effects
				(font
					(size 1.27 1.27)
				)
				(justify right)
				(hide yes)
			)
		)
	)
	(global_label "+5v"
		(shape input)
		(at 172.72 41.91 0)
		(fields_autoplaced yes)
		(effects
			(font
				(size 1.27 1.27)
			)
			(justify left)
		)
		(uuid "8a21b0ee-8fc2-43dc-b34e-2123dc2e41f7")
		(property "Intersheetrefs" "${INTERSHEET_REFS}"
			(at 179.4547 41.91 0)
			(effects
				(font
					(size 1.27 1.27)
				)
				(justify left)
				(hide yes)
			)
		)
	)
	(global_label "+5v"
		(shape input)
		(at 63.5 106.68 0)
		(fields_autoplaced yes)
		(effects
			(font
				(size 1.27 1.27)
			)
			(justify left)
		)
		(uuid "8d5dc63b-293b-4e75-926d-35f3d7d9871d")
		(property "Intersheetrefs" "${INTERSHEET_REFS}"
			(at 70.2347 106.68 0)
			(effects
				(font
					(size 1.27 1.27)
				)
				(justify left)
				(hide yes)
			)
		)
	)
	(global_label "+5v"
		(shape input)
		(at 63.5 134.62 0)
		(fields_autoplaced yes)
		(effects
			(font
				(size 1.27 1.27)
			)
			(justify left)
		)
		(uuid "913e7863-8c15-4308-839d-d25c40b6e90e")
		(property "Intersheetrefs" "${INTERSHEET_REFS}"
			(at 70.2347 134.62 0)
			(effects
				(font
					(size 1.27 1.27)
				)
				(justify left)
				(hide yes)
			)
		)
	)
	(global_label "ECHO"
		(shape input)
		(at 147.32 67.31 180)
		(fields_autoplaced yes)
		(effects
			(font
				(size 1.27 1.27)
			)
			(justify right)
		)
		(uuid "938a1d67-649b-4fe0-902a-be4153b0744f")
		(property "Intersheetrefs" "${INTERSHEET_REFS}"
			(at 139.2548 67.31 0)
			(effects
				(font
					(size 1.27 1.27)
				)
				(justify right)
				(hide yes)
			)
		)
	)
	(global_label "+5v"
		(shape input)
		(at 63.5 163.83 0)
		(fields_autoplaced yes)
		(effects
			(font
				(size 1.27 1.27)
			)
			(justify left)
		)
		(uuid "9760da88-4729-44ca-800d-daccc2f59d9c")
		(property "Intersheetrefs" "${INTERSHEET_REFS}"
			(at 70.2347 163.83 0)
			(effects
				(font
					(size 1.27 1.27)
				)
				(justify left)
				(hide yes)
			)
		)
	)
	(global_label "button"
		(shape input)
		(at 147.32 74.93 180)
		(fields_autoplaced yes)
		(effects
			(font
				(size 1.27 1.27)
			)
			(justify right)
		)
		(uuid "9d1f31dd-fcbb-47db-a14d-46bc8558386f")
		(property "Intersheetrefs" "${INTERSHEET_REFS}"
			(at 138.2874 74.93 0)
			(effects
				(font
					(size 1.27 1.27)
				)
				(justify right)
				(hide yes)
			)
		)
	)
	(global_label "U1"
		(shape input)
		(at 182.88 74.93 0)
		(fields_autoplaced yes)
		(effects
			(font
				(size 1.27 1.27)
			)
			(justify left)
		)
		(uuid "a22325bc-3932-45f1-85f6-de0bfed99052")
		(property "Intersheetrefs" "${INTERSHEET_REFS}"
			(at 188.4052 74.93 0)
			(effects
				(font
					(size 1.27 1.27)
				)
				(justify left)
				(hide yes)
			)
		)
	)
	(global_label "INT"
		(shape input)
		(at 147.32 87.63 180)
		(fields_autoplaced yes)
		(effects
			(font
				(size 1.27 1.27)
			)
			(justify right)
		)
		(uuid "aa69b291-4875-4978-885f-a1056fad4357")
		(property "Intersheetrefs" "${INTERSHEET_REFS}"
			(at 141.4319 87.63 0)
			(effects
				(font
					(size 1.27 1.27)
				)
				(justify right)
				(hide yes)
			)
		)
	)
	(global_label "LED"
		(shape input)
		(at 147.32 90.17 180)
		(fields_autoplaced yes)
		(effects
			(font
				(size 1.27 1.27)
			)
			(justify right)
		)
		(uuid "b2e28634-f977-4635-ad19-85d1b768dcc2")
		(property "Intersheetrefs" "${INTERSHEET_REFS}"
			(at 140.8877 90.17 0)
			(effects
				(font
					(size 1.27 1.27)
				)
				(justify right)
				(hide yes)
			)
		)
	)
	(global_label "GND"
		(shape input)
		(at 170.18 105.41 0)
		(fields_autoplaced yes)
		(effects
			(font
				(size 1.27 1.27)
			)
			(justify left)
		)
		(uuid "b65c5dfb-f3d8-4d30-8422-2525705d67e4")
		(property "Intersheetrefs" "${INTERSHEET_REFS}"
			(at 177.0357 105.41 0)
			(effects
				(font
					(size 1.27 1.27)
				)
				(justify left)
				(hide yes)
			)
		)
	)
	(global_label "ECHO"
		(shape input)
		(at 62.23 48.26 0)
		(fields_autoplaced yes)
		(effects
			(font
				(size 1.27 1.27)
			)
			(justify left)
		)
		(uuid "ba890ec9-0859-4724-a066-5b6ff087e51e")
		(property "Intersheetrefs" "${INTERSHEET_REFS}"
			(at 70.2952 48.26 0)
			(effects
				(font
					(size 1.27 1.27)
				)
				(justify left)
				(hide yes)
			)
		)
	)
	(global_label "SDA"
		(shape input)
		(at 182.88 82.55 0)
		(fields_autoplaced yes)
		(effects
			(font
				(size 1.27 1.27)
			)
			(justify left)
		)
		(uuid "c18335ef-9594-4020-b109-68c1ddaa4c5e")
		(property "Intersheetrefs" "${INTERSHEET_REFS}"
			(at 189.4333 82.55 0)
			(effects
				(font
					(size 1.27 1.27)
				)
				(justify left)
				(hide yes)
			)
		)
	)
	(global_label "SIG2"
		(shape input)
		(at 147.32 77.47 180)
		(fields_autoplaced yes)
		(effects
			(font
				(size 1.27 1.27)
			)
			(justify right)
		)
		(uuid "c7824e1b-815d-4e1c-aab3-f97fd41f4de0")
		(property "Intersheetrefs" "${INTERSHEET_REFS}"
			(at 140.041 77.47 0)
			(effects
				(font
					(size 1.27 1.27)
				)
				(justify right)
				(hide yes)
			)
		)
	)
	(global_label "GND"
		(shape input)
		(at 127 118.11 180)
		(fields_autoplaced yes)
		(effects
			(font
				(size 1.27 1.27)
			)
			(justify right)
		)
		(uuid "c9b9b499-8422-464f-ac21-17d0d6c4a4b7")
		(property "Intersheetrefs" "${INTERSHEET_REFS}"
			(at 120.1443 118.11 0)
			(effects
				(font
					(size 1.27 1.27)
				)
				(justify right)
				(hide yes)
			)
		)
	)
	(global_label "SDA"
		(shape input)
		(at 125.73 128.27 180)
		(fields_autoplaced yes)
		(effects
			(font
				(size 1.27 1.27)
			)
			(justify right)
		)
		(uuid "cad473c4-f4ce-4143-b575-af9d15782f58")
		(property "Intersheetrefs" "${INTERSHEET_REFS}"
			(at 119.1767 128.27 0)
			(effects
				(font
					(size 1.27 1.27)
				)
				(justify right)
				(hide yes)
			)
		)
	)
	(global_label "SCL"
		(shape input)
		(at 125.73 130.81 180)
		(fields_autoplaced yes)
		(effects
			(font
				(size 1.27 1.27)
			)
			(justify right)
		)
		(uuid "d3777dd9-59b6-4fe1-a609-a47f9fee0abd")
		(property "Intersheetrefs" "${INTERSHEET_REFS}"
			(at 119.2372 130.81 0)
			(effects
				(font
					(size 1.27 1.27)
				)
				(justify right)
				(hide yes)
			)
		)
	)
	(global_label "SCL"
		(shape input)
		(at 182.88 85.09 0)
		(fields_autoplaced yes)
		(effects
			(font
				(size 1.27 1.27)
			)
			(justify left)
		)
		(uuid "dc01e037-41bc-493f-8395-626c2eae5fb4")
		(property "Intersheetrefs" "${INTERSHEET_REFS}"
			(at 189.3728 85.09 0)
			(effects
				(font
					(size 1.27 1.27)
				)
				(justify left)
				(hide yes)
			)
		)
	)
	(global_label "+5v"
		(shape input)
		(at 63.5 81.28 0)
		(fields_autoplaced yes)
		(effects
			(font
				(size 1.27 1.27)
			)
			(justify left)
		)
		(uuid "dcac4a97-2da9-4abb-918c-86f731e607d8")
		(property "Intersheetrefs" "${INTERSHEET_REFS}"
			(at 70.2347 81.28 0)
			(effects
				(font
					(size 1.27 1.27)
				)
				(justify left)
				(hide yes)
			)
		)
	)
	(global_label "U2"
		(shape input)
		(at 182.88 72.39 0)
		(fields_autoplaced yes)
		(effects
			(font
				(size 1.27 1.27)
			)
			(justify left)
		)
		(uuid "ed1b852f-58d5-4321-9cc5-0a05e693a8ce")
		(property "Intersheetrefs" "${INTERSHEET_REFS}"
			(at 188.4052 72.39 0)
			(effects
				(font
					(size 1.27 1.27)
				)
				(justify left)
				(hide yes)
			)
		)
	)
	(global_label "SIG3"
		(shape input)
		(at 63.5 129.54 0)
		(fields_autoplaced yes)
		(effects
			(font
				(size 1.27 1.27)
			)
			(justify left)
		)
		(uuid "efcff387-8530-4ebb-bff2-8f3bcf92926c")
		(property "Intersheetrefs" "${INTERSHEET_REFS}"
			(at 70.779 129.54 0)
			(effects
				(font
					(size 1.27 1.27)
				)
				(justify left)
				(hide yes)
			)
		)
	)
	(global_label "TRIG"
		(shape input)
		(at 62.23 45.72 0)
		(fields_autoplaced yes)
		(effects
			(font
				(size 1.27 1.27)
			)
			(justify left)
		)
		(uuid "f120a7bb-9a75-4e08-897a-c5c0bcdcfc2e")
		(property "Intersheetrefs" "${INTERSHEET_REFS}"
			(at 69.3276 45.72 0)
			(effects
				(font
					(size 1.27 1.27)
				)
				(justify left)
				(hide yes)
			)
		)
	)
	(global_label "OUT"
		(shape input)
		(at 63.5 99.06 0)
		(fields_autoplaced yes)
		(effects
			(font
				(size 1.27 1.27)
			)
			(justify left)
		)
		(uuid "f30a5e6a-3def-4977-aa6f-acb3d990dc49")
		(property "Intersheetrefs" "${INTERSHEET_REFS}"
			(at 70.1138 99.06 0)
			(effects
				(font
					(size 1.27 1.27)
				)
				(justify left)
				(hide yes)
			)
		)
	)
	(global_label "SCL"
		(shape input)
		(at 63.5 166.37 0)
		(fields_autoplaced yes)
		(effects
			(font
				(size 1.27 1.27)
			)
			(justify left)
		)
		(uuid "f57f52d2-9add-47c1-bf9a-a01b7187464c")
		(property "Intersheetrefs" "${INTERSHEET_REFS}"
			(at 69.9928 166.37 0)
			(effects
				(font
					(size 1.27 1.27)
				)
				(justify left)
				(hide yes)
			)
		)
	)
	(symbol
		(lib_id "Connector:RJ12")
		(at 46.99 53.34 0)
		(unit 1)
		(exclude_from_sim no)
		(in_bom yes)
		(on_board yes)
		(dnp no)
		(fields_autoplaced yes)
		(uuid "0399342a-2bc0-43fa-93b6-d5237f1220fa")
		(property "Reference" "J1"
			(at 46.99 38.1 0)
			(effects
				(font
					(size 1.27 1.27)
				)
			)
		)
		(property "Value" "UltraSonic"
			(at 46.99 40.64 0)
			(effects
				(font
					(size 1.27 1.27)
				)
			)
		)
		(property "Footprint" "Connector_RJ:RJ12_Amphenol_54601-x06_Horizontal"
			(at 46.99 52.705 90)
			(effects
				(font
					(size 1.27 1.27)
				)
				(hide yes)
			)
		)
		(property "Datasheet" "~"
			(at 46.99 52.705 90)
			(effects
				(font
					(size 1.27 1.27)
				)
				(hide yes)
			)
		)
		(property "Description" "RJ connector, 6P6C (6 positions 6 connected)"
			(at 46.99 53.34 0)
			(effects
				(font
					(size 1.27 1.27)
				)
				(hide yes)
			)
		)
		(pin "6"
			(uuid "0d8f384d-7eba-4cee-8766-b275daff7207")
		)
		(pin "5"
			(uuid "adcc5239-fec5-4773-94c3-844f6604f35a")
		)
		(pin "4"
			(uuid "9096fc6a-7837-4ff3-a792-1581ac097d5b")
		)
		(pin "3"
			(uuid "3d737b4c-8999-4bf0-acc7-30181a61e694")
		)
		(pin "2"
			(uuid "7fcab115-4683-4cd8-8150-4ef12e28d275")
		)
		(pin "1"
			(uuid "3696845d-0e93-4260-9a19-d835d00cd339")
		)
		(instances
			(project "sensor_control"
				(path "/9b9e251d-df40-4f16-880b-dab0a6782a23"
					(reference "J1")
					(unit 1)
				)
			)
		)
	)
	(symbol
		(lib_id "Connector:Conn_01x02_Socket")
		(at 135.89 115.57 0)
		(unit 1)
		(exclude_from_sim no)
		(in_bom yes)
		(on_board yes)
		(dnp no)
		(fields_autoplaced yes)
		(uuid "0689e3cc-0f26-46a6-a5be-3709c7fb17a8")
		(property "Reference" "J7"
			(at 137.16 115.5699 0)
			(effects
				(font
					(size 1.27 1.27)
				)
				(justify left)
			)
		)
		(property "Value" "button"
			(at 137.16 118.1099 0)
			(effects
				(font
					(size 1.27 1.27)
				)
				(justify left)
			)
		)
		(property "Footprint" "Connector_PinHeader_2.54mm:PinHeader_1x02_P2.54mm_Vertical"
			(at 135.89 115.57 0)
			(effects
				(font
					(size 1.27 1.27)
				)
				(hide yes)
			)
		)
		(property "Datasheet" "~"
			(at 135.89 115.57 0)
			(effects
				(font
					(size 1.27 1.27)
				)
				(hide yes)
			)
		)
		(property "Description" "Generic connector, single row, 01x02, script generated"
			(at 135.89 115.57 0)
			(effects
				(font
					(size 1.27 1.27)
				)
				(hide yes)
			)
		)
		(pin "2"
			(uuid "9cfba1b4-d280-470c-861b-50d274d57455")
		)
		(pin "1"
			(uuid "3c567d3f-57a1-4738-a73d-d7345616ee7e")
		)
		(instances
			(project "sensor_control"
				(path "/9b9e251d-df40-4f16-880b-dab0a6782a23"
					(reference "J7")
					(unit 1)
				)
			)
		)
	)
	(symbol
		(lib_id "Connector:Conn_01x04_Socket")
		(at 135.89 130.81 0)
		(unit 1)
		(exclude_from_sim no)
		(in_bom yes)
		(on_board yes)
		(dnp no)
		(fields_autoplaced yes)
		(uuid "8d4a6cd6-3284-451d-8225-1f252bf0304e")
		(property "Reference" "J6"
			(at 137.16 130.8099 0)
			(effects
				(font
					(size 1.27 1.27)
				)
				(justify left)
			)
		)
		(property "Value" "Ecran"
			(at 137.16 133.3499 0)
			(effects
				(font
					(size 1.27 1.27)
				)
				(justify left)
			)
		)
		(property "Footprint" "Connector_PinHeader_2.54mm:PinHeader_1x04_P2.54mm_Vertical"
			(at 135.89 130.81 0)
			(effects
				(font
					(size 1.27 1.27)
				)
				(hide yes)
			)
		)
		(property "Datasheet" "~"
			(at 135.89 130.81 0)
			(effects
				(font
					(size 1.27 1.27)
				)
				(hide yes)
			)
		)
		(property "Description" "Generic connector, single row, 01x04, script generated"
			(at 135.89 130.81 0)
			(effects
				(font
					(size 1.27 1.27)
				)
				(hide yes)
			)
		)
		(pin "3"
			(uuid "9f860cf6-29b1-4e58-8e20-032d86c6b71d")
		)
		(pin "2"
			(uuid "ea9956e2-d643-4655-a892-792e62d93e6e")
		)
		(pin "1"
			(uuid "57eefe38-c16d-471f-bda2-5c193308ad91")
		)
		(pin "4"
			(uuid "e1ef9acd-b514-431f-b310-8c3cb61b0922")
		)
		(instances
			(project "sensor_control"
				(path "/9b9e251d-df40-4f16-880b-dab0a6782a23"
					(reference "J6")
					(unit 1)
				)
			)
		)
	)
	(symbol
		(lib_id "MCU_Module:Arduino_UNO_R3")
		(at 165.1 72.39 0)
		(unit 1)
		(exclude_from_sim no)
		(in_bom yes)
		(on_board yes)
		(dnp no)
		(fields_autoplaced yes)
		(uuid "a2c5ca19-4f54-43f2-9703-5c6409e89a41")
		(property "Reference" "A1"
			(at 172.3741 44.45 0)
			(effects
				(font
					(size 1.27 1.27)
				)
				(justify left)
			)
		)
		(property "Value" "Arduino_UNO_R3"
			(at 172.3741 46.99 0)
			(effects
				(font
					(size 1.27 1.27)
				)
				(justify left)
			)
		)
		(property "Footprint" "Module:Arduino_UNO_R3"
			(at 165.1 72.39 0)
			(effects
				(font
					(size 1.27 1.27)
					(italic yes)
				)
				(hide yes)
			)
		)
		(property "Datasheet" "https://www.arduino.cc/en/Main/arduinoBoardUno"
			(at 165.1 72.39 0)
			(effects
				(font
					(size 1.27 1.27)
				)
				(hide yes)
			)
		)
		(property "Description" "Arduino UNO Microcontroller Module, release 3"
			(at 165.1 72.39 0)
			(effects
				(font
					(size 1.27 1.27)
				)
				(hide yes)
			)
		)
		(pin "8"
			(uuid "44290637-018c-49bf-a89d-962b6dfbb56d")
		)
		(pin "17"
			(uuid "84120add-3512-4f14-985b-3f8da632864e")
		)
		(pin "7"
			(uuid "3aa52577-65c2-4ee3-81ee-34945ff9d9e6")
		)
		(pin "16"
			(uuid "77fd612f-287f-4276-afa6-c33cacd84335")
		)
		(pin "21"
			(uuid "a09fb8b7-83f9-42f4-bd71-193a2e31cb7b")
		)
		(pin "9"
			(uuid "f6346057-f89c-4022-a826-929df4fabbbf")
		)
		(pin "4"
			(uuid "a8bb5685-bdc5-4d2e-9dba-26cf11d591cc")
		)
		(pin "22"
			(uuid "39e1ea8b-7950-458a-bfc1-6792afe11f7a")
		)
		(pin "27"
			(uuid "5298b4a6-2473-4abd-9ea6-e6d2bd3a6ba4")
		)
		(pin "6"
			(uuid "b847bb8a-39ab-4b3d-9df4-a27d44f797f4")
		)
		(pin "10"
			(uuid "46e734a5-a950-4d4b-b969-2cc93b3c598e")
		)
		(pin "1"
			(uuid "6c6b6b04-feff-4b1b-ad4f-9685128cf080")
		)
		(pin "25"
			(uuid "ded71304-ff66-4696-b784-90846135eb66")
		)
		(pin "13"
			(uuid "36609d54-a373-4bfb-8a3d-60bbec49ca03")
		)
		(pin "12"
			(uuid "5bb8ebb7-a260-49b6-8cae-5b3d1b847879")
		)
		(pin "11"
			(uuid "90b6498e-1d8a-46b1-874b-6592d02ea4db")
		)
		(pin "20"
			(uuid "915c83f2-f6b5-48d3-b58e-d09a72699b48")
		)
		(pin "24"
			(uuid "b0c3cca0-2f00-4e5a-aa04-e9d77e20d72c")
		)
		(pin "29"
			(uuid "5c9e10bb-110a-4d8a-a009-2de9f0d03c4f")
		)
		(pin "26"
			(uuid "5d91e33f-25e9-4262-88c4-4104d4a9d4b5")
		)
		(pin "19"
			(uuid "82cfa1f0-a89e-43a9-9116-6060da57928d")
		)
		(pin "15"
			(uuid "052a2f24-21fc-4a3f-9290-1c39a816b9e9")
		)
		(pin "2"
			(uuid "bf8189bc-cd38-4157-99e4-d3405e828662")
		)
		(pin "31"
			(uuid "5d7120c4-c3b7-4ddc-a651-343ec4b8088c")
		)
		(pin "18"
			(uuid "8c0fba1c-560f-456a-98ec-837bc447af89")
		)
		(pin "5"
			(uuid "0a3f2056-ca11-44af-a60e-1242bad0c4ee")
		)
		(pin "23"
			(uuid "5efdec71-8f61-4f3f-8b94-160bf5992599")
		)
		(pin "3"
			(uuid "c3416b88-425f-4998-8614-44846ebadd9c")
		)
		(pin "28"
			(uuid "9670f1ed-45e0-4912-ab50-292bb9a2e570")
		)
		(pin "32"
			(uuid "486d6979-f310-45a8-8023-2b3597722b94")
		)
		(pin "30"
			(uuid "3407d227-3f03-4325-b2f9-87cac152e27b")
		)
		(pin "14"
			(uuid "d3209067-b4c0-4162-84d0-d0ce26310f44")
		)
		(instances
			(project "sensor_control"
				(path "/9b9e251d-df40-4f16-880b-dab0a6782a23"
					(reference "A1")
					(unit 1)
				)
			)
		)
	)
	(symbol
		(lib_id "Connector:RJ12")
		(at 46.99 81.28 0)
		(unit 1)
		(exclude_from_sim no)
		(in_bom yes)
		(on_board yes)
		(dnp no)
		(fields_autoplaced yes)
		(uuid "ad561a37-aa5e-4de2-90fe-90adacc9b1fc")
		(property "Reference" "J2"
			(at 46.99 66.04 0)
			(effects
				(font
					(size 1.27 1.27)
				)
			)
		)
		(property "Value" "LineFollow"
			(at 46.99 68.58 0)
			(effects
				(font
					(size 1.27 1.27)
				)
			)
		)
		(property "Footprint" "Connector_RJ:RJ12_Amphenol_54601-x06_Horizontal"
			(at 46.99 80.645 90)
			(effects
				(font
					(size 1.27 1.27)
				)
				(hide yes)
			)
		)
		(property "Datasheet" "~"
			(at 46.99 80.645 90)
			(effects
				(font
					(size 1.27 1.27)
				)
				(hide yes)
			)
		)
		(property "Description" "RJ connector, 6P6C (6 positions 6 connected)"
			(at 46.99 81.28 0)
			(effects
				(font
					(size 1.27 1.27)
				)
				(hide yes)
			)
		)
		(pin "6"
			(uuid "81caf059-e4fd-440b-a8dd-e13c243ca2f0")
		)
		(pin "5"
			(uuid "475eaca1-6cbf-45e7-b934-3b6399ffab83")
		)
		(pin "4"
			(uuid "b2e82dc7-37dd-48b4-9af4-a7091fd19292")
		)
		(pin "3"
			(uuid "156b8b9f-731e-4b60-b16e-f5be9f4f08fa")
		)
		(pin "2"
			(uuid "7f02352f-9dcb-4a96-b9c2-ac2d18512cce")
		)
		(pin "1"
			(uuid "472c6949-dd63-4454-bbd4-cbdba06b962e")
		)
		(instances
			(project "sensor_control"
				(path "/9b9e251d-df40-4f16-880b-dab0a6782a23"
					(reference "J2")
					(unit 1)
				)
			)
		)
	)
	(symbol
		(lib_id "Connector:RJ12")
		(at 46.99 106.68 0)
		(unit 1)
		(exclude_from_sim no)
		(in_bom yes)
		(on_board yes)
		(dnp no)
		(fields_autoplaced yes)
		(uuid "b1bdae50-0402-4700-b51a-c5567dd374c0")
		(property "Reference" "J3"
			(at 46.99 91.44 0)
			(effects
				(font
					(size 1.27 1.27)
				)
			)
		)
		(property "Value" "Sensor_Infrared"
			(at 46.99 93.98 0)
			(effects
				(font
					(size 1.27 1.27)
				)
			)
		)
		(property "Footprint" "Connector_RJ:RJ12_Amphenol_54601-x06_Horizontal"
			(at 46.99 106.045 90)
			(effects
				(font
					(size 1.27 1.27)
				)
				(hide yes)
			)
		)
		(property "Datasheet" "~"
			(at 46.99 106.045 90)
			(effects
				(font
					(size 1.27 1.27)
				)
				(hide yes)
			)
		)
		(property "Description" "RJ connector, 6P6C (6 positions 6 connected)"
			(at 46.99 106.68 0)
			(effects
				(font
					(size 1.27 1.27)
				)
				(hide yes)
			)
		)
		(pin "6"
			(uuid "2a7a5ae3-90ae-4b94-9438-e1d324ea9987")
		)
		(pin "5"
			(uuid "7c6a0cd5-3734-409c-9581-7a2c97d7dc24")
		)
		(pin "4"
			(uuid "d2ddf8e2-2efc-41af-845b-dd7b62e8baef")
		)
		(pin "3"
			(uuid "278d4dc0-127f-4888-9a86-c79633ef98e4")
		)
		(pin "2"
			(uuid "5fc3e88b-1720-4f1f-96ad-21e93a0d4de9")
		)
		(pin "1"
			(uuid "2ca5757e-0a9b-4d8c-bf4b-3dfd993f7acd")
		)
		(instances
			(project "sensor_control"
				(path "/9b9e251d-df40-4f16-880b-dab0a6782a23"
					(reference "J3")
					(unit 1)
				)
			)
		)
	)
	(symbol
		(lib_id "Connector:RJ12")
		(at 46.99 134.62 0)
		(unit 1)
		(exclude_from_sim no)
		(in_bom yes)
		(on_board yes)
		(dnp no)
		(fields_autoplaced yes)
		(uuid "c05e5b5f-3133-4f89-8d9c-3a0283d36cc1")
		(property "Reference" "J4"
			(at 46.99 119.38 0)
			(effects
				(font
					(size 1.27 1.27)
				)
			)
		)
		(property "Value" "Switch"
			(at 46.99 121.92 0)
			(effects
				(font
					(size 1.27 1.27)
				)
			)
		)
		(property "Footprint" "Connector_RJ:RJ12_Amphenol_54601-x06_Horizontal"
			(at 46.99 133.985 90)
			(effects
				(font
					(size 1.27 1.27)
				)
				(hide yes)
			)
		)
		(property "Datasheet" "~"
			(at 46.99 133.985 90)
			(effects
				(font
					(size 1.27 1.27)
				)
				(hide yes)
			)
		)
		(property "Description" "RJ connector, 6P6C (6 positions 6 connected)"
			(at 46.99 134.62 0)
			(effects
				(font
					(size 1.27 1.27)
				)
				(hide yes)
			)
		)
		(pin "6"
			(uuid "e7f3d54b-402f-4244-8fa5-c1ccde923b74")
		)
		(pin "5"
			(uuid "00da7547-fa97-4342-bcf7-595705c1b6f8")
		)
		(pin "4"
			(uuid "cb29d65d-49cc-4aa7-94e4-7a0866f6a0cb")
		)
		(pin "3"
			(uuid "e4a0e580-b07e-4f2d-baf6-b92ad53cab14")
		)
		(pin "2"
			(uuid "ac512924-affe-4cb5-b936-e3890a2ae441")
		)
		(pin "1"
			(uuid "c161c028-a9af-4ecf-9a93-d9417cc2fa1c")
		)
		(instances
			(project "sensor_control"
				(path "/9b9e251d-df40-4f16-880b-dab0a6782a23"
					(reference "J4")
					(unit 1)
				)
			)
		)
	)
	(symbol
		(lib_id "Connector:RJ12")
		(at 46.99 163.83 0)
		(unit 1)
		(exclude_from_sim no)
		(in_bom yes)
		(on_board yes)
		(dnp no)
		(fields_autoplaced yes)
		(uuid "ed55a352-776b-486d-9bd3-93f3d91bab0c")
		(property "Reference" "J5"
			(at 46.99 148.59 0)
			(effects
				(font
					(size 1.27 1.27)
				)
			)
		)
		(property "Value" "Sensor_COLOR"
			(at 46.99 151.13 0)
			(effects
				(font
					(size 1.27 1.27)
				)
			)
		)
		(property "Footprint" "Connector_RJ:RJ12_Amphenol_54601-x06_Horizontal"
			(at 46.99 163.195 90)
			(effects
				(font
					(size 1.27 1.27)
				)
				(hide yes)
			)
		)
		(property "Datasheet" "~"
			(at 46.99 163.195 90)
			(effects
				(font
					(size 1.27 1.27)
				)
				(hide yes)
			)
		)
		(property "Description" "RJ connector, 6P6C (6 positions 6 connected)"
			(at 46.99 163.83 0)
			(effects
				(font
					(size 1.27 1.27)
				)
				(hide yes)
			)
		)
		(pin "6"
			(uuid "01253a39-8fa5-4500-96e0-2231e266e77d")
		)
		(pin "5"
			(uuid "3937c705-45c9-4690-83d9-5cba7f824f7d")
		)
		(pin "4"
			(uuid "fcd6f28b-e5c5-44eb-b189-ad17d078f88b")
		)
		(pin "3"
			(uuid "670dd4e6-0767-421c-aca8-6d026214a8b9")
		)
		(pin "2"
			(uuid "5ead1ccc-7d64-4b9b-9bdb-0a0ae454922c")
		)
		(pin "1"
			(uuid "f5f4429c-7c75-4c80-9f06-99cecf95f5b1")
		)
		(instances
			(project "sensor_control"
				(path "/9b9e251d-df40-4f16-880b-dab0a6782a23"
					(reference "J5")
					(unit 1)
				)
			)
		)
	)
	(sheet_instances
		(path "/"
			(page "1")
		)
	)
)