%TF.GenerationSoftware,KiCad,Pcbnew,7.0.10*%
%TF.CreationDate,2024-02-05T11:16:37+03:00*%
%TF.ProjectId,PMS,504d532e-6b69-4636-9164-5f7063625858,rev?*%
%TF.SameCoordinates,Original*%
%TF.FileFunction,Copper,L2,Bot*%
%TF.FilePolarity,Positive*%
%FSLAX46Y46*%
G04 Gerber Fmt 4.6, Leading zero omitted, Abs format (unit mm)*
G04 Created by KiCad (PCBNEW 7.0.10) date 2024-02-05 11:16:37*
%MOMM*%
%LPD*%
G01*
G04 APERTURE LIST*
%TA.AperFunction,ComponentPad*%
%ADD10R,6.000000X8.000000*%
%TD*%
%TA.AperFunction,ComponentPad*%
%ADD11R,2.000000X2.000000*%
%TD*%
%TA.AperFunction,ComponentPad*%
%ADD12C,1.600000*%
%TD*%
%TA.AperFunction,ComponentPad*%
%ADD13O,1.600000X1.600000*%
%TD*%
%TA.AperFunction,ComponentPad*%
%ADD14R,1.700000X1.700000*%
%TD*%
%TA.AperFunction,ComponentPad*%
%ADD15O,1.700000X1.700000*%
%TD*%
%TA.AperFunction,ComponentPad*%
%ADD16C,2.000000*%
%TD*%
%TA.AperFunction,Conductor*%
%ADD17C,1.000000*%
%TD*%
%TA.AperFunction,Conductor*%
%ADD18C,1.500000*%
%TD*%
%TA.AperFunction,Conductor*%
%ADD19C,2.000000*%
%TD*%
G04 APERTURE END LIST*
D10*
%TO.P,J6,1,Pin_1*%
%TO.N,Net-(J5-Pin_2)*%
X11000000Y-4000000D03*
%TO.P,J6,2,Pin_2*%
%TO.N,Net-(J5-Pin_1)*%
X11000000Y-85000000D03*
%TD*%
D11*
%TO.P,J5,1,Pin_1*%
%TO.N,Net-(J5-Pin_1)*%
X22500000Y-65000000D03*
%TO.P,J5,2,Pin_2*%
%TO.N,Net-(J5-Pin_2)*%
X28540000Y-65000000D03*
%TD*%
D12*
%TO.P,R1,1*%
%TO.N,Net-(A1-VIN)*%
X29565000Y-50975000D03*
D13*
%TO.P,R1,2*%
%TO.N,GND*%
X29565000Y-42975000D03*
%TD*%
D14*
%TO.P,J2,1,Pin_1*%
%TO.N,VCC*%
X29065000Y-11140000D03*
D15*
%TO.P,J2,2,Pin_2*%
%TO.N,GND*%
X29065000Y-13680000D03*
%TO.P,J2,3,Pin_3*%
%TO.N,SCL*%
X29065000Y-16220000D03*
%TO.P,J2,4,Pin_4*%
%TO.N,SDA*%
X29065000Y-18760000D03*
%TD*%
D11*
%TO.P,J4,1,Pin_1*%
%TO.N,Net-(J3-Pin_2)*%
X29565000Y-60540000D03*
%TO.P,J4,2,Pin_2*%
%TO.N,Net-(A1-VIN)*%
X29565000Y-54000000D03*
%TD*%
D13*
%TO.P,A1,23,A4*%
%TO.N,SDA*%
X22195000Y-41540000D03*
%TO.P,A1,24,A5*%
%TO.N,SCL*%
X22195000Y-39000000D03*
%TO.P,A1,26,A7*%
%TO.N,unconnected-(A1-A7-Pad26)*%
X22195000Y-33920000D03*
%TO.P,A1,27,+5V*%
%TO.N,VCC*%
X22195000Y-31380000D03*
%TO.P,A1,29,GND*%
%TO.N,GND*%
X22195000Y-26300000D03*
%TO.P,A1,30,VIN*%
%TO.N,Net-(A1-VIN)*%
X22195000Y-23760000D03*
%TD*%
D11*
%TO.P,J3,1,Pin_1*%
%TO.N,Net-(J3-Pin_2)*%
X17000000Y-79460000D03*
%TO.P,J3,2,Pin_2*%
%TO.N,GND*%
X17000000Y-86000000D03*
%TD*%
%TO.P,C1,1*%
%TO.N,Net-(A1-VIN)*%
X27197323Y-38000000D03*
D16*
%TO.P,C1,2*%
%TO.N,GND*%
X32197323Y-38000000D03*
%TD*%
D14*
%TO.P,J1,1,Pin_1*%
%TO.N,GND*%
X24565000Y-11140000D03*
D15*
%TO.P,J1,2,Pin_2*%
%TO.N,VCC*%
X24565000Y-13680000D03*
%TO.P,J1,3,Pin_3*%
%TO.N,SCL*%
X24565000Y-16220000D03*
%TO.P,J1,4,Pin_4*%
%TO.N,SDA*%
X24565000Y-18760000D03*
%TD*%
D17*
%TO.N,GND*%
X32197323Y-57000000D02*
X28000000Y-57000000D01*
D18*
X30000000Y-86000000D02*
X17000000Y-86000000D01*
X33500000Y-82500000D02*
X30000000Y-86000000D01*
D17*
X28000000Y-57000000D02*
X25000000Y-54000000D01*
X20360000Y-11140000D02*
X24565000Y-11140000D01*
D18*
X32197323Y-43000000D02*
X32197323Y-38000000D01*
D17*
X21000000Y-36500000D02*
X16000000Y-31500000D01*
D18*
X32197323Y-57000000D02*
X33500000Y-58302677D01*
D17*
X31000000Y-12947081D02*
X31000000Y-9737500D01*
X22500000Y-36500000D02*
X21000000Y-36500000D01*
D18*
X29565000Y-42975000D02*
X32172323Y-42975000D01*
D17*
X25000000Y-54000000D02*
X25000000Y-39000000D01*
D18*
X25800000Y-26300000D02*
X32197323Y-32697323D01*
D17*
X16000000Y-15500000D02*
X20360000Y-11140000D01*
X16000000Y-31500000D02*
X16000000Y-15500000D01*
X26705000Y-9000000D02*
X24565000Y-11140000D01*
X30267081Y-13680000D02*
X31000000Y-12947081D01*
X25000000Y-39000000D02*
X22500000Y-36500000D01*
D18*
X32197323Y-32697323D02*
X32197323Y-38000000D01*
D17*
X31000000Y-9737500D02*
X30262500Y-9000000D01*
D18*
X22195000Y-26300000D02*
X25800000Y-26300000D01*
D17*
X30262500Y-9000000D02*
X26705000Y-9000000D01*
D18*
X32172323Y-42975000D02*
X32197323Y-43000000D01*
X33500000Y-58302677D02*
X33500000Y-82500000D01*
X32197323Y-57000000D02*
X32197323Y-43000000D01*
D17*
X29065000Y-13680000D02*
X30267081Y-13680000D01*
%TO.N,SDA*%
X34065000Y-16260000D02*
X31565000Y-18760000D01*
X13000000Y-13500000D02*
X20740000Y-5760000D01*
X31565000Y-18760000D02*
X29065000Y-18760000D01*
X34065000Y-7260000D02*
X34065000Y-16260000D01*
X22195000Y-41540000D02*
X22040000Y-41540000D01*
X22040000Y-41540000D02*
X13000000Y-32500000D01*
X13000000Y-32500000D02*
X13000000Y-13500000D01*
X32565000Y-5760000D02*
X34065000Y-7260000D01*
D18*
X29065000Y-18760000D02*
X24565000Y-18760000D01*
D17*
X20740000Y-5760000D02*
X32565000Y-5760000D01*
%TO.N,SCL*%
X31065000Y-7260000D02*
X32565000Y-8760000D01*
X14500000Y-14500000D02*
X21740000Y-7260000D01*
X30605000Y-16220000D02*
X29065000Y-16220000D01*
X14500000Y-32000000D02*
X14500000Y-14500000D01*
X22195000Y-39000000D02*
X21500000Y-39000000D01*
X32565000Y-8760000D02*
X32565000Y-14260000D01*
D18*
X29065000Y-16220000D02*
X24565000Y-16220000D01*
D17*
X21500000Y-39000000D02*
X14500000Y-32000000D01*
X32565000Y-14260000D02*
X30605000Y-16220000D01*
X21740000Y-7260000D02*
X31065000Y-7260000D01*
D18*
%TO.N,Net-(A1-VIN)*%
X21000000Y-28500000D02*
X19750000Y-27250000D01*
X29565000Y-50975000D02*
X27197323Y-48607323D01*
X27197323Y-38000000D02*
X27197323Y-32697323D01*
D19*
X29565000Y-50975000D02*
X29565000Y-54000000D01*
D18*
X23000000Y-28500000D02*
X21000000Y-28500000D01*
X20740000Y-23760000D02*
X22195000Y-23760000D01*
X19750000Y-24750000D02*
X20740000Y-23760000D01*
X19750000Y-27250000D02*
X19750000Y-24750000D01*
X27197323Y-48607323D02*
X27197323Y-38000000D01*
X27197323Y-32697323D02*
X23000000Y-28500000D01*
%TO.N,VCC*%
X20380000Y-31380000D02*
X22195000Y-31380000D01*
X24565000Y-13680000D02*
X25525000Y-13680000D01*
X17750000Y-18933959D02*
X17750000Y-28750000D01*
X28065000Y-11140000D02*
X29065000Y-11140000D01*
X25525000Y-13680000D02*
X28065000Y-11140000D01*
X24565000Y-13680000D02*
X23003959Y-13680000D01*
X17750000Y-28750000D02*
X20380000Y-31380000D01*
X23003959Y-13680000D02*
X17750000Y-18933959D01*
%TO.N,Net-(J3-Pin_2)*%
X17000000Y-79460000D02*
X26540000Y-79460000D01*
X26540000Y-79460000D02*
X31000000Y-75000000D01*
X31000000Y-61975000D02*
X29565000Y-60540000D01*
X31000000Y-75000000D02*
X31000000Y-61975000D01*
%TO.N,Net-(J5-Pin_1)*%
X11000000Y-85000000D02*
X11000000Y-70500000D01*
X16500000Y-65000000D02*
X22500000Y-65000000D01*
X11000000Y-70500000D02*
X16500000Y-65000000D01*
%TO.N,Net-(J5-Pin_2)*%
X11000000Y-48000000D02*
X28000000Y-65000000D01*
X28000000Y-65000000D02*
X28540000Y-65000000D01*
X11000000Y-4000000D02*
X11000000Y-48000000D01*
%TD*%
M02*
