M48
; DRILL file {KiCad 7.0.10} date Пн 05 фев 2024 11:16:45
; FORMAT={-:-/ absolute / metric / decimal}
; #@! TF.CreationDate,2024-02-05T11:16:45+03:00
; #@! TF.GenerationSoftware,Kicad,Pcbnew,7.0.10
; #@! TF.FileFunction,Plated,1,2,PTH
FMAT,2
METRIC
; #@! TA.AperFunction,Plated,PTH,ComponentDrill
T1C0.800
; #@! TA.AperFunction,Plated,PTH,ComponentDrill
T2C1.000
%
G90
G05
T1
X29.565Y-42.975
X29.565Y-50.975
T2
X11.0Y-4.0
X11.0Y-85.0
X17.0Y-79.46
X17.0Y-86.0
X22.195Y-23.76
X22.195Y-26.3
X22.195Y-31.38
X22.195Y-33.92
X22.195Y-39.0
X22.195Y-41.54
X22.5Y-65.0
X24.565Y-11.14
X24.565Y-13.68
X24.565Y-16.22
X24.565Y-18.76
X27.197Y-38.0
X28.54Y-65.0
X29.065Y-11.14
X29.065Y-13.68
X29.065Y-16.22
X29.065Y-18.76
X29.565Y-54.0
X29.565Y-60.54
X32.197Y-38.0
M30
