# Alias OBJ Model File
# Exported from SketchUp, (c) 2000-2012 Trimble Navigation Limited
# File units = millimeters

mtllib motor_crep.mtl

g Mesh1 Group1 Model

usemtl FrontColor
v 92.4878 0 -57.0847
vt -0.800633 0
vn 0.707107 0 -0.707107
v 91.6594 0 -57.7204
vt -0.759523 0
vn 0.608761 0 -0.793353
v 91.6594 12 -57.7204
vt -0.759523 0.472441
v 92.4878 12 -57.0847
vt -0.800633 0.472441
f 1/1/1 2/2/2 3/3/2 4/4/1 

v 91.6594 0 -54.2563
vt -1.37999 0.414405
vn 8.6205e-032 -1 -5.43879e-031
vt -1.37999 0.550787
vt -1.41261 0.52576
f 5/5/3 2/6/3 1/7/3

v 91.5912 0 -54.7739
vt -1.37731 0.434784
f 6/8/3 2/6/3 5/5/3

v 91.3914 0 -55.2563
vt -1.36944 0.453775
f 7/9/3 2/6/3 6/8/3

v 91.0736 0 -55.6705
vt -1.35693 0.470083
f 8/10/3 2/6/3 7/9/3

v 90.6594 0 -55.9884
vt -1.34062 0.482596
f 9/11/3 2/6/3 8/10/3

v 90.177 0 -56.1882
vt -1.32163 0.490462
f 10/12/3 2/6/3 9/11/3

v 89.6594 0 -56.2563
vt -1.30125 0.493145
f 11/13/3 2/6/3 10/12/3

v 89.1418 0 -56.1882
vt -1.28087 0.490462
f 12/14/3 2/6/3 11/13/3

v 88.6594 0 -55.9884
vt -1.26188 0.482596
f 13/15/3 2/6/3 12/14/3

v 82.8352 0 -54.2563
vt -1.03258 0.414405
f 14/16/3 2/6/3 13/15/3

v 82.5728 0 -56.2497
vt -1.02225 0.492883
f 15/17/3 2/6/3 14/16/3

v 81.8034 0 -58.1072
vt -0.99196 0.566014
f 16/18/3 2/6/3 15/17/3

v 80.5795 0 -59.7023
vt -0.943773 0.628812
f 17/19/3 2/6/3 16/18/3

v 80.3965 0 -63.372
vt -0.936568 0.77329
f 17/19/3 18/20/3 2/6/3

v 80.1335 0 -60.0444
vt -0.926216 0.642284
f 19/21/3 18/20/3 17/19/3

v 80.1335 0 -63.4809
vt -0.926216 0.777578
f 19/21/3 20/22/3 18/20/3

v 78.9844 0 -60.9262
vt -0.880974 0.676999
f 21/23/3 20/22/3 19/21/3

v 77.1269 0 -61.6956
vt -0.807844 0.707291
f 22/24/3 20/22/3 21/23/3

v 75.1335 0 -61.958
vt -0.729366 0.717623
f 23/25/3 20/22/3 22/24/3

v 73.1402 0 -61.6956
vt -0.650887 0.707291
f 24/26/3 20/22/3 23/25/3

v 70.1335 0 -63.4809
vt -0.532515 0.777578
f 24/26/3 25/27/3 20/22/3

v 71.2826 0 -60.9262
vt -0.577757 0.676999
f 26/28/3 25/27/3 24/26/3

v 70.1335 0 -60.0444
vt -0.532515 0.642284
f 27/29/3 25/27/3 26/28/3

v 69.8706 0 -63.372
vt -0.522163 0.77329
f 27/29/3 28/30/3 25/27/3

v 69.7865 0 -63.3075
vt -0.518852 0.770749
f 27/29/3 29/31/3 28/30/3

v 69.6876 0 -59.7023
vt -0.514958 0.628812
f 30/32/3 29/31/3 27/29/3

v 68.4636 0 -58.1072
vt -0.466772 0.566014
f 31/33/3 29/31/3 30/32/3

v 67.6942 0 -56.2497
vt -0.43648 0.492883
f 32/34/3 29/31/3 31/33/3

v 62.6076 0 -54.2563
vt -0.23622 0.414405
f 33/35/3 29/31/3 32/34/3

v 62.5395 0 -54.7739
vt -0.233537 0.434784
f 34/36/3 29/31/3 33/35/3

v 62.3397 0 -55.2563
vt -0.225671 0.453775
f 35/37/3 29/31/3 34/36/3

v 62.0218 0 -55.6705
vt -0.213158 0.470083
f 36/38/3 29/31/3 35/37/3

v 61.6076 0 -55.9884
vt -0.19685 0.482596
f 37/39/3 29/31/3 36/38/3

v 61.1253 0 -56.1882
vt -0.17786 0.490462
f 38/40/3 29/31/3 37/39/3

v 60.6076 0 -56.2563
vt -0.15748 0.493145
f 39/41/3 29/31/3 38/40/3

v 60.09 0 -56.1882
vt -0.137101 0.490462
f 40/42/3 29/31/3 39/41/3

v 59.6076 0 -55.9884
vt -0.11811 0.482596
f 41/43/3 29/31/3 40/42/3

v 58.6076 0 -57.7204
vt -0.0787402 0.550787
f 41/43/3 42/44/3 29/31/3

v 59.1934 0 -55.6705
vt -0.101803 0.470083
f 43/45/3 42/44/3 41/43/3

v 58.8756 0 -55.2563
vt -0.0892893 0.453775
f 44/46/3 42/44/3 43/45/3

v 58.6758 0 -54.7739
vt -0.0814232 0.434784
f 45/47/3 42/44/3 44/46/3

v 58.6076 0 -54.2563
vt -0.0787402 0.414405
f 42/44/3 45/47/3 46/48/3

vt 0.421137 0
vn 1 0 -0
vt 0.441693 0
vn 0.965926 0 0.258819
v 58.6758 12 -54.7739
vt 0.441693 0.472441
v 58.6076 12 -54.2563
vt 0.421137 0.472441
f 46/49/4 45/50/5 47/51/5 48/52/4 

vt 0.432848 0
vt 0.453403 0
vn 0.866025 0 0.5
v 58.8756 12 -55.2563
vt 0.453403 0.472441
vt 0.432848 0.472441
f 45/53/5 44/54/6 49/55/6 47/56/5 

vt 0.41436 0
vt 0.434915 0
vn 0.707107 0 0.707107
v 59.1934 12 -55.6705
vt 0.434915 0.472441
vt 0.41436 0.472441
f 44/57/6 43/58/7 50/59/7 49/60/6 

vt 0.366934 0
vt 0.387489 0
vn 0.5 0 0.866025
v 59.6076 12 -55.9884
vt 0.387489 0.472441
vt 0.366934 0.472441
f 43/61/7 41/62/8 51/63/8 50/64/7 

vt 0.293801 0
vt 0.314356 0
vn 0.258819 0 0.965926
v 60.09 12 -56.1882
vt 0.314356 0.472441
vt 0.293801 0.472441
f 41/65/8 40/66/9 52/67/9 51/68/8 

vt 0.199946 0
vt 0.220501 0
vn 0 0 1
v 60.6076 12 -56.2563
vt 0.220501 0.472441
vt 0.199946 0.472441
f 40/69/9 39/70/10 53/71/10 52/72/9 

vt 0.0917647 0
vt 0.11232 0
vn -0.258819 0 0.965926
v 61.1253 12 -56.1882
vt 0.11232 0.472441
vt 0.0917647 0.472441
f 39/73/10 38/74/11 54/75/11 53/76/10 

vt -0.0233707 0
vt -0.00281543 0
vn -0.5 0 0.866025
v 61.6076 12 -55.9884
vt -0.00281543 0.472441
vt -0.0233707 0.472441
f 38/77/11 37/78/12 55/79/12 54/80/11 

vt -0.137614 0
vt -0.117059 0
vn -0.707107 0 0.707107
v 62.0218 12 -55.6705
vt -0.117059 0.472441
vt -0.137614 0.472441
f 37/81/12 36/82/13 56/83/13 55/84/12 

vt -0.243179 0
vt -0.222624 0
vn -0.866025 0 0.5
v 62.3397 12 -55.2563
vt -0.222624 0.472441
vt -0.243179 0.472441
f 36/85/13 35/86/14 57/87/14 56/88/13 

vt -0.332873 0
vt -0.312318 0
vn -0.965926 0 0.258819
v 62.5395 12 -54.7739
vt -0.312318 0.472441
vt -0.332873 0.472441
f 35/89/14 34/90/15 58/91/15 57/92/14 

vt -0.400582 0
vt -0.380027 0
vn -1 0 -0
v 62.6076 12 -54.2563
vt -0.380027 0.472441
vt -0.400582 0.472441
f 34/93/15 33/94/16 59/95/16 58/96/15 

vt -0.441693 0
v 62.5395 0 -53.7387
vt -0.421137 0
vn -0.965926 0 -0.258819
v 62.5395 12 -53.7387
vt -0.421137 0.472441
vt -0.441693 0.472441
f 33/97/16 60/98/17 61/99/17 59/100/16 

v 69.8706 0 -45.1406
vt -0.522163 0.0555197
vt -0.233537 0.394026
f 62/101/3 60/102/3 33/35/3

v 62.3397 0 -53.2563
vt -0.225671 0.375035
f 62/101/3 63/103/3 60/102/3

v 62.0218 0 -52.8421
vt -0.213158 0.358727
f 62/101/3 64/104/3 63/103/3

v 61.6076 0 -52.5243
vt -0.19685 0.346214
f 62/101/3 65/105/3 64/104/3

v 61.1253 0 -52.3245
vt -0.17786 0.338348
f 62/101/3 66/106/3 65/105/3

v 60.6076 0 -52.2563
vt -0.15748 0.335665
f 62/101/3 67/107/3 66/106/3

v 60.09 0 -52.3245
vt -0.137101 0.338348
f 62/101/3 68/108/3 67/107/3

v 59.6076 0 -52.5243
vt -0.11811 0.346214
f 62/101/3 69/109/3 68/108/3

v 58.6076 0 -50.7922
vt -0.0787402 0.278023
f 70/110/3 69/109/3 62/101/3

v 59.1934 0 -52.8421
vt -0.101803 0.358727
f 70/110/3 71/111/3 69/109/3

v 58.8756 0 -53.2563
vt -0.0892893 0.375035
f 70/110/3 72/112/3 71/111/3

v 58.6758 0 -53.7387
vt -0.0814232 0.394026
f 70/110/3 73/113/3 72/112/3

f 70/110/3 46/48/3 73/113/3

v 57.7792 0 -51.4279
vt -0.0461249 0.30305
f 74/114/3 46/48/3 70/110/3

f 74/114/3 42/44/3 46/48/3

v 57.7792 0 -57.0847
vt -0.0461249 0.52576
f 74/114/3 75/115/3 42/44/3

v 57.1435 0 -52.2563
vt -0.0210984 0.335665
f 76/116/3 75/115/3 74/114/3

v 57.1435 0 -56.2563
vt -0.0210984 0.493145
f 76/116/3 77/117/3 75/115/3

v 56.7439 0 -53.221
vt -0.00536601 0.373646
f 78/118/3 77/117/3 76/116/3

v 56.7439 0 -55.2916
vt -0.00536601 0.455164
f 78/118/3 79/119/3 77/117/3

v 56.6076 0 -54.2563
vt 0 0.414405
f 79/119/3 78/118/3 80/120/3

vt -0.41086 0
vt -0.369749 0
v 56.7439 12 -53.221
vt -0.369749 0.472441
v 56.6076 12 -54.2563
vt -0.41086 0.472441
f 80/121/16 78/122/15 81/123/15 82/124/16 

vt -0.34315 0
vt -0.30204 0
v 57.1435 12 -52.2563
vt -0.30204 0.472441
vt -0.34315 0.472441
f 78/125/15 76/126/14 83/127/14 81/128/15 

vt -0.253457 0
vt -0.212346 0
v 57.7792 12 -51.4279
vt -0.212346 0.472441
vt -0.253457 0.472441
f 76/129/14 74/130/13 84/131/13 83/132/14 

vt -0.147892 0
vt -0.106781 0
vn -0.608761 0 0.793353
v 58.6076 12 -50.7922
vt -0.106781 0.472441
vt -0.147892 0.472441
f 74/133/13 70/134/18 85/135/18 84/136/13 

vt -0.0543135 -3.54868e-018
vn -0.44849 -1.25038e-017 0.893788
vt 0.441803 -3.54868e-018
v 69.8706 12 -45.1406
vt 0.441803 0.472441
vt -0.0543135 0.472441
f 70/137/19 62/138/19 86/139/19 85/140/19 

vt 0.461169 0
vn -0.382683 0 0.92388
v 72.4092 0 -44.0891
vt 0.569351 0
vn -0.258819 -1.3725e-031 0.965926
v 72.4092 12 -44.0891
vt 0.569351 0.472441
vt 0.461169 0.472441
f 62/141/20 87/142/21 88/143/21 86/144/20 

v 71.2826 0 -47.5864
vt -0.577757 0.151811
vt -0.62211 0.0141205
f 62/101/3 89/145/3 87/146/3

v 69.6876 0 -48.8104
vt -0.514958 0.199998
f 62/101/3 90/147/3 89/145/3

v 68.4636 0 -50.4054
vt -0.466772 0.262796
f 62/101/3 91/148/3 90/147/3

v 67.6942 0 -52.263
vt -0.43648 0.335927
f 62/101/3 92/149/3 91/148/3

f 62/101/3 33/35/3 92/149/3

v 67.4318 0 -54.2563
vt -0.426148 0.414405
f 92/149/3 33/35/3 93/150/3

f 33/35/3 32/34/3 93/150/3

vt 0.466483 0
vn 1 0 6.57884e-016
vt 0.545639 0
v 67.6942 12 -56.2497
vt 0.545639 0.472441
v 67.4318 12 -54.2563
vt 0.466483 0.472441
f 93/151/22 32/152/5 94/153/5 95/154/22 

vt 0.622399 0
vt 0.701554 0
v 68.4636 12 -58.1072
vt 0.701554 0.472441
vt 0.622399 0.472441
f 32/155/5 31/156/6 96/157/6 94/158/5 

vt 0.733201 0
vt 0.812357 0
vn 0.707107 -5.22658e-018 0.707107
v 69.6876 12 -59.7023
vt 0.812357 0.472441
vt 0.733201 0.472441
f 31/159/6 30/160/23 97/161/23 96/162/6 

vt 0.791341 -1.92126e-018
vt 0.81347 -1.92126e-018
vn 0.608761 -1.03637e-017 0.793353
vt 0.870496 -1.92126e-018
vn 0.5 -5.22658e-018 0.866025
v 71.2826 2 -60.9262
vt 0.870496 0.0787402
v 70.1335 2 -60.0444
vt 0.81347 0.0787402
v 70.1335 12 -60.0444
vt 0.81347 0.472441
vt 0.791341 0.472441
f 30/163/23 27/164/24 26/165/25 98/166/25 99/167/24 100/168/24 97/169/23 

vt 0.792854 0
vt 0.87201 0
v 73.1402 2 -61.6956
vt 0.87201 0.0787402
vt 0.792854 0.0787402
f 26/170/25 24/171/9 101/172/9 98/173/25 

vt 0.737639 0
vt 0.816794 0
vn 1.81968e-016 0 1
v 75.1335 2 -61.958
vt 0.816794 0.0787402
vt 0.737639 0.0787402
f 24/174/9 23/175/26 102/176/26 101/177/9 

vt 0.629457 0
vt 0.708613 0
v 77.1269 2 -61.6956
vt 0.708613 0.0787402
vt 0.629457 0.0787402
f 23/178/26 22/179/11 103/180/11 102/181/26 

vt 0.475682 0
vt 0.554838 0
vn -0.5 2.61329e-018 0.866025
v 78.9844 2 -60.9262
vt 0.554838 0.0787402
vt 0.475682 0.0787402
f 22/182/11 21/183/27 104/184/27 103/185/11 

v 80.1335 12 -60.0444
vt 0.343819 0.472441
vn -0.608761 5.18187e-018 0.793353
v 80.1335 2 -60.0444
vt 0.343819 0.0787402
vt 0.286793 0.0787402
vt 0.286793 5.56223e-018
vt 0.343819 5.56223e-018
vt 0.365949 5.56223e-018
vn -0.707107 2.61329e-018 0.707107
v 80.5795 12 -59.7023
vt 0.365949 0.472441
f 105/186/28 106/187/28 104/188/27 21/189/27 19/190/28 17/191/29 107/192/29 

vt -0.642284 0.472441
v 80.1335 12 -63.4809
vt -0.777578 0.472441
v 80.1335 2 -63.4809
vt -0.777578 0.0787402
vt -0.642284 0.0787402
f 105/193/16 108/194/16 109/195/16 106/196/16 

vt 0.943773 0.628812
vn -1.11132e-015 1 -1.06076e-016
vt 0.926216 0.777578
vt 0.926216 0.642284
f 107/197/30 108/198/30 105/199/30

v 80.3965 12 -63.372
vt 0.936568 0.77329
f 108/198/30 107/197/30 110/200/30

vt 1.37999 0.550787
f 110/200/30 107/197/30 3/201/30

v 81.8034 12 -58.1072
vt 0.99196 0.566014
f 3/201/30 107/197/30 111/202/30

vt 0.0756622 0
vt 0.154818 0
vt 0.154818 0.472441
vt 0.0756622 0.472441
f 17/203/29 16/204/14 111/205/14 107/206/29 

vt -0.143322 0
vt -0.0641663 0
v 82.5728 12 -56.2497
vt -0.0641663 0.472441
vt -0.143322 0.472441
f 16/207/14 15/208/15 112/209/15 111/210/14 

vt -0.355236 0
vt -0.276081 0
vn -1 0 1.39975e-017
v 82.8352 12 -54.2563
vt -0.276081 0.472441
vt -0.355236 0.472441
f 15/211/15 14/212/31 113/213/31 112/214/15 

vt -0.545639 0
v 82.5728 0 -52.263
vt -0.466483 0
v 82.5728 12 -52.263
vt -0.466483 0.472441
vt -0.545639 0.472441
f 14/215/31 114/216/17 115/217/17 113/218/31 

v 91.6594 0 -50.7922
vt -1.37999 0.278023
vt -1.02225 0.335927
f 116/219/3 114/220/3 14/16/3

v 81.8034 0 -50.4054
vt -0.99196 0.262796
f 116/219/3 117/221/3 114/220/3

v 80.5795 0 -48.8104
vt -0.943773 0.199998
f 116/219/3 118/222/3 117/221/3

v 80.3965 0 -45.1406
vt -0.936568 0.0555197
f 119/223/3 118/222/3 116/219/3

v 78.9844 0 -47.5864
vt -0.880974 0.151811
f 119/223/3 120/224/3 118/222/3

v 77.8578 0 -44.0891
vt -0.836622 0.0141205
f 121/225/3 120/224/3 119/223/3

v 77.1269 0 -46.817
vt -0.807844 0.121519
f 121/225/3 122/226/3 120/224/3

v 75.1335 0 -43.7304
vt -0.729366 -3.41964e-062
f 123/227/3 122/226/3 121/225/3

v 75.1335 0 -46.5546
vt -0.729366 0.111187
f 123/227/3 124/228/3 122/226/3

v 73.1402 0 -46.817
vt -0.650887 0.121519
f 123/227/3 125/229/3 124/228/3

f 87/146/3 125/229/3 123/227/3

f 87/146/3 89/145/3 125/229/3

vt -0.554838 0
vn 0.258819 0 -0.965926
vt -0.475682 0
vn 0.5 0 -0.866025
v 71.2826 12 -47.5864
vt -0.475682 0.472441
v 73.1402 12 -46.817
vt -0.554838 0.472441
f 125/230/32 89/231/33 126/232/33 127/233/32 

vt -0.365949 0
vt -0.286793 0
v 69.6876 12 -48.8104
vt -0.286793 0.472441
vt -0.365949 0.472441
f 89/234/33 90/235/1 128/236/1 126/237/33 

vt -0.154818 0
vt -0.0756622 0
vn 0.866025 0 -0.5
v 68.4636 12 -50.4054
vt -0.0756622 0.472441
vt -0.154818 0.472441
f 90/238/1 91/239/34 129/240/34 128/241/1 

vt 0.0641663 0
vt 0.143322 0
vn 0.965926 0 -0.258819
v 67.6942 12 -52.263
vt 0.143322 0.472441
vt 0.0641663 0.472441
f 91/242/34 92/243/35 130/244/35 129/245/34 

vt 0.276081 0
vt 0.355236 0
vt 0.355236 0.472441
vt 0.276081 0.472441
f 92/246/35 93/247/22 95/248/22 130/249/35 

vt 0.23622 0.414405
vt 0.43648 0.335927
vt 0.426148 0.414405
f 59/250/30 130/251/30 95/252/30

vt 0.522163 0.0555197
f 59/250/30 86/253/30 130/251/30

vt 0.233537 0.394026
f 61/254/30 86/253/30 59/250/30

v 62.3397 12 -53.2563
vt 0.225671 0.375035
f 131/255/30 86/253/30 61/254/30

v 62.0218 12 -52.8421
vt 0.213158 0.358727
f 132/256/30 86/253/30 131/255/30

v 61.6076 12 -52.5243
vt 0.19685 0.346214
f 133/257/30 86/253/30 132/256/30

v 61.1253 12 -52.3245
vt 0.17786 0.338348
f 134/258/30 86/253/30 133/257/30

v 60.6076 12 -52.2563
vt 0.15748 0.335665
f 135/259/30 86/253/30 134/258/30

v 60.09 12 -52.3245
vt 0.137101 0.338348
f 136/260/30 86/253/30 135/259/30

v 59.6076 12 -52.5243
vt 0.11811 0.346214
f 137/261/30 86/253/30 136/260/30

vt 0.0787402 0.278023
f 137/261/30 85/262/30 86/253/30

v 59.1934 12 -52.8421
vt 0.101803 0.358727
f 138/263/30 85/262/30 137/261/30

v 58.8756 12 -53.2563
vt 0.0892893 0.375035
f 139/264/30 85/262/30 138/263/30

v 58.6758 12 -53.7387
vt 0.0814232 0.394026
f 140/265/30 85/262/30 139/264/30

vt 0.0787402 0.414405
f 48/266/30 85/262/30 140/265/30

v 57.7792 12 -57.0847
vt 0.0461249 0.52576
f 141/267/30 85/262/30 48/266/30

vt 0.0461249 0.30305
f 141/267/30 84/268/30 85/262/30

v 57.1435 12 -56.2563
vt 0.0210984 0.493145
f 142/269/30 84/268/30 141/267/30

vt 0.0210984 0.335665
f 142/269/30 83/270/30 84/268/30

v 56.7439 12 -55.2916
vt 0.00536601 0.455164
f 143/271/30 83/270/30 142/269/30

vt 0.00536601 0.373646
f 143/271/30 81/272/30 83/270/30

vt 5.25034e-016 0.414405
f 81/272/30 143/271/30 82/273/30

vt -0.45197 0
vt -0.45197 0.472441
f 79/274/17 80/121/16 82/124/16 143/275/17 

vt -0.463681 0
vn -0.866025 0 -0.5
vt -0.42257 0
vt -0.42257 0.472441
vt -0.463681 0.472441
f 77/276/36 79/277/17 143/278/17 142/279/36 

vt -0.445193 0
vn -0.707107 0 -0.707107
vt -0.404082 0
vt -0.404082 0.472441
vt -0.445193 0.472441
f 75/280/37 77/281/36 142/282/36 141/283/37 

vt -0.397767 0
vn -0.608761 0 -0.793353
vt -0.356656 0
vt -0.356656 0.472441
v 58.6076 12 -57.7204
vt -0.397767 0.472441
f 42/284/38 75/285/37 141/286/37 144/287/38 

vt 0.0787402 0.550787
f 48/266/30 144/288/30 141/267/30

vt 0.0814232 0.434784
f 144/288/30 48/266/30 47/289/30

vt 0.0892893 0.453775
f 144/288/30 47/289/30 49/290/30

vt 0.101803 0.470083
f 144/288/30 49/290/30 50/291/30

vt 0.11811 0.482596
f 144/288/30 50/291/30 51/292/30

v 69.7865 12 -63.3075
vt 0.518852 0.770749
f 144/288/30 51/292/30 145/293/30

vt 0.137101 0.490462
f 145/293/30 51/292/30 52/294/30

vt 0.15748 0.493145
f 145/293/30 52/294/30 53/295/30

vt 0.17786 0.490462
f 145/293/30 53/295/30 54/296/30

vt 0.19685 0.482596
f 145/293/30 54/296/30 55/297/30

vt 0.213158 0.470083
f 145/293/30 55/297/30 56/298/30

vt 0.225671 0.453775
f 145/293/30 56/298/30 57/299/30

vt 0.233537 0.434784
f 145/293/30 57/299/30 58/300/30

f 145/293/30 58/300/30 59/250/30

vt 0.43648 0.492883
f 145/293/30 59/250/30 94/301/30

f 94/301/30 59/250/30 95/252/30

vt 0.466772 0.566014
f 145/293/30 94/301/30 96/302/30

vt 0.514958 0.628812
f 145/293/30 96/302/30 97/303/30

vt 0.532515 0.642284
f 145/293/30 97/303/30 100/304/30

v 69.8706 12 -63.372
vt 0.522163 0.77329
f 145/293/30 100/304/30 146/305/30

v 70.1335 12 -63.4809
vt 0.532515 0.777578
f 146/305/30 100/304/30 147/306/30

vt 0.777578 0.472441
vt 0.642284 0.472441
vt 0.642284 0.0787402
v 70.1335 2 -63.4809
vt 0.777578 0.0787402
f 147/307/4 100/308/4 99/309/4 148/310/4 

vn 0 1 -0
vt 0.577757 0.676999
vt 0.650887 0.707291
vt 0.729366 0.717623
vt 0.807844 0.707291
vt 0.880974 0.676999
f 106/199/39 109/198/39 148/306/39 99/304/39 98/311/39 101/312/39 102/313/39 103/314/39 104/315/39 

vt -0.926216 0
vn 0 0 -1
vt -0.532515 0
vt -0.532515 0.0787402
vt -0.926216 0.0787402
f 20/316/40 25/317/40 148/318/40 109/319/40 

vt -0.789546 0.472441
vn -0.382683 0 -0.92388
vt -0.789546 0.0787402
vt -0.789546 0
vt -0.778341 0
vn -0.5 5.33652e-019 -0.866025
vt -0.778341 0.472441
f 147/320/41 148/321/41 25/322/41 28/323/42 146/324/42 

vt -0.885009 -3.12817e-019
vt -0.880835 -3.12817e-019
vn -0.608761 1.05817e-018 -0.793353
vt -0.880835 0.472441
vt -0.885009 0.472441
f 28/325/42 29/326/43 145/327/43 146/328/42 

vt -0.808687 0
vn -0.447062 0 -0.894503
vt -0.316669 0
vt -0.316669 0.472441
vt -0.808687 0.472441
f 29/329/44 42/330/44 144/331/44 145/332/44 

vt -0.569351 0
vn 0.382683 0 -0.92388
vt -0.558146 0
vt -0.558146 0.0787402
vt -0.558146 0.472441
vt -0.569351 0.472441
f 18/333/45 20/334/45 109/335/45 108/336/45 110/337/45 

vt -0.986397 -1.38942e-017
vn 0.44849 1.25038e-017 -0.893788
vt -0.49028 -1.38942e-017
vt -0.49028 0.472441
vt -0.986397 0.472441
f 2/338/46 18/339/46 110/340/46 3/341/46 

vt 0.380027 0
vt 0.400582 0
vt 0.400582 0.472441
vt 0.380027 0.472441
f 73/342/35 46/343/4 48/344/4 140/345/35 

vt 0.312318 0
vt 0.332873 0
vt 0.332873 0.472441
vt 0.312318 0.472441
f 72/346/34 73/347/35 140/348/35 139/349/34 

vt 0.222624 0
vt 0.243179 0
vt 0.243179 0.472441
vt 0.222624 0.472441
f 71/350/1 72/351/34 139/352/34 138/353/1 

vt 0.117059 0
vt 0.137614 0
vt 0.137614 0.472441
vt 0.117059 0.472441
f 69/354/33 71/355/1 138/356/1 137/357/33 

vt 0.00281543 0
vt 0.0233707 0
vt 0.0233707 0.472441
vt 0.00281543 0.472441
f 68/358/32 69/359/33 137/360/33 136/361/32 

vt -0.11232 0
vn -6.99877e-016 0 -1
vt -0.0917647 0
vt -0.0917647 0.472441
vt -0.11232 0.472441
f 67/362/47 68/363/32 136/364/32 135/365/47 

vt -0.220501 0
vn -0.258819 0 -0.965926
vt -0.199946 0
vt -0.199946 0.472441
vt -0.220501 0.472441
f 66/366/48 67/367/47 135/368/47 134/369/48 

vt -0.314356 0
vn -0.5 0 -0.866025
vt -0.293801 0
vt -0.293801 0.472441
vt -0.314356 0.472441
f 65/370/49 66/371/48 134/372/48 133/373/49 

vt -0.387489 0
vt -0.366934 0
vt -0.366934 0.472441
vt -0.387489 0.472441
f 64/374/37 65/375/49 133/376/49 132/377/37 

vt -0.434915 0
vt -0.41436 0
vt -0.41436 0.472441
vt -0.434915 0.472441
f 63/378/36 64/379/37 132/380/37 131/381/36 

vt -0.453403 0
vt -0.432848 0
vt -0.432848 0.472441
vt -0.453403 0.472441
f 60/382/17 63/383/36 131/384/36 61/385/17 

vt 0.466772 0.262796
f 130/251/30 86/253/30 129/386/30

vt 0.514958 0.199998
f 129/386/30 86/253/30 128/387/30

vt 0.577757 0.151811
f 128/387/30 86/253/30 126/388/30

vt 0.62211 0.0141205
f 126/388/30 86/253/30 88/389/30

vt 0.650887 0.121519
f 126/388/30 88/389/30 127/390/30

v 75.1335 12 -43.7304
vt 0.729366 -5.01148e-017
f 127/390/30 88/389/30 149/391/30

vt 0.614944 -2.59091e-032
vt 0.723126 -2.59091e-032
vn 2.65953e-016 -2.87098e-031 1
vt 0.723126 0.472441
vt 0.614944 0.472441
f 87/392/21 123/393/50 149/394/50 88/395/21 

vt 0.723126 2.82875e-032
vt 0.831307 2.82875e-032
vn 0.258819 -1.49849e-031 0.965926
v 77.8578 12 -44.0891
vt 0.831307 0.472441
f 123/396/50 121/397/51 150/398/51 149/394/50 

vt 0.778341 0
vt 0.886523 0
vn 0.382683 0 0.92388
v 80.3965 12 -45.1406
vt 0.886523 0.472441
vt 0.778341 0.472441
f 121/399/51 119/400/52 151/401/52 150/402/51 

vt 0.861993 5.14619e-019
vn 0.44849 -1.38929e-018 0.893788
vt 1.35811 5.14619e-019
v 91.6594 12 -50.7922
vt 1.35811 0.472441
vt 0.861993 0.472441
f 119/403/53 116/404/53 152/405/53 151/406/53 

vt 1.26407 0
vn 0.608761 0 0.793353
v 92.4878 0 -51.4279
vt 1.30518 0
v 92.4878 12 -51.4279
vt 1.30518 0.472441
vt 1.26407 0.472441
f 116/407/54 153/408/7 154/409/7 152/410/54 

vt -1.41261 0.30305
f 116/219/3 1/7/3 153/411/3

f 5/5/3 1/7/3 116/219/3

v 91.5912 0 -53.7387
vt -1.37731 0.394026
f 116/219/3 155/412/3 5/5/3

v 91.3914 0 -53.2563
vt -1.36944 0.375035
f 116/219/3 156/413/3 155/412/3

v 91.0736 0 -52.8421
vt -1.35693 0.358727
f 116/219/3 157/414/3 156/413/3

v 90.6594 0 -52.5243
vt -1.34062 0.346214
f 116/219/3 158/415/3 157/414/3

v 90.177 0 -52.3245
vt -1.32163 0.338348
f 116/219/3 159/416/3 158/415/3

v 89.6594 0 -52.2563
vt -1.30125 0.335665
f 116/219/3 160/417/3 159/416/3

v 89.1418 0 -52.3245
vt -1.28087 0.338348
f 116/219/3 161/418/3 160/417/3

v 88.6594 0 -52.5243
vt -1.26188 0.346214
f 116/219/3 162/419/3 161/418/3

f 116/219/3 14/16/3 162/419/3

v 88.2452 0 -52.8421
vt -1.24557 0.358727
f 162/419/3 14/16/3 163/420/3

v 87.9273 0 -53.2563
vt -1.23306 0.375035
f 163/420/3 14/16/3 164/421/3

v 87.7275 0 -53.7387
vt -1.22519 0.394026
f 164/421/3 14/16/3 165/422/3

v 87.6594 0 -54.2563
vt -1.22251 0.414405
f 165/422/3 14/16/3 166/423/3

v 87.7275 0 -54.7739
vt -1.22519 0.434784
f 14/16/3 167/424/3 166/423/3

v 87.9273 0 -55.2563
vt -1.23306 0.453775
f 14/16/3 168/425/3 167/424/3

v 88.2452 0 -55.6705
vt -1.24557 0.470083
f 14/16/3 169/426/3 168/425/3

f 14/16/3 13/15/3 169/426/3

vt 1.27435 0
vt 1.2949 0
v 88.6594 12 -55.9884
vt 1.2949 0.472441
v 88.2452 12 -55.6705
vt 1.27435 0.472441
f 169/427/7 13/428/8 170/429/8 171/430/7 

vt 1.35051 0
vt 1.37106 0
v 89.1418 12 -56.1882
vt 1.37106 0.472441
vt 1.35051 0.472441
f 13/431/8 12/432/9 172/433/9 170/434/8 

vt 1.33393 0
vt 1.35449 0
v 89.6594 12 -56.2563
vt 1.35449 0.472441
vt 1.33393 0.472441
f 12/435/9 11/436/10 173/437/10 172/438/9 

vt 1.22575 0
vt 1.24631 0
v 90.177 12 -56.1882
vt 1.24631 0.472441
vt 1.22575 0.472441
f 11/439/10 10/440/11 174/441/11 173/442/10 

vt 1.03334 0
vt 1.05389 0
v 90.6594 12 -55.9884
vt 1.05389 0.472441
vt 1.03334 0.472441
f 10/443/11 9/444/12 175/445/12 174/446/11 

vt 0.7698 0
vt 0.790356 0
v 91.0736 12 -55.6705
vt 0.790356 0.472441
vt 0.7698 0.472441
f 9/447/12 8/448/13 176/449/13 175/450/12 

vt 0.453104 0
vt 0.473659 0
v 91.3914 12 -55.2563
vt 0.473659 0.472441
vt 0.453104 0.472441
f 8/451/13 7/452/14 177/453/14 176/454/13 

vt 0.104829 0
vt 0.125385 0
v 91.5912 12 -54.7739
vt 0.125385 0.472441
vt 0.104829 0.472441
f 7/455/14 6/456/15 178/457/15 177/458/14 

vt -0.25129 0
vt -0.230735 0
v 91.6594 12 -54.2563
vt -0.230735 0.472441
vt -0.25129 0.472441
f 6/459/15 5/460/16 179/461/16 178/462/15 

vt -0.590985 0
vt -0.570429 0
v 91.5912 12 -53.7387
vt -0.570429 0.472441
vt -0.590985 0.472441
f 5/463/16 155/464/17 180/465/17 179/466/16 

vt -0.891105 0
vt -0.87055 0
v 91.3914 12 -53.2563
vt -0.87055 0.472441
vt -0.891105 0.472441
f 155/467/17 156/468/36 181/469/36 180/470/17 

vt -1.1312 0
vt -1.11064 0
v 91.0736 12 -52.8421
vt -1.11064 0.472441
vt -1.1312 0.472441
f 156/471/36 157/472/37 182/473/37 181/474/36 

vt -1.2949 0
vt -1.27435 0
v 90.6594 12 -52.5243
vt -1.27435 0.472441
vt -1.2949 0.472441
f 157/475/37 158/476/49 183/477/49 182/478/37 

vt -1.37106 0
vt -1.35051 0
v 90.177 12 -52.3245
vt -1.35051 0.472441
vt -1.37106 0.472441
f 158/479/49 159/480/48 184/481/48 183/482/49 

vt -1.35449 0
vt -1.33393 0
v 89.6594 12 -52.2563
vt -1.33393 0.472441
vt -1.35449 0.472441
f 159/483/48 160/484/40 185/485/40 184/486/48 

vt -1.24631 0
vt -1.22575 0
v 89.1418 12 -52.3245
vt -1.22575 0.472441
vt -1.24631 0.472441
f 160/487/40 161/488/32 186/489/32 185/490/40 

vt -1.05389 0
vt -1.03334 0
v 88.6594 12 -52.5243
vt -1.03334 0.472441
vt -1.05389 0.472441
f 161/491/32 162/492/33 187/493/33 186/494/32 

vt -0.790356 0
vt -0.7698 0
v 88.2452 12 -52.8421
vt -0.7698 0.472441
vt -0.790356 0.472441
f 162/495/33 163/496/1 188/497/1 187/498/33 

vt -0.473659 0
vt -0.453104 0
v 87.9273 12 -53.2563
vt -0.453104 0.472441
vt -0.473659 0.472441
f 163/499/1 164/500/34 189/501/34 188/502/1 

vt -0.125385 0
vt -0.104829 0
v 87.7275 12 -53.7387
vt -0.104829 0.472441
vt -0.125385 0.472441
f 164/503/34 165/504/35 190/505/35 189/506/34 

vt 0.230735 0
vt 0.25129 0
v 87.6594 12 -54.2563
vt 0.25129 0.472441
vt 0.230735 0.472441
f 165/507/35 166/508/4 191/509/4 190/510/35 

vt 0.570429 0
vt 0.590985 0
v 87.7275 12 -54.7739
vt 0.590985 0.472441
vt 0.570429 0.472441
f 166/511/4 167/512/5 192/513/5 191/514/4 

vt 0.87055 0
vt 0.891105 0
v 87.9273 12 -55.2563
vt 0.891105 0.472441
vt 0.87055 0.472441
f 167/515/5 168/516/6 193/517/6 192/518/5 

vt 1.11064 0
vt 1.1312 0
vt 1.1312 0.472441
vt 1.11064 0.472441
f 168/519/6 169/520/7 171/521/7 193/522/6 

vt 1.24557 0.470083
vt 1.03258 0.414405
vt 1.23306 0.453775
f 171/523/30 113/524/30 193/525/30

vt 1.26188 0.482596
f 170/526/30 113/524/30 171/523/30

f 3/201/30 113/524/30 170/526/30

vt 1.02225 0.492883
f 3/201/30 112/527/30 113/524/30

f 3/201/30 111/202/30 112/527/30

vt 1.28087 0.490462
f 3/201/30 170/526/30 172/528/30

vt 1.30125 0.493145
f 3/201/30 172/528/30 173/529/30

vt 1.32163 0.490462
f 3/201/30 173/529/30 174/530/30

vt 1.34062 0.482596
f 3/201/30 174/530/30 175/531/30

vt 1.35693 0.470083
f 3/201/30 175/531/30 176/532/30

vt 1.36944 0.453775
f 3/201/30 176/532/30 177/533/30

vt 1.37731 0.434784
f 3/201/30 177/533/30 178/534/30

vt 1.37999 0.414405
f 3/201/30 178/534/30 179/535/30

vt 1.41261 0.52576
f 3/201/30 179/535/30 4/536/30

vt 1.41261 0.30305
f 4/536/30 179/535/30 154/537/30

vt 1.37999 0.278023
f 179/535/30 152/538/30 154/537/30

vt 1.37731 0.394026
f 180/539/30 152/538/30 179/535/30

vt 1.36944 0.375035
f 181/540/30 152/538/30 180/539/30

vt 1.35693 0.358727
f 182/541/30 152/538/30 181/540/30

vt 1.34062 0.346214
f 183/542/30 152/538/30 182/541/30

vt 1.32163 0.338348
f 184/543/30 152/538/30 183/542/30

vt 1.30125 0.335665
f 185/544/30 152/538/30 184/543/30

vt 1.28087 0.338348
f 186/545/30 152/538/30 185/544/30

vt 1.26188 0.346214
f 187/546/30 152/538/30 186/545/30

f 113/524/30 152/538/30 187/546/30

vt 1.02225 0.335927
f 115/547/30 152/538/30 113/524/30

v 81.8034 12 -50.4054
vt 0.99196 0.262796
f 194/548/30 152/538/30 115/547/30

v 80.5795 12 -48.8104
vt 0.943773 0.199998
f 195/549/30 152/538/30 194/548/30

vt 0.936568 0.0555197
f 195/549/30 151/550/30 152/538/30

v 78.9844 12 -47.5864
vt 0.880974 0.151811
f 196/551/30 151/550/30 195/549/30

vt 0.836622 0.0141205
f 196/551/30 150/552/30 151/550/30

v 77.1269 12 -46.817
vt 0.807844 0.121519
f 197/553/30 150/552/30 196/551/30

f 197/553/30 149/391/30 150/552/30

v 75.1335 12 -46.5546
vt 0.729366 0.111187
f 198/554/30 149/391/30 197/553/30

f 127/390/30 149/391/30 198/554/30

vt -0.708613 0
vn -1.6797e-016 0 -1
vt -0.629457 0
vt -0.629457 0.472441
vt -0.708613 0.472441
f 124/555/55 125/556/32 127/557/32 198/558/55 

vt -0.816794 0
vt -0.737639 0
vt -0.737639 0.472441
vt -0.816794 0.472441
f 122/559/48 124/560/55 198/561/55 197/562/48 

vt -0.87201 0
vt -0.792854 0
vt -0.792854 0.472441
vt -0.87201 0.472441
f 120/563/49 122/564/48 197/565/48 196/566/49 

vt -0.870496 0
vt -0.791341 0
vt -0.791341 0.472441
vt -0.870496 0.472441
f 118/567/37 120/568/49 196/569/49 195/570/37 

vt -0.812357 0
vt -0.733201 0
vt -0.733201 0.472441
vt -0.812357 0.472441
f 117/571/36 118/572/37 195/573/37 194/574/36 

vt -0.701554 0
vt -0.622399 0
vt -0.622399 0.472441
vt -0.701554 0.472441
f 114/575/17 117/576/36 194/577/36 115/578/17 

vt 1.24557 0.358727
f 113/524/30 187/546/30 188/579/30

vt 1.23306 0.375035
f 113/524/30 188/579/30 189/580/30

vt 1.22519 0.394026
f 113/524/30 189/580/30 190/581/30

vt 1.22251 0.414405
f 113/524/30 190/581/30 191/582/30

vt 1.22519 0.434784
f 192/583/30 113/524/30 191/582/30

f 193/525/30 113/524/30 192/583/30

v 93.1235 12 -52.2563
vt 1.43763 0.335665
f 4/536/30 154/537/30 199/584/30

vt 1.10037 0
v 93.1235 0 -52.2563
vt 1.14148 0
vt 1.14148 0.472441
vt 1.10037 0.472441
f 153/585/7 200/586/6 199/587/6 154/588/7 

v 93.1235 0 -56.2563
vt -1.43763 0.493145
vt -1.43763 0.335665
f 153/411/3 201/589/3 200/590/3

f 153/411/3 1/7/3 201/589/3

vt -0.483937 0
vt -0.442826 0
vt -0.442826 0.472441
v 93.1235 12 -56.2563
vt -0.483937 0.472441
f 201/591/34 1/592/1 4/593/1 202/594/34 

vt 1.43763 0.493145
f 4/536/30 199/584/30 202/595/30

v 93.5231 12 -53.221
vt 1.45337 0.373646
f 202/595/30 199/584/30 203/596/30

vt 0.860272 0
v 93.5231 0 -53.221
vt 0.901383 0
vt 0.901383 0.472441
vt 0.860272 0.472441
f 200/597/6 204/598/5 203/599/5 199/600/6 

v 93.5231 0 -55.2916
vt -1.45337 0.455164
vt -1.45337 0.373646
f 200/590/3 205/601/3 204/602/3

f 200/590/3 201/589/3 205/601/3

vt -0.135662 0
vt -0.0945516 0
vt -0.0945516 0.472441
v 93.5231 12 -55.2916
vt -0.135662 0.472441
f 205/603/35 201/604/34 202/605/34 206/606/35 

vt 1.45337 0.455164
f 202/595/30 203/596/30 206/607/30

v 93.6594 12 -54.2563
vt 1.45873 0.414405
f 206/607/30 203/596/30 207/608/30

vt 0.560152 0
v 93.6594 0 -54.2563
vt 0.601262 0
vt 0.601262 0.472441
vt 0.560152 0.472441
f 204/609/5 208/610/4 207/611/4 203/612/5 

vt -1.45873 0.414405
f 204/602/3 205/601/3 208/613/3

vt 0.220457 0
vt 0.261568 0
vt 0.261568 0.472441
vt 0.220457 0.472441
f 208/614/4 205/615/35 206/616/35 207/617/4 

