(kicad_sch
	(version 20231120)
	(generator "eeschema")
	(generator_version "8.0")
	(uuid "22187b23-fa3a-4b30-8247-44a45e8459c2")
	(paper "A4")
	(lib_symbols
		(symbol "Connector:Conn_01x02_Socket"
			(pin_names
				(offset 1.016) hide)
			(exclude_from_sim no)
			(in_bom yes)
			(on_board yes)
			(property "Reference" "J"
				(at 0 2.54 0)
				(effects
					(font
						(size 1.27 1.27)
					)
				)
			)
			(property "Value" "Conn_01x02_Socket"
				(at 0 -5.08 0)
				(effects
					(font
						(size 1.27 1.27)
					)
				)
			)
			(property "Footprint" ""
				(at 0 0 0)
				(effects
					(font
						(size 1.27 1.27)
					)
					(hide yes)
				)
			)
			(property "Datasheet" "~"
				(at 0 0 0)
				(effects
					(font
						(size 1.27 1.27)
					)
					(hide yes)
				)
			)
			(property "Description" "Generic connector, single row, 01x02, script generated"
				(at 0 0 0)
				(effects
					(font
						(size 1.27 1.27)
					)
					(hide yes)
				)
			)
			(property "ki_locked" ""
				(at 0 0 0)
				(effects
					(font
						(size 1.27 1.27)
					)
				)
			)
			(property "ki_keywords" "connector"
				(at 0 0 0)
				(effects
					(font
						(size 1.27 1.27)
					)
					(hide yes)
				)
			)
			(property "ki_fp_filters" "Connector*:*_1x??_*"
				(at 0 0 0)
				(effects
					(font
						(size 1.27 1.27)
					)
					(hide yes)
				)
			)
			(symbol "Conn_01x02_Socket_1_1"
				(arc
					(start 0 -2.032)
					(mid -0.5058 -2.54)
					(end 0 -3.048)
					(stroke
						(width 0.1524)
						(type default)
					)
					(fill
						(type none)
					)
				)
				(polyline
					(pts
						(xy -1.27 -2.54) (xy -0.508 -2.54)
					)
					(stroke
						(width 0.1524)
						(type default)
					)
					(fill
						(type none)
					)
				)
				(polyline
					(pts
						(xy -1.27 0) (xy -0.508 0)
					)
					(stroke
						(width 0.1524)
						(type default)
					)
					(fill
						(type none)
					)
				)
				(arc
					(start 0 0.508)
					(mid -0.5058 0)
					(end 0 -0.508)
					(stroke
						(width 0.1524)
						(type default)
					)
					(fill
						(type none)
					)
				)
				(pin passive line
					(at -5.08 0 0)
					(length 3.81)
					(name "Pin_1"
						(effects
							(font
								(size 1.27 1.27)
							)
						)
					)
					(number "1"
						(effects
							(font
								(size 1.27 1.27)
							)
						)
					)
				)
				(pin passive line
					(at -5.08 -2.54 0)
					(length 3.81)
					(name "Pin_2"
						(effects
							(font
								(size 1.27 1.27)
							)
						)
					)
					(number "2"
						(effects
							(font
								(size 1.27 1.27)
							)
						)
					)
				)
			)
		)
		(symbol "Connector:Conn_01x04_Socket"
			(pin_names
				(offset 1.016) hide)
			(exclude_from_sim no)
			(in_bom yes)
			(on_board yes)
			(property "Reference" "J"
				(at 0 5.08 0)
				(effects
					(font
						(size 1.27 1.27)
					)
				)
			)
			(property "Value" "Conn_01x04_Socket"
				(at 0 -7.62 0)
				(effects
					(font
						(size 1.27 1.27)
					)
				)
			)
			(property "Footprint" ""
				(at 0 0 0)
				(effects
					(font
						(size 1.27 1.27)
					)
					(hide yes)
				)
			)
			(property "Datasheet" "~"
				(at 0 0 0)
				(effects
					(font
						(size 1.27 1.27)
					)
					(hide yes)
				)
			)
			(property "Description" "Generic connector, single row, 01x04, script generated"
				(at 0 0 0)
				(effects
					(font
						(size 1.27 1.27)
					)
					(hide yes)
				)
			)
			(property "ki_locked" ""
				(at 0 0 0)
				(effects
					(font
						(size 1.27 1.27)
					)
				)
			)
			(property "ki_keywords" "connector"
				(at 0 0 0)
				(effects
					(font
						(size 1.27 1.27)
					)
					(hide yes)
				)
			)
			(property "ki_fp_filters" "Connector*:*_1x??_*"
				(at 0 0 0)
				(effects
					(font
						(size 1.27 1.27)
					)
					(hide yes)
				)
			)
			(symbol "Conn_01x04_Socket_1_1"
				(arc
					(start 0 -4.572)
					(mid -0.5058 -5.08)
					(end 0 -5.588)
					(stroke
						(width 0.1524)
						(type default)
					)
					(fill
						(type none)
					)
				)
				(arc
					(start 0 -2.032)
					(mid -0.5058 -2.54)
					(end 0 -3.048)
					(stroke
						(width 0.1524)
						(type default)
					)
					(fill
						(type none)
					)
				)
				(polyline
					(pts
						(xy -1.27 -5.08) (xy -0.508 -5.08)
					)
					(stroke
						(width 0.1524)
						(type default)
					)
					(fill
						(type none)
					)
				)
				(polyline
					(pts
						(xy -1.27 -2.54) (xy -0.508 -2.54)
					)
					(stroke
						(width 0.1524)
						(type default)
					)
					(fill
						(type none)
					)
				)
				(polyline
					(pts
						(xy -1.27 0) (xy -0.508 0)
					)
					(stroke
						(width 0.1524)
						(type default)
					)
					(fill
						(type none)
					)
				)
				(polyline
					(pts
						(xy -1.27 2.54) (xy -0.508 2.54)
					)
					(stroke
						(width 0.1524)
						(type default)
					)
					(fill
						(type none)
					)
				)
				(arc
					(start 0 0.508)
					(mid -0.5058 0)
					(end 0 -0.508)
					(stroke
						(width 0.1524)
						(type default)
					)
					(fill
						(type none)
					)
				)
				(arc
					(start 0 3.048)
					(mid -0.5058 2.54)
					(end 0 2.032)
					(stroke
						(width 0.1524)
						(type default)
					)
					(fill
						(type none)
					)
				)
				(pin passive line
					(at -5.08 2.54 0)
					(length 3.81)
					(name "Pin_1"
						(effects
							(font
								(size 1.27 1.27)
							)
						)
					)
					(number "1"
						(effects
							(font
								(size 1.27 1.27)
							)
						)
					)
				)
				(pin passive line
					(at -5.08 0 0)
					(length 3.81)
					(name "Pin_2"
						(effects
							(font
								(size 1.27 1.27)
							)
						)
					)
					(number "2"
						(effects
							(font
								(size 1.27 1.27)
							)
						)
					)
				)
				(pin passive line
					(at -5.08 -2.54 0)
					(length 3.81)
					(name "Pin_3"
						(effects
							(font
								(size 1.27 1.27)
							)
						)
					)
					(number "3"
						(effects
							(font
								(size 1.27 1.27)
							)
						)
					)
				)
				(pin passive line
					(at -5.08 -5.08 0)
					(length 3.81)
					(name "Pin_4"
						(effects
							(font
								(size 1.27 1.27)
							)
						)
					)
					(number "4"
						(effects
							(font
								(size 1.27 1.27)
							)
						)
					)
				)
			)
		)
		(symbol "Device:C_Polarized"
			(pin_numbers hide)
			(pin_names
				(offset 0.254)
			)
			(exclude_from_sim no)
			(in_bom yes)
			(on_board yes)
			(property "Reference" "C"
				(at 0.635 2.54 0)
				(effects
					(font
						(size 1.27 1.27)
					)
					(justify left)
				)
			)
			(property "Value" "C_Polarized"
				(at 0.635 -2.54 0)
				(effects
					(font
						(size 1.27 1.27)
					)
					(justify left)
				)
			)
			(property "Footprint" ""
				(at 0.9652 -3.81 0)
				(effects
					(font
						(size 1.27 1.27)
					)
					(hide yes)
				)
			)
			(property "Datasheet" "~"
				(at 0 0 0)
				(effects
					(font
						(size 1.27 1.27)
					)
					(hide yes)
				)
			)
			(property "Description" "Polarized capacitor"
				(at 0 0 0)
				(effects
					(font
						(size 1.27 1.27)
					)
					(hide yes)
				)
			)
			(property "ki_keywords" "cap capacitor"
				(at 0 0 0)
				(effects
					(font
						(size 1.27 1.27)
					)
					(hide yes)
				)
			)
			(property "ki_fp_filters" "CP_*"
				(at 0 0 0)
				(effects
					(font
						(size 1.27 1.27)
					)
					(hide yes)
				)
			)
			(symbol "C_Polarized_0_1"
				(rectangle
					(start -2.286 0.508)
					(end 2.286 1.016)
					(stroke
						(width 0)
						(type default)
					)
					(fill
						(type none)
					)
				)
				(polyline
					(pts
						(xy -1.778 2.286) (xy -0.762 2.286)
					)
					(stroke
						(width 0)
						(type default)
					)
					(fill
						(type none)
					)
				)
				(polyline
					(pts
						(xy -1.27 2.794) (xy -1.27 1.778)
					)
					(stroke
						(width 0)
						(type default)
					)
					(fill
						(type none)
					)
				)
				(rectangle
					(start 2.286 -0.508)
					(end -2.286 -1.016)
					(stroke
						(width 0)
						(type default)
					)
					(fill
						(type outline)
					)
				)
			)
			(symbol "C_Polarized_1_1"
				(pin passive line
					(at 0 3.81 270)
					(length 2.794)
					(name "~"
						(effects
							(font
								(size 1.27 1.27)
							)
						)
					)
					(number "1"
						(effects
							(font
								(size 1.27 1.27)
							)
						)
					)
				)
				(pin passive line
					(at 0 -3.81 90)
					(length 2.794)
					(name "~"
						(effects
							(font
								(size 1.27 1.27)
							)
						)
					)
					(number "2"
						(effects
							(font
								(size 1.27 1.27)
							)
						)
					)
				)
			)
		)
		(symbol "Device:D"
			(pin_numbers hide)
			(pin_names
				(offset 1.016) hide)
			(exclude_from_sim no)
			(in_bom yes)
			(on_board yes)
			(property "Reference" "D"
				(at 0 2.54 0)
				(effects
					(font
						(size 1.27 1.27)
					)
				)
			)
			(property "Value" "D"
				(at 0 -2.54 0)
				(effects
					(font
						(size 1.27 1.27)
					)
				)
			)
			(property "Footprint" ""
				(at 0 0 0)
				(effects
					(font
						(size 1.27 1.27)
					)
					(hide yes)
				)
			)
			(property "Datasheet" "~"
				(at 0 0 0)
				(effects
					(font
						(size 1.27 1.27)
					)
					(hide yes)
				)
			)
			(property "Description" "Diode"
				(at 0 0 0)
				(effects
					(font
						(size 1.27 1.27)
					)
					(hide yes)
				)
			)
			(property "Sim.Device" "D"
				(at 0 0 0)
				(effects
					(font
						(size 1.27 1.27)
					)
					(hide yes)
				)
			)
			(property "Sim.Pins" "1=K 2=A"
				(at 0 0 0)
				(effects
					(font
						(size 1.27 1.27)
					)
					(hide yes)
				)
			)
			(property "ki_keywords" "diode"
				(at 0 0 0)
				(effects
					(font
						(size 1.27 1.27)
					)
					(hide yes)
				)
			)
			(property "ki_fp_filters" "TO-???* *_Diode_* *SingleDiode* D_*"
				(at 0 0 0)
				(effects
					(font
						(size 1.27 1.27)
					)
					(hide yes)
				)
			)
			(symbol "D_0_1"
				(polyline
					(pts
						(xy -1.27 1.27) (xy -1.27 -1.27)
					)
					(stroke
						(width 0.254)
						(type default)
					)
					(fill
						(type none)
					)
				)
				(polyline
					(pts
						(xy 1.27 0) (xy -1.27 0)
					)
					(stroke
						(width 0)
						(type default)
					)
					(fill
						(type none)
					)
				)
				(polyline
					(pts
						(xy 1.27 1.27) (xy 1.27 -1.27) (xy -1.27 0) (xy 1.27 1.27)
					)
					(stroke
						(width 0.254)
						(type default)
					)
					(fill
						(type none)
					)
				)
			)
			(symbol "D_1_1"
				(pin passive line
					(at -3.81 0 0)
					(length 2.54)
					(name "K"
						(effects
							(font
								(size 1.27 1.27)
							)
						)
					)
					(number "1"
						(effects
							(font
								(size 1.27 1.27)
							)
						)
					)
				)
				(pin passive line
					(at 3.81 0 180)
					(length 2.54)
					(name "A"
						(effects
							(font
								(size 1.27 1.27)
							)
						)
					)
					(number "2"
						(effects
							(font
								(size 1.27 1.27)
							)
						)
					)
				)
			)
		)
		(symbol "Motor:Motor_DC"
			(pin_names
				(offset 0)
			)
			(exclude_from_sim no)
			(in_bom yes)
			(on_board yes)
			(property "Reference" "M"
				(at 2.54 2.54 0)
				(effects
					(font
						(size 1.27 1.27)
					)
					(justify left)
				)
			)
			(property "Value" "Motor_DC"
				(at 2.54 -5.08 0)
				(effects
					(font
						(size 1.27 1.27)
					)
					(justify left top)
				)
			)
			(property "Footprint" ""
				(at 0 -2.286 0)
				(effects
					(font
						(size 1.27 1.27)
					)
					(hide yes)
				)
			)
			(property "Datasheet" "~"
				(at 0 -2.286 0)
				(effects
					(font
						(size 1.27 1.27)
					)
					(hide yes)
				)
			)
			(property "Description" "DC Motor"
				(at 0 0 0)
				(effects
					(font
						(size 1.27 1.27)
					)
					(hide yes)
				)
			)
			(property "ki_keywords" "DC Motor"
				(at 0 0 0)
				(effects
					(font
						(size 1.27 1.27)
					)
					(hide yes)
				)
			)
			(property "ki_fp_filters" "PinHeader*P2.54mm* TerminalBlock*"
				(at 0 0 0)
				(effects
					(font
						(size 1.27 1.27)
					)
					(hide yes)
				)
			)
			(symbol "Motor_DC_0_0"
				(polyline
					(pts
						(xy -1.27 -3.302) (xy -1.27 0.508) (xy 0 -2.032) (xy 1.27 0.508) (xy 1.27 -3.302)
					)
					(stroke
						(width 0)
						(type default)
					)
					(fill
						(type none)
					)
				)
			)
			(symbol "Motor_DC_0_1"
				(circle
					(center 0 -1.524)
					(radius 3.2512)
					(stroke
						(width 0.254)
						(type default)
					)
					(fill
						(type none)
					)
				)
				(polyline
					(pts
						(xy 0 -7.62) (xy 0 -7.112)
					)
					(stroke
						(width 0)
						(type default)
					)
					(fill
						(type none)
					)
				)
				(polyline
					(pts
						(xy 0 -4.7752) (xy 0 -5.1816)
					)
					(stroke
						(width 0)
						(type default)
					)
					(fill
						(type none)
					)
				)
				(polyline
					(pts
						(xy 0 1.7272) (xy 0 2.0828)
					)
					(stroke
						(width 0)
						(type default)
					)
					(fill
						(type none)
					)
				)
				(polyline
					(pts
						(xy 0 2.032) (xy 0 2.54)
					)
					(stroke
						(width 0)
						(type default)
					)
					(fill
						(type none)
					)
				)
			)
			(symbol "Motor_DC_1_1"
				(pin passive line
					(at 0 5.08 270)
					(length 2.54)
					(name "+"
						(effects
							(font
								(size 1.27 1.27)
							)
						)
					)
					(number "1"
						(effects
							(font
								(size 1.27 1.27)
							)
						)
					)
				)
				(pin passive line
					(at 0 -7.62 90)
					(length 2.54)
					(name "-"
						(effects
							(font
								(size 1.27 1.27)
							)
						)
					)
					(number "2"
						(effects
							(font
								(size 1.27 1.27)
							)
						)
					)
				)
			)
		)
		(symbol "Relay:FINDER-36.11"
			(exclude_from_sim no)
			(in_bom yes)
			(on_board yes)
			(property "Reference" "K"
				(at 11.43 3.81 0)
				(effects
					(font
						(size 1.27 1.27)
					)
					(justify left)
				)
			)
			(property "Value" "FINDER-36.11"
				(at 11.43 1.27 0)
				(effects
					(font
						(size 1.27 1.27)
					)
					(justify left)
				)
			)
			(property "Footprint" "Relay_THT:Relay_SPDT_Finder_36.11"
				(at 32.258 -0.762 0)
				(effects
					(font
						(size 1.27 1.27)
					)
					(hide yes)
				)
			)
			(property "Datasheet" "https://gfinder.findernet.com/public/attachments/36/EN/S36EN.pdf"
				(at 0 0 0)
				(effects
					(font
						(size 1.27 1.27)
					)
					(hide yes)
				)
			)
			(property "Description" "FINDER 36.11, SPDT relay, 10A"
				(at 0 0 0)
				(effects
					(font
						(size 1.27 1.27)
					)
					(hide yes)
				)
			)
			(property "ki_keywords" "spdt relay"
				(at 0 0 0)
				(effects
					(font
						(size 1.27 1.27)
					)
					(hide yes)
				)
			)
			(property "ki_fp_filters" "Relay*SPDT*Finder*36.11*"
				(at 0 0 0)
				(effects
					(font
						(size 1.27 1.27)
					)
					(hide yes)
				)
			)
			(symbol "FINDER-36.11_0_0"
				(polyline
					(pts
						(xy 2.54 3.81) (xy 2.54 5.08)
					)
					(stroke
						(width 0)
						(type default)
					)
					(fill
						(type none)
					)
				)
				(polyline
					(pts
						(xy 7.62 3.81) (xy 7.62 5.08)
					)
					(stroke
						(width 0)
						(type default)
					)
					(fill
						(type none)
					)
				)
				(polyline
					(pts
						(xy 7.62 3.81) (xy 7.62 2.54) (xy 6.985 3.175) (xy 7.62 3.81)
					)
					(stroke
						(width 0)
						(type default)
					)
					(fill
						(type none)
					)
				)
			)
			(symbol "FINDER-36.11_0_1"
				(rectangle
					(start -10.16 5.08)
					(end 10.16 -5.08)
					(stroke
						(width 0.254)
						(type default)
					)
					(fill
						(type background)
					)
				)
				(rectangle
					(start -8.255 1.905)
					(end -1.905 -1.905)
					(stroke
						(width 0.254)
						(type default)
					)
					(fill
						(type none)
					)
				)
				(polyline
					(pts
						(xy -7.62 -1.905) (xy -2.54 1.905)
					)
					(stroke
						(width 0.254)
						(type default)
					)
					(fill
						(type none)
					)
				)
				(polyline
					(pts
						(xy -5.08 -5.08) (xy -5.08 -1.905)
					)
					(stroke
						(width 0)
						(type default)
					)
					(fill
						(type none)
					)
				)
				(polyline
					(pts
						(xy -5.08 5.08) (xy -5.08 1.905)
					)
					(stroke
						(width 0)
						(type default)
					)
					(fill
						(type none)
					)
				)
				(polyline
					(pts
						(xy -1.905 0) (xy -1.27 0)
					)
					(stroke
						(width 0.254)
						(type default)
					)
					(fill
						(type none)
					)
				)
				(polyline
					(pts
						(xy -0.635 0) (xy 0 0)
					)
					(stroke
						(width 0.254)
						(type default)
					)
					(fill
						(type none)
					)
				)
				(polyline
					(pts
						(xy 0.635 0) (xy 1.27 0)
					)
					(stroke
						(width 0.254)
						(type default)
					)
					(fill
						(type none)
					)
				)
				(polyline
					(pts
						(xy 0.635 0) (xy 1.27 0)
					)
					(stroke
						(width 0.254)
						(type default)
					)
					(fill
						(type none)
					)
				)
				(polyline
					(pts
						(xy 1.905 0) (xy 2.54 0)
					)
					(stroke
						(width 0.254)
						(type default)
					)
					(fill
						(type none)
					)
				)
				(polyline
					(pts
						(xy 3.175 0) (xy 3.81 0)
					)
					(stroke
						(width 0.254)
						(type default)
					)
					(fill
						(type none)
					)
				)
				(polyline
					(pts
						(xy 5.08 -2.54) (xy 3.175 3.81)
					)
					(stroke
						(width 0.508)
						(type default)
					)
					(fill
						(type none)
					)
				)
				(polyline
					(pts
						(xy 5.08 -2.54) (xy 5.08 -5.08)
					)
					(stroke
						(width 0)
						(type default)
					)
					(fill
						(type none)
					)
				)
				(polyline
					(pts
						(xy 2.54 2.54) (xy 3.175 3.175) (xy 2.54 3.81)
					)
					(stroke
						(width 0)
						(type default)
					)
					(fill
						(type outline)
					)
				)
			)
			(symbol "FINDER-36.11_1_1"
				(pin passive line
					(at 5.08 -7.62 90)
					(length 2.54)
					(name "~"
						(effects
							(font
								(size 1.27 1.27)
							)
						)
					)
					(number "11"
						(effects
							(font
								(size 1.27 1.27)
							)
						)
					)
				)
				(pin passive line
					(at 2.54 7.62 270)
					(length 2.54)
					(name "~"
						(effects
							(font
								(size 1.27 1.27)
							)
						)
					)
					(number "12"
						(effects
							(font
								(size 1.27 1.27)
							)
						)
					)
				)
				(pin passive line
					(at 7.62 7.62 270)
					(length 2.54)
					(name "~"
						(effects
							(font
								(size 1.27 1.27)
							)
						)
					)
					(number "14"
						(effects
							(font
								(size 1.27 1.27)
							)
						)
					)
				)
				(pin passive line
					(at -5.08 7.62 270)
					(length 2.54)
					(name "~"
						(effects
							(font
								(size 1.27 1.27)
							)
						)
					)
					(number "A1"
						(effects
							(font
								(size 1.27 1.27)
							)
						)
					)
				)
				(pin passive line
					(at -5.08 -7.62 90)
					(length 2.54)
					(name "~"
						(effects
							(font
								(size 1.27 1.27)
							)
						)
					)
					(number "A2"
						(effects
							(font
								(size 1.27 1.27)
							)
						)
					)
				)
			)
		)
		(symbol "SW_DP3T_1"
			(pin_names
				(offset 0)
			)
			(exclude_from_sim no)
			(in_bom yes)
			(on_board yes)
			(property "Reference" "SW3"
				(at -2.54 8.89 0)
				(effects
					(font
						(size 1.27 1.27)
					)
				)
			)
			(property "Value" "кнопка режима двери"
				(at -1.27 6.35 0)
				(effects
					(font
						(size 1.27 1.27)
					)
				)
			)
			(property "Footprint" ""
				(at -15.875 4.445 0)
				(effects
					(font
						(size 1.27 1.27)
					)
					(hide yes)
				)
			)
			(property "Datasheet" "~"
				(at -15.875 4.445 0)
				(effects
					(font
						(size 1.27 1.27)
					)
					(hide yes)
				)
			)
			(property "Description" "Switch, three position, dual pole triple throw, 3 position switch, SP3T"
				(at 0 0 0)
				(effects
					(font
						(size 1.27 1.27)
					)
					(hide yes)
				)
			)
			(property "ki_keywords" "switch dp3t ON-ON-ON"
				(at 0 0 0)
				(effects
					(font
						(size 1.27 1.27)
					)
					(hide yes)
				)
			)
			(property "ki_fp_filters" "SW* DP3T*"
				(at 0 0 0)
				(effects
					(font
						(size 1.27 1.27)
					)
					(hide yes)
				)
			)
			(symbol "SW_DP3T_1_0_1"
				(circle
					(center -2.032 0)
					(radius 0.4572)
					(stroke
						(width 0)
						(type default)
					)
					(fill
						(type none)
					)
				)
				(polyline
					(pts
						(xy -1.651 0.254) (xy 1.651 2.286)
					)
					(stroke
						(width 0)
						(type default)
					)
					(fill
						(type none)
					)
				)
				(circle
					(center 2.032 -2.54)
					(radius 0.4572)
					(stroke
						(width 0)
						(type default)
					)
					(fill
						(type none)
					)
				)
				(circle
					(center 2.032 0)
					(radius 0.4572)
					(stroke
						(width 0)
						(type default)
					)
					(fill
						(type none)
					)
				)
				(circle
					(center 2.032 2.54)
					(radius 0.4572)
					(stroke
						(width 0)
						(type default)
					)
					(fill
						(type none)
					)
				)
			)
			(symbol "SW_DP3T_1_1_1"
				(pin passive line
					(at 5.08 -2.54 180)
					(length 2.54)
					(name ""
						(effects
							(font
								(size 1.27 1.27)
							)
						)
					)
					(number "\"авто\""
						(effects
							(font
								(size 1.27 1.27)
							)
						)
					)
				)
				(pin passive line
					(at 5.08 2.54 180)
					(length 2.54)
					(name ""
						(effects
							(font
								(size 1.27 1.27)
							)
						)
					)
					(number "\"вкл\""
						(effects
							(font
								(size 1.27 1.27)
							)
						)
					)
				)
				(pin passive line
					(at -5.08 0 0)
					(length 2.54)
					(name "3"
						(effects
							(font
								(size 1.27 1.27)
							)
						)
					)
					(number "3"
						(effects
							(font
								(size 1.27 1.27)
							)
						)
					)
				)
				(pin passive line
					(at 5.08 0 180)
					(length 2.54)
					(name ""
						(effects
							(font
								(size 1.27 1.27)
							)
						)
					)
					(number "выкл"
						(effects
							(font
								(size 1.27 1.27)
							)
						)
					)
				)
			)
			(symbol "SW_DP3T_1_2_1"
				(pin passive line
					(at 5.08 2.54 180)
					(length 2.54)
					(name "5"
						(effects
							(font
								(size 1.27 1.27)
							)
						)
					)
					(number "5"
						(effects
							(font
								(size 1.27 1.27)
							)
						)
					)
				)
				(pin passive line
					(at 5.08 0 180)
					(length 2.54)
					(name "6"
						(effects
							(font
								(size 1.27 1.27)
							)
						)
					)
					(number "6"
						(effects
							(font
								(size 1.27 1.27)
							)
						)
					)
				)
				(pin passive line
					(at -5.08 0 0)
					(length 2.54)
					(name "7"
						(effects
							(font
								(size 1.27 1.27)
							)
						)
					)
					(number "7"
						(effects
							(font
								(size 1.27 1.27)
							)
						)
					)
				)
				(pin passive line
					(at 5.08 -2.54 180)
					(length 2.54)
					(name "8"
						(effects
							(font
								(size 1.27 1.27)
							)
						)
					)
					(number "8"
						(effects
							(font
								(size 1.27 1.27)
							)
						)
					)
				)
			)
		)
		(symbol "Switch:SW_DIP_x01"
			(pin_names
				(offset 0) hide)
			(exclude_from_sim no)
			(in_bom yes)
			(on_board yes)
			(property "Reference" "SW"
				(at 0 3.81 0)
				(effects
					(font
						(size 1.27 1.27)
					)
				)
			)
			(property "Value" "SW_DIP_x01"
				(at 0 -3.81 0)
				(effects
					(font
						(size 1.27 1.27)
					)
				)
			)
			(property "Footprint" ""
				(at 0 0 0)
				(effects
					(font
						(size 1.27 1.27)
					)
					(hide yes)
				)
			)
			(property "Datasheet" "~"
				(at 0 0 0)
				(effects
					(font
						(size 1.27 1.27)
					)
					(hide yes)
				)
			)
			(property "Description" "1x DIP Switch, Single Pole Single Throw (SPST) switch, small symbol"
				(at 0 0 0)
				(effects
					(font
						(size 1.27 1.27)
					)
					(hide yes)
				)
			)
			(property "ki_keywords" "dip switch"
				(at 0 0 0)
				(effects
					(font
						(size 1.27 1.27)
					)
					(hide yes)
				)
			)
			(property "ki_fp_filters" "SW?DIP?x1*"
				(at 0 0 0)
				(effects
					(font
						(size 1.27 1.27)
					)
					(hide yes)
				)
			)
			(symbol "SW_DIP_x01_0_0"
				(circle
					(center -2.032 0)
					(radius 0.508)
					(stroke
						(width 0)
						(type default)
					)
					(fill
						(type none)
					)
				)
				(polyline
					(pts
						(xy -1.524 0.127) (xy 2.3622 1.1684)
					)
					(stroke
						(width 0)
						(type default)
					)
					(fill
						(type none)
					)
				)
				(circle
					(center 2.032 0)
					(radius 0.508)
					(stroke
						(width 0)
						(type default)
					)
					(fill
						(type none)
					)
				)
			)
			(symbol "SW_DIP_x01_0_1"
				(rectangle
					(start -3.81 2.54)
					(end 3.81 -2.54)
					(stroke
						(width 0.254)
						(type default)
					)
					(fill
						(type background)
					)
				)
			)
			(symbol "SW_DIP_x01_1_1"
				(pin passive line
					(at -7.62 0 0)
					(length 5.08)
					(name "~"
						(effects
							(font
								(size 1.27 1.27)
							)
						)
					)
					(number "1"
						(effects
							(font
								(size 1.27 1.27)
							)
						)
					)
				)
				(pin passive line
					(at 7.62 0 180)
					(length 5.08)
					(name "~"
						(effects
							(font
								(size 1.27 1.27)
							)
						)
					)
					(number "2"
						(effects
							(font
								(size 1.27 1.27)
							)
						)
					)
				)
			)
		)
		(symbol "Switch:SW_DP3T"
			(pin_names
				(offset 0)
			)
			(exclude_from_sim no)
			(in_bom yes)
			(on_board yes)
			(property "Reference" "SW6"
				(at -2.54 8.89 0)
				(effects
					(font
						(size 1.27 1.27)
					)
				)
			)
			(property "Value" "кнопка режима двери"
				(at -1.27 6.35 0)
				(effects
					(font
						(size 1.27 1.27)
					)
				)
			)
			(property "Footprint" ""
				(at -15.875 4.445 0)
				(effects
					(font
						(size 1.27 1.27)
					)
					(hide yes)
				)
			)
			(property "Datasheet" "~"
				(at -15.875 4.445 0)
				(effects
					(font
						(size 1.27 1.27)
					)
					(hide yes)
				)
			)
			(property "Description" "Switch, three position, dual pole triple throw, 3 position switch, SP3T"
				(at 0 0 0)
				(effects
					(font
						(size 1.27 1.27)
					)
					(hide yes)
				)
			)
			(property "ki_keywords" "switch dp3t ON-ON-ON"
				(at 0 0 0)
				(effects
					(font
						(size 1.27 1.27)
					)
					(hide yes)
				)
			)
			(property "ki_fp_filters" "SW* DP3T*"
				(at 0 0 0)
				(effects
					(font
						(size 1.27 1.27)
					)
					(hide yes)
				)
			)
			(symbol "SW_DP3T_0_1"
				(circle
					(center -2.032 0)
					(radius 0.4572)
					(stroke
						(width 0)
						(type default)
					)
					(fill
						(type none)
					)
				)
				(polyline
					(pts
						(xy -1.651 0.254) (xy 1.651 2.286)
					)
					(stroke
						(width 0)
						(type default)
					)
					(fill
						(type none)
					)
				)
				(circle
					(center 2.032 -2.54)
					(radius 0.4572)
					(stroke
						(width 0)
						(type default)
					)
					(fill
						(type none)
					)
				)
				(circle
					(center 2.032 0)
					(radius 0.4572)
					(stroke
						(width 0)
						(type default)
					)
					(fill
						(type none)
					)
				)
				(circle
					(center 2.032 2.54)
					(radius 0.4572)
					(stroke
						(width 0)
						(type default)
					)
					(fill
						(type none)
					)
				)
			)
			(symbol "SW_DP3T_1_1"
				(pin passive line
					(at 5.08 -2.54 180)
					(length 2.54)
					(name ""
						(effects
							(font
								(size 1.27 1.27)
							)
						)
					)
					(number "\"авто\""
						(effects
							(font
								(size 1.27 1.27)
							)
						)
					)
				)
				(pin passive line
					(at 5.08 2.54 180)
					(length 2.54)
					(name ""
						(effects
							(font
								(size 1.27 1.27)
							)
						)
					)
					(number "\"ключ\""
						(effects
							(font
								(size 1.27 1.27)
							)
						)
					)
				)
				(pin passive line
					(at -5.08 0 0)
					(length 2.54)
					(name "3"
						(effects
							(font
								(size 1.27 1.27)
							)
						)
					)
					(number "3"
						(effects
							(font
								(size 1.27 1.27)
							)
						)
					)
				)
				(pin passive line
					(at 5.08 0 180)
					(length 2.54)
					(name ""
						(effects
							(font
								(size 1.27 1.27)
							)
						)
					)
					(number "выкл"
						(effects
							(font
								(size 1.27 1.27)
							)
						)
					)
				)
			)
			(symbol "SW_DP3T_2_1"
				(pin passive line
					(at 5.08 2.54 180)
					(length 2.54)
					(name "5"
						(effects
							(font
								(size 1.27 1.27)
							)
						)
					)
					(number "5"
						(effects
							(font
								(size 1.27 1.27)
							)
						)
					)
				)
				(pin passive line
					(at 5.08 0 180)
					(length 2.54)
					(name "6"
						(effects
							(font
								(size 1.27 1.27)
							)
						)
					)
					(number "6"
						(effects
							(font
								(size 1.27 1.27)
							)
						)
					)
				)
				(pin passive line
					(at -5.08 0 0)
					(length 2.54)
					(name "7"
						(effects
							(font
								(size 1.27 1.27)
							)
						)
					)
					(number "7"
						(effects
							(font
								(size 1.27 1.27)
							)
						)
					)
				)
				(pin passive line
					(at 5.08 -2.54 180)
					(length 2.54)
					(name "8"
						(effects
							(font
								(size 1.27 1.27)
							)
						)
					)
					(number "8"
						(effects
							(font
								(size 1.27 1.27)
							)
						)
					)
				)
			)
		)
		(symbol "Switch:SW_Push_SPDT"
			(pin_names
				(offset 0) hide)
			(exclude_from_sim no)
			(in_bom yes)
			(on_board yes)
			(property "Reference" "SW"
				(at 0 4.318 0)
				(effects
					(font
						(size 1.27 1.27)
					)
				)
			)
			(property "Value" "SW_Push_SPDT"
				(at 0 -5.08 0)
				(effects
					(font
						(size 1.27 1.27)
					)
				)
			)
			(property "Footprint" ""
				(at 0 0 0)
				(effects
					(font
						(size 1.27 1.27)
					)
					(hide yes)
				)
			)
			(property "Datasheet" "~"
				(at 0 0 0)
				(effects
					(font
						(size 1.27 1.27)
					)
					(hide yes)
				)
			)
			(property "Description" "Momentary Switch, single pole double throw"
				(at 0 0 0)
				(effects
					(font
						(size 1.27 1.27)
					)
					(hide yes)
				)
			)
			(property "ki_keywords" "switch single-pole double-throw spdt ON-ON"
				(at 0 0 0)
				(effects
					(font
						(size 1.27 1.27)
					)
					(hide yes)
				)
			)
			(symbol "SW_Push_SPDT_0_0"
				(circle
					(center -2.032 0)
					(radius 0.508)
					(stroke
						(width 0)
						(type default)
					)
					(fill
						(type none)
					)
				)
				(polyline
					(pts
						(xy 0 1.016) (xy 0 3.048)
					)
					(stroke
						(width 0)
						(type default)
					)
					(fill
						(type none)
					)
				)
				(circle
					(center 2.032 -2.54)
					(radius 0.508)
					(stroke
						(width 0)
						(type default)
					)
					(fill
						(type none)
					)
				)
			)
			(symbol "SW_Push_SPDT_0_1"
				(polyline
					(pts
						(xy -1.524 0.254) (xy 2.54 2.032)
					)
					(stroke
						(width 0)
						(type default)
					)
					(fill
						(type none)
					)
				)
				(circle
					(center 2.032 2.54)
					(radius 0.508)
					(stroke
						(width 0)
						(type default)
					)
					(fill
						(type none)
					)
				)
			)
			(symbol "SW_Push_SPDT_1_1"
				(pin passive line
					(at 5.08 2.54 180)
					(length 2.54)
					(name "A"
						(effects
							(font
								(size 1.27 1.27)
							)
						)
					)
					(number "1"
						(effects
							(font
								(size 1.27 1.27)
							)
						)
					)
				)
				(pin passive line
					(at -5.08 0 0)
					(length 2.54)
					(name "B"
						(effects
							(font
								(size 1.27 1.27)
							)
						)
					)
					(number "2"
						(effects
							(font
								(size 1.27 1.27)
							)
						)
					)
				)
				(pin passive line
					(at 5.08 -2.54 180)
					(length 2.54)
					(name "C"
						(effects
							(font
								(size 1.27 1.27)
							)
						)
					)
					(number "3"
						(effects
							(font
								(size 1.27 1.27)
							)
						)
					)
				)
			)
		)
		(symbol "Transistor_BJT:PN2222A"
			(pin_names
				(offset 0) hide)
			(exclude_from_sim no)
			(in_bom yes)
			(on_board yes)
			(property "Reference" "Q"
				(at 5.08 1.905 0)
				(effects
					(font
						(size 1.27 1.27)
					)
					(justify left)
				)
			)
			(property "Value" "PN2222A"
				(at 5.08 0 0)
				(effects
					(font
						(size 1.27 1.27)
					)
					(justify left)
				)
			)
			(property "Footprint" "Package_TO_SOT_THT:TO-92_Inline"
				(at 5.08 -1.905 0)
				(effects
					(font
						(size 1.27 1.27)
						(italic yes)
					)
					(justify left)
					(hide yes)
				)
			)
			(property "Datasheet" "https://www.onsemi.com/pub/Collateral/PN2222-D.PDF"
				(at 0 0 0)
				(effects
					(font
						(size 1.27 1.27)
					)
					(justify left)
					(hide yes)
				)
			)
			(property "Description" "1A Ic, 40V Vce, NPN Transistor, General Purpose Transistor, TO-92"
				(at 0 0 0)
				(effects
					(font
						(size 1.27 1.27)
					)
					(hide yes)
				)
			)
			(property "ki_keywords" "NPN Transistor"
				(at 0 0 0)
				(effects
					(font
						(size 1.27 1.27)
					)
					(hide yes)
				)
			)
			(property "ki_fp_filters" "TO?92*"
				(at 0 0 0)
				(effects
					(font
						(size 1.27 1.27)
					)
					(hide yes)
				)
			)
			(symbol "PN2222A_0_1"
				(polyline
					(pts
						(xy 0 0) (xy 0.635 0)
					)
					(stroke
						(width 0)
						(type default)
					)
					(fill
						(type none)
					)
				)
				(polyline
					(pts
						(xy 2.54 -2.54) (xy 0.635 -0.635)
					)
					(stroke
						(width 0)
						(type default)
					)
					(fill
						(type none)
					)
				)
				(polyline
					(pts
						(xy 2.54 2.54) (xy 0.635 0.635)
					)
					(stroke
						(width 0)
						(type default)
					)
					(fill
						(type none)
					)
				)
				(polyline
					(pts
						(xy 0.635 1.905) (xy 0.635 -1.905) (xy 0.635 -1.905)
					)
					(stroke
						(width 0.508)
						(type default)
					)
					(fill
						(type none)
					)
				)
				(polyline
					(pts
						(xy 2.413 -2.413) (xy 1.905 -1.905) (xy 1.905 -1.905)
					)
					(stroke
						(width 0)
						(type default)
					)
					(fill
						(type none)
					)
				)
				(polyline
					(pts
						(xy 1.143 -1.651) (xy 1.651 -1.143) (xy 2.159 -2.159) (xy 1.143 -1.651) (xy 1.143 -1.651)
					)
					(stroke
						(width 0)
						(type default)
					)
					(fill
						(type outline)
					)
				)
				(circle
					(center 1.27 0)
					(radius 2.8194)
					(stroke
						(width 0.254)
						(type default)
					)
					(fill
						(type none)
					)
				)
			)
			(symbol "PN2222A_1_1"
				(pin passive line
					(at 2.54 -5.08 90)
					(length 2.54)
					(name "E"
						(effects
							(font
								(size 1.27 1.27)
							)
						)
					)
					(number "1"
						(effects
							(font
								(size 1.27 1.27)
							)
						)
					)
				)
				(pin input line
					(at -5.08 0 0)
					(length 5.08)
					(name "B"
						(effects
							(font
								(size 1.27 1.27)
							)
						)
					)
					(number "2"
						(effects
							(font
								(size 1.27 1.27)
							)
						)
					)
				)
				(pin passive line
					(at 2.54 5.08 270)
					(length 2.54)
					(name "C"
						(effects
							(font
								(size 1.27 1.27)
							)
						)
					)
					(number "3"
						(effects
							(font
								(size 1.27 1.27)
							)
						)
					)
				)
			)
		)
	)
	(junction
		(at 71.12 151.13)
		(diameter 0)
		(color 0 0 0 0)
		(uuid "015659f8-e84d-4f38-a0ed-c2c0b2c5219b")
	)
	(junction
		(at 193.04 49.53)
		(diameter 0)
		(color 0 0 0 0)
		(uuid "0972ba0b-2066-4f91-a42d-f222cd95a3df")
	)
	(junction
		(at 120.65 106.68)
		(diameter 0)
		(color 0 0 0 0)
		(uuid "10dc5de7-5365-4016-a9c8-2346a3fb3aae")
	)
	(junction
		(at 167.64 114.3)
		(diameter 0)
		(color 0 0 0 0)
		(uuid "15091ec1-96a1-4842-a678-b766122e427b")
	)
	(junction
		(at 124.46 146.05)
		(diameter 0)
		(color 0 0 0 0)
		(uuid "15efffc9-1bfd-40cb-b0a1-d9807608f511")
	)
	(junction
		(at 50.8 87.63)
		(diameter 0)
		(color 0 0 0 0)
		(uuid "1a0ce5b7-e716-4da8-92d8-a4437b51c254")
	)
	(junction
		(at 167.64 60.96)
		(diameter 0)
		(color 0 0 0 0)
		(uuid "20072034-2d67-48fa-8f93-781c8382d185")
	)
	(junction
		(at 88.9 68.58)
		(diameter 0)
		(color 0 0 0 0)
		(uuid "25a25a0d-2ea7-4ebb-907e-9c169ac02b6a")
	)
	(junction
		(at 119.38 68.58)
		(diameter 0)
		(color 0 0 0 0)
		(uuid "2e13f04b-554b-4bcd-a3cb-b693e0a3f1b4")
	)
	(junction
		(at 121.92 165.1)
		(diameter 0)
		(color 0 0 0 0)
		(uuid "31ed9b23-9773-4f0c-a121-d5b97b5e5505")
	)
	(junction
		(at 124.46 87.63)
		(diameter 0)
		(color 0 0 0 0)
		(uuid "46e9c015-be87-4f5c-a10b-c9aa40ef4b73")
	)
	(junction
		(at 50.8 123.19)
		(diameter 0)
		(color 0 0 0 0)
		(uuid "54b28aac-0dfc-4463-8ac7-8802793af569")
	)
	(junction
		(at 93.98 96.52)
		(diameter 0)
		(color 0 0 0 0)
		(uuid "68986fb0-786f-4699-8b8d-a7d7bae990f1")
	)
	(junction
		(at 167.64 143.51)
		(diameter 0)
		(color 0 0 0 0)
		(uuid "6a8ba7a4-e9de-4e9f-b383-fa3cee515e10")
	)
	(junction
		(at 209.55 69.85)
		(diameter 0)
		(color 0 0 0 0)
		(uuid "6e9d74b4-661d-479d-aee4-082478dadd3f")
	)
	(junction
		(at 193.04 92.71)
		(diameter 0)
		(color 0 0 0 0)
		(uuid "71df32a9-5ca5-4406-a3dc-15d0dc18bdb1")
	)
	(junction
		(at 147.32 123.19)
		(diameter 0)
		(color 0 0 0 0)
		(uuid "7dbd3c00-a386-46d4-9301-ecfafaa161e2")
	)
	(junction
		(at 124.46 68.58)
		(diameter 0)
		(color 0 0 0 0)
		(uuid "8ef4b9ff-2a91-4423-8da9-b98de1c5e1d5")
	)
	(junction
		(at 97.79 123.19)
		(diameter 0)
		(color 0 0 0 0)
		(uuid "9bb9a135-cf7e-4b46-9190-69a863989ddc")
	)
	(junction
		(at 167.64 92.71)
		(diameter 0)
		(color 0 0 0 0)
		(uuid "ad78c27c-5d1c-440c-b440-ed1c75c12353")
	)
	(junction
		(at 97.79 135.89)
		(diameter 0)
		(color 0 0 0 0)
		(uuid "adac7c73-7165-4f3d-87fc-f21da3e31886")
	)
	(junction
		(at 147.32 109.22)
		(diameter 0)
		(color 0 0 0 0)
		(uuid "bd1a3d72-5afa-4d94-8dfc-fe1f14ea591e")
	)
	(junction
		(at 57.15 87.63)
		(diameter 0)
		(color 0 0 0 0)
		(uuid "bfdf9d0e-bf01-44e6-9653-ed0fd7854bbf")
	)
	(junction
		(at 121.92 135.89)
		(diameter 0)
		(color 0 0 0 0)
		(uuid "d20fe959-6e90-4870-8521-9ab1a324ae8e")
	)
	(junction
		(at 193.04 60.96)
		(diameter 0)
		(color 0 0 0 0)
		(uuid "d4789211-fb96-4a74-ad04-473a90dc91f9")
	)
	(junction
		(at 83.82 153.67)
		(diameter 0)
		(color 0 0 0 0)
		(uuid "d4fd419c-7e91-402a-98da-10197ef797f9")
	)
	(junction
		(at 71.12 123.19)
		(diameter 0)
		(color 0 0 0 0)
		(uuid "d7bd7c7c-8cd1-45b5-b097-316e6b550d51")
	)
	(junction
		(at 237.49 69.85)
		(diameter 0)
		(color 0 0 0 0)
		(uuid "d9f57795-20c2-4243-8283-eb7daea28d83")
	)
	(junction
		(at 97.79 165.1)
		(diameter 0)
		(color 0 0 0 0)
		(uuid "fe01d6b1-86e3-419a-b697-3675d8dbf05d")
	)
	(wire
		(pts
			(xy 120.65 106.68) (xy 120.65 114.3)
		)
		(stroke
			(width 0)
			(type default)
		)
		(uuid "038d4749-bdbe-4de5-99f1-383dea3804b2")
	)
	(wire
		(pts
			(xy 193.04 49.53) (xy 237.49 49.53)
		)
		(stroke
			(width 0)
			(type default)
		)
		(uuid "0738ad5a-35b8-4719-83eb-32937de4656a")
	)
	(wire
		(pts
			(xy 97.79 123.19) (xy 97.79 135.89)
		)
		(stroke
			(width 0)
			(type default)
		)
		(uuid "0ec6585c-5cae-4268-9ed9-452c35b84a7a")
	)
	(wire
		(pts
			(xy 147.32 135.89) (xy 148.59 135.89)
		)
		(stroke
			(width 0)
			(type default)
		)
		(uuid "153d1458-fa5c-420a-8261-994f6daeb1ef")
	)
	(wire
		(pts
			(xy 73.66 76.2) (xy 81.28 76.2)
		)
		(stroke
			(width 0)
			(type default)
		)
		(uuid "169e5662-1ba4-4b5f-b052-7b88b90abb37")
	)
	(wire
		(pts
			(xy 140.97 87.63) (xy 124.46 87.63)
		)
		(stroke
			(width 0)
			(type default)
		)
		(uuid "172382e1-dc3b-4064-aefb-21aa9c0fc4a1")
	)
	(wire
		(pts
			(xy 71.12 109.22) (xy 107.95 109.22)
		)
		(stroke
			(width 0)
			(type default)
		)
		(uuid "17c6c7c5-5c24-4fe3-b015-8e17772d018a")
	)
	(wire
		(pts
			(xy 163.83 135.89) (xy 167.64 135.89)
		)
		(stroke
			(width 0)
			(type default)
		)
		(uuid "18100006-387c-4e49-8d4a-004c8983f1aa")
	)
	(wire
		(pts
			(xy 140.97 96.52) (xy 140.97 87.63)
		)
		(stroke
			(width 0)
			(type default)
		)
		(uuid "18a383a0-c56e-4e9e-8d4f-56091bb887f3")
	)
	(wire
		(pts
			(xy 38.1 156.21) (xy 50.8 156.21)
		)
		(stroke
			(width 0)
			(type default)
		)
		(uuid "1b276d25-152c-49e6-8a23-affcbe03e1f6")
	)
	(wire
		(pts
			(xy 68.58 123.19) (xy 71.12 123.19)
		)
		(stroke
			(width 0)
			(type default)
		)
		(uuid "203b944d-e0d8-41ad-984f-4401ae40dd79")
	)
	(wire
		(pts
			(xy 209.55 39.37) (xy 209.55 69.85)
		)
		(stroke
			(width 0)
			(type default)
		)
		(uuid "2081947e-fe20-4d39-94ec-1a5f87320607")
	)
	(wire
		(pts
			(xy 147.32 123.19) (xy 147.32 135.89)
		)
		(stroke
			(width 0)
			(type default)
		)
		(uuid "21aa0b61-b6e9-4a51-9e42-d623aa8a90a5")
	)
	(wire
		(pts
			(xy 147.32 68.58) (xy 147.32 109.22)
		)
		(stroke
			(width 0)
			(type default)
		)
		(uuid "27118f9f-d6ae-4f65-9c46-95b72ea13a66")
	)
	(wire
		(pts
			(xy 88.9 83.82) (xy 88.9 81.28)
		)
		(stroke
			(width 0)
			(type default)
		)
		(uuid "288f9549-92f1-4869-8b3d-af62d87f8910")
	)
	(wire
		(pts
			(xy 71.12 151.13) (xy 71.12 156.21)
		)
		(stroke
			(width 0)
			(type default)
		)
		(uuid "2c6cb0ef-687b-468d-9f9c-d024d28d5325")
	)
	(wire
		(pts
			(xy 121.92 123.19) (xy 121.92 135.89)
		)
		(stroke
			(width 0)
			(type default)
		)
		(uuid "2ca0fb73-bb69-4e5f-9bd2-3cef7729d78c")
	)
	(wire
		(pts
			(xy 140.97 149.86) (xy 142.24 149.86)
		)
		(stroke
			(width 0)
			(type default)
		)
		(uuid "2dfd2910-f677-4a8c-b0a4-a3f5bed67549")
	)
	(wire
		(pts
			(xy 88.9 68.58) (xy 90.17 68.58)
		)
		(stroke
			(width 0)
			(type default)
		)
		(uuid "34148d69-80a6-4a64-896b-59b6161817c4")
	)
	(wire
		(pts
			(xy 97.79 135.89) (xy 102.87 135.89)
		)
		(stroke
			(width 0)
			(type default)
		)
		(uuid "34ec8d93-411a-44b2-b79b-722e623a93d7")
	)
	(wire
		(pts
			(xy 193.04 60.96) (xy 193.04 49.53)
		)
		(stroke
			(width 0)
			(type default)
		)
		(uuid "38605a0d-4a10-45ef-ab8e-b06caeca9a86")
	)
	(wire
		(pts
			(xy 57.15 165.1) (xy 97.79 165.1)
		)
		(stroke
			(width 0)
			(type default)
		)
		(uuid "3a8fccda-a201-481a-9aee-3a78d9fb6094")
	)
	(wire
		(pts
			(xy 143.51 133.35) (xy 143.51 140.97)
		)
		(stroke
			(width 0)
			(type default)
		)
		(uuid "3afb3176-1340-43d3-bea0-e6cde7270fdb")
	)
	(wire
		(pts
			(xy 118.11 106.68) (xy 120.65 106.68)
		)
		(stroke
			(width 0)
			(type default)
		)
		(uuid "3df0a3c5-0ce5-4541-888c-8af99495b8bb")
	)
	(wire
		(pts
			(xy 240.03 69.85) (xy 237.49 69.85)
		)
		(stroke
			(width 0)
			(type default)
		)
		(uuid "3f1971d7-ec22-40e7-86c6-cb7f9284c611")
	)
	(wire
		(pts
			(xy 137.16 109.22) (xy 147.32 109.22)
		)
		(stroke
			(width 0)
			(type default)
		)
		(uuid "41b25d17-2273-4ca8-bf2d-ae4e2d9c7ed0")
	)
	(wire
		(pts
			(xy 73.66 83.82) (xy 88.9 83.82)
		)
		(stroke
			(width 0)
			(type default)
		)
		(uuid "44f742a6-cf0a-4445-8ebc-8e30f83df6e7")
	)
	(wire
		(pts
			(xy 147.32 41.91) (xy 149.86 41.91)
		)
		(stroke
			(width 0)
			(type default)
		)
		(uuid "46d2dfe1-b021-4982-bc06-fbf2b9c1d855")
	)
	(wire
		(pts
			(xy 57.15 49.53) (xy 193.04 49.53)
		)
		(stroke
			(width 0)
			(type default)
		)
		(uuid "4802a100-af34-4997-8532-50096a3ed192")
	)
	(wire
		(pts
			(xy 189.23 60.96) (xy 193.04 60.96)
		)
		(stroke
			(width 0)
			(type default)
		)
		(uuid "48b3ef49-231a-45a5-b811-2bf97de460ea")
	)
	(wire
		(pts
			(xy 88.9 68.58) (xy 88.9 71.12)
		)
		(stroke
			(width 0)
			(type default)
		)
		(uuid "4d4b7306-d3f2-4ae6-97bf-22ec2facbde1")
	)
	(wire
		(pts
			(xy 93.98 96.52) (xy 93.98 153.67)
		)
		(stroke
			(width 0)
			(type default)
		)
		(uuid "4d9165aa-d161-4d53-a105-0d054c0880a0")
	)
	(wire
		(pts
			(xy 119.38 68.58) (xy 119.38 78.74)
		)
		(stroke
			(width 0)
			(type default)
		)
		(uuid "4e26996c-00c0-4133-a56a-7c1c507ada79")
	)
	(wire
		(pts
			(xy 163.83 156.21) (xy 163.83 148.59)
		)
		(stroke
			(width 0)
			(type default)
		)
		(uuid "50dab747-b3e0-4ab3-9799-5cb9afa90a04")
	)
	(wire
		(pts
			(xy 97.79 81.28) (xy 97.79 123.19)
		)
		(stroke
			(width 0)
			(type default)
		)
		(uuid "51002e2a-18f9-410f-9fd5-2045caf2c061")
	)
	(wire
		(pts
			(xy 237.49 69.85) (xy 237.49 49.53)
		)
		(stroke
			(width 0)
			(type default)
		)
		(uuid "5183d571-c5ca-417b-8f5b-accc8f805483")
	)
	(wire
		(pts
			(xy 127 123.19) (xy 121.92 123.19)
		)
		(stroke
			(width 0)
			(type default)
		)
		(uuid "51c3a9d5-ff8f-4e31-b9a1-febffe2c4560")
	)
	(wire
		(pts
			(xy 233.68 69.85) (xy 237.49 69.85)
		)
		(stroke
			(width 0)
			(type default)
		)
		(uuid "55e65a34-3ee8-4a8a-8280-62ae41128068")
	)
	(wire
		(pts
			(xy 120.65 114.3) (xy 167.64 114.3)
		)
		(stroke
			(width 0)
			(type default)
		)
		(uuid "56bdec51-3352-4438-aeb8-040a1503f159")
	)
	(wire
		(pts
			(xy 193.04 124.46) (xy 193.04 92.71)
		)
		(stroke
			(width 0)
			(type default)
		)
		(uuid "5838f776-c442-455a-b458-fec53af05ce9")
	)
	(wire
		(pts
			(xy 124.46 87.63) (xy 57.15 87.63)
		)
		(stroke
			(width 0)
			(type default)
		)
		(uuid "5a02646c-49a3-40fa-b5cd-fdb2620b5fd3")
	)
	(wire
		(pts
			(xy 19.05 68.58) (xy 31.75 68.58)
		)
		(stroke
			(width 0)
			(type default)
		)
		(uuid "5cd1e50a-d4e1-4c9b-916f-c84296b71170")
	)
	(wire
		(pts
			(xy 50.8 123.19) (xy 50.8 156.21)
		)
		(stroke
			(width 0)
			(type default)
		)
		(uuid "5fb28089-5a21-4332-82a5-0249aed242ec")
	)
	(wire
		(pts
			(xy 189.23 124.46) (xy 193.04 124.46)
		)
		(stroke
			(width 0)
			(type default)
		)
		(uuid "663f9d7f-f088-4672-8e98-b381de110b28")
	)
	(wire
		(pts
			(xy 50.8 87.63) (xy 50.8 78.74)
		)
		(stroke
			(width 0)
			(type default)
		)
		(uuid "66f10a65-87b8-4078-9b87-3a7582b8fb7a")
	)
	(wire
		(pts
			(xy 124.46 140.97) (xy 124.46 146.05)
		)
		(stroke
			(width 0)
			(type default)
		)
		(uuid "6741b3dc-4e7c-4a6d-97be-7bcf2f177ef3")
	)
	(wire
		(pts
			(xy 189.23 92.71) (xy 193.04 92.71)
		)
		(stroke
			(width 0)
			(type default)
		)
		(uuid "6790a2e0-653e-4ce1-b5fd-2c386af00ec1")
	)
	(wire
		(pts
			(xy 173.99 124.46) (xy 167.64 124.46)
		)
		(stroke
			(width 0)
			(type default)
		)
		(uuid "6c9560e0-fabe-4077-bd79-93cf9e980f04")
	)
	(wire
		(pts
			(xy 118.11 146.05) (xy 124.46 146.05)
		)
		(stroke
			(width 0)
			(type default)
		)
		(uuid "6e0c6b5f-1bf4-4f39-ac72-c21474399f48")
	)
	(wire
		(pts
			(xy 57.15 87.63) (xy 57.15 165.1)
		)
		(stroke
			(width 0)
			(type default)
		)
		(uuid "7181db5d-ba68-434f-ba11-8b50d2b8d8f0")
	)
	(wire
		(pts
			(xy 147.32 60.96) (xy 147.32 41.91)
		)
		(stroke
			(width 0)
			(type default)
		)
		(uuid "72e67f3d-ccff-4792-a015-caf7a05b1fc2")
	)
	(wire
		(pts
			(xy 31.75 81.28) (xy 22.86 81.28)
		)
		(stroke
			(width 0)
			(type default)
		)
		(uuid "764e7204-51fe-4340-95cc-a2c4119f9444")
	)
	(wire
		(pts
			(xy 124.46 68.58) (xy 133.35 68.58)
		)
		(stroke
			(width 0)
			(type default)
		)
		(uuid "78f9ff32-e015-4439-bbe0-23f79abfc7db")
	)
	(wire
		(pts
			(xy 71.12 156.21) (xy 163.83 156.21)
		)
		(stroke
			(width 0)
			(type default)
		)
		(uuid "79b82d93-5d20-4d39-9fec-a6583fa8d759")
	)
	(wire
		(pts
			(xy 19.05 68.58) (xy 19.05 87.63)
		)
		(stroke
			(width 0)
			(type default)
		)
		(uuid "7b8abf2f-75e9-4ccb-ae05-294e25c3e98f")
	)
	(wire
		(pts
			(xy 119.38 68.58) (xy 124.46 68.58)
		)
		(stroke
			(width 0)
			(type default)
		)
		(uuid "7d11a1a0-f4fe-46d8-a28c-0e77d7f31318")
	)
	(wire
		(pts
			(xy 163.83 143.51) (xy 167.64 143.51)
		)
		(stroke
			(width 0)
			(type default)
		)
		(uuid "7ee6fe96-345f-49bf-85ee-b2d764c7c463")
	)
	(wire
		(pts
			(xy 167.64 135.89) (xy 167.64 143.51)
		)
		(stroke
			(width 0)
			(type default)
		)
		(uuid "7f5f23e4-a7d1-489f-ada3-5da0ffe25ba2")
	)
	(wire
		(pts
			(xy 46.99 68.58) (xy 88.9 68.58)
		)
		(stroke
			(width 0)
			(type default)
		)
		(uuid "8038fb57-c8e6-41ff-ad6c-0193d1aeff54")
	)
	(wire
		(pts
			(xy 93.98 76.2) (xy 93.98 96.52)
		)
		(stroke
			(width 0)
			(type default)
		)
		(uuid "813493ae-260a-474d-9ad0-86db4375da58")
	)
	(wire
		(pts
			(xy 121.92 165.1) (xy 167.64 165.1)
		)
		(stroke
			(width 0)
			(type default)
		)
		(uuid "815e1fda-7c81-44a3-bfda-369aa15748e9")
	)
	(wire
		(pts
			(xy 57.15 34.29) (xy 60.96 34.29)
		)
		(stroke
			(width 0)
			(type default)
		)
		(uuid "81e70482-716f-424b-8011-cec1eb38f338")
	)
	(wire
		(pts
			(xy 88.9 123.19) (xy 97.79 123.19)
		)
		(stroke
			(width 0)
			(type default)
		)
		(uuid "830e2cd3-5e60-4d7c-bd92-c7f710348ea8")
	)
	(wire
		(pts
			(xy 50.8 87.63) (xy 19.05 87.63)
		)
		(stroke
			(width 0)
			(type default)
		)
		(uuid "841f60f3-f92f-40a6-9c8c-346501ed5adc")
	)
	(wire
		(pts
			(xy 57.15 31.75) (xy 60.96 31.75)
		)
		(stroke
			(width 0)
			(type default)
		)
		(uuid "86f43ac4-8ee5-45a9-bf79-240a59e63409")
	)
	(wire
		(pts
			(xy 209.55 69.85) (xy 218.44 69.85)
		)
		(stroke
			(width 0)
			(type default)
		)
		(uuid "879e1345-3fc7-4278-a190-021f5ba8abbd")
	)
	(wire
		(pts
			(xy 142.24 146.05) (xy 148.59 146.05)
		)
		(stroke
			(width 0)
			(type default)
		)
		(uuid "89601be5-0506-45ef-ae49-f2b2b7dd2888")
	)
	(wire
		(pts
			(xy 137.16 96.52) (xy 140.97 96.52)
		)
		(stroke
			(width 0)
			(type default)
		)
		(uuid "89b62f2e-065d-4c4c-bfe8-459058772cad")
	)
	(wire
		(pts
			(xy 121.92 135.89) (xy 121.92 165.1)
		)
		(stroke
			(width 0)
			(type default)
		)
		(uuid "8a256366-3c7a-4e6b-a042-8a4c71445b0a")
	)
	(wire
		(pts
			(xy 237.49 82.55) (xy 237.49 72.39)
		)
		(stroke
			(width 0)
			(type default)
		)
		(uuid "8c48d0e3-55e9-4716-9a6c-ebe0ea6057f3")
	)
	(wire
		(pts
			(xy 142.24 149.86) (xy 142.24 146.05)
		)
		(stroke
			(width 0)
			(type default)
		)
		(uuid "8d976bf8-c523-4ba9-8b5c-65af063dc7ef")
	)
	(wire
		(pts
			(xy 167.64 60.96) (xy 173.99 60.96)
		)
		(stroke
			(width 0)
			(type default)
		)
		(uuid "900b5fb2-f04b-4d68-8350-3b3662458bbd")
	)
	(wire
		(pts
			(xy 124.46 82.55) (xy 124.46 87.63)
		)
		(stroke
			(width 0)
			(type default)
		)
		(uuid "9369d21e-4725-45fa-93e4-9e013dcacd3d")
	)
	(wire
		(pts
			(xy 83.82 153.67) (xy 93.98 153.67)
		)
		(stroke
			(width 0)
			(type default)
		)
		(uuid "95afd200-8aea-4be6-bac6-bf4e19d0be09")
	)
	(wire
		(pts
			(xy 113.03 78.74) (xy 119.38 78.74)
		)
		(stroke
			(width 0)
			(type default)
		)
		(uuid "968af784-79b8-4326-be87-da9dbeb99a52")
	)
	(wire
		(pts
			(xy 113.03 68.58) (xy 119.38 68.58)
		)
		(stroke
			(width 0)
			(type default)
		)
		(uuid "9d717fcb-183a-48f4-ae94-ca031fd81896")
	)
	(wire
		(pts
			(xy 22.86 135.89) (xy 97.79 135.89)
		)
		(stroke
			(width 0)
			(type default)
		)
		(uuid "9e022713-2f33-4981-a15b-3f8af5af50ba")
	)
	(wire
		(pts
			(xy 97.79 165.1) (xy 121.92 165.1)
		)
		(stroke
			(width 0)
			(type default)
		)
		(uuid "9ee2d7b7-dd58-465e-be6b-bc4b3d5e8d65")
	)
	(wire
		(pts
			(xy 160.02 39.37) (xy 209.55 39.37)
		)
		(stroke
			(width 0)
			(type default)
		)
		(uuid "a22338fd-b91f-4b1b-a1b6-4e2739f7cba2")
	)
	(wire
		(pts
			(xy 124.46 149.86) (xy 124.46 146.05)
		)
		(stroke
			(width 0)
			(type default)
		)
		(uuid "a2658c60-5314-446e-a7b1-d1a12d1bd645")
	)
	(wire
		(pts
			(xy 124.46 149.86) (xy 128.27 149.86)
		)
		(stroke
			(width 0)
			(type default)
		)
		(uuid "a3ea4cdb-5bad-4125-ad4a-d040935b5912")
	)
	(wire
		(pts
			(xy 167.64 92.71) (xy 173.99 92.71)
		)
		(stroke
			(width 0)
			(type default)
		)
		(uuid "ab5db620-03fd-4a36-a74c-22d27f91f1db")
	)
	(wire
		(pts
			(xy 50.8 123.19) (xy 60.96 123.19)
		)
		(stroke
			(width 0)
			(type default)
		)
		(uuid "acd45cb5-1cdd-4694-ac96-7a1c50d06e48")
	)
	(wire
		(pts
			(xy 71.12 109.22) (xy 71.12 123.19)
		)
		(stroke
			(width 0)
			(type default)
		)
		(uuid "b0190107-1ad5-413a-91e5-b2447bba9e31")
	)
	(wire
		(pts
			(xy 142.24 133.35) (xy 143.51 133.35)
		)
		(stroke
			(width 0)
			(type default)
		)
		(uuid "b3113037-7850-4bd5-a984-4d2514f0072c")
	)
	(wire
		(pts
			(xy 119.38 123.19) (xy 113.03 123.19)
		)
		(stroke
			(width 0)
			(type default)
		)
		(uuid "b44fbc55-5f67-4d3d-88bf-4bd8433ed691")
	)
	(wire
		(pts
			(xy 139.7 36.83) (xy 149.86 36.83)
		)
		(stroke
			(width 0)
			(type default)
		)
		(uuid "b5135e79-7477-4a58-a734-77f408cfadfc")
	)
	(wire
		(pts
			(xy 119.38 123.19) (xy 119.38 130.81)
		)
		(stroke
			(width 0)
			(type default)
		)
		(uuid "b5f8069d-8ec1-4da9-be0f-ac7d085b20e6")
	)
	(wire
		(pts
			(xy 97.79 165.1) (xy 97.79 171.45)
		)
		(stroke
			(width 0)
			(type default)
		)
		(uuid "b649ee42-7692-4aad-b498-19f5bd75a4ae")
	)
	(wire
		(pts
			(xy 38.1 151.13) (xy 71.12 151.13)
		)
		(stroke
			(width 0)
			(type default)
		)
		(uuid "b885ec9c-22a4-4623-b1f9-d40a554571da")
	)
	(wire
		(pts
			(xy 140.97 68.58) (xy 147.32 68.58)
		)
		(stroke
			(width 0)
			(type default)
		)
		(uuid "ba6f84df-0d79-4e91-a9c0-a688d513f4ce")
	)
	(wire
		(pts
			(xy 57.15 36.83) (xy 60.96 36.83)
		)
		(stroke
			(width 0)
			(type default)
		)
		(uuid "ba9bd5a6-caca-454f-b4d6-32f22682442c")
	)
	(wire
		(pts
			(xy 209.55 80.01) (xy 209.55 69.85)
		)
		(stroke
			(width 0)
			(type default)
		)
		(uuid "bddb9dad-4520-4372-8045-0facf77e84c4")
	)
	(wire
		(pts
			(xy 124.46 68.58) (xy 124.46 74.93)
		)
		(stroke
			(width 0)
			(type default)
		)
		(uuid "bebed85b-0caf-40b8-8d79-547d3a8f0449")
	)
	(wire
		(pts
			(xy 57.15 49.53) (xy 57.15 87.63)
		)
		(stroke
			(width 0)
			(type default)
		)
		(uuid "c2d88d80-a1b5-430f-bc98-80167b8cccf6")
	)
	(wire
		(pts
			(xy 167.64 143.51) (xy 167.64 165.1)
		)
		(stroke
			(width 0)
			(type default)
		)
		(uuid "c4400b9b-61f9-4e28-a12a-fc7938bbf8d2")
	)
	(wire
		(pts
			(xy 24.13 171.45) (xy 97.79 171.45)
		)
		(stroke
			(width 0)
			(type default)
		)
		(uuid "c6382bb5-fcfe-4138-9bfb-85a9e77d608b")
	)
	(wire
		(pts
			(xy 142.24 123.19) (xy 147.32 123.19)
		)
		(stroke
			(width 0)
			(type default)
		)
		(uuid "c64eeff6-1dc1-4401-96f2-9947ea411da1")
	)
	(wire
		(pts
			(xy 167.64 60.96) (xy 147.32 60.96)
		)
		(stroke
			(width 0)
			(type default)
		)
		(uuid "c6e02009-800f-486b-83e6-579b806599fc")
	)
	(wire
		(pts
			(xy 147.32 109.22) (xy 147.32 123.19)
		)
		(stroke
			(width 0)
			(type default)
		)
		(uuid "c78eb42e-dc5b-4e39-ba8a-89745b1ff44e")
	)
	(wire
		(pts
			(xy 119.38 130.81) (xy 127 130.81)
		)
		(stroke
			(width 0)
			(type default)
		)
		(uuid "c9d06563-e6ba-470a-98ab-dbab2af8723a")
	)
	(wire
		(pts
			(xy 97.79 143.51) (xy 97.79 165.1)
		)
		(stroke
			(width 0)
			(type default)
		)
		(uuid "cc3e404a-9af5-43b3-8541-fa5c59d9cbe4")
	)
	(wire
		(pts
			(xy 82.55 153.67) (xy 83.82 153.67)
		)
		(stroke
			(width 0)
			(type default)
		)
		(uuid "cdc0cc6c-90de-4cdc-af8d-69b728517e30")
	)
	(wire
		(pts
			(xy 93.98 96.52) (xy 121.92 96.52)
		)
		(stroke
			(width 0)
			(type default)
		)
		(uuid "cea62255-ef46-42ca-b894-cd3cf77e1b9f")
	)
	(wire
		(pts
			(xy 73.66 151.13) (xy 71.12 151.13)
		)
		(stroke
			(width 0)
			(type default)
		)
		(uuid "cfcafc44-4c32-41d1-8bfc-8bb94e15e073")
	)
	(wire
		(pts
			(xy 71.12 123.19) (xy 73.66 123.19)
		)
		(stroke
			(width 0)
			(type default)
		)
		(uuid "cfd91db6-8d7c-44fa-b959-d61fb9174b06")
	)
	(wire
		(pts
			(xy 83.82 148.59) (xy 102.87 148.59)
		)
		(stroke
			(width 0)
			(type default)
		)
		(uuid "d41d8b71-734d-4b98-a3c1-5f30b2229d22")
	)
	(wire
		(pts
			(xy 193.04 92.71) (xy 193.04 60.96)
		)
		(stroke
			(width 0)
			(type default)
		)
		(uuid "dc6affbb-2710-48b3-a074-5e6405810de8")
	)
	(wire
		(pts
			(xy 57.15 29.21) (xy 60.96 29.21)
		)
		(stroke
			(width 0)
			(type default)
		)
		(uuid "dd1b5d9c-b9c3-4962-9995-98b36a1032bf")
	)
	(wire
		(pts
			(xy 46.99 78.74) (xy 50.8 78.74)
		)
		(stroke
			(width 0)
			(type default)
		)
		(uuid "dd448ae5-e0b6-4cb4-ba69-f33bb8e59b6e")
	)
	(wire
		(pts
			(xy 120.65 106.68) (xy 121.92 106.68)
		)
		(stroke
			(width 0)
			(type default)
		)
		(uuid "de563c22-5a9b-49d2-aaed-9769926dd591")
	)
	(wire
		(pts
			(xy 233.68 82.55) (xy 237.49 82.55)
		)
		(stroke
			(width 0)
			(type default)
		)
		(uuid "e233101b-a2f3-412e-9476-936eae020e73")
	)
	(wire
		(pts
			(xy 71.12 123.19) (xy 71.12 151.13)
		)
		(stroke
			(width 0)
			(type default)
		)
		(uuid "e57e3314-02f6-4b43-924b-1e238237b539")
	)
	(wire
		(pts
			(xy 218.44 80.01) (xy 209.55 80.01)
		)
		(stroke
			(width 0)
			(type default)
		)
		(uuid "e70199a6-00b1-4430-9495-c27b711cca42")
	)
	(wire
		(pts
			(xy 97.79 123.19) (xy 105.41 123.19)
		)
		(stroke
			(width 0)
			(type default)
		)
		(uuid "e76b5270-b904-4a1c-9217-03c25a1c4613")
	)
	(wire
		(pts
			(xy 118.11 135.89) (xy 121.92 135.89)
		)
		(stroke
			(width 0)
			(type default)
		)
		(uuid "eb751332-3e0f-4013-8187-1ac80d99a812")
	)
	(wire
		(pts
			(xy 50.8 87.63) (xy 50.8 123.19)
		)
		(stroke
			(width 0)
			(type default)
		)
		(uuid "eb91e807-c925-49bd-a1ce-ce8823b2b69c")
	)
	(wire
		(pts
			(xy 167.64 92.71) (xy 167.64 60.96)
		)
		(stroke
			(width 0)
			(type default)
		)
		(uuid "ec643cd3-69d9-4b73-922f-6618a14e73cd")
	)
	(wire
		(pts
			(xy 143.51 140.97) (xy 124.46 140.97)
		)
		(stroke
			(width 0)
			(type default)
		)
		(uuid "eeb9a27a-82a1-4f49-879d-920811f97c55")
	)
	(wire
		(pts
			(xy 237.49 72.39) (xy 240.03 72.39)
		)
		(stroke
			(width 0)
			(type default)
		)
		(uuid "eebcf4af-4eec-4bd9-a8f3-30ef99f18dd5")
	)
	(wire
		(pts
			(xy 22.86 81.28) (xy 22.86 135.89)
		)
		(stroke
			(width 0)
			(type default)
		)
		(uuid "f1a39bcd-7a11-4da2-8974-bed56483eb29")
	)
	(wire
		(pts
			(xy 24.13 153.67) (xy 27.94 153.67)
		)
		(stroke
			(width 0)
			(type default)
		)
		(uuid "f3a1d3c9-0970-4567-90b6-e73341b61b60")
	)
	(wire
		(pts
			(xy 167.64 114.3) (xy 167.64 124.46)
		)
		(stroke
			(width 0)
			(type default)
		)
		(uuid "f69985a1-a586-484a-b9fa-f143da11193b")
	)
	(wire
		(pts
			(xy 97.79 143.51) (xy 102.87 143.51)
		)
		(stroke
			(width 0)
			(type default)
		)
		(uuid "f7ccc3f7-59e4-44cb-bd13-bc07b886daa4")
	)
	(wire
		(pts
			(xy 97.79 76.2) (xy 93.98 76.2)
		)
		(stroke
			(width 0)
			(type default)
		)
		(uuid "ff13afd6-94f0-46a3-a8ef-784c75f8ffb1")
	)
	(wire
		(pts
			(xy 167.64 92.71) (xy 167.64 114.3)
		)
		(stroke
			(width 0)
			(type default)
		)
		(uuid "ff3c22da-e157-41c5-937c-5686ad0e8ed1")
	)
	(global_label "+12v"
		(shape input)
		(at 24.13 153.67 180)
		(fields_autoplaced yes)
		(effects
			(font
				(size 1.27 1.27)
			)
			(justify right)
		)
		(uuid "06f3ef90-71bb-4d7c-8325-61ef0f16cee2")
		(property "Intersheetrefs" "${INTERSHEET_REFS}"
			(at 16.2652 153.67 0)
			(effects
				(font
					(size 1.27 1.27)
				)
				(justify right)
				(hide yes)
			)
		)
	)
	(global_label "sig 5v"
		(shape input)
		(at 57.15 36.83 180)
		(fields_autoplaced yes)
		(effects
			(font
				(size 1.27 1.27)
			)
			(justify right)
		)
		(uuid "2ffe5363-0fe6-4398-bf86-2a9dbb31e1a5")
		(property "Intersheetrefs" "${INTERSHEET_REFS}"
			(at 48.3176 36.83 0)
			(effects
				(font
					(size 1.27 1.27)
				)
				(justify right)
				(hide yes)
			)
		)
	)
	(global_label "+12v"
		(shape input)
		(at 57.15 29.21 180)
		(fields_autoplaced yes)
		(effects
			(font
				(size 1.27 1.27)
			)
			(justify right)
		)
		(uuid "41d752c7-99f5-4a8c-b008-7c3485848fe1")
		(property "Intersheetrefs" "${INTERSHEET_REFS}"
			(at 49.2852 29.21 0)
			(effects
				(font
					(size 1.27 1.27)
				)
				(justify right)
				(hide yes)
			)
		)
	)
	(global_label "+12v"
		(shape input)
		(at 139.7 36.83 180)
		(fields_autoplaced yes)
		(effects
			(font
				(size 1.27 1.27)
			)
			(justify right)
		)
		(uuid "6af1a0b3-dec2-4a28-a725-e848257ce2b9")
		(property "Intersheetrefs" "${INTERSHEET_REFS}"
			(at 131.8352 36.83 0)
			(effects
				(font
					(size 1.27 1.27)
				)
				(justify right)
				(hide yes)
			)
		)
	)
	(global_label "gnd"
		(shape input)
		(at 73.66 83.82 180)
		(fields_autoplaced yes)
		(effects
			(font
				(size 1.27 1.27)
			)
			(justify right)
		)
		(uuid "b4e1799c-8c90-4026-8b4a-15fcd96c5d42")
		(property "Intersheetrefs" "${INTERSHEET_REFS}"
			(at 67.3072 83.82 0)
			(effects
				(font
					(size 1.27 1.27)
				)
				(justify right)
				(hide yes)
			)
		)
	)
	(global_label "gnd"
		(shape input)
		(at 57.15 34.29 180)
		(fields_autoplaced yes)
		(effects
			(font
				(size 1.27 1.27)
			)
			(justify right)
		)
		(uuid "b9c07dec-1a8e-4eed-9344-e41aec5b5031")
		(property "Intersheetrefs" "${INTERSHEET_REFS}"
			(at 50.7972 34.29 0)
			(effects
				(font
					(size 1.27 1.27)
				)
				(justify right)
				(hide yes)
			)
		)
	)
	(global_label "gnd"
		(shape input)
		(at 24.13 171.45 180)
		(fields_autoplaced yes)
		(effects
			(font
				(size 1.27 1.27)
			)
			(justify right)
		)
		(uuid "c001cb13-f1f3-49fa-a2d6-723826d38947")
		(property "Intersheetrefs" "${INTERSHEET_REFS}"
			(at 17.7772 171.45 0)
			(effects
				(font
					(size 1.27 1.27)
				)
				(justify right)
				(hide yes)
			)
		)
	)
	(global_label "gnd"
		(shape input)
		(at 57.15 31.75 180)
		(fields_autoplaced yes)
		(effects
			(font
				(size 1.27 1.27)
			)
			(justify right)
		)
		(uuid "d5ce7060-1e0c-4925-80d2-1ccb7743cbf1")
		(property "Intersheetrefs" "${INTERSHEET_REFS}"
			(at 50.7972 31.75 0)
			(effects
				(font
					(size 1.27 1.27)
				)
				(justify right)
				(hide yes)
			)
		)
	)
	(global_label "sig 5v"
		(shape input)
		(at 73.66 76.2 180)
		(fields_autoplaced yes)
		(effects
			(font
				(size 1.27 1.27)
			)
			(justify right)
		)
		(uuid "e5819e46-a1bd-4e2a-a772-7bacd97f3b6f")
		(property "Intersheetrefs" "${INTERSHEET_REFS}"
			(at 64.8276 76.2 0)
			(effects
				(font
					(size 1.27 1.27)
				)
				(justify right)
				(hide yes)
			)
		)
	)
	(symbol
		(lib_id "Connector:Conn_01x02_Socket")
		(at 245.11 69.85 0)
		(unit 1)
		(exclude_from_sim no)
		(in_bom yes)
		(on_board yes)
		(dnp no)
		(uuid "0aa931b9-75e5-4bf8-9e94-e153accface6")
		(property "Reference" "J2"
			(at 246.38 69.85 0)
			(effects
				(font
					(size 1.27 1.27)
				)
				(justify left)
			)
		)
		(property "Value" "свет"
			(at 246.38 72.39 0)
			(effects
				(font
					(size 1.27 1.27)
				)
				(justify left)
			)
		)
		(property "Footprint" ""
			(at 245.11 69.85 0)
			(effects
				(font
					(size 1.27 1.27)
				)
				(hide yes)
			)
		)
		(property "Datasheet" "~"
			(at 245.11 69.85 0)
			(effects
				(font
					(size 1.27 1.27)
				)
				(hide yes)
			)
		)
		(property "Description" ""
			(at 245.11 69.85 0)
			(effects
				(font
					(size 1.27 1.27)
				)
				(hide yes)
			)
		)
		(pin "1"
			(uuid "002eec83-ed1d-434a-ad0d-31b31b268ea3")
		)
		(pin "2"
			(uuid "52db624e-746d-4111-8deb-8e04e1d3cdc7")
		)
		(instances
			(project "smart_door_relay"
				(path "/22187b23-fa3a-4b30-8247-44a45e8459c2"
					(reference "J2")
					(unit 1)
				)
			)
		)
	)
	(symbol
		(lib_id "Device:C_Polarized")
		(at 124.46 78.74 0)
		(unit 1)
		(exclude_from_sim no)
		(in_bom yes)
		(on_board yes)
		(dnp no)
		(fields_autoplaced yes)
		(uuid "0d01e99a-a717-4c14-a8e0-7a5eba3f181b")
		(property "Reference" "C1"
			(at 128.27 76.581 0)
			(effects
				(font
					(size 1.27 1.27)
				)
				(justify left)
			)
		)
		(property "Value" "C_Polarized"
			(at 128.27 79.121 0)
			(effects
				(font
					(size 1.27 1.27)
				)
				(justify left)
			)
		)
		(property "Footprint" ""
			(at 125.4252 82.55 0)
			(effects
				(font
					(size 1.27 1.27)
				)
				(hide yes)
			)
		)
		(property "Datasheet" "~"
			(at 124.46 78.74 0)
			(effects
				(font
					(size 1.27 1.27)
				)
				(hide yes)
			)
		)
		(property "Description" ""
			(at 124.46 78.74 0)
			(effects
				(font
					(size 1.27 1.27)
				)
				(hide yes)
			)
		)
		(pin "1"
			(uuid "e3120085-36e3-4564-b7aa-1f58ff9dfa0d")
		)
		(pin "2"
			(uuid "be74b834-5498-4ce8-ba26-4e9195fe6d81")
		)
		(instances
			(project "smart_door_relay"
				(path "/22187b23-fa3a-4b30-8247-44a45e8459c2"
					(reference "C1")
					(unit 1)
				)
			)
		)
	)
	(symbol
		(lib_id "Switch:SW_Push_SPDT")
		(at 78.74 151.13 0)
		(unit 1)
		(exclude_from_sim no)
		(in_bom yes)
		(on_board yes)
		(dnp no)
		(fields_autoplaced yes)
		(uuid "17b29fd1-978c-4aa5-a3da-b1ed7681d86b")
		(property "Reference" "SW2"
			(at 78.74 143.51 0)
			(effects
				(font
					(size 1.27 1.27)
				)
			)
		)
		(property "Value" "Концевик открытой двери"
			(at 78.74 146.05 0)
			(effects
				(font
					(size 1.27 1.27)
				)
			)
		)
		(property "Footprint" ""
			(at 78.74 151.13 0)
			(effects
				(font
					(size 1.27 1.27)
				)
				(hide yes)
			)
		)
		(property "Datasheet" "~"
			(at 78.74 151.13 0)
			(effects
				(font
					(size 1.27 1.27)
				)
				(hide yes)
			)
		)
		(property "Description" ""
			(at 78.74 151.13 0)
			(effects
				(font
					(size 1.27 1.27)
				)
				(hide yes)
			)
		)
		(pin "1"
			(uuid "83882955-18e6-4d5e-bd0d-759af7b009cc")
		)
		(pin "2"
			(uuid "b3d63353-ae77-4dc7-a07d-7fdaf8f73b45")
		)
		(pin "3"
			(uuid "f8a89496-535a-46d0-8729-cb3562804453")
		)
		(instances
			(project "smart_door_relay"
				(path "/22187b23-fa3a-4b30-8247-44a45e8459c2"
					(reference "SW2")
					(unit 1)
				)
			)
		)
	)
	(symbol
		(lib_id "Transistor_BJT:PN2222A")
		(at 86.36 76.2 0)
		(unit 1)
		(exclude_from_sim no)
		(in_bom yes)
		(on_board yes)
		(dnp no)
		(uuid "1bb233a0-ccfc-4993-97f0-4200eac4bd57")
		(property "Reference" "Q1"
			(at 85.09 64.77 0)
			(effects
				(font
					(size 1.27 1.27)
				)
				(justify left)
			)
		)
		(property "Value" "PN2222A"
			(at 78.74 67.31 0)
			(effects
				(font
					(size 1.27 1.27)
				)
				(justify left)
			)
		)
		(property "Footprint" "Package_TO_SOT_THT:TO-92_Inline"
			(at 91.44 78.105 0)
			(effects
				(font
					(size 1.27 1.27)
					(italic yes)
				)
				(justify left)
				(hide yes)
			)
		)
		(property "Datasheet" "https://www.onsemi.com/pub/Collateral/PN2222-D.PDF"
			(at 86.36 76.2 0)
			(effects
				(font
					(size 1.27 1.27)
				)
				(justify left)
				(hide yes)
			)
		)
		(property "Description" ""
			(at 86.36 76.2 0)
			(effects
				(font
					(size 1.27 1.27)
				)
				(hide yes)
			)
		)
		(pin "1"
			(uuid "f32f30dd-0f0f-4d89-9ee0-74a89de1a53b")
		)
		(pin "2"
			(uuid "1d6d1366-5fc5-43b6-a8ba-dd877dcb583d")
		)
		(pin "3"
			(uuid "9ee2e36d-2975-4509-ab85-30ac2f6f65ed")
		)
		(instances
			(project "smart_door_relay"
				(path "/22187b23-fa3a-4b30-8247-44a45e8459c2"
					(reference "Q1")
					(unit 1)
				)
			)
		)
	)
	(symbol
		(lib_name "SW_DP3T_1")
		(lib_id "Switch:SW_DP3T")
		(at 154.94 39.37 0)
		(mirror y)
		(unit 1)
		(exclude_from_sim no)
		(in_bom yes)
		(on_board yes)
		(dnp no)
		(uuid "41e56c98-ac7e-4304-b3a4-8a23852d4c69")
		(property "Reference" "SW3"
			(at 157.48 30.48 0)
			(effects
				(font
					(size 1.27 1.27)
				)
			)
		)
		(property "Value" "кнопка режима света"
			(at 156.21 33.02 0)
			(effects
				(font
					(size 1.27 1.27)
				)
			)
		)
		(property "Footprint" ""
			(at 170.815 34.925 0)
			(effects
				(font
					(size 1.27 1.27)
				)
				(hide yes)
			)
		)
		(property "Datasheet" "~"
			(at 170.815 34.925 0)
			(effects
				(font
					(size 1.27 1.27)
				)
				(hide yes)
			)
		)
		(property "Description" ""
			(at 154.94 39.37 0)
			(effects
				(font
					(size 1.27 1.27)
				)
				(hide yes)
			)
		)
		(pin "\"авто\""
			(uuid "7f1fd0d2-a54f-4224-a420-f0ce54356506")
		)
		(pin "\"вкл\""
			(uuid "db34fc8c-e8d0-45ae-a728-31d31606c248")
		)
		(pin "3"
			(uuid "d8dfff96-f2aa-4536-94c8-3d0d04228373")
		)
		(pin "выкл"
			(uuid "a6a074e8-c5d6-42e1-a76b-ce58e520caf2")
		)
		(pin "5"
			(uuid "7c59f622-2e97-4e42-9580-5f5fb0d61ab8")
		)
		(pin "6"
			(uuid "114726cd-7da4-4a80-a8c1-17002cbf4797")
		)
		(pin "7"
			(uuid "a79f3966-f3f2-42c1-89ca-f3ee77f5a137")
		)
		(pin "8"
			(uuid "2a52e8d9-9d93-439b-a49e-546574cdee96")
		)
		(instances
			(project "smart_door_relay"
				(path "/22187b23-fa3a-4b30-8247-44a45e8459c2"
					(reference "SW3")
					(unit 1)
				)
			)
		)
	)
	(symbol
		(lib_id "Device:D")
		(at 109.22 123.19 0)
		(unit 1)
		(exclude_from_sim no)
		(in_bom yes)
		(on_board yes)
		(dnp no)
		(fields_autoplaced yes)
		(uuid "55a4cecd-e6f3-413c-88b8-7c2b63d4808f")
		(property "Reference" "D3"
			(at 109.22 116.84 0)
			(effects
				(font
					(size 1.27 1.27)
				)
			)
		)
		(property "Value" "D"
			(at 109.22 119.38 0)
			(effects
				(font
					(size 1.27 1.27)
				)
			)
		)
		(property "Footprint" ""
			(at 109.22 123.19 0)
			(effects
				(font
					(size 1.27 1.27)
				)
				(hide yes)
			)
		)
		(property "Datasheet" "~"
			(at 109.22 123.19 0)
			(effects
				(font
					(size 1.27 1.27)
				)
				(hide yes)
			)
		)
		(property "Description" ""
			(at 109.22 123.19 0)
			(effects
				(font
					(size 1.27 1.27)
				)
				(hide yes)
			)
		)
		(property "Sim.Device" "D"
			(at 109.22 123.19 0)
			(effects
				(font
					(size 1.27 1.27)
				)
				(hide yes)
			)
		)
		(property "Sim.Pins" "1=K 2=A"
			(at 109.22 123.19 0)
			(effects
				(font
					(size 1.27 1.27)
				)
				(hide yes)
			)
		)
		(pin "1"
			(uuid "1841a458-efba-4a1d-b222-878be3e37150")
		)
		(pin "2"
			(uuid "95834b25-578d-4ed6-9a22-9afe174de413")
		)
		(instances
			(project "smart_door_relay"
				(path "/22187b23-fa3a-4b30-8247-44a45e8459c2"
					(reference "D3")
					(unit 1)
				)
			)
		)
	)
	(symbol
		(lib_id "Relay:FINDER-36.11")
		(at 105.41 73.66 90)
		(mirror x)
		(unit 1)
		(exclude_from_sim no)
		(in_bom yes)
		(on_board yes)
		(dnp no)
		(uuid "56bc170f-3288-4410-87ce-92a6c12b2376")
		(property "Reference" "K4"
			(at 105.41 58.42 90)
			(effects
				(font
					(size 1.27 1.27)
				)
				(hide yes)
			)
		)
		(property "Value" "реле безопасности"
			(at 105.41 60.96 90)
			(effects
				(font
					(size 1.27 1.27)
				)
			)
		)
		(property "Footprint" "Relay_THT:Relay_SPDT_Finder_36.11"
			(at 106.172 105.918 0)
			(effects
				(font
					(size 1.27 1.27)
				)
				(hide yes)
			)
		)
		(property "Datasheet" "https://gfinder.findernet.com/public/attachments/36/EN/S36EN.pdf"
			(at 105.41 73.66 0)
			(effects
				(font
					(size 1.27 1.27)
				)
				(hide yes)
			)
		)
		(property "Description" ""
			(at 105.41 73.66 0)
			(effects
				(font
					(size 1.27 1.27)
				)
				(hide yes)
			)
		)
		(pin "11"
			(uuid "2624c653-9f91-4ed7-9e85-ca668b458624")
		)
		(pin "12"
			(uuid "ad529e53-f340-4091-8488-908a51aa9472")
		)
		(pin "14"
			(uuid "18e5b93e-ec1f-4646-9e2d-f751fdc9fa2e")
		)
		(pin "A1"
			(uuid "57400385-c8c8-4525-956e-f8acf956f528")
		)
		(pin "A2"
			(uuid "d33e6a5b-cf55-462e-bc00-74553985f270")
		)
		(instances
			(project "smart_door_relay"
				(path "/22187b23-fa3a-4b30-8247-44a45e8459c2"
					(reference "K4")
					(unit 1)
				)
			)
		)
	)
	(symbol
		(lib_id "Switch:SW_Push_SPDT")
		(at 113.03 109.22 0)
		(unit 1)
		(exclude_from_sim no)
		(in_bom yes)
		(on_board yes)
		(dnp no)
		(uuid "56d1edd7-ab06-409c-b2fd-1e3ff584deec")
		(property "Reference" "SW4"
			(at 107.95 105.41 0)
			(effects
				(font
					(size 1.27 1.27)
				)
			)
		)
		(property "Value" "концевик закрытой двери"
			(at 113.03 101.6 0)
			(effects
				(font
					(size 1.27 1.27)
				)
			)
		)
		(property "Footprint" ""
			(at 113.03 109.22 0)
			(effects
				(font
					(size 1.27 1.27)
				)
				(hide yes)
			)
		)
		(property "Datasheet" "~"
			(at 113.03 109.22 0)
			(effects
				(font
					(size 1.27 1.27)
				)
				(hide yes)
			)
		)
		(property "Description" ""
			(at 113.03 109.22 0)
			(effects
				(font
					(size 1.27 1.27)
				)
				(hide yes)
			)
		)
		(pin "1"
			(uuid "6db5477b-db78-4da4-b7c5-acf6d4ea0ffa")
		)
		(pin "2"
			(uuid "790c5efe-6787-4373-8563-0310236a6369")
		)
		(pin "3"
			(uuid "7d551c35-4b9d-4b10-95c8-22f2f5593a6e")
		)
		(instances
			(project "smart_door_relay"
				(path "/22187b23-fa3a-4b30-8247-44a45e8459c2"
					(reference "SW4")
					(unit 1)
				)
			)
		)
	)
	(symbol
		(lib_id "Relay:FINDER-36.11")
		(at 110.49 140.97 90)
		(mirror x)
		(unit 1)
		(exclude_from_sim no)
		(in_bom yes)
		(on_board yes)
		(dnp no)
		(uuid "57018140-d76b-4d05-b7d9-592fc4c19944")
		(property "Reference" "K3"
			(at 110.49 125.73 90)
			(effects
				(font
					(size 1.27 1.27)
				)
			)
		)
		(property "Value" "реле мотор_1"
			(at 110.49 128.27 90)
			(effects
				(font
					(size 1.27 1.27)
				)
			)
		)
		(property "Footprint" "Relay_THT:Relay_SPDT_Finder_36.11"
			(at 111.252 173.228 0)
			(effects
				(font
					(size 1.27 1.27)
				)
				(hide yes)
			)
		)
		(property "Datasheet" "https://gfinder.findernet.com/public/attachments/36/EN/S36EN.pdf"
			(at 110.49 140.97 0)
			(effects
				(font
					(size 1.27 1.27)
				)
				(hide yes)
			)
		)
		(property "Description" ""
			(at 110.49 140.97 0)
			(effects
				(font
					(size 1.27 1.27)
				)
				(hide yes)
			)
		)
		(pin "11"
			(uuid "f8a2625d-e335-42ea-b613-c5c19870bf8e")
		)
		(pin "12"
			(uuid "47b9c3b8-2c31-434e-8d6e-6cff9fafe586")
		)
		(pin "14"
			(uuid "5b269f48-40aa-42f4-924a-a86cbfa3eeb7")
		)
		(pin "A1"
			(uuid "65fd9bd0-236b-4923-b6ba-5d3b343d5f83")
		)
		(pin "A2"
			(uuid "87928ba8-b526-4d8d-9cf5-667a915c1450")
		)
		(instances
			(project "smart_door_relay"
				(path "/22187b23-fa3a-4b30-8247-44a45e8459c2"
					(reference "K3")
					(unit 1)
				)
			)
		)
	)
	(symbol
		(lib_id "Connector:Conn_01x04_Socket")
		(at 66.04 31.75 0)
		(unit 1)
		(exclude_from_sim no)
		(in_bom yes)
		(on_board yes)
		(dnp no)
		(fields_autoplaced yes)
		(uuid "5d3ee07d-eb2d-4342-bf42-da9e54312a4d")
		(property "Reference" "J1"
			(at 67.31 31.75 0)
			(effects
				(font
					(size 1.27 1.27)
				)
				(justify left)
			)
		)
		(property "Value" "система парктроник"
			(at 67.31 34.29 0)
			(effects
				(font
					(size 1.27 1.27)
				)
				(justify left)
			)
		)
		(property "Footprint" ""
			(at 66.04 31.75 0)
			(effects
				(font
					(size 1.27 1.27)
				)
				(hide yes)
			)
		)
		(property "Datasheet" "~"
			(at 66.04 31.75 0)
			(effects
				(font
					(size 1.27 1.27)
				)
				(hide yes)
			)
		)
		(property "Description" ""
			(at 66.04 31.75 0)
			(effects
				(font
					(size 1.27 1.27)
				)
				(hide yes)
			)
		)
		(pin "1"
			(uuid "6d8bd4b8-0e81-4c48-8207-946ec7def6c2")
		)
		(pin "2"
			(uuid "db4ee14d-6ee5-4b41-a029-e6b7dbbabf6f")
		)
		(pin "3"
			(uuid "b277eb1b-21af-40a8-8b8c-fe576a8d7c99")
		)
		(pin "4"
			(uuid "deb0ddc2-02c2-46ff-a3ab-064866906eea")
		)
		(instances
			(project "smart_door_relay"
				(path "/22187b23-fa3a-4b30-8247-44a45e8459c2"
					(reference "J1")
					(unit 1)
				)
			)
		)
	)
	(symbol
		(lib_id "Relay:FINDER-36.11")
		(at 39.37 73.66 90)
		(mirror x)
		(unit 1)
		(exclude_from_sim no)
		(in_bom yes)
		(on_board yes)
		(dnp no)
		(uuid "640ef8cf-c499-4075-a4aa-6cab90bdf8f1")
		(property "Reference" "K9"
			(at 39.37 58.42 90)
			(effects
				(font
					(size 1.27 1.27)
				)
			)
		)
		(property "Value" "реле авто"
			(at 39.37 60.96 90)
			(effects
				(font
					(size 1.27 1.27)
				)
			)
		)
		(property "Footprint" "Relay_THT:Relay_SPDT_Finder_36.11"
			(at 40.132 105.918 0)
			(effects
				(font
					(size 1.27 1.27)
				)
				(hide yes)
			)
		)
		(property "Datasheet" "https://gfinder.findernet.com/public/attachments/36/EN/S36EN.pdf"
			(at 39.37 73.66 0)
			(effects
				(font
					(size 1.27 1.27)
				)
				(hide yes)
			)
		)
		(property "Description" ""
			(at 39.37 73.66 0)
			(effects
				(font
					(size 1.27 1.27)
				)
				(hide yes)
			)
		)
		(pin "11"
			(uuid "25d49924-3a5a-47f6-b3ad-1779d036a834")
		)
		(pin "12"
			(uuid "6806dca0-4899-4931-9a62-9496c581563e")
		)
		(pin "14"
			(uuid "74ecf68d-f1a2-44dd-8fa5-06aaf9709467")
		)
		(pin "A1"
			(uuid "cb16fa98-a66c-4322-a270-4902dd5e7fe9")
		)
		(pin "A2"
			(uuid "9a831cf7-ff77-4f01-9eda-b44c0c6a5dc8")
		)
		(instances
			(project "smart_door_relay"
				(path "/22187b23-fa3a-4b30-8247-44a45e8459c2"
					(reference "K9")
					(unit 1)
				)
			)
		)
	)
	(symbol
		(lib_id "Device:D")
		(at 137.16 68.58 0)
		(unit 1)
		(exclude_from_sim no)
		(in_bom yes)
		(on_board yes)
		(dnp no)
		(fields_autoplaced yes)
		(uuid "660472a0-4a68-4a5b-a832-5e8b47393dab")
		(property "Reference" "D2"
			(at 137.16 62.23 0)
			(effects
				(font
					(size 1.27 1.27)
				)
			)
		)
		(property "Value" "D"
			(at 137.16 64.77 0)
			(effects
				(font
					(size 1.27 1.27)
				)
			)
		)
		(property "Footprint" ""
			(at 137.16 68.58 0)
			(effects
				(font
					(size 1.27 1.27)
				)
				(hide yes)
			)
		)
		(property "Datasheet" "~"
			(at 137.16 68.58 0)
			(effects
				(font
					(size 1.27 1.27)
				)
				(hide yes)
			)
		)
		(property "Description" ""
			(at 137.16 68.58 0)
			(effects
				(font
					(size 1.27 1.27)
				)
				(hide yes)
			)
		)
		(property "Sim.Device" "D"
			(at 137.16 68.58 0)
			(effects
				(font
					(size 1.27 1.27)
				)
				(hide yes)
			)
		)
		(property "Sim.Pins" "1=K 2=A"
			(at 137.16 68.58 0)
			(effects
				(font
					(size 1.27 1.27)
				)
				(hide yes)
			)
		)
		(pin "1"
			(uuid "8045ba53-d97b-401f-a988-1430d35ad886")
		)
		(pin "2"
			(uuid "25d5b750-0428-4732-92ae-45c5bc319c22")
		)
		(instances
			(project "smart_door_relay"
				(path "/22187b23-fa3a-4b30-8247-44a45e8459c2"
					(reference "D2")
					(unit 1)
				)
			)
		)
	)
	(symbol
		(lib_id "Switch:SW_DP3T")
		(at 33.02 153.67 0)
		(unit 1)
		(exclude_from_sim no)
		(in_bom yes)
		(on_board yes)
		(dnp no)
		(uuid "70cabf97-eede-4730-ab54-4c1597e8b7b0")
		(property "Reference" "SW6"
			(at 30.48 144.78 0)
			(effects
				(font
					(size 1.27 1.27)
				)
			)
		)
		(property "Value" "кнопка режима двери"
			(at 31.75 147.32 0)
			(effects
				(font
					(size 1.27 1.27)
				)
			)
		)
		(property "Footprint" ""
			(at 17.145 149.225 0)
			(effects
				(font
					(size 1.27 1.27)
				)
				(hide yes)
			)
		)
		(property "Datasheet" "~"
			(at 17.145 149.225 0)
			(effects
				(font
					(size 1.27 1.27)
				)
				(hide yes)
			)
		)
		(property "Description" ""
			(at 33.02 153.67 0)
			(effects
				(font
					(size 1.27 1.27)
				)
				(hide yes)
			)
		)
		(pin "\"авто\""
			(uuid "0fd3acd7-8d02-4935-9764-89b1b257532f")
		)
		(pin "\"ключ\""
			(uuid "a3e19c64-75cf-4140-b715-ed38cef97e72")
		)
		(pin "3"
			(uuid "c16f8d7e-46fb-4d89-a0cc-4153415e381c")
		)
		(pin "выкл"
			(uuid "bdcfb5b3-66fd-481d-97d8-4124f4596245")
		)
		(pin "5"
			(uuid "7c59f622-2e97-4e42-9580-5f5fb0d61ab9")
		)
		(pin "6"
			(uuid "114726cd-7da4-4a80-a8c1-17002cbf4798")
		)
		(pin "7"
			(uuid "a79f3966-f3f2-42c1-89ca-f3ee77f5a138")
		)
		(pin "8"
			(uuid "2a52e8d9-9d93-439b-a49e-546574cdee97")
		)
		(instances
			(project "smart_door_relay"
				(path "/22187b23-fa3a-4b30-8247-44a45e8459c2"
					(reference "SW6")
					(unit 1)
				)
			)
		)
	)
	(symbol
		(lib_id "Device:D")
		(at 64.77 123.19 180)
		(unit 1)
		(exclude_from_sim no)
		(in_bom yes)
		(on_board yes)
		(dnp no)
		(fields_autoplaced yes)
		(uuid "9985fcd4-0629-442f-88fb-d979377b42b6")
		(property "Reference" "D4"
			(at 64.77 116.84 0)
			(effects
				(font
					(size 1.27 1.27)
				)
			)
		)
		(property "Value" "D"
			(at 64.77 119.38 0)
			(effects
				(font
					(size 1.27 1.27)
				)
			)
		)
		(property "Footprint" ""
			(at 64.77 123.19 0)
			(effects
				(font
					(size 1.27 1.27)
				)
				(hide yes)
			)
		)
		(property "Datasheet" "~"
			(at 64.77 123.19 0)
			(effects
				(font
					(size 1.27 1.27)
				)
				(hide yes)
			)
		)
		(property "Description" ""
			(at 64.77 123.19 0)
			(effects
				(font
					(size 1.27 1.27)
				)
				(hide yes)
			)
		)
		(property "Sim.Device" "D"
			(at 64.77 123.19 0)
			(effects
				(font
					(size 1.27 1.27)
				)
				(hide yes)
			)
		)
		(property "Sim.Pins" "1=K 2=A"
			(at 64.77 123.19 0)
			(effects
				(font
					(size 1.27 1.27)
				)
				(hide yes)
			)
		)
		(pin "1"
			(uuid "cc716ee3-ef65-4a8f-9246-54978044ffcc")
		)
		(pin "2"
			(uuid "86a7b64e-0bf9-4efb-aa6d-83ef1f0c5e3b")
		)
		(instances
			(project "smart_door_relay"
				(path "/22187b23-fa3a-4b30-8247-44a45e8459c2"
					(reference "D4")
					(unit 1)
				)
			)
		)
	)
	(symbol
		(lib_id "Relay:FINDER-36.11")
		(at 181.61 66.04 270)
		(unit 1)
		(exclude_from_sim no)
		(in_bom yes)
		(on_board yes)
		(dnp no)
		(fields_autoplaced yes)
		(uuid "a070fc82-8fa0-44ab-a910-de87f5b6e33c")
		(property "Reference" "K6"
			(at 181.61 50.8 90)
			(effects
				(font
					(size 1.27 1.27)
				)
			)
		)
		(property "Value" "доп реле_1"
			(at 181.61 53.34 90)
			(effects
				(font
					(size 1.27 1.27)
				)
			)
		)
		(property "Footprint" "Relay_THT:Relay_SPDT_Finder_36.11"
			(at 180.848 98.298 0)
			(effects
				(font
					(size 1.27 1.27)
				)
				(hide yes)
			)
		)
		(property "Datasheet" "https://gfinder.findernet.com/public/attachments/36/EN/S36EN.pdf"
			(at 181.61 66.04 0)
			(effects
				(font
					(size 1.27 1.27)
				)
				(hide yes)
			)
		)
		(property "Description" ""
			(at 181.61 66.04 0)
			(effects
				(font
					(size 1.27 1.27)
				)
				(hide yes)
			)
		)
		(pin "11"
			(uuid "e5d1eda5-4f25-4347-bcee-71d2c76f1255")
		)
		(pin "12"
			(uuid "b796f9f3-46e4-4d35-af7e-bcd59cef5d5a")
		)
		(pin "14"
			(uuid "a65e0960-8915-4fa0-b8ed-d7e15da96a07")
		)
		(pin "A1"
			(uuid "ed088661-c303-4f05-a55f-6f46a20800e1")
		)
		(pin "A2"
			(uuid "f9c4f0a2-25ea-4423-9f9c-7e4f762683ee")
		)
		(instances
			(project "smart_door_relay"
				(path "/22187b23-fa3a-4b30-8247-44a45e8459c2"
					(reference "K6")
					(unit 1)
				)
			)
		)
	)
	(symbol
		(lib_id "Motor:Motor_DC")
		(at 133.35 149.86 90)
		(unit 1)
		(exclude_from_sim no)
		(in_bom yes)
		(on_board yes)
		(dnp no)
		(uuid "a752ba4e-ffba-4705-9ee7-04b7e248205d")
		(property "Reference" "M1"
			(at 134.62 144.78 90)
			(effects
				(font
					(size 1.27 1.27)
				)
			)
		)
		(property "Value" "Motor_DC"
			(at 134.62 154.94 90)
			(effects
				(font
					(size 1.27 1.27)
				)
			)
		)
		(property "Footprint" ""
			(at 135.636 149.86 0)
			(effects
				(font
					(size 1.27 1.27)
				)
				(hide yes)
			)
		)
		(property "Datasheet" "~"
			(at 135.636 149.86 0)
			(effects
				(font
					(size 1.27 1.27)
				)
				(hide yes)
			)
		)
		(property "Description" ""
			(at 133.35 149.86 0)
			(effects
				(font
					(size 1.27 1.27)
				)
				(hide yes)
			)
		)
		(pin "1"
			(uuid "f54d0caa-e675-49f3-b0ed-549f51f4c8e0")
		)
		(pin "2"
			(uuid "b1b8d789-1299-46a2-8e67-3532bcb09e57")
		)
		(instances
			(project "smart_door_relay"
				(path "/22187b23-fa3a-4b30-8247-44a45e8459c2"
					(reference "M1")
					(unit 1)
				)
			)
		)
	)
	(symbol
		(lib_id "Relay:FINDER-36.11")
		(at 156.21 140.97 270)
		(unit 1)
		(exclude_from_sim no)
		(in_bom yes)
		(on_board yes)
		(dnp no)
		(fields_autoplaced yes)
		(uuid "b18b8d4e-a1d1-472c-ace2-06412ac80825")
		(property "Reference" "K2"
			(at 156.21 125.73 90)
			(effects
				(font
					(size 1.27 1.27)
				)
			)
		)
		(property "Value" "реле мотор_2"
			(at 156.21 128.27 90)
			(effects
				(font
					(size 1.27 1.27)
				)
			)
		)
		(property "Footprint" "Relay_THT:Relay_SPDT_Finder_36.11"
			(at 155.448 173.228 0)
			(effects
				(font
					(size 1.27 1.27)
				)
				(hide yes)
			)
		)
		(property "Datasheet" "https://gfinder.findernet.com/public/attachments/36/EN/S36EN.pdf"
			(at 156.21 140.97 0)
			(effects
				(font
					(size 1.27 1.27)
				)
				(hide yes)
			)
		)
		(property "Description" ""
			(at 156.21 140.97 0)
			(effects
				(font
					(size 1.27 1.27)
				)
				(hide yes)
			)
		)
		(pin "11"
			(uuid "0848a2cd-8066-4627-b84e-4d6c7b7aec4f")
		)
		(pin "12"
			(uuid "a58c8084-5b5b-4777-8c57-14bdcf2ba3d9")
		)
		(pin "14"
			(uuid "cd7d924e-091e-4bea-8e4d-861750a7595a")
		)
		(pin "A1"
			(uuid "3e809042-5b72-4f4e-9ada-33c55f81b6d2")
		)
		(pin "A2"
			(uuid "0ede18d1-829b-40ca-a267-a81382a87cbc")
		)
		(instances
			(project "smart_door_relay"
				(path "/22187b23-fa3a-4b30-8247-44a45e8459c2"
					(reference "K2")
					(unit 1)
				)
			)
		)
	)
	(symbol
		(lib_id "Relay:FINDER-36.11")
		(at 134.62 128.27 90)
		(mirror x)
		(unit 1)
		(exclude_from_sim no)
		(in_bom yes)
		(on_board yes)
		(dnp no)
		(uuid "c4516f98-c289-4f45-adb7-181a3e54dc4e")
		(property "Reference" "K10"
			(at 134.62 113.03 90)
			(effects
				(font
					(size 1.27 1.27)
				)
				(hide yes)
			)
		)
		(property "Value" "реле безопасности"
			(at 134.62 115.57 90)
			(effects
				(font
					(size 1.27 1.27)
				)
			)
		)
		(property "Footprint" "Relay_THT:Relay_SPDT_Finder_36.11"
			(at 135.382 160.528 0)
			(effects
				(font
					(size 1.27 1.27)
				)
				(hide yes)
			)
		)
		(property "Datasheet" "https://gfinder.findernet.com/public/attachments/36/EN/S36EN.pdf"
			(at 134.62 128.27 0)
			(effects
				(font
					(size 1.27 1.27)
				)
				(hide yes)
			)
		)
		(property "Description" ""
			(at 134.62 128.27 0)
			(effects
				(font
					(size 1.27 1.27)
				)
				(hide yes)
			)
		)
		(pin "11"
			(uuid "f8bb6dc8-6813-4d16-8210-b0dae18d033f")
		)
		(pin "12"
			(uuid "45d775ee-15c7-4aa2-83fe-4e57ddb6639b")
		)
		(pin "14"
			(uuid "89398edd-f5d7-4487-9d9c-e55d0eaa4e2b")
		)
		(pin "A1"
			(uuid "045e533b-4a97-4b10-a451-d0dd3d96d401")
		)
		(pin "A2"
			(uuid "75621b3d-d9f9-4eb7-ac9f-7ae4bc1f08f0")
		)
		(instances
			(project "smart_door_relay"
				(path "/22187b23-fa3a-4b30-8247-44a45e8459c2"
					(reference "K10")
					(unit 1)
				)
			)
		)
	)
	(symbol
		(lib_id "Device:D")
		(at 93.98 68.58 0)
		(unit 1)
		(exclude_from_sim no)
		(in_bom yes)
		(on_board yes)
		(dnp no)
		(fields_autoplaced yes)
		(uuid "cd6d9087-c626-47c8-bc50-a89cc49a3ad9")
		(property "Reference" "D1"
			(at 93.98 62.23 0)
			(effects
				(font
					(size 1.27 1.27)
				)
			)
		)
		(property "Value" "D"
			(at 93.98 64.77 0)
			(effects
				(font
					(size 1.27 1.27)
				)
			)
		)
		(property "Footprint" ""
			(at 93.98 68.58 0)
			(effects
				(font
					(size 1.27 1.27)
				)
				(hide yes)
			)
		)
		(property "Datasheet" "~"
			(at 93.98 68.58 0)
			(effects
				(font
					(size 1.27 1.27)
				)
				(hide yes)
			)
		)
		(property "Description" ""
			(at 93.98 68.58 0)
			(effects
				(font
					(size 1.27 1.27)
				)
				(hide yes)
			)
		)
		(property "Sim.Device" "D"
			(at 93.98 68.58 0)
			(effects
				(font
					(size 1.27 1.27)
				)
				(hide yes)
			)
		)
		(property "Sim.Pins" "1=K 2=A"
			(at 93.98 68.58 0)
			(effects
				(font
					(size 1.27 1.27)
				)
				(hide yes)
			)
		)
		(pin "1"
			(uuid "6e2f1a16-7f81-4ec1-a3c5-b1b282fece2c")
		)
		(pin "2"
			(uuid "55065a0d-bec4-45bc-992f-45be435cbd91")
		)
		(instances
			(project "smart_door_relay"
				(path "/22187b23-fa3a-4b30-8247-44a45e8459c2"
					(reference "D1")
					(unit 1)
				)
			)
		)
	)
	(symbol
		(lib_id "Relay:FINDER-36.11")
		(at 181.61 97.79 270)
		(unit 1)
		(exclude_from_sim no)
		(in_bom yes)
		(on_board yes)
		(dnp no)
		(fields_autoplaced yes)
		(uuid "d3c627f5-536f-435d-a8ba-e58f9ae3fe00")
		(property "Reference" "K7"
			(at 181.61 82.55 90)
			(effects
				(font
					(size 1.27 1.27)
				)
			)
		)
		(property "Value" "доп реле_2"
			(at 181.61 85.09 90)
			(effects
				(font
					(size 1.27 1.27)
				)
			)
		)
		(property "Footprint" "Relay_THT:Relay_SPDT_Finder_36.11"
			(at 180.848 130.048 0)
			(effects
				(font
					(size 1.27 1.27)
				)
				(hide yes)
			)
		)
		(property "Datasheet" "https://gfinder.findernet.com/public/attachments/36/EN/S36EN.pdf"
			(at 181.61 97.79 0)
			(effects
				(font
					(size 1.27 1.27)
				)
				(hide yes)
			)
		)
		(property "Description" ""
			(at 181.61 97.79 0)
			(effects
				(font
					(size 1.27 1.27)
				)
				(hide yes)
			)
		)
		(pin "11"
			(uuid "c1db3ee0-c8c6-446b-9a35-e39ccf616330")
		)
		(pin "12"
			(uuid "ee4c418f-4b31-4357-a605-832a8d3d8f70")
		)
		(pin "14"
			(uuid "072af63c-b1dc-43a0-a146-97bf2e6a8dd1")
		)
		(pin "A1"
			(uuid "cb965c86-1a15-4af4-be92-61e97a90d813")
		)
		(pin "A2"
			(uuid "34504c64-54c2-4700-9fc5-388d18543a5d")
		)
		(instances
			(project "smart_door_relay"
				(path "/22187b23-fa3a-4b30-8247-44a45e8459c2"
					(reference "K7")
					(unit 1)
				)
			)
		)
	)
	(symbol
		(lib_id "Relay:FINDER-36.11")
		(at 181.61 129.54 270)
		(unit 1)
		(exclude_from_sim no)
		(in_bom yes)
		(on_board yes)
		(dnp no)
		(fields_autoplaced yes)
		(uuid "d64e3d2f-c884-4740-9c73-0f1e890a5ee1")
		(property "Reference" "K8"
			(at 181.61 114.3 90)
			(effects
				(font
					(size 1.27 1.27)
				)
			)
		)
		(property "Value" "\"сух.конт.\" для СКУДа"
			(at 181.61 116.84 90)
			(effects
				(font
					(size 1.27 1.27)
				)
			)
		)
		(property "Footprint" "Relay_THT:Relay_SPDT_Finder_36.11"
			(at 180.848 161.798 0)
			(effects
				(font
					(size 1.27 1.27)
				)
				(hide yes)
			)
		)
		(property "Datasheet" "https://gfinder.findernet.com/public/attachments/36/EN/S36EN.pdf"
			(at 181.61 129.54 0)
			(effects
				(font
					(size 1.27 1.27)
				)
				(hide yes)
			)
		)
		(property "Description" ""
			(at 181.61 129.54 0)
			(effects
				(font
					(size 1.27 1.27)
				)
				(hide yes)
			)
		)
		(pin "11"
			(uuid "18ddb613-c877-4b82-94e5-c9535dde84d0")
		)
		(pin "12"
			(uuid "306d146e-3b67-448b-a531-a33e6d3b2ec9")
		)
		(pin "14"
			(uuid "2056a377-760d-4a69-b505-d7b14259a678")
		)
		(pin "A1"
			(uuid "423fb0cb-7062-4ce3-8ba9-66b47d9d6b3b")
		)
		(pin "A2"
			(uuid "d2c2860c-da90-4dd8-bff9-17a190a95cca")
		)
		(instances
			(project "smart_door_relay"
				(path "/22187b23-fa3a-4b30-8247-44a45e8459c2"
					(reference "K8")
					(unit 1)
				)
			)
		)
	)
	(symbol
		(lib_id "Relay:FINDER-36.11")
		(at 129.54 101.6 270)
		(unit 1)
		(exclude_from_sim no)
		(in_bom yes)
		(on_board yes)
		(dnp no)
		(fields_autoplaced yes)
		(uuid "e71f85fc-fe56-40e5-9896-076590603a36")
		(property "Reference" "K1"
			(at 129.54 86.36 90)
			(effects
				(font
					(size 1.27 1.27)
				)
			)
		)
		(property "Value" "реле времени"
			(at 129.54 88.9 90)
			(effects
				(font
					(size 1.27 1.27)
				)
			)
		)
		(property "Footprint" "Relay_THT:Relay_SPDT_Finder_36.11"
			(at 128.778 133.858 0)
			(effects
				(font
					(size 1.27 1.27)
				)
				(hide yes)
			)
		)
		(property "Datasheet" "https://gfinder.findernet.com/public/attachments/36/EN/S36EN.pdf"
			(at 129.54 101.6 0)
			(effects
				(font
					(size 1.27 1.27)
				)
				(hide yes)
			)
		)
		(property "Description" ""
			(at 129.54 101.6 0)
			(effects
				(font
					(size 1.27 1.27)
				)
				(hide yes)
			)
		)
		(pin "11"
			(uuid "677d9cc2-c82b-4433-b942-4710f1fffe1c")
		)
		(pin "12"
			(uuid "c839c75d-4e8e-45a7-922c-ad5a15d1e62e")
		)
		(pin "14"
			(uuid "aca219e1-edc0-4798-bc02-32011d861aa1")
		)
		(pin "A1"
			(uuid "ebec3cbe-3459-45a1-9898-3d8d8097b011")
		)
		(pin "A2"
			(uuid "66d2c406-6006-4cbc-9a96-66f3a10e8a50")
		)
		(instances
			(project "smart_door_relay"
				(path "/22187b23-fa3a-4b30-8247-44a45e8459c2"
					(reference "K1")
					(unit 1)
				)
			)
		)
	)
	(symbol
		(lib_id "Relay:FINDER-36.11")
		(at 226.06 74.93 270)
		(unit 1)
		(exclude_from_sim no)
		(in_bom yes)
		(on_board yes)
		(dnp no)
		(fields_autoplaced yes)
		(uuid "f9c9e5a3-b97f-4caa-a0d1-9f3a8d4d3b0c")
		(property "Reference" "K5"
			(at 226.06 59.69 90)
			(effects
				(font
					(size 1.27 1.27)
				)
			)
		)
		(property "Value" "реле света"
			(at 226.06 62.23 90)
			(effects
				(font
					(size 1.27 1.27)
				)
			)
		)
		(property "Footprint" "Relay_THT:Relay_SPDT_Finder_36.11"
			(at 225.298 107.188 0)
			(effects
				(font
					(size 1.27 1.27)
				)
				(hide yes)
			)
		)
		(property "Datasheet" "https://gfinder.findernet.com/public/attachments/36/EN/S36EN.pdf"
			(at 226.06 74.93 0)
			(effects
				(font
					(size 1.27 1.27)
				)
				(hide yes)
			)
		)
		(property "Description" ""
			(at 226.06 74.93 0)
			(effects
				(font
					(size 1.27 1.27)
				)
				(hide yes)
			)
		)
		(pin "11"
			(uuid "86615cb3-504f-4be8-9a49-cc422d955607")
		)
		(pin "12"
			(uuid "0c506fc6-0e88-411d-8678-a28143849125")
		)
		(pin "14"
			(uuid "d36b82cd-ee7c-429d-959a-50c2c160b92e")
		)
		(pin "A1"
			(uuid "fa147c06-5e68-4362-84b9-7e5b7899dfb8")
		)
		(pin "A2"
			(uuid "33bb3fec-046b-4ff9-bd78-08b9954fbe1b")
		)
		(instances
			(project "smart_door_relay"
				(path "/22187b23-fa3a-4b30-8247-44a45e8459c2"
					(reference "K5")
					(unit 1)
				)
			)
		)
	)
	(symbol
		(lib_id "Switch:SW_DIP_x01")
		(at 81.28 123.19 0)
		(unit 1)
		(exclude_from_sim no)
		(in_bom yes)
		(on_board yes)
		(dnp no)
		(fields_autoplaced yes)
		(uuid "fa02ebf2-0a29-481c-8918-2278e9daa248")
		(property "Reference" "SW1"
			(at 81.28 115.57 0)
			(effects
				(font
					(size 1.27 1.27)
				)
			)
		)
		(property "Value" "\"сух.конт.\" от СКУДа"
			(at 81.28 118.11 0)
			(effects
				(font
					(size 1.27 1.27)
				)
			)
		)
		(property "Footprint" ""
			(at 81.28 123.19 0)
			(effects
				(font
					(size 1.27 1.27)
				)
				(hide yes)
			)
		)
		(property "Datasheet" "~"
			(at 81.28 123.19 0)
			(effects
				(font
					(size 1.27 1.27)
				)
				(hide yes)
			)
		)
		(property "Description" ""
			(at 81.28 123.19 0)
			(effects
				(font
					(size 1.27 1.27)
				)
				(hide yes)
			)
		)
		(pin "1"
			(uuid "beca47c9-d196-437b-b2fe-36945322263e")
		)
		(pin "2"
			(uuid "cccb0901-3d72-48f5-8e2e-adaee50a399d")
		)
		(instances
			(project "smart_door_relay"
				(path "/22187b23-fa3a-4b30-8247-44a45e8459c2"
					(reference "SW1")
					(unit 1)
				)
			)
		)
	)
	(sheet_instances
		(path "/"
			(page "1")
		)
	)
)