# Alias OBJ Model File
# Exported from SketchUp, (c) 2000-2012 Trimble Navigation Limited
# File units = millimeters

mtllib hand_perehod.mtl

g Mesh1 Model

usemtl FrontColor
v 67.3457 0 -118.976
vt -2.65141 4.68411
vn 0 -1 -0
v 68.7376 0 -100.302
vt -2.7062 3.94891
v 68.3457 0 -97.3258
vt -2.69078 3.83173
f 1/1/1 2/2/1 3/3/1

v 73.3752 0 -121.474
vt -2.88879 4.78244
f 2/2/1 1/1/1 4/4/1

vt -4.49905 0
vn -0.258819 0 -0.965926
vt -4.24211 0
vn -0.5 0 -0.866025
v 67.3457 26.5 -118.976
vt -4.24211 1.04331
v 73.3752 26.5 -121.474
vt -4.49905 1.04331
f 4/5/2 1/6/3 5/7/3 6/8/2 

vt -4.95501 0
v 62.168 0 -115.003
vt -4.69807 0
vn -0.707107 0 -0.707107
v 62.168 26.5 -115.003
vt -4.69807 1.04331
vt -4.95501 1.04331
f 1/9/3 7/10/4 8/11/4 5/12/3 

v 67.3457 0 -75.6752
vt -2.65141 2.97934
vt -2.44756 4.5277
f 9/13/1 7/14/1 1/1/1

v 62.168 0 -79.6482
vt -2.44756 3.13575
f 10/15/1 7/14/1 9/13/1

v 58.1951 0 -109.826
vt -2.29115 4.32385
f 10/15/1 11/16/1 7/14/1

v 58.1951 0 -84.8258
vt -2.29115 3.3396
f 12/17/1 11/16/1 10/15/1

v 55.6976 0 -103.796
vt -2.19282 4.08647
f 12/17/1 13/18/1 11/16/1

v 55.6976 0 -90.8553
vt -2.19282 3.57698
f 14/19/1 13/18/1 12/17/1

v 54.8457 0 -97.3258
vt -2.15928 3.83173
f 13/18/1 14/19/1 15/20/1

vt -3.5171 0
vn -1 0 -6.29889e-016
vt -3.26016 0
vn -0.965926 0 0.258819
v 55.6976 26.5 -90.8553
vt -3.26016 1.04331
v 54.9774 26.5 -96.3258
vt -3.47739 1.04331
vn -0.991445 0 0.130526
v 54.8457 26.5 -97.3258
vt -3.5171 1.04331
f 15/21/5 14/22/6 16/23/6 17/24/7 18/25/5 

vt -2.46555 0
vt -2.2086 0
vn -0.866025 0 0.5
v 58.1951 26.5 -84.8258
vt -2.2086 1.04331
vt -2.46555 1.04331
f 14/26/6 12/27/8 19/28/8 16/29/6 

vt -1.25472 0
vt -0.99778 0
vn -0.707107 0 0.707107
v 62.168 26.5 -79.6482
vt -0.99778 1.04331
vt -1.25472 1.04331
f 12/30/8 10/31/9 20/32/9 19/33/8 

vt 0.0328546 0
vt 0.289796 0
vn -0.5 0 0.866025
v 67.3457 26.5 -75.6752
vt 0.289796 1.04331
vt 0.0328546 1.04331
f 10/34/9 9/35/10 21/36/10 20/37/9 

vt 1.30944 0
v 73.3752 0 -73.1777
vt 1.56638 0
vn -0.258819 0 0.965926
v 73.3752 26.5 -73.1777
vt 1.56638 1.04331
vt 1.30944 1.04331
f 9/38/10 22/39/11 23/40/11 21/41/10 

v 68.7376 0 -94.3494
vt -2.7062 3.71454
vt -2.88879 2.88101
f 9/13/1 24/42/1 22/43/1

f 9/13/1 3/3/1 24/42/1

f 9/13/1 1/1/1 3/3/1

vt 3.32953 -1.39561e-015
vn 0.965926 2.22174e-016 -0.258819
vt 3.44773 -1.39561e-015
vn 1 4.13579e-016 -2.65953e-016
v 68.3457 4.5 -97.3258
vt 3.44773 0.177165
v 68.4774 4.5 -96.3258
vt 3.40802 0.177165
vn 0.991445 4.40547e-016 -0.130526
v 68.4774 3 -96.3258
vt 3.40802 0.11811
v 68.7376 3 -94.3494
vt 3.32953 0.11811
f 24/44/12 3/45/13 25/46/13 26/47/14 27/48/14 28/49/12 

vt 4.15016 -8.22686e-016
vt 4.26835 -8.22686e-016
vn 0.965926 1.91405e-016 0.258819
v 68.7376 3 -100.302
vt 4.26835 0.11811
v 68.4774 3 -98.3258
vt 4.18987 0.11811
vn 0.991445 3.79535e-016 0.130526
v 68.4774 4.5 -98.3258
vt 4.18987 0.177165
vt 4.15016 0.177165
f 3/50/13 2/51/15 29/52/15 30/53/16 31/54/16 25/55/13 

vt 4.68393 0
v 69.8864 0 -103.076
vt 4.80213 0
vn 0.866025 0 0.5
v 69.8864 3 -103.076
vt 4.80213 0.11811
vt 4.68393 0.11811
f 2/56/15 32/57/17 33/58/17 29/59/15 

vt -2.75143 4.0581
f 2/2/1 4/4/1 32/60/1

v 71.714 0 -105.458
vt -2.82339 4.15187
f 32/60/1 4/4/1 34/61/1

v 74.0957 0 -107.285
vt -2.91715 4.22382
f 34/61/1 4/4/1 35/62/1

v 79.8457 0 -122.326
vt -3.14353 4.81598
f 35/62/1 4/4/1 36/63/1

vt -3.74525 0
vn -1.25978e-016 0 -1
vt -3.48831 0
vt -3.48831 1.04331
v 79.8457 26.5 -122.326
vt -3.74525 1.04331
f 36/64/18 4/65/2 6/66/2 37/67/18 

vt 2.88879 4.78244
vn 0 1 -0
v 73.8929 26.5 -119.542
vt 2.90917 4.70638
vt 3.14353 4.81598
f 6/68/19 38/69/19 37/70/19

v 68.3457 26.5 -117.244
vt 2.69078 4.61592
f 6/68/19 39/71/19 38/69/19

vt 2.65141 4.68411
f 5/72/19 39/71/19 6/68/19

v 63.5823 26.5 -113.589
vt 2.50324 4.47202
f 5/72/19 40/73/19 39/71/19

vt 2.44756 4.5277
f 8/74/19 40/73/19 5/72/19

v 59.9271 26.5 -108.826
vt 2.35934 4.28448
f 8/74/19 41/75/19 40/73/19

v 58.1951 26.5 -109.826
vt 2.29115 4.32385
f 42/76/19 41/75/19 8/74/19

v 57.6294 26.5 -103.279
vt 2.26888 4.06609
f 42/76/19 43/77/19 41/75/19

v 56.9774 26.5 -98.3258
vt 2.2432 3.8711
f 42/76/19 44/78/19 43/77/19

v 56.8457 26.5 -97.3258
vt 2.23802 3.83173
f 42/76/19 45/79/19 44/78/19

v 55.6976 26.5 -103.796
vt 2.19282 4.08647
f 45/79/19 42/76/19 46/80/19

vt -4.8715 0
vn -0.866025 0 -0.5
vt -4.61456 0
vn -0.965926 0 -0.258819
vt -4.61456 1.04331
vt -4.8715 1.04331
f 11/81/20 13/82/21 46/83/21 42/84/20 

vt -4.33773 0
vt -4.08079 0
vt -4.08079 1.04331
v 54.9774 26.5 -98.3258
vt -4.1205 1.04331
vn -0.991445 0 -0.130526
vt -4.33773 1.04331
f 13/85/21 15/86/5 18/87/5 47/88/22 46/89/21 

vt 2.16446 3.79236
vt 2.16446 3.8711
vt 2.15928 3.83173
f 17/90/19 47/91/19 18/92/19

vt 2.19282 3.57698
f 47/91/19 17/90/19 16/93/19

f 47/91/19 16/93/19 46/80/19

vt 2.29115 3.3396
f 46/80/19 16/93/19 19/94/19

f 46/80/19 19/94/19 45/79/19

v 56.9774 26.5 -96.3258
vt 2.2432 3.79236
f 45/79/19 19/94/19 48/95/19

v 57.6294 26.5 -91.373
vt 2.26888 3.59736
f 48/95/19 19/94/19 49/96/19

v 59.9271 26.5 -85.8258
vt 2.35934 3.37897
f 49/96/19 19/94/19 50/97/19

vt 2.44756 3.13575
f 50/97/19 19/94/19 20/98/19

v 63.5823 26.5 -81.0624
vt 2.50324 3.19143
f 50/97/19 20/98/19 51/99/19

vt 2.65141 2.97934
f 51/99/19 20/98/19 21/100/19

v 68.3457 26.5 -77.4072
vt 2.69078 3.04753
f 51/99/19 21/100/19 52/101/19

vt 2.88879 2.88101
f 52/101/19 21/100/19 23/102/19

v 73.8929 26.5 -75.1095
vt 2.90917 2.95707
f 52/101/19 23/102/19 53/103/19

v 79.8457 26.5 -72.3258
vt 3.14353 2.84747
f 53/103/19 23/102/19 54/104/19

vt 2.48803 0
v 79.8457 0 -72.3258
vt 2.74497 0
vn -6.29889e-016 0 1
vt 2.74497 1.04331
vt 2.48803 1.04331
f 22/105/11 55/106/23 54/107/23 23/108/11 

v 74.0957 0 -87.3665
vt -2.91715 3.43963
vt -3.14353 2.84747
f 22/43/1 56/109/1 55/110/1

v 71.714 0 -89.1941
vt -2.82339 3.51158
f 22/43/1 57/111/1 56/109/1

v 69.8864 0 -91.5758
vt -2.75143 3.60535
f 22/43/1 58/112/1 57/111/1

f 22/43/1 24/42/1 58/112/1

vt 2.27798 0
vn 0.866025 0 -0.5
vt 2.39617 0
vt 2.39617 0.11811
v 69.8864 3 -91.5758
vt 2.27798 0.11811
f 58/113/24 24/114/12 28/115/12 59/116/24 

vt 2.69596 3.79236
vn -1.03485e-032 1 9.79195e-048
v 56.9774 3 -96.3258
v 57.6294 3 -91.373
v 59.9271 3 -85.8258
v 63.5823 3 -81.0624
v 68.3457 3 -77.4072
v 73.8929 3 -75.1095
v 79.8457 3 -74.3258
vt 3.14353 2.92621
v 85.7986 3 -75.1095
vt 3.3779 2.95707
v 91.3457 3 -77.4072
vt 3.59629 3.04753
v 96.1092 3 -81.0624
vt 3.78383 3.19143
v 99.7643 3 -85.8258
vt 3.92773 3.37897
v 102.062 3 -91.373
vt 4.01819 3.59736
v 102.714 3 -96.3258
vt 4.04386 3.79236
v 91.2141 3 -96.3258
vt 3.5911 3.79236
v 90.9539 3 -94.3494
vt 3.58086 3.71454
v 89.805 3 -91.5758
vt 3.53563 3.60535
v 87.9774 3 -89.1941
vt 3.46368 3.51158
v 85.5957 3 -87.3665
vt 3.36991 3.43963
v 82.8221 3 -86.2177
vt 3.26071 3.3944
v 79.8457 3 -85.8258
vt 3.14353 3.37897
v 76.8693 3 -86.2177
vt 3.02635 3.3944
v 74.0957 3 -87.3665
vt 2.91715 3.43963
v 71.714 3 -89.1941
vt 2.82339 3.51158
vt 2.75143 3.60535
vt 2.7062 3.71454
f 27/117/25 60/95/25 61/96/25 62/97/25 63/99/25 64/101/25 65/103/25 66/118/25 67/119/25 68/120/25 69/121/25 70/122/25 71/123/25 72/124/25 73/125/25 74/126/25 75/127/25 76/128/25 77/129/25 78/130/25 79/131/25 80/132/25 81/133/25 82/134/25 59/135/25 28/136/25 

vt 2.2432 0.11811
vn 0 0 1
vt 2.69596 0.11811
vt 2.69596 0.177165
v 56.9774 4.5 -96.3258
vt 2.2432 0.177165
f 60/137/26 27/138/26 26/139/26 83/140/26 

vt 2.69596 3.8711
v 56.9774 4.5 -98.3258
v 56.8457 4.5 -97.3258
vt 2.69078 3.83173
f 31/141/19 84/78/19 85/79/19 83/95/19 26/117/19 25/142/19 

vt -2.69596 0.11811
vn 0 0 -1
v 56.9774 3 -98.3258
vt -2.2432 0.11811
vt -2.2432 0.177165
vt -2.69596 0.177165
f 30/143/27 86/144/27 84/145/27 31/146/27 

v 91.2141 3 -98.3258
vt 3.5911 3.8711
v 102.714 3 -98.3258
vt 4.04386 3.8711
v 102.062 3 -103.279
vt 4.01819 4.06609
v 99.7643 3 -108.826
vt 3.92773 4.28448
v 96.1092 3 -113.589
vt 3.78383 4.47202
v 91.3457 3 -117.244
vt 3.59629 4.61592
v 85.7986 3 -119.542
vt 3.3779 4.70638
v 79.8457 3 -120.326
vt 3.14353 4.73724
v 73.8929 3 -119.542
v 68.3457 3 -117.244
v 63.5823 3 -113.589
v 59.9271 3 -108.826
v 57.6294 3 -103.279
vt 2.7062 3.94891
vt 2.75143 4.0581
v 71.714 3 -105.458
vt 2.82339 4.15187
v 74.0957 3 -107.285
vt 2.91715 4.22382
v 76.8693 3 -108.434
vt 3.02635 4.26905
v 79.8457 3 -108.826
vt 3.14353 4.28448
v 82.8221 3 -108.434
vt 3.26071 4.26905
v 85.5957 3 -107.285
vt 3.36991 4.22382
v 87.9774 3 -105.458
vt 3.46368 4.15187
v 89.805 3 -103.076
vt 3.53563 4.0581
v 90.9539 3 -100.302
vt 3.58086 3.94891
f 87/147/19 88/148/19 89/149/19 90/150/19 91/151/19 92/152/19 93/153/19 94/154/19 95/69/19 96/71/19 97/73/19 98/75/19 99/77/19 86/78/19 30/141/19 29/155/19 33/156/19 100/157/19 101/158/19 102/159/19 103/160/19 104/161/19 105/162/19 106/163/19 107/164/19 108/165/19 

vt -4.04386 0.11811
vt -3.5911 0.11811
v 91.2141 4.5 -98.3258
vt -3.5911 0.177165
v 102.714 4.5 -98.3258
vt -4.04386 0.177165
f 88/166/27 87/167/27 109/168/27 110/169/27 

v 90.9539 0 -100.302
vt -3.44773 -3.17002e-015
vn -0.965926 -3.93217e-016 0.258819
v 91.3457 0 -97.3258
vt -3.32953 -3.17002e-015
vn -1 -8.14036e-016 2.51956e-016
v 91.3457 4.5 -97.3258
vt -3.32953 0.177165
vt -3.36924 0.177165
vn -0.991445 -7.79706e-016 0.130526
vt -3.36924 0.11811
vt -3.44773 0.11811
f 111/170/28 112/171/29 113/172/29 109/173/30 87/174/30 108/175/28 

vt -3.58086 3.94891
v 92.3457 0 -118.976
vt -3.63566 4.68411
vt -3.59629 3.83173
f 111/176/1 114/177/1 112/178/1

v 89.805 0 -103.076
vt -3.53563 4.0581
f 115/179/1 114/177/1 111/176/1

v 87.9774 0 -105.458
vt -3.46368 4.15187
f 116/180/1 114/177/1 115/179/1

v 86.3162 0 -121.474
vt -3.39828 4.78244
f 116/180/1 117/181/1 114/177/1

v 85.5957 0 -107.285
vt -3.36991 4.22382
f 118/182/1 117/181/1 116/180/1

v 82.8221 0 -108.434
vt -3.26071 4.26905
f 119/183/1 117/181/1 118/182/1

v 79.8457 0 -108.826
vt -3.14353 4.28448
f 120/184/1 117/181/1 119/183/1

f 120/184/1 36/63/1 117/181/1

v 76.8693 0 -108.434
vt -3.02635 4.26905
f 121/185/1 36/63/1 120/184/1

f 35/62/1 36/63/1 121/185/1

vt 4.31149 0
vn 0.5 0 0.866025
vt 4.42968 0
vn 0.258819 0 0.965926
vt 4.42968 0.11811
vt 4.31149 0.11811
f 35/186/31 121/187/32 102/188/32 101/189/31 

vt 3.55768 0
vt 3.67588 0
vn 2.51956e-016 0 1
vt 3.67588 0.11811
vt 3.55768 0.11811
f 121/190/32 120/191/33 103/192/33 102/193/32 

vt 2.5574 0
vt 2.67559 0
vt 2.67559 0.11811
vt 2.5574 0.11811
f 120/194/33 119/195/11 104/196/11 103/197/33 

vt 1.37881 0
vt 1.497 0
vt 1.497 0.11811
vt 1.37881 0.11811
f 119/198/11 118/199/10 105/200/10 104/201/11 

vt 0.102229 0
vt 0.220422 0
vt 0.220422 0.11811
vt 0.102229 0.11811
f 118/202/10 116/203/9 106/204/9 105/205/10 

vt -1.18535 0
vt -1.06715 0
vt -1.06715 0.11811
vt -1.18535 0.11811
f 116/206/9 115/207/8 107/208/8 106/209/9 

vt -2.39617 0
vt -2.27798 0
vt -2.27798 0.11811
vt -2.39617 0.11811
f 115/210/8 111/211/28 108/212/28 107/213/8 

vt 4.76744 0
vn 0.707107 0 0.707107
vt 4.88563 0
vt 4.88563 0.11811
vt 4.76744 0.11811
f 34/214/34 35/215/31 101/216/31 100/217/34 

vt 4.89448 0
vt 5.01267 0
vt 5.01267 0.11811
vt 4.89448 0.11811
f 32/218/17 34/219/34 100/220/34 33/221/17 

vt -2.74497 0
vn 0.258819 0 -0.965926
vt -2.48803 0
vt -2.48803 1.04331
v 86.3162 26.5 -121.474
vt -2.74497 1.04331
f 117/222/35 36/223/18 37/224/18 122/225/35 

v 85.7986 26.5 -119.542
vt 3.39828 4.78244
f 37/70/19 123/153/19 122/226/19

v 79.8457 26.5 -120.326
f 37/70/19 124/154/19 123/153/19

f 37/70/19 38/69/19 124/154/19

vt 3.49859 0.11811
vn 0.258819 -3.08048e-032 0.965926
vt 3.73497 0.11811
vn 2.51956e-016 -3.09984e-032 1
vt 3.73497 1.04331
vt 3.49859 1.04331
f 95/227/36 94/228/37 124/229/37 38/230/36 

vt 2.49831 0.11811
vt 2.73469 0.11811
vn -0.258819 -2.90795e-032 0.965926
vt 2.73469 1.04331
vt 2.49831 1.04331
f 94/231/37 93/232/38 123/233/38 124/234/37 

vt 1.31971 0.11811
vt 1.5561 0.11811
vn -0.5 -2.51788e-032 0.866025
v 91.3457 26.5 -117.244
vt 1.5561 1.04331
vt 1.31971 1.04331
f 93/235/38 92/236/39 125/237/39 123/238/38 

vt 0.0431322 0.11811
vt 0.279518 0.11811
vn -0.707107 -1.95623e-032 0.707107
v 96.1092 26.5 -113.589
vt 0.279518 1.04331
vt 0.0431322 1.04331
f 92/239/39 91/240/40 126/241/40 125/242/39 

vt -1.24444 0.11811
vt -1.00806 0.11811
vn -0.866025 -1.26127e-032 0.5
v 99.7643 26.5 -108.826
vt -1.00806 1.04331
vt -1.24444 1.04331
f 91/243/40 90/244/41 127/245/41 126/246/40 

vt -2.45527 0.11811
vt -2.21888 0.11811
vn -0.965926 2.29218e-017 0.258819
v 102.062 26.5 -103.279
vt -2.21888 1.04331
vt -2.45527 1.04331
f 90/247/41 89/248/42 128/249/42 127/250/41 

vt -3.31015 0.11811
vn -0.991445 4.54514e-017 0.130526
vt -3.31015 0.177165
v 102.846 4.5 -97.3258
vt -3.27044 0.177165
vn -1 4.78794e-017 2.51956e-016
v 102.846 26.5 -97.3258
vt -3.27044 1.04331
v 102.714 26.5 -98.3258
vt -3.31015 1.04331
vt -3.50682 1.04331
vt -3.50682 0.11811
f 88/251/43 110/252/43 129/253/44 130/254/44 131/255/43 128/256/42 89/257/42 

v 91.2141 4.5 -96.3258
v 102.714 4.5 -96.3258
vt 4.04904 3.83173
vt 3.59629 3.83173
f 132/125/19 133/124/19 129/258/19 110/148/19 109/147/19 113/259/19 

vt 3.5911 0.11811
vt 4.04386 0.11811
vt 4.04386 0.177165
vt 3.5911 0.177165
f 73/260/26 72/261/26 133/262/26 132/263/26 

vt -4.32745 0.177165
vt -4.28774 0.177165
vn -0.991445 4.94882e-017 -0.130526
vt -4.28774 0.11811
vt -4.09106 0.11811
vn -0.965926 2.49576e-017 -0.258819
v 102.062 26.5 -91.373
vt -4.09106 1.04331
v 102.714 26.5 -96.3258
vt -4.28774 1.04331
vt -4.32745 1.04331
f 129/264/44 133/265/45 72/266/45 71/267/46 134/268/46 135/269/45 130/270/44 

vt -4.86122 0.11811
vt -4.62484 0.11811
vn -0.866025 1.83857e-032 -0.5
v 99.7643 26.5 -85.8258
vt -4.62484 1.04331
vt -4.86122 1.04331
f 71/271/46 70/272/47 136/273/47 134/274/46 

vt -5.07177 0.11811
vt -4.83538 0.11811
vn -0.707107 2.4276e-032 -0.707107
v 96.1092 26.5 -81.0624
vt -4.83538 1.04331
vt -5.07177 1.04331
f 70/275/47 69/276/48 137/277/48 136/278/47 

vt -4.94473 0.11811
vt -4.70835 0.11811
vn -0.5 2.85119e-032 -0.866025
v 91.3457 26.5 -77.4072
vt -4.70835 1.04331
vt -4.94473 1.04331
f 69/279/48 68/280/49 138/281/49 137/282/48 

vt -4.48878 0.11811
vt -4.25239 0.11811
vn -0.258819 3.08048e-032 -0.965926
v 85.7986 26.5 -75.1095
vt -4.25239 1.04331
vt -4.48878 1.04331
f 68/283/49 67/284/50 139/285/50 138/286/49 

vt -3.73497 0.11811
vt -3.49859 0.11811
vn 0 3.09984e-032 -1
v 79.8457 26.5 -74.3258
vt -3.49859 1.04331
vt -3.73497 1.04331
f 67/287/50 66/288/51 140/289/51 139/290/50 

vt -2.73469 0.11811
vt -2.49831 0.11811
vn 0.258819 2.90795e-032 -0.965926
vt -2.49831 1.04331
vt -2.73469 1.04331
f 66/291/51 65/292/52 53/293/52 140/294/51 

vt -1.5561 0.11811
vt -1.31971 0.11811
vn 0.5 2.51788e-032 -0.866025
vt -1.31971 1.04331
vt -1.5561 1.04331
f 65/295/52 64/296/53 52/297/53 53/298/52 

vt -0.279518 0.11811
vt -0.0431322 0.11811
vn 0.707107 1.95623e-032 -0.707107
vt -0.0431322 1.04331
vt -0.279518 1.04331
f 64/299/53 63/300/54 51/301/54 52/302/53 

vt 1.00806 0.11811
vt 1.24444 0.11811
vn 0.866025 1.26127e-032 -0.5
vt 1.24444 1.04331
vt 1.00806 1.04331
f 63/303/54 62/304/55 50/305/55 51/306/54 

vt 2.21888 0.11811
vt 2.45527 0.11811
vn 0.965926 -1.28181e-017 -0.258819
vt 2.45527 1.04331
vt 2.21888 1.04331
f 62/307/55 61/308/56 49/309/56 50/310/55 

vt 3.46711 0.11811
vn 0.991445 -2.54169e-017 -0.130526
vt 3.46711 0.177165
vt 3.50682 0.177165
vt 3.50682 1.04331
vt 3.46711 1.04331
vt 3.27044 1.04331
vt 3.27044 0.11811
f 60/311/57 83/312/57 85/313/57 45/314/57 48/315/57 49/316/56 61/317/56 

vt 4.09106 0.177165
vn 0.991445 -3.67797e-017 0.130526
vt 4.13077 0.177165
vt 4.13077 0.11811
vt 4.32745 0.11811
vn 0.965926 -1.85486e-017 0.258819
vt 4.32745 1.04331
vt 4.13077 1.04331
vt 4.09106 1.04331
f 85/318/58 84/319/58 86/320/58 99/321/59 43/322/59 44/323/58 45/324/58 

vt 4.62484 0.11811
vt 4.86122 0.11811
vn 0.866025 -1.83857e-032 0.5
vt 4.86122 1.04331
vt 4.62484 1.04331
f 99/325/59 98/326/60 41/327/60 43/328/59 

vt 4.83538 0.11811
vt 5.07177 0.11811
vn 0.707107 -2.4276e-032 0.707107
vt 5.07177 1.04331
vt 4.83538 1.04331
f 98/329/60 97/330/61 40/331/61 41/332/60 

vt 4.70835 0.11811
vt 4.94473 0.11811
vn 0.5 -2.85119e-032 0.866025
vt 4.94473 1.04331
vt 4.70835 1.04331
f 97/333/61 96/334/62 39/335/62 40/336/61 

vt 4.25239 0.11811
vt 4.48878 0.11811
vt 4.48878 1.04331
vt 4.25239 1.04331
f 96/337/62 95/338/36 38/339/36 39/340/62 

f 53/103/19 54/104/19 140/118/19

v 86.3162 26.5 -73.1777
vt 3.39828 2.88101
f 140/118/19 54/104/19 141/341/19

vt 3.48831 0
v 86.3162 0 -73.1777
vt 3.74525 0
vt 3.74525 1.04331
vt 3.48831 1.04331
f 55/342/23 142/343/32 141/344/32 54/345/23 

v 82.8221 0 -86.2177
vt -3.26071 3.3944
vt -3.39828 2.88101
f 55/110/1 143/346/1 142/347/1

v 79.8457 0 -85.8258
vt -3.14353 3.37897
f 55/110/1 144/348/1 143/346/1

v 76.8693 0 -86.2177
vt -3.02635 3.3944
f 55/110/1 145/349/1 144/348/1

f 55/110/1 56/109/1 145/349/1

vt -1.497 0
vt -1.37881 0
vn 0.5 0 -0.866025
vt -1.37881 0.11811
vt -1.497 0.11811
f 145/350/35 56/351/63 81/352/63 80/353/35 

vt -0.220422 0
vt -0.102229 0
vn 0.707107 0 -0.707107
vt -0.102229 0.11811
vt -0.220422 0.11811
f 56/354/63 57/355/64 82/356/64 81/357/63 

vt 1.06715 0
vt 1.18535 0
vt 1.18535 0.11811
vt 1.06715 0.11811
f 57/358/64 58/359/24 59/360/24 82/361/64 

vt -2.67559 0
vn -2.51956e-016 0 -1
vt -2.5574 0
vt -2.5574 0.11811
vt -2.67559 0.11811
f 144/362/65 145/363/35 80/364/35 79/365/65 

vt -3.67588 0
vt -3.55768 0
vt -3.55768 0.11811
vt -3.67588 0.11811
f 143/366/2 144/367/65 79/368/65 78/369/2 

v 85.5957 0 -87.3665
vt -4.42968 0
vt -4.31149 0
vt -4.31149 0.11811
vt -4.42968 0.11811
f 146/370/3 143/371/2 78/372/2 77/373/3 

vt -3.36991 3.43963
f 142/347/1 143/346/1 146/374/1

v 87.9774 0 -89.1941
vt -3.46368 3.51158
f 142/347/1 146/374/1 147/375/1

vt -4.88563 0
vt -4.76744 0
vt -4.76744 0.11811
vt -4.88563 0.11811
f 147/376/4 146/377/3 77/378/3 76/379/4 

v 89.805 0 -91.5758
vt -5.01267 0
vt -4.89448 0
vt -4.89448 0.11811
vt -5.01267 0.11811
f 148/380/20 147/381/4 76/382/4 75/383/20 

v 92.3457 0 -75.6752
vt -3.63566 2.97934
vt -3.53563 3.60535
f 149/384/1 147/375/1 148/385/1

f 142/347/1 147/375/1 149/384/1

vt 4.24211 0
vt 4.49905 0
v 92.3457 26.5 -75.6752
vt 4.49905 1.04331
vt 4.24211 1.04331
f 142/386/32 149/387/31 150/388/31 141/389/32 

vt 4.69807 0
v 97.5234 0 -79.6482
vt 4.95501 0
v 97.5234 26.5 -79.6482
vt 4.95501 1.04331
vt 4.69807 1.04331
f 149/390/31 151/391/34 152/392/34 150/393/31 

vt -3.8395 3.13575
f 149/384/1 114/177/1 151/394/1

f 112/178/1 114/177/1 149/384/1

v 90.9539 0 -94.3494
vt -3.58086 3.71454
f 149/384/1 153/395/1 112/178/1

f 149/384/1 148/385/1 153/395/1

vt -4.80213 0
vn -0.965926 -4.20819e-016 -0.258819
vt -4.68393 0
vt -4.68393 0.11811
vt -4.80213 0.11811
f 153/396/66 148/397/20 75/398/20 74/399/66 

vt -4.26835 -2.55787e-015
vt -4.15016 -2.55787e-015
vt -4.15016 0.11811
vt -4.22864 0.11811
vn -0.991445 -8.34438e-016 -0.130526
vt -4.22864 0.177165
vt -4.26835 0.177165
f 112/400/29 153/401/66 74/402/66 73/403/67 132/404/67 113/405/29 

v 97.5234 0 -115.003
vt -3.8395 4.5277
f 151/394/1 114/177/1 154/406/1

vt -0.289796 0
vt -0.0328546 0
v 92.3457 26.5 -118.976
vt -0.0328546 1.04331
v 97.5234 26.5 -115.003
vt -0.289796 1.04331
f 154/407/64 114/408/63 155/409/63 156/410/64 

vt -1.56638 0
vt -1.30944 0
vt -1.30944 1.04331
vt -1.56638 1.04331
f 114/411/63 117/412/35 122/413/35 155/414/63 

vt 3.63566 4.68411
f 122/226/19 125/152/19 155/415/19

f 122/226/19 123/153/19 125/152/19

f 155/415/19 125/152/19 126/151/19

vt 3.8395 4.5277
f 155/415/19 126/151/19 156/416/19

f 156/416/19 126/151/19 127/150/19

v 101.496 26.5 -109.826
vt 3.99592 4.32385
f 156/416/19 127/150/19 157/417/19

f 157/417/19 127/150/19 128/149/19

v 103.994 26.5 -103.796
vt 4.09425 4.08647
f 157/417/19 128/149/19 158/418/19

f 158/418/19 128/149/19 131/148/19

f 158/418/19 131/148/19 130/258/19

v 103.994 26.5 -90.8553
vt 4.09425 3.57698
f 158/418/19 130/258/19 159/419/19

f 135/124/19 159/419/19 130/258/19

f 134/123/19 159/419/19 135/124/19

v 101.496 26.5 -84.8258
vt 3.99592 3.3396
f 134/123/19 160/420/19 159/419/19

f 136/122/19 160/420/19 134/123/19

vt 3.8395 3.13575
f 136/122/19 152/421/19 160/420/19

f 137/121/19 152/421/19 136/122/19

vt 3.63566 2.97934
f 137/121/19 150/422/19 152/421/19

f 138/120/19 150/422/19 137/121/19

f 138/120/19 141/341/19 150/422/19

f 139/119/19 141/341/19 138/120/19

f 140/118/19 141/341/19 139/119/19

vt 4.8251 0
v 101.496 0 -84.8258
vt 5.08204 0
vt 5.08204 1.04331
vt 4.8251 1.04331
f 151/423/34 161/424/17 160/425/17 152/426/34 

v 101.496 0 -109.826
vt -3.99592 4.32385
vt -3.99592 3.3396
f 151/394/1 162/427/1 161/428/1

f 151/394/1 154/406/1 162/427/1

vt 0.99778 0
vt 1.25472 0
vt 1.25472 1.04331
vt 0.99778 1.04331
f 162/429/24 154/430/64 156/431/64 157/432/24 

v 103.994 0 -103.796
vt 2.2086 0
vn 0.965926 0 -0.258819
vt 2.46555 0
vt 2.46555 1.04331
vt 2.2086 1.04331
f 163/433/68 162/434/24 157/435/24 158/436/68 

v 103.994 0 -90.8553
vt -4.09425 3.57698
vt -4.09425 4.08647
f 164/437/1 162/427/1 163/438/1

f 161/428/1 162/427/1 164/437/1

vt 4.61456 0
vt 4.8715 0
vn 0.965926 0 0.258819
vt 4.8715 1.04331
vt 4.61456 1.04331
f 161/439/17 164/440/69 159/441/69 160/442/17 

vt 4.08079 0
v 104.846 0 -97.3258
vt 4.33773 0
vn 1 0 -2.37958e-016
v 104.846 26.5 -97.3258
vt 4.33773 1.04331
v 104.714 26.5 -96.3258
vt 4.29802 1.04331
vn 0.991445 0 0.130526
vt 4.08079 1.04331
f 164/443/69 165/444/70 166/445/70 167/446/71 159/447/69 

vt -4.12778 3.83173
f 164/437/1 163/438/1 165/448/1

vt 3.26016 0
vt 3.5171 0
vt 3.5171 1.04331
v 104.714 26.5 -98.3258
vt 3.29987 1.04331
vn 0.991445 0 -0.130526
vt 3.26016 1.04331
f 165/449/70 163/450/68 158/451/68 168/452/72 166/453/70 

vt 4.1226 3.79236
vt 4.1226 3.8711
f 158/418/19 167/454/19 168/455/19

f 158/418/19 159/419/19 167/454/19

vt 4.12778 3.83173
f 168/455/19 167/454/19 166/456/19

vt -5.08204 0
vt -4.8251 0
vt -4.8251 1.04331
vt -5.08204 1.04331
f 7/457/4 11/458/20 42/459/20 8/460/4 

g Mesh2 Model

v 129.251 0 -101.024
vt -5.08863 3.97732
v 129.251 0 -89.3771
vt -5.08863 3.51878
v 128.484 0 -95.2005
vt -5.05844 3.74805
f 169/461/1 170/462/1 171/463/1

v 131.499 0 -106.45
vt -5.17712 4.19096
f 170/462/1 169/461/1 172/464/1

vt -5.85314 0
vt -5.6219 0
v 129.251 10 -101.024
vt -5.6219 0.393701
v 131.499 10 -106.45
vt -5.85314 0.393701
f 172/465/20 169/466/21 173/467/21 174/468/20 

vt -4.60749 0
vt -4.37624 0
vn -1 0 1.39975e-016
v 128.484 10 -95.2005
vt -4.37624 0.393701
vt -4.60749 0.393701
f 169/469/21 171/470/73 175/471/73 173/472/21 

vt -3.05573 0
vt -2.82448 0
v 129.251 10 -89.3771
vt -2.82448 0.393701
vt -3.05573 0.393701
f 171/473/73 170/474/6 176/475/6 175/476/73 

vt -1.3036 0
v 131.499 0 -83.9505
vt -1.07235 0
v 131.499 10 -83.9505
vt -1.07235 0.393701
vt -1.3036 0.393701
f 170/477/6 177/478/8 178/479/8 176/480/6 

v 130.502 0 -95.2005
vt -5.13786 3.74805
vt -5.17712 3.30514
f 179/481/1 177/482/1 170/462/1

v 131.2 0 -89.8992
vt -5.16534 3.53934
f 177/482/1 179/481/1 180/483/1

vt 2.83485 0
vt 3.04536 0
vn 1 0 -3.91931e-016
v 130.502 10 -95.2005
vt 3.04536 0.393701
v 131.2 10 -89.8992
vt 2.83485 0.393701
f 180/484/68 179/485/74 181/486/74 182/487/68 

vt 4.38661 0
v 131.2 0 -100.502
vt 4.59713 0
v 131.2 10 -100.502
vt 4.59713 0.393701
vt 4.38661 0.393701
f 179/488/74 183/489/69 184/490/69 181/491/74 

vt -5.16534 3.95676
f 179/481/1 172/464/1 183/492/1

f 170/462/1 172/464/1 179/481/1

v 133.246 0 -105.442
vt -5.2459 4.15125
f 183/492/1 172/464/1 185/493/1

v 135.075 0 -111.11
vt -5.31789 4.37442
f 185/493/1 172/464/1 186/494/1

vt -6.70779 0
vt -6.47655 0
vt -6.47655 0.393701
v 135.075 10 -111.11
vt -6.70779 0.393701
f 186/495/4 172/496/20 174/497/20 187/498/4 

vt 5.17712 4.19096
v 133.246 10 -105.442
vt 5.2459 4.15125
vt 5.31789 4.37442
f 174/499/19 188/500/19 187/501/19

vt 5.16534 3.95676
f 174/499/19 184/502/19 188/500/19

vt 5.13786 3.74805
f 174/499/19 181/503/19 184/502/19

vt 5.08863 3.97732
f 181/503/19 174/499/19 173/504/19

vt 5.17712 3.30514
f 173/504/19 178/505/19 181/503/19

vt 5.08863 3.51878
f 173/504/19 176/506/19 178/505/19

vt 5.05844 3.74805
f 176/506/19 173/504/19 175/507/19

vt 5.16534 3.53934
f 181/503/19 178/505/19 182/508/19

v 133.246 10 -84.9591
vt 5.2459 3.34485
f 182/508/19 178/505/19 189/509/19

v 135.075 10 -79.2906
vt 5.31789 3.12168
f 189/509/19 178/505/19 190/510/19

vt 0.52949 0
v 135.075 0 -79.2906
vt 0.760737 0
vt 0.760737 0.393701
vt 0.52949 0.393701
f 177/511/8 191/512/9 190/513/9 178/514/8 

v 133.246 0 -84.9591
vt -5.2459 3.34485
vt -5.31789 3.12168
f 177/482/1 192/515/1 191/516/1

f 177/482/1 180/483/1 192/515/1

vt 1.08272 0
vt 1.29323 0
vt 1.29323 0.393701
vt 1.08272 0.393701
f 192/517/24 180/518/68 182/519/68 189/520/24 

v 136.501 0 -80.717
vt -0.750371 0
vt -0.539856 0
vt -0.539856 0.393701
v 136.501 10 -80.717
vt -0.750371 0.393701
f 193/521/64 192/522/24 189/523/24 194/524/64 

vt -5.37405 3.17783
f 191/516/1 192/515/1 193/525/1

v 139.734 0 -75.7149
vt -5.50136 2.9809
f 191/516/1 193/525/1 195/526/1

v 140.743 0 -77.4619
vt -5.54107 3.04968
f 195/526/1 193/525/1 196/527/1

vt -2.53949 0
vt -2.32898 0
vt -2.32898 0.393701
v 140.743 10 -77.4619
vt -2.53949 0.393701
f 196/528/63 193/529/64 194/530/64 197/531/63 

vt 5.37405 3.17783
v 139.734 10 -75.7149
vt 5.50136 2.9809
vt 5.54107 3.04968
f 194/532/19 198/533/19 197/534/19

f 194/532/19 190/510/19 198/533/19

f 189/509/19 190/510/19 194/532/19

vt 2.31861 0
vt 2.54986 0
vt 2.54986 0.393701
vt 2.31861 0.393701
f 191/535/9 195/536/10 198/537/10 190/538/9 

vt 3.94185 0
v 145.161 0 -73.4672
vt 4.1731 0
v 145.161 10 -73.4672
vt 4.1731 0.393701
vt 3.94185 0.393701
f 195/539/10 199/540/11 200/541/11 198/542/10 

vt -5.715 2.89241
f 195/526/1 196/527/1 199/543/1

v 145.683 0 -75.4157
vt -5.73556 2.96912
f 199/543/1 196/527/1 201/544/1

vt -4.16273 0
vt -3.95221 0
vt -3.95221 0.393701
v 145.683 10 -75.4157
vt -4.16273 0.393701
f 201/545/35 196/546/63 197/547/63 202/548/35 

vt 5.715 2.89241
vt 5.73556 2.96912
f 197/534/19 200/549/19 202/550/19

f 197/534/19 198/533/19 200/549/19

v 150.984 10 -72.7005
vt 5.94427 2.86222
f 202/550/19 200/549/19 203/551/19

vt 5.28857 0
v 150.984 0 -72.7005
vt 5.51982 0
vt 5.51982 0.393701
vt 5.28857 0.393701
f 199/552/11 204/553/26 203/554/26 200/555/11 

vt -5.94427 2.86222
f 199/543/1 201/544/1 204/556/1

v 150.984 0 -74.7177
vt -5.94427 2.94164
f 204/556/1 201/544/1 205/557/1

vt -5.50945 0
vn 5.59902e-016 0 -1
vt -5.29894 0
vt -5.29894 0.393701
v 150.984 10 -74.7177
vt -5.50945 0.393701
f 205/558/75 201/559/35 202/560/35 206/561/75 

vt 5.94427 2.94164
f 202/550/19 203/551/19 206/562/19

v 156.286 10 -75.4157
vt 6.15298 2.96912
f 206/562/19 203/551/19 207/563/19

v 156.808 10 -73.4672
vt 6.17354 2.89241
f 207/563/19 203/551/19 208/564/19

vt 6.26701 0
v 156.808 0 -73.4672
vt 6.49826 0
vt 6.49826 0.393701
vt 6.26701 0.393701
f 204/565/26 209/566/32 208/567/32 203/568/26 

v 156.286 0 -75.4157
vt -6.15298 2.96912
vt -6.17354 2.89241
f 204/556/1 210/569/1 209/570/1

f 204/556/1 205/557/1 210/569/1

vt -6.48789 0
vt -6.27738 0
vt -6.27738 0.393701
vt -6.48789 0.393701
f 210/571/2 205/572/75 206/573/75 207/574/2 

v 161.226 0 -77.4619
vt -7.03136 0
vt -6.82085 0
vt -6.82085 0.393701
v 161.226 10 -77.4619
vt -7.03136 0.393701
f 211/575/3 210/576/2 207/577/2 212/578/3 

vt -6.34747 3.04968
f 209/570/1 210/569/1 211/579/1

v 162.234 0 -75.7149
vt -6.38718 2.9809
f 209/570/1 211/579/1 213/580/1

v 165.468 0 -80.717
vt -6.51448 3.17783
f 213/580/1 211/579/1 214/581/1

vt -7.10283 0
vt -6.89232 0
vt -6.89232 0.393701
v 165.468 10 -80.717
vt -7.10283 0.393701
f 214/582/4 211/583/3 212/584/3 215/585/4 

vt 6.34747 3.04968
v 162.234 10 -75.7149
vt 6.38718 2.9809
vt 6.51448 3.17783
f 212/586/19 216/587/19 215/588/19

f 212/586/19 208/564/19 216/587/19

f 207/563/19 208/564/19 212/586/19

vt 6.81048 0
vt 7.04173 0
vt 7.04173 0.393701
vt 6.81048 0.393701
f 209/589/32 213/590/31 216/591/31 208/592/32 

vt 6.88195 0
v 166.894 0 -79.2906
vt 7.1132 0
v 166.894 10 -79.2906
vt 7.1132 0.393701
vt 6.88195 0.393701
f 213/593/31 217/594/34 218/595/34 216/596/31 

vt -6.57064 3.12168
f 213/580/1 214/581/1 217/597/1

v 168.723 0 -84.9591
vt -6.64264 3.34485
f 217/597/1 214/581/1 219/598/1

vt -6.69743 0
vt -6.48691 0
vt -6.48691 0.393701
v 168.723 10 -84.9591
vt -6.69743 0.393701
f 219/599/20 214/600/4 215/601/4 220/602/20 

vt 6.57064 3.12168
vt 6.64264 3.34485
f 215/588/19 218/603/19 220/604/19

f 215/588/19 216/587/19 218/603/19

v 170.47 10 -83.9505
vt 6.71142 3.30514
f 220/604/19 218/603/19 221/605/19

vt 6.47655 0
v 170.47 0 -83.9505
vt 6.70779 0
vt 6.70779 0.393701
vt 6.47655 0.393701
f 217/606/34 222/607/17 221/608/17 218/609/34 

vt -6.71142 3.30514
f 217/597/1 219/598/1 222/610/1

v 170.769 0 -89.8992
vt -6.7232 3.53934
f 222/610/1 219/598/1 223/611/1

vt -5.84278 0
vt -5.63226 0
vt -5.63226 0.393701
v 170.769 10 -89.8992
vt -5.84278 0.393701
f 223/612/21 219/613/20 220/614/20 224/615/21 

vt 6.7232 3.53934
f 220/604/19 221/605/19 224/616/19

v 172.718 10 -89.3771
vt 6.79991 3.51878
f 224/616/19 221/605/19 225/617/19

vt 5.6219 0
v 172.718 0 -89.3771
vt 5.85314 0
vt 5.85314 0.393701
vt 5.6219 0.393701
f 222/618/17 226/619/69 225/620/69 221/621/17 

vt -6.79991 3.51878
f 222/610/1 223/611/1 226/622/1

v 171.467 0 -95.2005
vt -6.75068 3.74805
f 226/622/1 223/611/1 227/623/1

vt -4.59713 0
vn -1 0 -5.45904e-016
vt -4.38661 0
vt -4.38661 0.393701
v 171.467 10 -95.2005
vt -4.59713 0.393701
f 227/624/76 223/625/21 224/626/21 228/627/76 

vt 6.75068 3.74805
f 224/616/19 225/617/19 228/628/19

v 172.718 10 -101.024
vt 6.79991 3.97732
f 229/629/19 228/628/19 225/617/19

v 170.769 10 -100.502
vt 6.7232 3.95676
f 229/629/19 230/630/19 228/628/19

v 170.47 10 -106.45
vt 6.71142 4.19096
f 231/631/19 230/630/19 229/629/19

v 168.723 10 -105.442
vt 6.64264 4.15125
f 231/631/19 232/632/19 230/630/19

v 166.894 10 -111.11
vt 6.57064 4.37442
f 233/633/19 232/632/19 231/631/19

v 165.468 10 -109.684
vt 6.51448 4.31827
f 233/633/19 234/634/19 232/632/19

v 162.234 10 -114.686
vt 6.38718 4.5152
f 235/635/19 234/634/19 233/633/19

v 161.226 10 -112.939
vt 6.34747 4.44642
f 235/635/19 236/636/19 234/634/19

v 156.808 10 -116.934
vt 6.17354 4.60369
f 237/637/19 236/636/19 235/635/19

v 156.286 10 -114.985
vt 6.15298 4.52698
f 237/637/19 238/638/19 236/636/19

v 150.984 10 -117.7
vt 5.94427 4.63388
f 239/639/19 238/638/19 237/637/19

v 150.984 10 -115.683
vt 5.94427 4.55446
f 239/639/19 240/640/19 238/638/19

v 145.683 10 -114.985
vt 5.73556 4.52698
f 239/639/19 241/641/19 240/640/19

v 145.161 10 -116.934
vt 5.715 4.60369
f 242/642/19 241/641/19 239/639/19

v 140.743 10 -112.939
vt 5.54107 4.44642
f 242/642/19 243/643/19 241/641/19

v 139.734 10 -114.686
vt 5.50136 4.5152
f 244/644/19 243/643/19 242/642/19

v 136.501 10 -109.684
vt 5.37405 4.31827
f 244/644/19 245/645/19 243/643/19

f 187/501/19 245/645/19 244/644/19

f 187/501/19 188/500/19 245/645/19

vt 6.48691 0
v 136.501 0 -109.684
vt 6.69743 0
vt 6.69743 0.393701
vt 6.48691 0.393701
f 185/646/17 246/647/34 245/648/34 188/649/17 

vt -5.37405 4.31827
f 185/493/1 186/494/1 246/650/1

v 139.734 0 -114.686
vt -5.50136 4.5152
f 246/650/1 186/494/1 247/651/1

vt -7.1132 0
vt -6.88195 0
vt -6.88195 0.393701
vt -7.1132 0.393701
f 247/652/3 186/653/4 187/654/4 244/655/3 

v 145.161 0 -116.934
vt -7.04173 0
vt -6.81048 0
vt -6.81048 0.393701
vt -7.04173 0.393701
f 248/656/2 247/657/3 244/658/3 242/659/2 

v 140.743 0 -112.939
vt -5.54107 4.44642
vt -5.715 4.60369
f 249/660/1 247/651/1 248/661/1

f 246/650/1 247/651/1 249/660/1

vt 6.89232 0
vt 7.10283 0
vt 7.10283 0.393701
vt 6.89232 0.393701
f 246/662/34 249/663/31 243/664/31 245/665/34 

vt 6.82085 0
v 145.683 0 -114.985
vt 7.03136 0
vt 7.03136 0.393701
vt 6.82085 0.393701
f 249/666/31 250/667/32 241/668/32 243/669/31 

vt -5.73556 4.52698
f 249/660/1 248/661/1 250/670/1

v 150.984 0 -117.7
vt -5.94427 4.63388
f 250/670/1 248/661/1 251/671/1

vt -6.49826 0
vn -4.89914e-016 0 -1
vt -6.26701 0
vt -6.26701 0.393701
vt -6.49826 0.393701
f 251/672/77 248/673/2 242/674/2 239/675/77 

v 156.808 0 -116.934
vt -5.51982 0
vt -5.28857 0
vt -5.28857 0.393701
vt -5.51982 0.393701
f 252/676/35 251/677/77 239/678/77 237/679/35 

v 150.984 0 -115.683
vt -5.94427 4.55446
vt -6.17354 4.60369
f 253/680/1 251/671/1 252/681/1

f 250/670/1 251/671/1 253/680/1

vt 6.27738 0
vt 6.48789 0
vn 1.80568e-015 0 1
vt 6.48789 0.393701
vt 6.27738 0.393701
f 250/682/32 253/683/78 240/684/78 241/685/32 

vt 5.29894 0
v 156.286 0 -114.985
vt 5.50945 0
vt 5.50945 0.393701
vt 5.29894 0.393701
f 253/686/78 254/687/11 238/688/11 240/689/78 

vt -6.15298 4.52698
f 253/680/1 252/681/1 254/690/1

v 161.226 0 -112.939
vt -6.34747 4.44642
f 254/690/1 252/681/1 255/691/1

v 162.234 0 -114.686
vt -6.38718 4.5152
f 255/691/1 252/681/1 256/692/1

vt -4.1731 0
vt -3.94185 0
vt -3.94185 0.393701
vt -4.1731 0.393701
f 256/693/63 252/694/35 237/695/35 235/696/63 

v 166.894 0 -111.11
vt -2.54986 0
vt -2.31861 0
vt -2.31861 0.393701
vt -2.54986 0.393701
f 257/697/64 256/698/63 235/699/63 233/700/64 

v 165.468 0 -109.684
vt -6.51448 4.31827
vt -6.57064 4.37442
f 258/701/1 256/692/1 257/702/1

f 255/691/1 256/692/1 258/701/1

vt 2.32898 0
vt 2.53949 0
vt 2.53949 0.393701
vt 2.32898 0.393701
f 255/703/10 258/704/9 234/705/9 236/706/10 

vt 0.539856 0
v 168.723 0 -105.442
vt 0.750371 0
vt 0.750371 0.393701
vt 0.539856 0.393701
f 258/707/9 259/708/8 232/709/8 234/710/9 

vt -6.64264 4.15125
f 258/701/1 257/702/1 259/711/1

v 170.47 0 -106.45
vt -6.71142 4.19096
f 259/711/1 257/702/1 260/712/1

vt -0.760737 0
vt -0.52949 0
vt -0.52949 0.393701
vt -0.760737 0.393701
f 260/713/24 257/714/64 233/715/64 231/716/24 

v 172.718 0 -101.024
vt 1.07235 0
vt 1.3036 0
vt 1.3036 0.393701
vt 1.07235 0.393701
f 261/717/68 260/718/24 231/719/24 229/720/68 

v 170.769 0 -100.502
vt -6.7232 3.95676
vt -6.79991 3.97732
f 262/721/1 260/712/1 261/722/1

f 259/711/1 260/712/1 262/721/1

vt -1.29323 0
vt -1.08272 0
vt -1.08272 0.393701
vt -1.29323 0.393701
f 259/723/8 262/724/6 230/725/6 232/726/8 

vt -3.04536 0
vt -2.83485 0
vt -2.83485 0.393701
vt -3.04536 0.393701
f 262/727/6 227/728/76 228/729/76 230/730/6 

f 262/721/1 261/722/1 227/623/1

f 226/622/1 227/623/1 261/722/1

v 173.484 0 -95.2005
vt -6.8301 3.74805
f 226/622/1 261/722/1 263/731/1

vt 2.82448 0
vn 1 0 -1.25978e-016
vt 3.05573 0
vt 3.05573 0.393701
v 173.484 10 -95.2005
vt 2.82448 0.393701
f 263/732/79 261/733/68 229/734/68 264/735/79 

vt 6.8301 3.74805
f 229/629/19 225/617/19 264/736/19

vt 4.37624 0
vt 4.60749 0
vt 4.60749 0.393701
vt 4.37624 0.393701
f 226/737/69 263/738/79 264/739/79 225/740/69 

vt 3.95221 0
vt 4.16273 0
vt 4.16273 0.393701
vt 3.95221 0.393701
f 254/741/11 255/742/10 236/743/10 238/744/11 

vt 5.63226 0
vt 5.84278 0
vt 5.84278 0.393701
vt 5.63226 0.393701
f 183/745/69 185/746/17 188/747/17 184/748/69 

g Mesh3 Model

v 110.637 0 -65.2403
vt -4.3558 2.56852
v 105.637 0 -47.7403
vt -4.15895 1.87954
v 104.814 0 -64.4737
vt -4.12653 2.53833
f 265/749/1 266/750/1 267/751/1

v 115.637 0 -47.7403
vt -4.55265 1.87954
f 266/750/1 265/749/1 268/752/1

v 116.461 0 -64.4737
vt -4.58507 2.53833
f 268/752/1 265/749/1 269/753/1

vt -4.21453 0
vt -3.98328 0
v 110.637 10 -65.2403
vt -3.98328 0.393701
v 116.461 10 -64.4737
vt -4.21453 0.393701
f 269/754/35 265/755/77 270/756/77 271/757/35 

vt -4.6538 0
vt -4.42255 0
v 104.814 10 -64.4737
vt -4.42255 0.393701
vt -4.6538 0.393701
f 265/758/77 267/759/2 272/760/2 270/761/77 

vt -4.7838 0
v 99.3874 0 -62.2259
vt -4.55255 0
v 99.3874 10 -62.2259
vt -4.55255 0.393701
vt -4.7838 0.393701
f 267/762/2 273/763/3 274/764/3 272/765/2 

v 104.814 0 -21.007
vt -4.12653 0.827047
vt -3.91289 2.44984
f 275/766/1 273/767/1 267/751/1

v 99.3874 0 -23.2548
vt -3.91289 0.915542
f 276/768/1 273/767/1 275/766/1

v 94.7275 0 -26.8304
vt -3.72943 1.05632
f 277/769/1 273/767/1 276/768/1

v 94.7275 0 -58.6502
vt -3.72943 2.30906
f 277/769/1 278/770/1 273/767/1

v 91.1518 0 -31.4903
vt -3.58865 1.23978
f 279/771/1 278/770/1 277/769/1

v 91.1518 0 -53.9903
vt -3.58865 2.1256
f 279/771/1 280/772/1 278/770/1

v 88.904 0 -36.9169
vt -3.50016 1.45342
f 281/773/1 280/772/1 279/771/1

v 88.904 0 -48.5638
vt -3.50016 1.91196
f 281/773/1 282/774/1 280/772/1

v 88.1374 0 -42.7403
vt -3.46997 1.68269
f 282/774/1 281/773/1 283/775/1

vt -1.21537 0
vt -0.984125 0
v 88.904 10 -36.9169
vt -0.984125 0.393701
v 88.1374 10 -42.7403
vt -1.21537 0.393701
f 283/776/73 281/777/6 284/778/6 285/779/73 

vt -0.00333359 0
vt 0.227914 0
v 91.1518 10 -31.4903
vt 0.227914 0.393701
vt -0.00333359 0.393701
f 281/780/6 279/781/8 286/782/8 284/783/6 

vt 1.20105 0
vt 1.4323 0
v 94.7275 10 -26.8304
vt 1.4323 0.393701
vt 1.20105 0.393701
f 279/784/8 277/785/9 287/786/9 286/787/8 

vt 2.31571 0
vt 2.54696 0
v 99.3874 10 -23.2548
vt 2.54696 0.393701
vt 2.31571 0.393701
f 277/788/9 276/789/10 288/790/10 287/791/9 

vt 3.26467 0
vt 3.49592 0
v 104.814 10 -21.007
vt 3.49592 0.393701
vt 3.26467 0.393701
f 276/792/10 275/793/11 289/794/11 288/795/10 

vt 3.98328 0
v 110.637 0 -20.2403
vt 4.21453 0
v 110.637 10 -20.2403
vt 4.21453 0.393701
vt 3.98328 0.393701
f 275/796/11 290/797/26 291/798/26 289/799/11 

v 105.637 0 -37.7403
vt -4.15895 1.48584
vt -4.3558 0.796864
f 275/766/1 292/800/1 290/801/1

f 275/766/1 267/751/1 292/800/1

f 292/800/1 267/751/1 266/750/1

vt 1.48584 0
vn 1 0 -0
vt 1.87954 0
v 105.637 10 -47.7403
vt 1.87954 0.393701
v 105.637 10 -37.7403
vt 1.48584 0.393701
f 292/802/80 266/803/80 293/804/80 294/805/80 

vt 4.15895 0
vt 4.55265 0
v 115.637 10 -47.7403
vt 4.55265 0.393701
vt 4.15895 0.393701
f 266/806/26 268/807/26 295/808/26 293/809/26 

vt -1.87954 0
vn -1 0 -0
v 115.637 0 -37.7403
vt -1.48584 0
v 115.637 10 -37.7403
vt -1.48584 0.393701
vt -1.87954 0.393701
f 268/810/81 296/811/81 297/812/81 295/813/81 

vt -4.55265 1.48584
f 268/752/1 269/753/1 296/814/1

v 116.461 0 -21.007
vt -4.58507 0.827047
f 296/814/1 269/753/1 298/815/1

v 121.887 0 -23.2548
vt -4.79872 0.915542
f 298/815/1 269/753/1 299/816/1

v 121.887 0 -62.2259
vt -4.79872 2.44984
f 299/816/1 269/753/1 300/817/1

vt -3.49592 0
vt -3.26467 0
vt -3.26467 0.393701
v 121.887 10 -62.2259
vt -3.49592 0.393701
f 300/818/63 269/819/35 271/820/35 301/821/63 

vt 4.58507 2.53833
v 120.879 10 -60.4789
vt 4.75901 2.38106
vt 4.79872 2.44984
f 271/822/19 302/823/19 301/824/19

v 115.939 10 -62.5251
vt 4.56452 2.46162
f 271/822/19 303/825/19 302/823/19

vt 4.3558 2.56852
f 270/826/19 303/825/19 271/822/19

v 110.637 10 -63.2231
vt 4.3558 2.4891
f 270/826/19 304/827/19 303/825/19

v 105.336 10 -62.5251
vt 4.14709 2.46162
f 270/826/19 305/828/19 304/827/19

vt 4.12653 2.53833
f 272/829/19 305/828/19 270/826/19

v 100.396 10 -60.4789
vt 3.9526 2.38106
f 272/829/19 306/830/19 305/828/19

vt 3.91289 2.44984
f 274/831/19 306/830/19 272/829/19

v 96.1539 10 -57.2238
vt 3.78559 2.25291
f 274/831/19 307/832/19 306/830/19

v 94.7275 10 -58.6502
vt 3.72943 2.30906
f 308/833/19 307/832/19 274/831/19

v 92.8988 10 -52.9817
vt 3.65743 2.08589
f 308/833/19 309/834/19 307/832/19

v 91.1518 10 -53.9903
vt 3.58865 2.1256
f 310/835/19 309/834/19 308/833/19

v 90.8526 10 -48.0417
vt 3.57687 1.8914
f 310/835/19 311/836/19 309/834/19

v 90.1546 10 -42.7403
vt 3.54939 1.68269
f 310/835/19 312/837/19 311/836/19

v 88.904 10 -48.5638
vt 3.50016 1.91196
f 312/837/19 310/835/19 313/838/19

vt -3.33712 0
vt -3.10587 0
vt -3.10587 0.393701
vt -3.33712 0.393701
f 280/839/20 282/840/21 313/841/21 310/842/20 

vt -2.35246 0
vt -2.12122 0
vt -2.12122 0.393701
vt -2.35246 0.393701
f 282/843/21 283/844/73 285/845/73 313/846/21 

vt 3.50016 1.45342
vt 3.46997 1.68269
f 284/847/19 313/838/19 285/848/19

vt 3.58865 1.23978
f 313/838/19 284/847/19 286/849/19

f 313/838/19 286/849/19 312/837/19

v 90.8526 10 -37.439
vt 3.57687 1.47398
f 312/837/19 286/849/19 314/850/19

v 92.8988 10 -32.499
vt 3.65743 1.27949
f 314/850/19 286/849/19 315/851/19

vt 3.72943 1.05632
f 315/851/19 286/849/19 287/852/19

v 96.1539 10 -28.2568
vt 3.78559 1.11247
f 315/851/19 287/852/19 316/853/19

vt 3.91289 0.915542
f 316/853/19 287/852/19 288/854/19

v 100.396 10 -25.0018
vt 3.9526 0.984321
f 316/853/19 288/854/19 317/855/19

vt 4.12653 0.827047
f 317/855/19 288/854/19 289/856/19

v 105.336 10 -22.9555
vt 4.14709 0.903761
f 317/855/19 289/856/19 318/857/19

vt 4.3558 0.796864
f 318/857/19 289/856/19 291/858/19

v 110.637 10 -22.2576
vt 4.3558 0.876283
f 318/857/19 291/858/19 319/859/19

v 115.939 10 -22.9555
vt 4.56452 0.903761
f 319/859/19 291/858/19 320/860/19

v 116.461 10 -21.007
vt 4.58507 0.827047
f 320/860/19 291/858/19 321/861/19

vt 4.42255 0
vt 4.6538 0
vt 4.6538 0.393701
vt 4.42255 0.393701
f 290/862/26 298/863/32 321/864/32 291/865/26 

f 290/801/1 296/814/1 298/815/1

f 290/801/1 292/800/1 296/814/1

vt -4.55265 0
vt -4.15895 0
vt -4.15895 0.393701
vt -4.55265 0.393701
f 296/866/27 292/867/27 294/868/27 297/869/27 

vt 4.15895 1.48584
v 117.637 10 -35.7403
vt 4.63139 1.4071
vt 4.55265 1.48584
f 294/870/19 322/871/19 297/872/19

v 103.637 10 -35.7403
vt 4.08021 1.4071
f 294/870/19 323/873/19 322/871/19

v 103.637 10 -49.7403
vt 4.08021 1.95828
f 323/873/19 294/870/19 324/874/19

vt 4.15895 1.87954
f 293/875/19 324/874/19 294/870/19

v 117.637 10 -49.7403
vt 4.63139 1.95828
f 324/874/19 293/875/19 325/876/19

vt 4.55265 1.87954
f 325/876/19 293/875/19 295/877/19

f 325/876/19 295/877/19 322/871/19

f 297/872/19 322/871/19 295/877/19

vt 1.4071 0.393701
v 117.637 2 -35.7403
vt 1.4071 0.0787402
v 117.637 2 -49.7403
vt 1.95828 0.0787402
vt 1.95828 0.393701
f 322/878/80 326/879/80 327/880/80 325/881/80 

vt 4.08021 0.393701
v 103.637 2 -35.7403
vt 4.08021 0.0787402
vt 4.63139 0.0787402
vt 4.63139 0.393701
f 323/882/26 328/883/26 326/884/26 322/885/26 

vt -1.95828 0.393701
v 103.637 2 -49.7403
vt -1.95828 0.0787402
vt -1.4071 0.0787402
vt -1.4071 0.393701
f 324/886/81 329/887/81 328/888/81 323/889/81 

vt -4.63139 0.393701
vt -4.63139 0.0787402
vt -4.08021 0.0787402
vt -4.08021 0.393701
f 325/890/27 327/891/27 329/892/27 324/893/27 

v 105.336 2 -62.5251
f 330/828/19 329/874/19 327/876/19

v 100.396 2 -60.4789
f 331/830/19 329/874/19 330/828/19

v 100.396 2 -25.0018
f 331/830/19 332/855/19 329/874/19

v 96.1539 2 -57.2238
f 333/832/19 332/855/19 331/830/19

v 96.1539 2 -28.2568
f 333/832/19 334/853/19 332/855/19

v 92.8988 2 -32.499
f 333/832/19 335/851/19 334/853/19

v 92.8988 2 -52.9817
f 336/834/19 335/851/19 333/832/19

v 90.8526 2 -48.0417
f 337/836/19 335/851/19 336/834/19

v 90.8526 2 -37.439
f 337/836/19 338/850/19 335/851/19

v 90.1546 2 -42.7403
f 338/850/19 337/836/19 339/837/19

vt 2.13158 0.0787402
vt 2.3421 0.0787402
vt 2.3421 0.393701
vt 2.13158 0.393701
f 339/894/74 337/895/69 311/896/69 312/897/74 

vt 3.11624 0.0787402
vt 3.32675 0.0787402
vt 3.32675 0.393701
vt 3.11624 0.393701
f 337/898/69 336/899/17 309/900/17 311/901/69 

vt 3.88135 0.0787402
vt 4.09187 0.0787402
vt 4.09187 0.393701
vt 3.88135 0.393701
f 336/902/17 333/903/34 307/904/34 309/905/17 

vt 4.37479 0.0787402
vt 4.5853 0.0787402
vt 4.5853 0.393701
vt 4.37479 0.393701
f 333/906/34 331/907/31 306/908/31 307/909/34 

vt 4.56292 0.0787402
vt 4.77343 0.0787402
vt 4.77343 0.393701
vt 4.56292 0.393701
f 331/910/31 330/911/32 305/912/32 306/913/31 

vt 4.43292 0.0787402
v 110.637 2 -63.2231
vt 4.64343 0.0787402
vn 1.83368e-015 0 1
vt 4.64343 0.393701
vt 4.43292 0.393701
f 330/914/32 340/915/82 304/916/82 305/917/32 

f 330/828/19 327/876/19 340/827/19

v 115.939 2 -62.5251
f 340/827/19 327/876/19 341/825/19

v 120.879 2 -60.4789
f 341/825/19 327/876/19 342/823/19

v 120.879 2 -25.0018
vt 4.75901 0.984321
f 342/823/19 327/876/19 343/918/19

f 326/871/19 343/918/19 327/876/19

v 115.939 2 -22.9555
f 326/871/19 344/860/19 343/918/19

v 110.637 2 -22.2576
f 326/871/19 345/859/19 344/860/19

v 105.336 2 -22.9555
f 326/871/19 346/857/19 345/859/19

f 328/873/19 346/857/19 326/871/19

f 346/857/19 328/873/19 332/855/19

f 329/874/19 332/855/19 328/873/19

vt -3.48556 0.0787402
vt -3.27504 0.0787402
vt -3.27504 0.393701
vt -3.48556 0.393701
f 346/919/35 332/920/63 317/921/63 318/922/35 

vt -2.53659 0.0787402
vt -2.32608 0.0787402
vt -2.32608 0.393701
vt -2.53659 0.393701
f 332/923/63 334/924/64 316/925/64 317/926/63 

vt -1.42193 0.0787402
vt -1.21142 0.0787402
vt -1.21142 0.393701
vt -1.42193 0.393701
f 334/927/64 335/928/24 315/929/24 316/930/64 

vt -0.217547 0.0787402
vt -0.00703275 0.0787402
vt -0.00703275 0.393701
vt -0.217547 0.393701
f 335/931/24 338/932/68 314/933/68 315/934/24 

vt 0.994491 0.0787402
vt 1.20501 0.0787402
vt 1.20501 0.393701
vt 0.994491 0.393701
f 338/935/68 339/936/74 312/937/74 314/938/68 

vt -4.20416 0.0787402
vn 5.45904e-016 0 -1
vt -3.99364 0.0787402
vt -3.99364 0.393701
vt -4.20416 0.393701
f 345/939/83 346/940/35 318/941/35 319/942/83 

vt -4.64343 0.0787402
vt -4.43292 0.0787402
vt -4.43292 0.393701
vt -4.64343 0.393701
f 344/943/2 345/944/83 319/945/83 320/946/2 

vt -4.77343 0.0787402
vt -4.56292 0.0787402
vt -4.56292 0.393701
v 120.879 10 -25.0018
vt -4.77343 0.393701
f 343/947/3 344/948/2 320/949/2 347/950/3 

f 320/860/19 321/861/19 347/918/19

v 121.887 10 -23.2548
vt 4.79872 0.915542
f 347/918/19 321/861/19 348/951/19

vt 4.55255 0
vt 4.7838 0
vt 4.7838 0.393701
vt 4.55255 0.393701
f 298/952/32 299/953/31 348/954/31 321/955/32 

vt 4.36442 0
v 126.547 0 -26.8304
vt 4.59567 0
v 126.547 10 -26.8304
vt 4.59567 0.393701
vt 4.36442 0.393701
f 299/956/31 349/957/34 350/958/34 348/959/31 

vt -4.98218 1.05632
f 299/816/1 300/817/1 349/960/1

v 126.547 0 -58.6502
vt -4.98218 2.30906
f 349/960/1 300/817/1 351/961/1

vt -2.54696 0
vt -2.31571 0
vt -2.31571 0.393701
v 126.547 10 -58.6502
vt -2.54696 0.393701
f 351/962/64 300/963/63 301/964/63 352/965/64 

v 125.121 10 -57.2238
vt 4.92602 2.25291
vt 4.98218 2.30906
f 301/824/19 353/966/19 352/967/19

f 301/824/19 302/823/19 353/966/19

vt 2.32608 0.0787402
v 125.121 2 -57.2238
vt 2.53659 0.0787402
vt 2.53659 0.393701
vt 2.32608 0.393701
f 342/968/10 354/969/9 353/970/9 302/971/10 

v 125.121 2 -28.2568
vt 4.92602 1.11247
f 342/823/19 355/972/19 354/966/19

f 342/823/19 343/918/19 355/972/19

vt -4.5853 0.0787402
vt -4.37479 0.0787402
vt -4.37479 0.393701
v 125.121 10 -28.2568
vt -4.5853 0.393701
f 355/973/4 343/974/3 347/975/3 356/976/4 

f 347/918/19 348/951/19 356/972/19

vt 4.98218 1.05632
f 356/972/19 348/951/19 350/977/19

v 128.376 10 -32.499
vt 5.05417 1.27949
f 356/972/19 350/977/19 357/978/19

v 130.123 10 -31.4903
vt 5.12295 1.23978
f 357/978/19 350/977/19 358/979/19

vt 3.87099 0
v 130.123 0 -31.4903
vt 4.10224 0
vt 4.10224 0.393701
vt 3.87099 0.393701
f 349/980/34 359/981/17 358/982/17 350/983/34 

vt -5.12295 1.23978
f 349/960/1 351/961/1 359/984/1

v 130.123 0 -53.9903
vt -5.12295 2.1256
f 359/984/1 351/961/1 360/985/1

vt -1.4323 0
vt -1.20105 0
vt -1.20105 0.393701
v 130.123 10 -53.9903
vt -1.4323 0.393701
f 360/986/24 351/987/64 352/988/64 361/989/24 

v 128.376 10 -52.9817
vt 5.05417 2.08589
vt 5.12295 2.1256
f 352/967/19 362/990/19 361/991/19

f 352/967/19 353/966/19 362/990/19

vt 1.21142 0.0787402
v 128.376 2 -52.9817
vt 1.42193 0.0787402
vt 1.42193 0.393701
vt 1.21142 0.393701
f 354/992/9 363/993/8 362/994/8 353/995/9 

f 354/966/19 355/972/19 363/990/19

v 128.376 2 -32.499
f 363/990/19 355/972/19 364/978/19

vt -4.09187 0.0787402
vt -3.88135 0.0787402
vt -3.88135 0.393701
vt -4.09187 0.393701
f 364/996/20 355/997/4 356/998/4 357/999/20 

v 130.422 2 -37.439
vt -3.32675 0.0787402
vt -3.11624 0.0787402
vt -3.11624 0.393701
v 130.422 10 -37.439
vt -3.32675 0.393701
f 365/1000/21 364/1001/20 357/1002/20 366/1003/21 

vt 5.13473 1.47398
f 363/990/19 364/978/19 365/1004/19

v 130.422 2 -48.0417
vt 5.13473 1.8914
f 363/990/19 365/1004/19 367/1005/19

v 131.12 2 -42.7403
vt 5.16221 1.68269
f 367/1005/19 365/1004/19 368/1006/19

vt -2.3421 0.0787402
vn -1 0 -5.59902e-016
vt -2.13158 0.0787402
vt -2.13158 0.393701
v 131.12 10 -42.7403
vt -2.3421 0.393701
f 368/1007/84 365/1008/21 366/1009/21 369/1010/84 

v 132.371 10 -36.9169
vt 5.21144 1.45342
f 366/1004/19 370/1011/19 369/1006/19

f 366/1004/19 358/979/19 370/1011/19

f 357/978/19 358/979/19 366/1004/19

vt 3.10587 0
v 132.371 0 -36.9169
vt 3.33712 0
vt 3.33712 0.393701
vt 3.10587 0.393701
f 359/1012/17 371/1013/69 370/1014/69 358/1015/17 

v 132.371 0 -48.5638
vt -5.21144 1.91196
vt -5.21144 1.45342
f 359/984/1 372/1016/1 371/1017/1

f 359/984/1 360/985/1 372/1016/1

vt -0.227914 0
vt 0.00333359 0
vt 0.00333359 0.393701
v 132.371 10 -48.5638
vt -0.227914 0.393701
f 372/1018/68 360/1019/24 361/1020/24 373/1021/68 

v 130.422 10 -48.0417
vt 5.21144 1.91196
f 361/991/19 374/1005/19 373/1022/19

f 361/991/19 362/990/19 374/1005/19

vt 0.00703275 0.0787402
vt 0.217547 0.0787402
vt 0.217547 0.393701
vt 0.00703275 0.393701
f 363/1023/8 367/1024/6 374/1025/6 362/1026/8 

vt -1.20501 0.0787402
vt -0.994491 0.0787402
vt -0.994491 0.393701
vt -1.20501 0.393701
f 367/1027/6 368/1028/84 369/1029/84 374/1030/6 

f 373/1022/19 374/1005/19 369/1006/19

f 373/1022/19 369/1006/19 370/1011/19

v 133.137 10 -42.7403
vt 5.24163 1.68269
f 373/1022/19 370/1011/19 375/1031/19

vt 2.12122 0
v 133.137 0 -42.7403
vt 2.35246 0
vt 2.35246 0.393701
vt 2.12122 0.393701
f 371/1032/69 376/1033/79 375/1034/79 370/1035/69 

vt -5.24163 1.68269
f 371/1017/1 372/1016/1 376/1036/1

vt 0.984125 0
vt 1.21537 0
vt 1.21537 0.393701
vt 0.984125 0.393701
f 376/1037/79 372/1038/68 373/1039/68 375/1040/79 

vt 3.27504 0.0787402
vt 3.48556 0.0787402
vt 3.48556 0.393701
vt 3.27504 0.393701
f 341/1041/11 342/1042/10 302/1043/10 303/1044/11 

vt 3.99364 0.0787402
vt 4.20416 0.0787402
vt 4.20416 0.393701
vt 3.99364 0.393701
f 340/1045/82 341/1046/11 303/1047/11 304/1048/82 

vt -4.10224 0
vt -3.87099 0
vt -3.87099 0.393701
vt -4.10224 0.393701
f 278/1049/4 280/1050/20 310/1051/20 308/1052/4 

vt -4.59567 0
vt -4.36442 0
vt -4.36442 0.393701
vt -4.59567 0.393701
f 273/1053/3 278/1054/4 308/1055/4 274/1056/3 

