============План развития==========
1. разработка первых проектов
    1.1. - Походная метео станция (ПМС)
        1.1.1. - закончить проект
        1.1.2. - составить докуметацию
        1.1.3. - ролик-презентация
        1.1.4. - упаковка с документацией
        1.1.5. - анализ рынка
        1.1.6. - собрать 5шт устройств
        1.1.7. - походить по городу, предложить на реализацию в разные магазины
        1.1.8. - отдать на реализацию Ивану (рыболовный магазин)
        1.1.9. - объявление на авито
    1.2. - Нано бот (отложен)
        1.2.1. - закончить проект
        1.2.2. - составить докуметацию
        1.2.3. - ролик-презентация
        1.2.4. - упаковка с документацией
        1.2.5. - анализ рынка
        1.2.6. - собрать 5шт устройств
        1.2.7. - походить по городу, предложить на реализацию в разные магазины
        1.2.8. - отдать на реализацию Ивану (рыболовный магазин)
        1.2.9. - объявление на авито
    1.3. - Робот шпион (камера на гусеницах)
    1.4. - Робот для эфектной съемки объектов путем вращения вокруг объекта
    1.5. - умный курятник (SCH)
        1.5.1. - закончить проект
        1.5.2. - составить докуметацию
        1.5.3. - ролик-презентация
        1.5.4. - упаковка с документацией
        1.5.5. - анализ рынка
        1.5.6. - собрать 5шт устройств
        1.5.7. - пообщаться, предложить на реализацию в разные сельхоз магазины
        1.5.8. - отдать на реализацию подавцам курятников на авито
        1.5.9. - объявление на авито
2. Создание телеграмм канала
    2.1. - продумать контент (надо хорошо продумать)
        2.1.1. - идея канала (мы педагоги разрабатываем устройства совместно с детьми)
        2.1.2. - немного несложной теории
        2.1.3. - немного исторических фактов
        2.1.4. - презентации устройств
        2.1.5. - процесс разработки устройств
        2.1.6. - заказы от 3д моделинга
        2.1.7. - испытания собственных устройств (обзоры)
    2.2. - Найти кто будет пилить контент
    2.3. - Создать телеграмм канал
    2.4. - Привлечь аудиторию (каждый по 20-50 чел знакомых)
3. Продажи
    3.1. - Авито
        3.1.1. - Доработать объявление "3Д печать"
        3.1.2. - Прикрепить ссылку на телеграмм канал
        3.1.2. - Продажи изделий которые были заказаны ранее
        3.1.4. - Продажи разработаных устройств
        3.1.5. - Разместить объявление с сылкой на ТГ-канал о разработке устройств
    3.2. - Озон
        3.2.1. - начать получать доход от продаж с авито
        3.2.2. - оформить ИП, открыть магазин на Озоне
