# Alias OBJ Model File
# Exported from SketchUp, (c) 2000-2012 Trimble Navigation Limited
# File units = millimeters

mtllib buttons.mtl

g Mesh1 Group1 Model

usemtl FrontColor
v 60.2958 5 -26.3507
vt -0.535433 0.535433
vn 0 1 -3.33067e-016
v 60.2958 5 -39.9507
vt -0.535433 0
v 46.6958 5 -39.9507
vt 0 0
v 46.6958 5 -26.3507
vt 0 0.535433
f 1/1/1 2/2/1 3/3/1 4/4/1 

vn 1 0 -0
vt 0.535433 0
v 60.2958 1 -26.3507
vt 0.535433 0.15748
v 60.2958 1 -39.9507
vt -2.22045e-016 0.15748
f 2/3/2 1/5/2 5/6/2 6/7/2 

vn 0 3.33067e-016 1
v 46.6958 1 -26.3507
vt 0 0.15748
vt -0.535433 0.15748
f 1/2/3 4/3/3 7/8/3 5/9/3 

vn -1 0 0
v 46.6958 1 -39.9507
vt 4.44089e-016 0.15748
f 4/2/4 3/3/4 8/10/4 7/9/4 

vn 2.0735e-016 -3.33067e-016 -1
vt -9.20821e-032 0.15748
f 3/3/5 2/5/5 6/6/5 8/11/5 

v 50.3958 1 -36.2507
vt 0.145669 0.145669
vn 0 -1 3.33067e-016
vt 0 -4.44089e-016
vt 0.535433 -2.22045e-016
f 9/12/6 8/13/6 6/14/6

f 8/13/6 9/12/6 7/4/6

v 50.3958 1 -30.0507
vt 0.145669 0.389764
f 10/15/6 7/4/6 9/12/6

vt 0.535433 0.535433
f 7/4/6 10/15/6 5/16/6

v 56.5958 1 -30.0507
vt 0.389764 0.389764
f 5/16/6 10/15/6 11/17/6

vt -0.389764 0.15748
vn 0 2.27417e-016 1
vt -0.145669 0.15748
v 50.3958 1.40998e-015 -30.0507
vt -0.145669 0.19685
v 56.5958 1.40998e-015 -30.0507
vt -0.389764 0.19685
f 11/18/7 10/19/7 12/20/7 13/21/7 

vn -1 -9.40929e-047 2.13983e-062
v 50.3958 0 -36.2507
f 10/18/8 9/19/8 14/20/8 12/21/8 

vt 0.145669 0.15748
vn 0 -2.27417e-016 -1
v 56.5958 1 -36.2507
vt 0.389764 0.15748
v 56.5958 0 -36.2507
vt 0.389764 0.19685
vt 0.145669 0.19685
f 9/22/9 15/23/9 16/24/9 14/25/9 

vt 0.389764 0.145669
f 9/12/6 6/14/6 15/26/6

f 15/26/6 6/14/6 11/17/6

f 5/16/6 11/17/6 6/14/6

vn 1 9.40929e-047 -2.13983e-062
f 15/22/10 11/23/10 13/24/10 16/25/10 

vn 9.40929e-047 -1 2.27417e-016
v 55.5958 1.40998e-015 -31.0507
vt 0.350394 0.350394
f 13/17/11 17/27/11 16/26/11

v 51.3958 1.40998e-015 -31.0507
vt 0.185039 0.350394
f 13/17/11 18/28/11 17/27/11

f 12/15/11 18/28/11 13/17/11

v 51.3958 0 -35.2507
vt 0.185039 0.185039
f 18/28/11 12/15/11 19/29/11

f 14/12/11 19/29/11 12/15/11

f 19/29/11 14/12/11 16/26/11

v 55.5958 0 -35.2507
vt 0.350394 0.185039
f 19/29/11 16/26/11 20/30/11

f 20/30/11 16/26/11 17/27/11

v 55.5958 3 -35.2507
vt -0.185039 0.0787402
vt -0.185039 0.19685
vt -0.350394 0.19685
v 55.5958 3 -31.0507
vt -0.350394 0.0787402
f 21/31/4 20/32/4 17/33/4 22/34/4 

v 51.3958 3 -35.2507
vn -6.0536e-046 1.00713e-015 1
f 23/31/12 19/32/12 20/33/12 21/34/12 

v 51.3958 3 -31.0507
vt 0.350394 0.0787402
vt 0.350394 0.19685
vt 0.185039 0.19685
vt 0.185039 0.0787402
f 24/35/2 18/36/2 19/37/2 23/38/2 

vn 2.12992e-032 -1.00713e-015 -1
f 22/35/13 17/36/13 18/37/13 24/38/13 

vn 0 -1 3.3571e-016
f 21/30/14 22/27/14 24/28/14 23/29/14 

g Mesh2 Difference Model

v 73.994 5 -33.1507
vt 0.596278 0
vn 1 -9.35531e-031 2.40758e-015
v 73.2956 5 -27.8453
vt 0.806952 0
vn 0.965926 -1.00571e-016 0.258819
v 73.2956 1 -27.8453
vt 0.806952 0.15748
v 73.994 1 -33.1507
vt 0.596278 0.15748
f 25/39/15 26/40/16 27/41/16 28/42/15 

v 73.2956 5 -38.456
vt -1.59448 0.606089
vn 0 1 3.88578e-016
vt -1.59448 1.02383
vt -1.62198 0.814961
f 29/43/17 26/44/17 25/45/17

v 71.2478 5 -43.3998
vt -1.51386 0.411451
f 30/46/17 26/44/17 29/43/17

v 71.2478 5 -22.9015
vt -1.51386 1.21847
f 30/46/17 31/47/17 26/44/17

v 69.3617 5 -33.6108
vt -1.4396 0.796844
f 30/46/17 32/48/17 31/47/17

v 68.113 5 -47.4851
vt -1.39044 0.250613
f 33/49/17 32/48/17 30/46/17

v 66.1203 5 -33.6108
vt -1.31199 0.796844
f 33/49/17 34/50/17 32/48/17

v 60.8958 5 -40.2678
vt -1.1063 0.534758
f 34/50/17 33/49/17 35/51/17

vt 0.404141 0
vn -0.707107 2.74766e-016 -0.707107
vt 0.805982 0
v 68.113 1 -47.4851
vt 0.805982 0.15748
v 60.8958 1 -40.2678
vt 0.404141 0.15748
f 35/52/18 33/53/18 36/54/18 37/55/18 

vt 1.04527 0
vn 0.793353 2.36551e-016 -0.608761
vt 1.24801 0
vn 0.866025 1.94289e-016 -0.5
v 71.2478 1 -43.3998
vt 1.24801 0.15748
vt 1.04527 0.15748
f 33/56/19 30/57/20 38/58/20 36/59/19 

vt 0.95946 0
vt 1.17013 0
vn 0.965926 1.00571e-016 -0.258819
v 73.2956 1 -38.456
vt 1.17013 0.15748
vt 0.95946 0.15748
f 30/60/20 29/61/21 39/62/21 38/63/20 

vt 0.809025 0
vt 1.0197 0
vt 1.0197 0.15748
vt 0.809025 0.15748
f 29/64/21 25/65/15 28/66/15 39/67/21 

vt 1.59448 1.02383
vn 0 -1 -3.88578e-016
vt 1.59448 0.606089
vt 1.62198 0.814961
f 27/68/22 39/69/22 28/70/22

v 71.2478 1 -22.9015
vt 1.51386 1.21847
f 40/71/22 39/69/22 27/68/22

vt 1.51386 0.411451
f 40/71/22 38/72/22 39/69/22

v 70.4958 1 -30.1507
vt 1.48425 0.933071
f 40/71/22 41/73/22 38/72/22

v 68.113 1 -18.8162
vt 1.39044 1.37931
f 42/74/22 41/73/22 40/71/22

v 64.4958 1 -30.1507
vt 1.24803 0.933071
f 42/74/22 43/75/22 41/73/22

v 60.8958 1 -26.0335
vt 1.1063 1.09516
f 44/76/22 43/75/22 42/74/22

v 64.4958 1 -36.1507
vt 1.24803 0.69685
f 43/75/22 44/76/22 45/77/22

vt 1.39044 0.250613
f 44/76/22 36/78/22 45/77/22

vt 1.1063 0.534758
f 36/78/22 44/76/22 37/79/22

v 60.8958 5 -26.0335
vt -1.09516 0
vn -1 -0 -0
vt -0.534758 0
vt -0.534758 0.15748
vt -1.09516 0.15748
f 46/80/23 35/81/23 37/82/23 44/83/23 

v 68.113 5 -18.8162
vt -1.39044 1.37931
vt -1.1063 1.09516
f 47/84/17 35/51/17 46/85/17

v 66.1203 5 -32.5706
vt -1.31199 0.837798
f 35/51/17 47/84/17 48/86/17

v 69.3617 5 -32.5706
vt -1.4396 0.837798
f 48/86/17 47/84/17 49/87/17

f 49/87/17 47/84/17 31/47/17

vt 0.0450981 0
vn 0.866025 -1.94289e-016 0.5
vt 0.24783 0
vn 0.793353 -2.36551e-016 0.608761
vt 0.24783 0.15748
vt 0.0450981 0.15748
f 31/88/24 47/89/25 42/90/25 40/91/24 

vt -1.95851 0
vn -0.707107 -2.74766e-016 0.707107
vt -1.55667 0
vt -1.55667 0.15748
vt -1.95851 0.15748
f 47/92/26 46/93/26 44/94/26 42/95/26 

vt 0.335716 0
vt 0.546391 0
vt 0.546391 0.15748
vt 0.335716 0.15748
f 26/96/16 31/97/24 40/98/24 27/99/16 

f 49/87/17 31/47/17 32/48/17

vt -0.837798 0
vt -0.796844 0
v 69.3617 4.5 -33.6108
vt -0.796844 0.019685
v 69.3617 4.5 -32.5706
vt -0.837798 0.019685
f 49/100/23 32/101/23 50/102/23 51/103/23 

vt -1.4396 3.59532e-014
vn 0 4.47309e-014 1
vt -1.31199 3.59532e-014
v 66.1203 4.5 -33.6108
vt -1.31199 0.019685
vt -1.4396 0.019685
f 32/104/27 34/105/27 52/106/27 50/107/27 

vt 0.796844 -2.95982e-014
vn 1 -2.25597e-014 -1.08436e-014
vt 0.837798 -2.95982e-014
v 66.1203 4.5 -32.5706
vt 0.837798 0.019685
vt 0.796844 0.019685
f 34/108/28 48/109/28 53/110/28 52/111/28 

f 35/51/17 48/86/17 34/50/17

vt 1.31199 1.89005e-014
vn -9.46103e-032 -2.21712e-014 -1
vt 1.4396 1.89005e-014
vt 1.4396 0.019685
vt 1.31199 0.019685
f 48/112/29 49/113/29 51/114/29 53/115/29 

f 50/48/17 52/50/17 53/86/17 51/87/17 

v 70.4958 1 -36.1507
vt 1.48425 0.69685
f 45/77/22 36/78/22 54/116/22

f 54/116/22 36/78/22 38/72/22

f 54/116/22 38/72/22 41/73/22

vt 0.69685 0.15748
vt 0.933071 0.15748
v 70.4958 3.94795e-014 -30.1507
vt 0.933071 0.19685
v 70.4958 4.22995e-014 -36.1507
vt 0.69685 0.19685
f 54/117/2 41/118/2 55/119/2 56/120/2 

vt -1.48425 0.15748
vn 0 -5.87493e-016 1
vt -1.24803 0.15748
v 64.4958 3.94795e-014 -30.1507
vt -1.24803 0.19685
vt -1.48425 0.19685
f 41/121/30 43/122/30 57/123/30 55/124/30 

vt -0.933071 0.15748
vt -0.69685 0.15748
v 64.4958 4.22995e-014 -36.1507
vt -0.69685 0.19685
vt -0.933071 0.19685
f 43/125/23 45/126/23 58/127/23 57/128/23 

vt 1.24803 0.15748
vn 0 5.87493e-016 -1
vt 1.48425 0.15748
vt 1.48425 0.19685
vt 1.24803 0.19685
f 45/129/31 54/130/31 56/131/31 58/132/31 

v 65.4958 4.22995e-014 -35.1507
vt 1.2874 0.73622
vn 0 -1 -5.87493e-016
f 59/133/32 58/77/32 56/116/32

f 58/77/32 59/133/32 57/75/32

v 65.4958 3.94795e-014 -31.1507
vt 1.2874 0.893701
f 60/134/32 57/75/32 59/133/32

f 57/75/32 60/134/32 55/73/32

v 69.4958 3.94795e-014 -31.1507
vt 1.44488 0.893701
f 55/73/32 60/134/32 61/135/32

v 69.4958 3 -31.1507
vt 1.44488 0.0787402
vn 2.81789e-032 1.20856e-015 -1
vt 1.44488 0.19685
vt 1.2874 0.19685
v 65.4958 3 -31.1507
vt 1.2874 0.0787402
f 62/136/33 61/137/33 60/138/33 63/139/33 

v 69.4958 3 -35.1507
vt -0.73622 0.0787402
v 69.4958 4.22995e-014 -35.1507
vt -0.73622 0.19685
vt -0.893701 0.19685
vt -0.893701 0.0787402
f 64/140/23 65/141/23 61/142/23 62/143/23 

v 65.4958 3 -35.1507
vt -1.2874 0.0787402
vn 1.60178e-045 -1.20856e-015 1
vt -1.2874 0.19685
vt -1.44488 0.19685
vt -1.44488 0.0787402
f 66/144/34 59/145/34 65/146/34 64/147/34 

vt 0.893701 0.0787402
vt 0.893701 0.19685
vt 0.73622 0.19685
vt 0.73622 0.0787402
f 63/148/2 60/149/2 59/150/2 66/151/2 

vt 1.44488 0.73622
f 64/152/22 62/135/22 63/134/22 66/133/22 

f 59/133/32 56/116/32 65/152/32

f 65/152/32 56/116/32 61/135/32

f 55/73/32 61/135/32 56/116/32

g Mesh3 Difference Model

v 46.3786 1 -25.7507
vt 0.534758 1.1063
v 43.2466 1 -15.3987
vt 0.411451 1.51386
v 39.1613 1 -18.5334
vt 0.250613 1.39044
f 67/153/22 68/154/22 69/155/22

v 48.1904 1 -13.3509
vt 0.606089 1.59448
f 68/154/22 67/153/22 70/156/22

v 50.4958 1 -22.1507
vt 0.69685 1.24803
f 70/156/22 67/153/22 71/157/22

v 60.6129 1 -25.7507
vt 1.09516 1.1063
f 71/157/22 67/153/22 72/158/22

v 46.3786 5 -25.7507
vt 0.534758 0
vn 0 3.88578e-016 -1
v 60.6129 5 -25.7507
vt 1.09516 0
vt 1.09516 0.15748
vt 0.534758 0.15748
f 73/159/35 74/160/35 72/161/35 67/162/35 

vt -0.534758 1.1063
v 49.9744 5 -20.9558
vt -0.676323 1.29507
vt -1.09516 1.1063
f 73/163/17 75/164/17 74/165/17

v 48.1904 5 -13.3509
vt -0.606089 1.59448
f 73/163/17 76/166/17 75/164/17

v 43.2466 5 -15.3987
vt -0.411451 1.51386
f 73/163/17 77/167/17 76/166/17

v 39.1613 5 -18.5334
vt -0.250613 1.39044
f 77/167/17 73/163/17 78/168/17

vt -0.805982 0
vt -0.404141 0
vt -0.404141 0.15748
vt -0.805982 0.15748
f 78/169/18 73/170/18 67/171/18 69/172/18 

vt -1.24801 0
vn -0.5 -3.36518e-016 0.866025
vt -1.04527 0
vn -0.608761 -3.0828e-016 0.793353
vt -1.04527 0.15748
vt -1.24801 0.15748
f 77/173/36 78/174/37 69/175/37 68/176/36 

vt -1.17013 0
vn -0.258819 -3.75338e-016 0.965926
vt -0.95946 0
vt -0.95946 0.15748
vt -1.17013 0.15748
f 76/177/38 77/178/36 68/179/36 70/180/38 

v 53.4958 5 -12.6524
vt -1.0197 0
vn -3.77934e-016 -3.88578e-016 1
vt -0.809025 0
vt -0.809025 0.15748
v 53.4958 1 -12.6524
vt -1.0197 0.15748
f 79/181/39 76/182/38 70/183/38 80/184/39 

vt -0.814961 1.62198
f 79/185/17 75/164/17 76/166/17

v 53.1295 5 -16.3179
vt -0.800543 1.47767
f 75/164/17 79/185/17 81/186/17

v 53.8537 5 -16.3179
vt -0.829052 1.47767
f 81/186/17 79/185/17 82/187/17

v 58.8011 5 -13.3509
vt -1.02383 1.59448
f 82/187/17 79/185/17 83/188/17

vt -0.806952 0
vn 0.258819 -3.75338e-016 0.965926
vt -0.596278 0
vt -0.596278 0.15748
v 58.8011 1 -13.3509
vt -0.806952 0.15748
f 83/189/40 79/190/39 80/191/39 84/192/40 

vt 0.814961 1.62198
v 56.4958 1 -16.1507
vt 0.933071 1.48425
vt 1.02383 1.59448
f 80/193/22 85/194/22 84/195/22

v 50.4958 1 -16.1507
vt 0.69685 1.48425
f 80/193/22 86/196/22 85/194/22

f 70/156/22 86/196/22 80/193/22

f 86/196/22 70/156/22 71/157/22

v 50.4958 3.73646e-014 -22.1507
v 50.4958 3.52496e-014 -16.1507
f 86/121/23 71/122/23 87/123/23 88/124/23 

vn 0 2.34997e-016 -1
v 56.4958 1 -22.1507
v 56.4958 3.73646e-014 -22.1507
f 71/117/41 89/118/41 90/119/41 87/120/41 

vt 0.933071 1.24803
f 71/157/22 72/158/22 89/197/22

f 89/197/22 72/158/22 85/194/22

f 85/194/22 72/158/22 84/195/22

v 63.7449 1 -15.3987
vt 1.21847 1.51386
f 84/195/22 72/158/22 91/198/22

v 67.8302 1 -18.5334
vt 1.37931 1.39044
f 91/198/22 72/158/22 92/199/22

vt 1.55667 0
vn 0.707107 2.74766e-016 -0.707107
v 67.8302 5 -18.5334
vt 1.95851 0
vt 1.95851 0.15748
vt 1.55667 0.15748
f 74/200/42 93/201/42 92/202/42 72/203/42 

v 63.7449 5 -15.3987
vt -1.21847 1.51386
vt -1.37931 1.39044
f 74/165/17 94/204/17 93/205/17

f 74/165/17 83/188/17 94/204/17

v 57.0089 5 -20.9443
vt -0.953271 1.29553
f 74/165/17 95/206/17 83/188/17

v 55.8709 5 -20.9443
vt -0.908471 1.29553
f 74/165/17 96/207/17 95/206/17

v 51.1066 5 -20.9558
vt -0.720897 1.29507
f 74/165/17 97/208/17 96/207/17

f 74/165/17 75/164/17 97/208/17

vt -0.720897 0
vn 0 -3.88578e-016 1
vt -0.676323 0
v 49.9744 4.5 -20.9558
vt -0.676323 0.019685
v 51.1066 4.5 -20.9558
vt -0.720897 0.019685
f 97/209/43 75/210/43 98/211/43 99/212/43 

vt 1.4512 3.17162e-015
vn 0.826812 -1.85197e-014 -0.562478
vt 1.67204 3.17162e-015
v 53.1295 4.5 -16.3179
vt 1.67204 0.019685
vt 1.4512 0.019685
f 75/213/44 81/214/44 100/215/44 98/216/44 

vt 0.800543 1.66679e-014
vn -7.78848e-015 -1.08913e-014 -1
vt 0.829052 1.66679e-014
v 53.8537 4.5 -16.3179
vt 0.829052 0.019685
vt 0.800543 0.019685
f 81/217/45 82/218/45 101/219/45 100/220/45 

vt -0.753681 1.93773e-014
vn -0.826162 -1.25503e-014 -0.563432
vt -0.533212 1.93773e-014
v 57.0089 4.5 -20.9443
vt -0.533212 0.019685
vt -0.753681 0.019685
f 82/221/46 95/222/46 102/223/46 101/224/46 

f 82/187/17 83/188/17 95/206/17

vt -0.953271 2.92267e-014
vn 0 2.21712e-014 1
vt -0.908471 2.92267e-014
v 55.8709 4.5 -20.9443
vt -0.908471 0.019685
vt -0.953271 0.019685
f 95/225/47 96/226/47 103/227/47 102/228/47 

vt 0.576739 -1.82439e-014
vn 0.833074 -1.25966e-014 0.553161
v 53.4859 5 -17.3523
vt 0.746491 -1.82439e-014
v 53.4859 4.5 -17.3523
vt 0.746491 0.019685
vt 0.576739 0.019685
f 96/229/48 104/230/48 105/231/48 103/232/48 

vt -0.814571 1.43694
f 96/207/17 97/208/17 104/233/17

vt -1.64796 1.58293e-017
vn -0.834499 -7.27887e-017 0.551009
vt -1.47796 1.58293e-017
vt -1.47796 0.019685
vt -1.64796 0.019685
f 104/234/49 97/235/49 99/236/49 105/237/49 

f 102/206/17 103/207/17 105/233/17 99/208/17 98/164/17 100/186/17 101/187/17 

vt -0.546391 0
vn 0.5 -3.36518e-016 0.866025
vt -0.335716 0
vt -0.335716 0.15748
vt -0.546391 0.15748
f 94/238/50 83/239/40 84/240/40 91/241/50 

vt -0.24783 0
vn 0.608761 -3.0828e-016 0.793353
vt -0.0450981 0
vt -0.0450981 0.15748
vt -0.24783 0.15748
f 93/242/51 94/243/50 91/244/50 92/245/51 

v 56.4958 3.52496e-014 -16.1507
f 89/129/2 85/130/2 106/131/2 90/132/2 

vn 0 -2.34997e-016 1
f 85/125/52 86/126/52 88/127/52 106/128/52 

vn 0 -1 -2.34997e-016
v 51.4958 3.52496e-014 -17.1507
vt 0.73622 1.44488
f 88/196/53 107/246/53 106/194/53

v 51.4958 3.66596e-014 -21.1507
vt 0.73622 1.2874
f 107/246/53 88/196/53 108/247/53

f 87/157/53 108/247/53 88/196/53

f 108/247/53 87/157/53 90/197/53

v 55.4958 3.66596e-014 -21.1507
vt 0.893701 1.2874
f 108/247/53 90/197/53 109/248/53

v 55.4958 3.52496e-014 -17.1507
vt 0.893701 1.44488
f 109/248/53 90/197/53 110/249/53

f 106/194/53 110/249/53 90/197/53

f 106/194/53 107/246/53 110/249/53

v 55.4958 3 -17.1507
vn 0 -2.01426e-015 -1
v 51.4958 3 -17.1507
f 111/148/54 110/149/54 107/150/54 112/151/54 

v 55.4958 3 -21.1507
f 113/144/23 109/145/23 110/146/23 111/147/23 

v 51.4958 3 -21.1507
vn -4.69648e-032 2.01426e-015 1
f 114/140/55 108/141/55 109/142/55 113/143/55 

f 112/136/2 107/137/2 108/138/2 114/139/2 

f 113/248/22 111/249/22 112/246/22 114/247/22 

g Mesh4 Difference Model

v 42.0436 4.5 -33.9862
vt -0.364088 0.782067
v 39.1413 4.5 -33.9862
vt -0.249824 0.782067
v 39.1413 4.5 -36.8885
vt -0.249824 0.667803
v 38.1873 4.5 -36.8885
vt -0.212264 0.667803
v 38.1873 4.5 -33.9862
vt -0.212264 0.782067
v 35.285 4.5 -33.9862
vt -0.0980003 0.782067
v 35.285 4.5 -33.0666
vt -0.0980003 0.818269
v 38.1873 4.5 -33.0666
vt -0.212264 0.818269
v 38.1873 4.5 -30.1643
vt -0.212264 0.932533
v 39.1413 4.5 -30.1643
vt -0.249824 0.932533
v 39.1413 4.5 -33.0666
vt -0.249824 0.818269
v 42.0436 4.5 -33.0666
vt -0.364088 0.818269
f 115/250/17 116/251/17 117/252/17 118/253/17 119/254/17 120/255/17 121/256/17 122/257/17 123/258/17 124/259/17 125/260/17 126/261/17 

v 42.0436 5 -33.9862
vt -0.364088 -1.78097e-014
vn 0 -2.29483e-014 1
v 39.1413 5 -33.9862
vt -0.249824 -1.78097e-014
vt -0.249824 0.019685
vt -0.364088 0.019685
f 127/262/56 128/263/56 116/264/56 115/265/56 

v 46.0958 5 -40.2678
vt -0.523622 0.534758
f 129/266/17 128/251/17 127/250/17

v 39.1413 5 -36.8885
f 129/266/17 130/252/17 128/251/17

v 38.8785 5 -47.4851
vt -0.239477 0.250613
f 131/267/17 130/252/17 129/266/17

v 38.1873 5 -36.8885
f 131/267/17 132/253/17 130/252/17

v 35.7437 5 -43.3998
vt -0.116062 0.411451
f 133/268/17 132/253/17 131/267/17

v 38.1873 5 -33.9862
f 133/268/17 134/254/17 132/253/17

v 35.285 5 -33.9862
f 133/268/17 135/255/17 134/254/17

v 33.6959 5 -38.456
vt -0.0354405 0.606089
f 136/269/17 135/255/17 133/268/17

v 35.285 5 -33.0666
f 135/255/17 136/269/17 137/256/17

v 35.7437 5 -22.9015
vt -0.116062 1.21847
f 136/269/17 138/270/17 137/256/17

v 33.6959 5 -27.8453
vt -0.0354405 1.02383
f 136/269/17 139/271/17 138/270/17

v 32.9975 5 -33.1507
vt -0.00794196 0.814961
f 139/271/17 136/269/17 140/272/17

vn -1 3.753e-031 -9.6583e-016
vn -0.965926 1.00571e-016 -0.258819
v 33.6959 1 -38.456
v 32.9975 1 -33.1507
f 140/189/57 136/190/58 141/191/58 142/192/57 

vn -0.866025 1.94289e-016 -0.5
v 35.7437 1 -43.3998
f 136/238/58 133/239/59 143/240/59 141/241/58 

vt -0.255772 0
vt -0.05304 0
vn -0.793353 2.36551e-016 -0.608761
v 38.8785 1 -47.4851
vt -0.05304 0.15748
vt -0.255772 0.15748
f 133/273/59 131/274/60 144/275/60 143/276/59 

vt 0.346546 0
vt 0.748387 0
v 46.0958 1 -40.2678
vt 0.748387 0.15748
vt 0.346546 0.15748
f 131/277/42 129/278/42 145/279/42 144/280/42 

v 46.0958 5 -26.0335
v 46.0958 1 -26.0335
f 129/159/2 146/160/2 147/161/2 145/162/2 

vt -0.523622 1.09516
f 129/266/17 127/250/17 146/281/17

v 42.0436 5 -33.0666
f 148/261/17 146/281/17 127/250/17

v 39.1413 5 -30.1643
f 149/259/17 146/281/17 148/261/17

v 38.8785 5 -18.8162
vt -0.239477 1.37931
f 149/259/17 150/282/17 146/281/17

v 38.1873 5 -30.1643
f 151/258/17 150/282/17 149/259/17

f 150/282/17 151/258/17 138/270/17

v 38.1873 5 -33.0666
f 152/257/17 138/270/17 151/258/17

f 137/256/17 138/270/17 152/257/17

vt 0.0980003 -9.22997e-015
vn 1.94326e-015 1.16684e-014 -1
vt 0.212264 -9.22997e-015
vt 0.212264 0.019685
vt 0.0980003 0.019685
f 137/283/61 152/284/61 122/285/61 121/286/61 

vt 0.818269 0
vt 0.932533 0
vt 0.932533 0.019685
vt 0.818269 0.019685
f 152/287/2 151/288/2 123/289/2 122/290/2 

vt 0.212264 -1.05188e-014
vn 5.91174e-015 1.16684e-014 -1
vt 0.249824 -1.05188e-014
vt 0.249824 0.019685
f 151/291/62 149/292/62 124/293/62 123/285/62 

vt -0.932533 5.63596e-015
vn -1 -2.25597e-014 3.88653e-015
v 39.1413 5 -33.0666
vt -0.818269 5.63596e-015
vt -0.818269 0.019685
vt -0.932533 0.019685
f 149/294/63 153/295/63 125/296/63 124/297/63 

f 148/261/17 153/260/17 149/259/17

vt 0.249824 -9.22997e-015
vt 0.364088 -9.22997e-015
vt 0.364088 0.019685
f 153/298/61 148/299/61 126/300/61 125/293/61 

vt -0.818269 0
vt -0.782067 -1.66533e-016
vt -0.782067 0.019685
f 148/301/23 127/302/23 115/303/23 126/296/23 

vt 0.782067 2.04433e-015
vn 1 2.25597e-014 1.22669e-014
vt 0.818269 2.21086e-015
vt 0.782067 0.019685
f 135/304/64 137/305/64 121/290/64 120/306/64 

vt -0.212264 -8.98814e-015
vn 1.94326e-015 -1.16684e-014 1
vt -0.0980003 -8.98814e-015
vt -0.0980003 0.019685
vt -0.212264 0.019685
f 134/307/65 135/308/65 120/309/65 119/310/65 

vt 0.667803 0
vt 0.782067 -1.66533e-016
vt 0.667803 0.019685
f 132/311/2 134/312/2 119/306/2 118/313/2 

vt -0.249824 0
vt -0.212264 0
f 130/314/43 132/315/43 118/310/43 117/264/43 

vt -0.782067 5.46943e-015
vt -0.667803 5.63596e-015
vt -0.667803 0.019685
f 128/316/63 130/317/63 117/318/63 116/303/63 

vt -1.24006 0
vn -0.793353 -2.36551e-016 0.608761
vt -1.03733 0
vn -0.866025 -1.94289e-016 0.5
v 35.7437 1 -22.9015
vt -1.03733 0.15748
v 38.8785 1 -18.8162
vt -1.24006 0.15748
f 150/319/66 138/320/67 154/321/67 155/322/66 

vn -0.965926 -1.00571e-016 0.258819
v 33.6959 1 -27.8453
f 138/177/67 139/178/68 156/179/68 154/180/67 

f 139/181/68 140/182/57 142/183/57 156/184/68 

vt 0.0354405 0.606089
vt 0.0354405 1.02383
vt 0.00794196 0.814961
f 141/323/22 156/324/22 142/325/22

vt 0.116062 0.411451
f 156/324/22 141/323/22 143/326/22

vt 0.116062 1.21847
f 156/324/22 143/326/22 154/327/22

v 36.4958 1 -36.1507
vt 0.145669 0.69685
f 154/327/22 143/326/22 157/328/22

vt 0.239477 0.250613
f 157/328/22 143/326/22 144/329/22

v 42.4958 1 -36.1507
vt 0.38189 0.69685
f 157/328/22 144/329/22 158/330/22

vt 0.523622 0.534758
f 158/330/22 144/329/22 145/331/22

v 42.4958 1 -30.1507
vt 0.38189 0.933071
f 158/330/22 145/331/22 159/332/22

vt 0.523622 1.09516
f 147/333/22 159/332/22 145/331/22

vt 0.239477 1.37931
f 155/334/22 159/332/22 147/333/22

v 36.4958 1 -30.1507
vt 0.145669 0.933071
f 155/334/22 160/335/22 159/332/22

f 154/327/22 160/335/22 155/334/22

f 160/335/22 154/327/22 157/328/22

v 36.4958 3.94795e-014 -36.1507
v 36.4958 3.66596e-014 -30.1507
f 160/125/23 157/126/23 161/127/23 162/128/23 

vt 0.38189 0.15748
v 42.4958 3.94795e-014 -36.1507
vt 0.38189 0.19685
f 157/22/31 158/336/31 163/337/31 161/25/31 

v 42.4958 3.66596e-014 -30.1507
f 158/117/2 159/118/2 164/119/2 163/120/2 

vt -0.38189 0.15748
vt -0.38189 0.19685
f 159/338/30 160/19/30 162/20/30 164/339/30 

v 37.4958 3.66596e-014 -31.1507
vt 0.185039 0.893701
f 162/335/32 165/340/32 164/332/32

v 37.4958 3.94795e-014 -35.1507
vt 0.185039 0.73622
f 165/340/32 162/335/32 166/341/32

f 161/328/32 166/341/32 162/335/32

f 166/341/32 161/328/32 163/330/32

v 41.4958 3.94795e-014 -35.1507
vt 0.34252 0.73622
f 166/341/32 163/330/32 167/342/32

v 41.4958 3.66596e-014 -31.1507
vt 0.34252 0.893701
f 167/342/32 163/330/32 168/343/32

f 164/332/32 168/343/32 163/330/32

f 164/332/32 165/340/32 168/343/32

v 41.4958 3 -31.1507
vt 0.34252 0.0787402
vn 4.69648e-032 2.01426e-015 -1
vt 0.34252 0.19685
v 37.4958 3 -31.1507
f 169/344/69 168/345/69 165/37/69 170/38/69 

v 41.4958 3 -35.1507
f 171/140/23 167/141/23 168/142/23 169/143/23 

v 37.4958 3 -35.1507
vn -4.69648e-032 -2.01426e-015 1
vt -0.34252 0.19685
vt -0.34252 0.0787402
f 172/31/70 166/32/70 167/346/70 171/347/70 

f 170/148/2 165/149/2 166/150/2 172/151/2 

f 171/342/22 169/343/22 170/340/22 172/341/22 

vn 0.707107 -2.74766e-016 0.707107
f 146/52/71 150/53/71 155/54/71 147/55/71 

g Mesh5 Difference Model

v 63.7449 5 -50.9027
vt 1.03733 0
vn 0.5 3.36518e-016 -0.866025
v 67.8302 5 -47.7679
vt 1.24006 0
vn 0.608761 3.0828e-016 -0.793353
v 67.8302 1 -47.7679
vt 1.24006 0.15748
v 63.7449 1 -50.9027
vt 1.03733 0.15748
f 173/348/72 174/349/73 175/350/73 176/351/72 

vt -1.21847 0.116062
v 60.6129 5 -40.5507
vt -1.09516 0.523622
vt -1.37931 0.239477
f 173/352/17 177/353/17 174/354/17

v 58.8011 5 -52.9505
vt -1.02383 0.0354405
f 178/355/17 177/353/17 173/352/17

v 57.0089 5 -45.8566
vt -0.953271 0.314729
f 179/356/17 177/353/17 178/355/17

v 55.8767 5 -45.8566
vt -0.908697 0.314729
f 180/357/17 177/353/17 179/356/17

v 51.1123 5 -45.868
vt -0.721124 0.314277
f 181/358/17 177/353/17 180/357/17

v 49.9744 5 -45.868
vt -0.676323 0.314277
f 182/359/17 177/353/17 181/358/17

v 46.3786 5 -40.5507
vt -0.534758 0.523622
f 182/359/17 183/360/17 177/353/17

v 48.1904 5 -52.9505
vt -0.606089 0.0354405
f 184/361/17 183/360/17 182/359/17

v 43.2466 5 -50.9027
vt -0.411451 0.116062
f 185/362/17 183/360/17 184/361/17

v 39.1613 5 -47.7679
vt -0.250613 0.239477
f 183/360/17 185/362/17 186/363/17

vt 0.05304 0
vn -0.608761 3.0828e-016 -0.793353
vt 0.255772 0
vn -0.5 3.36518e-016 -0.866025
v 43.2466 1 -50.9027
vt 0.255772 0.15748
v 39.1613 1 -47.7679
vt 0.05304 0.15748
f 186/364/74 185/365/75 187/366/75 188/367/74 

vn -0.258819 3.75338e-016 -0.965926
v 48.1904 1 -52.9505
f 185/96/75 184/97/76 189/98/76 187/99/75 

vt 0.596278 -1.68985e-032
v 53.4958 5 -53.649
vt 0.806952 -1.68985e-032
vn 1.39975e-017 3.88578e-016 -1
v 53.4958 1 -53.649
f 184/368/76 190/369/77 191/41/77 189/42/76 

vt -0.814961 0.00794196
f 182/359/17 190/370/17 184/361/17

v 53.1295 5 -50.4945
vt -0.800543 0.132134
f 190/370/17 182/359/17 192/371/17

vt -0.341888 -3.21945e-014
vn 0.826162 -4.39718e-014 0.563432
vt -0.121419 -3.21945e-014
v 49.9744 4.5 -45.868
vt -0.121419 0.019685
v 53.1295 4.5 -50.4945
vt -0.341888 0.019685
f 192/372/78 182/373/78 193/374/78 194/375/78 

vt 0.676323 -3.545e-015
vn 4.9563e-015 1.16684e-014 -1
vt 0.721124 -3.545e-015
v 51.1123 4.5 -45.868
vt 0.721124 0.019685
vt 0.676323 0.019685
f 182/376/79 181/377/79 195/378/79 193/379/79 

vt 0.137082 -3.86592e-014
vn -0.833074 5.01239e-014 -0.553161
v 53.4974 5 -49.46
vt 0.306833 -3.86592e-014
v 53.4974 4.5 -49.46
vt 0.306833 0.019685
vt 0.137082 0.019685
f 181/380/80 196/381/80 197/382/80 195/383/80 

vt -0.815023 0.172861
f 181/358/17 180/357/17 196/384/17

vt 0.593338 -2.56763e-014
vn 0.834499 -4.36855e-014 -0.551009
vt 0.763342 -2.56763e-014
v 55.8767 4.5 -45.8566
vt 0.763342 0.019685
vt 0.593338 0.019685
f 196/385/81 180/386/81 198/387/81 197/388/81 

vt 0.908697 2.12091e-028
vn 9.96293e-015 3.88578e-016 -1
vt 0.953271 2.12091e-028
v 57.0089 4.5 -45.8566
vt 0.953271 0.019685
vt 0.908697 0.019685
f 180/389/82 179/390/82 199/391/82 198/392/82 

vt -0.796416 -4.93719e-014
vn -0.826812 8.0567e-014 0.562478
v 53.8537 5 -50.4945
vt -0.575573 -4.93719e-014
v 53.8537 4.5 -50.4945
vt -0.575573 0.019685
vt -0.796416 0.019685
f 179/393/83 200/394/83 201/395/83 199/396/83 

vt -0.829052 0.132134
f 178/355/17 200/397/17 179/356/17

f 190/370/17 200/397/17 178/355/17

f 190/370/17 192/371/17 200/397/17

vt -0.829052 1.49045e-015
vn 7.78848e-015 1.08913e-014 1
vt -0.800543 1.49045e-015
vt -0.800543 0.019685
vt -0.829052 0.019685
f 200/398/84 192/399/84 194/400/84 201/401/84 

f 193/359/17 195/358/17 197/384/17 198/357/17 199/356/17 201/397/17 194/371/17 

vn 0.258819 3.75338e-016 -0.965926
v 58.8011 1 -52.9505
f 190/64/77 178/65/85 202/66/85 191/67/77 

f 178/60/85 173/61/72 176/62/72 202/63/85 

v 60.6129 1 -40.5507
vt 1.09516 0.523622
vt 1.02383 0.0354405
vt 1.21847 0.116062
f 203/402/22 202/403/22 176/404/22

v 56.4958 1 -44.1507
vt 0.933071 0.38189
f 203/402/22 204/405/22 202/403/22

v 50.4958 1 -44.1507
vt 0.69685 0.38189
f 203/402/22 205/406/22 204/405/22

v 46.3786 1 -40.5507
vt 0.534758 0.523622
f 206/407/22 205/406/22 203/402/22

vt 0.606089 0.0354405
f 206/407/22 189/408/22 205/406/22

vt 0.411451 0.116062
f 206/407/22 187/409/22 189/408/22

vt 0.250613 0.239477
f 187/409/22 206/407/22 188/410/22

vt -0.748387 0
vt -0.346546 0
vt -0.346546 0.15748
vt -0.748387 0.15748
f 183/411/26 186/412/26 188/413/26 206/414/26 

f 177/80/43 183/81/43 206/82/43 203/83/43 

f 174/169/71 177/170/71 203/171/71 175/172/71 

vt 1.37931 0.239477
f 203/402/22 176/404/22 175/415/22

v 50.4958 1 -50.1507
vt 0.69685 0.145669
f 205/406/22 189/408/22 207/416/22

vt 0.814961 0.00794196
f 191/417/22 207/416/22 189/408/22

v 56.4958 1 -50.1507
vt 0.933071 0.145669
f 207/416/22 191/417/22 208/418/22

f 208/418/22 191/417/22 202/403/22

f 208/418/22 202/403/22 204/405/22

v 56.4958 4.58245e-014 -44.1507
v 56.4958 4.79394e-014 -50.1507
f 208/22/2 204/336/2 209/337/2 210/25/2 

vn 0 -4.69994e-016 1
v 50.4958 4.58245e-014 -44.1507
f 204/125/86 205/126/86 211/127/86 209/128/86 

v 50.4958 4.79394e-014 -50.1507
f 205/338/23 207/19/23 212/20/23 211/339/23 

vn 0 4.69994e-016 -1
f 207/117/87 208/118/87 210/119/87 212/120/87 

v 51.4958 4.65294e-014 -49.1507
vt 0.73622 0.185039
vn 0 -1 -4.69994e-016
f 213/419/88 212/416/88 210/418/88

f 212/416/88 213/419/88 211/406/88

v 51.4958 4.51195e-014 -45.1507
vt 0.73622 0.34252
f 214/420/88 211/406/88 213/419/88

f 211/406/88 214/420/88 209/405/88

v 55.4958 4.51195e-014 -45.1507
vt 0.893701 0.34252
f 209/405/88 214/420/88 215/421/88

v 55.4958 3 -45.1507
vn 0 0 -1
v 51.4958 3 -45.1507
f 216/148/89 215/149/89 214/150/89 217/151/89 

v 55.4958 3 -49.1507
v 55.4958 4.65294e-014 -49.1507
f 218/31/23 219/32/23 215/346/23 216/347/23 

v 51.4958 3 -49.1507
vn 0 0 1
f 220/140/90 213/141/90 219/142/90 218/143/90 

f 217/344/2 214/345/2 213/37/2 220/38/2 

vt 0.893701 0.185039
f 218/422/22 216/421/22 217/420/22 220/419/22 

f 213/419/88 210/418/88 219/422/88

f 219/422/88 210/418/88 215/421/88

f 209/405/88 215/421/88 210/418/88

