# Alias OBJ Model File
# Exported from SketchUp, (c) 2000-2012 Trimble Navigation Limited
# File units = millimeters

mtllib cap_m3_high.mtl

g Mesh1 Group1 Model

usemtl FrontColor
v 104.057 4.5 -38.1404
vt 1.78245e-015 0.15748
vn -9.71122e-017 -1 3.06739e-016
v 103.968 4.5 -42.6661
vt 1.78245e-015 0.335693
v 91.1143 4.5 -44.1023
vt 0.504852 0.402158
v 75.3131 4.5 -50.2867
vt 1.12205 0.657809
v 61.651 4.5 -60.3502
vt 1.65204 1.06449
v 51.0589 4.5 -73.6067
vt 2.05873 1.59449
v 53.6271 4.5 -75.1574
vt 1.95644 1.65354
v 63.7302 4.5 -62.5127
vt 1.56853 1.14801
v 76.7618 4.5 -52.9138
vt 1.06299 0.760095
v 91.8338 4.5 -47.0147
vt 0.474283 0.516244
v 107.919 4.5 -45.2176
vt -0.15748 0.433071
v 123.921 4.5 -47.6448
vt -0.789243 0.516244
v 138.75 4.5 -54.1311
vt -1.37795 0.760095
v 151.395 4.5 -64.2342
vt -1.88349 1.14801
v 160.994 4.5 -77.2658
vt -2.2714 1.65354
v 166.893 4.5 -92.3378
vt -2.51525 2.24225
v 168.69 4.5 -108.423
vt -2.59843 2.87402
v 166.262 4.5 -124.425
vt -2.51525 3.50578
v 159.776 4.5 -139.254
vt -2.2714 4.09449
v 149.673 4.5 -151.899
vt -1.88349 4.60002
v 136.641 4.5 -161.498
vt -1.37795 4.98794
v 121.57 4.5 -167.397
vt -0.789243 5.23179
v 105.484 4.5 -169.194
vt -0.15748 5.31496
v 102.575 4.5 -173.309
vt -0.0461249 5.4792
v 103.415 4.5 -172.69
vt -0.0787402 5.45417
v 104.388 4.5 -172.309
vt -0.116721 5.43844
v 105.425 4.5 -172.193
vt -0.15748 5.43307
v 106.458 4.5 -172.35
vt -0.198239 5.43844
v 107.415 4.5 -172.768
vt -0.23622 5.45417
v 108.23 4.5 -173.42
vt -0.268836 5.4792
v 108.85 4.5 -174.261
vt -0.293862 5.51181
v 109.23 4.5 -175.233
vt -0.309595 5.54979
v 108.848 4.5 -171.811
vt -0.291898 5.41537
v 122.289 4.5 -170.309
vt -0.819813 5.34587
v 138.09 4.5 -164.125
vt -1.43701 5.09022
v 151.752 4.5 -154.061
vt -1.96701 4.68354
v 162.344 4.5 -140.805
vt -2.37369 4.15354
v 169.144 4.5 -125.258
vt -2.62934 3.53635
v 171.689 4.5 -108.482
vt -2.71654 2.87402
v 169.805 4.5 -91.6183
vt -2.62934 2.21168
v 163.621 4.5 -75.8171
vt -2.37369 1.59449
v 153.557 4.5 -62.155
vt -1.96701 1.06449
v 140.301 4.5 -51.5629
vt -1.43701 0.657809
v 124.754 4.5 -44.7629
vt -0.819813 0.402158
v 111.967 4.5 -42.8232
vt -0.314961 0.335693
v 112.056 4.5 -38.2975
vt -0.314961 0.15748
v 111.899 4.5 -39.3299
vt -0.309595 0.198239
v 111.481 4.5 -40.2866
vt -0.293862 0.23622
v 110.829 4.5 -41.1023
vt -0.268836 0.268836
v 109.988 4.5 -41.7216
vt -0.23622 0.293862
v 109.016 4.5 -42.1022
vt -0.198239 0.309595
v 107.978 4.5 -42.2182
vt -0.15748 0.314961
v 106.945 4.5 -42.0616
vt -0.116721 0.309595
v 105.989 4.5 -41.6431
vt -0.0787402 0.293862
v 105.173 4.5 -40.9913
vt -0.0461249 0.268836
v 104.554 4.5 -40.1505
vt -0.0210984 0.23622
v 104.173 4.5 -39.1782
vt -0.00536601 0.198239
f 1/1/1 2/2/1 3/3/1 4/4/1 5/5/1 6/6/1 7/7/1 8/8/1 9/9/1 10/10/1 11/11/1 12/12/1 13/13/1 14/14/1 15/15/1 16/16/1 17/17/1 18/18/1 19/19/1 20/20/1 21/21/1 22/22/1 23/23/1 24/24/1 25/25/1 26/26/1 27/27/1 28/28/1 29/29/1 30/30/1 31/31/1 32/32/1 33/33/1 34/34/1 35/35/1 36/36/1 37/37/1 38/38/1 39/39/1 40/40/1 41/41/1 42/42/1 43/43/1 44/44/1 45/45/1 46/46/1 47/47/1 48/48/1 49/49/1 50/50/1 51/51/1 52/52/1 53/53/1 54/54/1 55/55/1 56/56/1 57/57/1 

v 103.968 13 -42.6661
vt -0.335693 0.393701
vn -0.999807 2.41798e-015 0.0196337
vt -0.335693 0.0590551
vt -0.15748 0.0590551
v 104.057 13 -38.1404
vt -0.15748 0.393701
f 58/58/2 2/59/2 1/60/2 59/61/2 

vt -0.553025 0.0590551
vn -0.239805 4.1259e-015 0.970821
vt -0.0438168 0.0590551
vn -0.111035 8.3047e-015 0.993816
vt -0.0438168 0.393701
v 103.968 53 -42.6661
vt -0.0438168 1.9685
v 91.1143 53 -44.1023
vt -0.553025 1.9685
f 3/62/3 2/63/4 58/64/4 60/65/4 61/66/3 

vn -0.111035 1.65873e-015 0.993816
v 104.804 13 -42.5728
vt -0.0107106 0.393701
v 104.804 53 -42.5728
vt -0.0107106 1.9685
f 58/64/5 62/67/5 63/68/5 60/65/5 

vt -1.52026e-015 0.335693
vn 1.71815e-015 1 5.72133e-015
v 104.214 13 -37.108
vt 0.00536601 0.116721
vt 0.0328229 0.331372
f 58/69/6 64/70/6 62/71/6

vt -2.40844e-015 0.15748
f 64/70/6 58/69/6 59/72/6

vt -0.156133 0.393701
vn -0.988691 1.65043e-015 0.149967
vt -0.156133 0.0590551
v 104.057 2.25597e-014 -38.1404
vt -0.156133 -0.11811
v 104.214 2.25597e-014 -37.108
vt -0.115022 -0.11811
vn -0.960658 1.6062e-015 0.277734
vt -0.115022 0.393701
f 59/73/7 1/74/7 65/75/7 66/76/8 64/77/8 

vn -0.993816 -8.9369e-016 -0.111035
vt -0.197244 0.0590551
v 104.173 6.76792e-014 -39.1782
vt -0.197244 -0.11811
f 1/74/9 57/78/9 67/79/9 65/75/9 

vt -0.185203 0.0590551
vn -0.931215 -6.43823e-016 -0.364471
vt -0.226313 0.0590551
v 104.554 4.51195e-014 -40.1505
vt -0.226313 -0.11811
vt -0.185203 -0.11811
f 57/80/10 56/81/10 68/82/10 67/83/10 

vt -0.20025 0.0590551
vn -0.805153 -3.50081e-016 -0.593068
vt -0.241361 0.0590551
v 105.173 0 -40.9913
vt -0.241361 -0.11811
vt -0.20025 -0.11811
f 56/84/11 55/85/11 69/86/11 68/87/11 

vn -0.624221 -3.24812e-017 -0.781248
v 105.989 0 -41.6431
f 55/84/12 54/85/12 70/86/12 69/87/12 

vn -0.400749 2.87332e-016 -0.916188
v 106.945 0 -42.0616
f 54/80/13 53/81/13 71/82/13 70/83/13 

vn -0.149967 3.38009e-015 -0.988691
v 107.978 0 -42.2182
f 53/74/14 52/78/14 72/79/14 71/75/14 

vt -0.115022 0.0590551
vn 0.111035 -2.50262e-015 -0.993816
v 109.016 0 -42.1022
f 52/88/15 51/74/15 73/75/15 72/76/15 

vt -0.0646724 0.0590551
vn 0.364471 1.05017e-015 -0.931215
vt -0.105783 0.0590551
v 109.988 0 -41.7216
vt -0.105783 -0.11811
vt -0.0646724 -0.11811
f 51/89/16 50/90/16 74/91/16 73/92/16 

vt -0.00851429 0.0590551
vn 0.593068 1.18102e-015 -0.805153
vt -0.0496249 0.0590551
v 110.829 4.51195e-014 -41.1023
vt -0.0496249 -0.11811
vt -0.00851429 -0.11811
f 50/93/17 49/94/17 75/95/17 74/96/17 

vt 0.0496249 0.0590551
vn 0.781248 1.23139e-015 -0.624221
vt 0.00851429 0.0590551
v 111.481 4.51195e-014 -40.2866
vt 0.00851429 -0.11811
vt 0.0496249 -0.11811
f 49/97/18 48/98/18 76/99/18 75/100/18 

vt 0.105783 0.0590551
vn 0.916188 1.19784e-015 -0.400749
vt 0.0646724 0.0590551
v 111.899 4.51195e-014 -39.3299
vt 0.0646724 -0.11811
vt 0.105783 -0.11811
f 48/101/19 47/102/19 77/103/19 76/104/19 

vt 0.156133 0.0590551
vn 0.988691 1.08265e-015 -0.149967
vt 0.115022 0.0590551
v 112.056 4.51195e-014 -38.2975
vt 0.115022 -0.11811
vt 0.156133 -0.11811
f 47/105/20 46/106/20 78/107/20 77/108/20 

v 111.94 13 -37.2597
vt 0.156133 0.393701
vn 0.970821 -1.61095e-015 0.239805
v 111.94 4.51195e-014 -37.2597
vt 0.197244 -0.11811
vn 0.993816 -1.65174e-015 0.111035
vt 0.197244 0.0590551
v 112.056 13 -38.2975
vt 0.197244 0.393701
f 79/109/21 80/108/21 78/110/22 46/111/22 81/112/22 

v 111.559 13 -36.2873
vt 0.185203 0.393701
vn 0.875675 -1.44748e-015 0.4829
v 111.559 4.51195e-014 -36.2873
vt 0.185203 -0.11811
vt 0.226313 -0.11811
vt 0.226313 0.393701
f 82/113/23 83/114/23 80/115/21 79/116/21 

v 110.94 13 -35.4466
vt 0.20025 0.393701
vn 0.720854 -1.18589e-015 0.693087
v 110.94 4.51195e-014 -35.4466
vt 0.20025 -0.11811
vt 0.241361 -0.11811
vt 0.241361 0.393701
f 84/117/24 85/118/24 83/119/23 82/120/23 

v 110.124 13 -34.7948
vn 0.516907 -8.43321e-016 0.856042
v 110.124 0 -34.7948
f 86/117/25 87/118/25 85/119/24 84/120/24 

v 109.167 13 -34.3763
vn 0.277734 -4.41874e-016 0.960658
v 109.167 0 -34.3763
f 88/113/26 89/114/26 87/115/25 86/116/25 

v 108.135 13 -34.2197
vn 0.0196337 -2.97083e-016 0.999807
v 108.135 0 -34.2197
f 90/109/27 91/108/27 89/110/26 88/112/26 

v 107.097 13 -34.3357
vt 0.115022 0.393701
vn -0.239805 -7.26479e-016 0.970821
v 107.097 0 -34.3357
f 92/121/28 93/107/28 91/108/27 90/109/27 

v 106.125 13 -34.7162
vt 0.0646724 0.393701
vn -0.4829 -3.72717e-017 0.875675
v 106.125 0 -34.7162
vt 0.105783 0.393701
f 94/122/29 95/103/29 93/104/28 92/123/28 

v 105.284 13 -35.3355
vt 0.00851429 0.393701
vn -0.693087 1.16993e-015 0.720854
v 105.284 0 -35.3355
vt 0.0496249 0.393701
f 96/124/30 97/99/30 95/100/29 94/125/29 

v 104.632 13 -36.1513
vt -0.0496249 0.393701
vn -0.856042 1.43677e-015 0.516907
v 104.632 0 -36.1513
vt -0.00851429 0.393701
f 98/126/31 99/95/31 97/96/30 96/127/30 

vt -0.105783 0.393701
vt -0.0646724 0.393701
f 64/128/8 66/91/8 99/92/31 98/129/31 

vt -0.00536601 0.116721
vn 9.82295e-016 -1 -7.43282e-016
vt -0.0210984 0.0787402
f 66/130/32 68/56/32 99/131/32

f 66/130/32 67/57/32 68/56/32

vt 5.44679e-015 0.15748
f 67/57/32 66/130/32 65/132/32

f 99/131/32 68/56/32 69/55/32

vt -0.0461249 0.0461249
f 99/131/32 69/55/32 97/133/32

f 97/133/32 69/55/32 70/54/32

vt -0.0787402 0.0210984
f 97/133/32 70/54/32 95/134/32

v 106.057 0 -38.1797
vt -0.0787402 0.15748
f 95/134/32 70/54/32 100/135/32

v 106.115 0 -38.6985
vt -0.0814232 0.17786
f 100/135/32 70/54/32 101/136/32

f 101/136/32 70/54/32 71/53/32

v 106.305 0 -39.1847
vt -0.0892893 0.19685
f 101/136/32 71/53/32 102/137/32

v 106.615 0 -39.6051
vt -0.101803 0.213158
f 102/137/32 71/53/32 103/138/32

v 107.023 0 -39.931
vt -0.11811 0.225671
f 103/138/32 71/53/32 104/139/32

f 104/139/32 71/53/32 72/52/32

v 107.501 0 -40.1403
vt -0.137101 0.233537
f 104/139/32 72/52/32 105/140/32

v 108.017 0 -40.2185
vt -0.15748 0.23622
f 105/140/32 72/52/32 106/141/32

f 106/141/32 72/52/32 73/51/32

v 108.536 0 -40.1606
vt -0.17786 0.233537
f 106/141/32 73/51/32 107/142/32

v 109.022 0 -39.9703
vt -0.19685 0.225671
f 107/142/32 73/51/32 108/143/32

v 109.443 0 -39.6606
vt -0.213158 0.213158
f 108/143/32 73/51/32 109/144/32

f 109/144/32 73/51/32 74/50/32

v 109.768 0 -39.2527
vt -0.225671 0.19685
f 109/144/32 74/50/32 110/145/32

v 109.978 0 -38.7744
vt -0.233537 0.17786
f 110/145/32 74/50/32 111/146/32

v 110.056 0 -38.2582
vt -0.23622 0.15748
f 111/146/32 74/50/32 112/147/32

f 112/147/32 74/50/32 75/49/32

vt -0.23622 0.0210984
f 112/147/32 75/49/32 87/148/32

vt -0.268836 0.0461249
f 87/148/32 75/49/32 85/149/32

f 85/149/32 75/49/32 76/48/32

vt -0.293862 0.0787402
f 85/149/32 76/48/32 83/150/32

f 83/150/32 76/48/32 77/47/32

vt -0.309595 0.116721
f 83/150/32 77/47/32 80/151/32

f 80/151/32 77/47/32 78/46/32

v 109.998 0 -37.7393
vt -0.233537 0.137101
f 87/148/32 113/152/32 112/147/32

v 109.808 0 -37.2531
vt -0.225671 0.11811
f 87/148/32 114/153/32 113/152/32

v 109.498 0 -36.8328
vt -0.213158 0.101803
f 87/148/32 115/154/32 114/153/32

vt -0.198239 0.00536601
f 89/155/32 115/154/32 87/148/32

v 109.09 0 -36.5069
vt -0.19685 0.0892893
f 89/155/32 116/156/32 115/154/32

v 108.612 0 -36.2976
vt -0.17786 0.0814232
f 89/155/32 117/157/32 116/156/32

v 108.096 0 -36.2193
vt -0.15748 0.0787402
f 89/155/32 118/158/32 117/157/32

vt -0.15748 -9.73673e-016
f 91/159/32 118/158/32 89/155/32

v 107.577 0 -36.2773
vt -0.137101 0.0814232
f 91/159/32 119/160/32 118/158/32

v 107.091 0 -36.4676
vt -0.11811 0.0892893
f 91/159/32 120/161/32 119/160/32

vt -0.116721 0.00536601
f 93/162/32 120/161/32 91/159/32

v 106.67 0 -36.7772
vt -0.101803 0.101803
f 93/162/32 121/163/32 120/161/32

v 106.344 0 -37.1851
vt -0.0892893 0.11811
f 93/162/32 122/164/32 121/163/32

v 106.135 0 -37.6635
vt -0.0814232 0.137101
f 93/162/32 123/165/32 122/164/32

f 95/134/32 123/165/32 93/162/32

f 123/165/32 95/134/32 100/135/32

v 106.135 13 -37.6635
vt 0.1253 0.393701
vn 0.960658 -1.91786e-016 -0.277734
vt 0.1253 -0.11811
vt 0.145855 -0.11811
vn 0.999807 -1.54246e-016 -0.0196337
v 106.057 13 -38.1797
vt 0.145855 0.393701
f 124/166/33 123/167/33 100/168/34 125/169/34 

v 106.344 13 -37.1851
vt 0.0749501 0.393701
vn 0.856042 -2.16257e-016 -0.516907
vt 0.0749501 -0.11811
vt 0.0955054 -0.11811
vt 0.0955054 0.393701
f 126/170/35 122/171/35 123/172/33 124/173/33 

v 106.67 13 -36.7772
vt 0.0187919 0.393701
vn 0.693087 -2.25989e-016 -0.720854
vt 0.0187919 -0.11811
vt 0.0393472 -0.11811
vt 0.0393472 0.393701
f 127/174/36 121/175/36 122/176/35 126/177/35 

v 107.091 13 -36.4676
vt -0.0393472 0.393701
vn 0.4829 -2.20321e-016 -0.875675
vt -0.0393472 -0.11811
vt -0.0187919 -0.11811
vt -0.0187919 0.393701
f 128/178/37 120/179/37 121/180/36 127/181/36 

v 107.577 13 -36.2773
vt -0.0955054 0.393701
vn 0.239805 -1.99639e-016 -0.970821
vt -0.0955054 -0.11811
vt -0.0749501 -0.11811
vt -0.0749501 0.393701
f 129/182/38 119/183/38 120/184/37 128/185/37 

v 108.096 13 -36.2193
vt -0.145855 0.393701
vn -0.0196337 -1.65351e-016 -0.999807
vt -0.145855 -0.11811
vt -0.1253 -0.11811
vt -0.1253 0.393701
f 130/186/39 118/187/39 119/188/38 129/189/38 

v 108.612 13 -36.2976
vt -0.186966 0.393701
vn -0.277734 -1.19795e-016 -0.960658
vt -0.186966 -0.11811
vt -0.166411 -0.11811
vt -0.166411 0.393701
f 131/190/40 117/191/40 118/192/39 130/193/39 

v 109.09 13 -36.5069
vt -0.216036 0.393701
vn -0.516907 -6.60752e-017 -0.856042
vt -0.216036 -0.11811
vt -0.19548 -0.11811
vt -0.19548 0.393701
f 132/194/41 116/195/41 117/196/40 131/197/40 

v 109.498 13 -36.8328
vt -0.231083 0.393701
vn -0.720854 -7.85247e-018 -0.693087
vt -0.231083 -0.11811
vt -0.210528 -0.11811
vt -0.210528 0.393701
f 133/198/42 115/199/42 116/200/41 132/201/41 

v 109.808 13 -37.2531
vn -0.875675 5.09054e-017 -0.4829
f 134/198/43 114/199/43 115/200/42 133/201/42 

v 109.998 13 -37.7393
vn -0.970821 1.06194e-016 -0.239805
f 135/194/44 113/195/44 114/196/43 134/197/43 

v 110.056 13 -38.2582
vn -0.999807 1.54246e-016 0.0196337
f 136/190/45 112/191/45 113/192/44 135/193/44 

v 109.978 13 -38.7744
vn -0.960658 1.91786e-016 0.277734
f 137/186/46 111/187/46 112/188/45 136/189/45 

v 109.768 13 -39.2527
vn -0.856042 2.16257e-016 0.516907
f 138/182/47 110/183/47 111/184/46 137/185/46 

v 109.443 13 -39.6606
vn -0.693087 2.25989e-016 0.720854
f 139/178/48 109/179/48 110/180/47 138/181/47 

v 109.022 13 -39.9703
vn -0.4829 2.20321e-016 0.875675
f 140/174/49 108/175/49 109/176/48 139/177/48 

v 108.536 13 -40.1606
vn -0.239805 1.99639e-016 0.970821
f 141/170/50 107/171/50 108/172/49 140/173/49 

v 108.017 13 -40.2185
vn 0.0196337 1.65351e-016 0.999807
f 142/166/51 106/167/51 107/168/50 141/169/50 

v 107.501 13 -40.1403
vt 0.166411 0.393701
vn 0.277734 1.19795e-016 0.960658
vt 0.166411 -0.11811
vt 0.186966 -0.11811
vt 0.186966 0.393701
f 143/202/52 105/203/52 106/204/51 142/205/51 

v 107.023 13 -39.931
vt 0.19548 0.393701
vn 0.516907 6.60752e-017 0.856042
vt 0.19548 -0.11811
vt 0.216036 -0.11811
vt 0.216036 0.393701
f 144/206/53 104/207/53 105/208/52 143/209/52 

v 106.615 13 -39.6051
vt 0.210528 0.393701
vn 0.720854 7.85247e-018 0.693087
vt 0.210528 -0.11811
vt 0.231083 -0.11811
vt 0.231083 0.393701
f 145/210/54 103/211/54 104/212/53 144/213/53 

v 106.305 13 -39.1847
vn 0.875675 -5.09054e-017 0.4829
f 146/210/55 102/211/55 103/212/54 145/213/54 

v 106.115 13 -38.6985
vn 0.970821 -1.06194e-016 0.239805
f 147/206/56 101/207/56 102/208/55 146/209/55 

f 125/202/34 100/203/34 101/204/56 147/205/56 

vt 0.0814232 0.17786
vt 0.0461249 0.0461249
vt 0.0787402 0.15748
f 147/214/6 96/215/6 125/216/6

f 62/71/6 96/215/6 147/214/6

vt 0.0210984 0.0787402
f 62/71/6 98/217/6 96/215/6

f 62/71/6 64/70/6 98/217/6

vt 0.0892893 0.19685
f 62/71/6 147/214/6 146/218/6

v 107.978 13 -42.2182
vt 0.15748 0.314961
f 62/71/6 146/218/6 148/219/6

vt 0.101803 0.213158
f 148/219/6 146/218/6 145/220/6

vt 0.11811 0.225671
f 148/219/6 145/220/6 144/221/6

vt 0.137101 0.233537
f 148/219/6 144/221/6 143/222/6

vt 0.15748 0.23622
f 148/219/6 143/222/6 142/223/6

v 111.967 13 -42.8232
vt 0.314961 0.335693
f 148/219/6 142/223/6 149/224/6

vt 0.17786 0.233537
f 149/224/6 142/223/6 141/225/6

vt 0.19685 0.225671
f 149/224/6 141/225/6 140/226/6

vt 0.213158 0.213158
f 149/224/6 140/226/6 139/227/6

vt 0.225671 0.19685
f 149/224/6 139/227/6 138/228/6

vt 0.233537 0.17786
f 149/224/6 138/228/6 137/229/6

vt 0.23622 0.15748
f 149/224/6 137/229/6 136/230/6

vt 0.23622 0.0210984
f 149/224/6 136/230/6 86/231/6

vt 0.233537 0.137101
f 135/232/6 86/231/6 136/230/6

vt 0.225671 0.11811
f 134/233/6 86/231/6 135/232/6

vt 0.213158 0.101803
f 133/234/6 86/231/6 134/233/6

vt 0.198239 0.00536601
f 133/234/6 88/235/6 86/231/6

vt 0.19685 0.0892893
f 132/236/6 88/235/6 133/234/6

vt 0.17786 0.0814232
f 131/237/6 88/235/6 132/236/6

vt 0.15748 0.0787402
f 130/238/6 88/235/6 131/237/6

vt 0.15748 1.37716e-015
f 130/238/6 90/239/6 88/235/6

vt 0.137101 0.0814232
f 129/240/6 90/239/6 130/238/6

vt 0.11811 0.0892893
f 128/241/6 90/239/6 129/240/6

vt 0.116721 0.00536601
f 128/241/6 92/242/6 90/239/6

vt 0.101803 0.101803
f 127/243/6 92/242/6 128/241/6

vt 0.0892893 0.11811
f 126/244/6 92/242/6 127/243/6

vt 0.0814232 0.137101
f 124/245/6 92/242/6 126/244/6

vt 0.0787402 0.0210984
f 124/245/6 94/246/6 92/242/6

f 94/246/6 124/245/6 125/216/6

f 125/216/6 96/215/6 94/246/6

vt 0.268836 0.0461249
f 149/224/6 86/231/6 84/247/6

vt 0.293862 0.0787402
f 149/224/6 84/247/6 82/248/6

vt 0.309595 0.116721
f 149/224/6 82/248/6 79/249/6

vt 0.314961 0.15748
f 149/224/6 79/249/6 81/250/6

vt 0.15748 0.0590551
vn 0.999807 -6.76627e-015 -0.0196337
vt 0.335693 0.0590551
vt 0.335693 0.393701
vt 0.15748 0.393701
f 46/251/57 45/252/57 149/253/57 81/254/57 

vn 0.149967 6.46916e-016 0.988691
vt 0.356083 0.393701
vt 0.356083 0.0590551
vt 0.865291 0.0590551
vn 0.277734 9.3688e-016 0.960658
v 124.754 53 -44.7629
vt 0.865291 1.9685
v 111.967 53 -42.8232
vt 0.356083 1.9685
v 107.978 53 -42.2182
vt 0.197244 1.9685
f 148/112/58 149/255/58 45/256/58 44/257/59 150/258/59 151/259/58 152/260/58 

vt 0.911307 0.0590551
vt 1.57935 0.0590551
vn 0.516907 1.07582e-015 0.856042
v 140.301 53 -51.5629
vt 1.57935 1.9685
vt 0.911307 1.9685
f 44/261/59 43/262/60 153/263/60 150/264/59 

vt 1.5405 0.0590551
vt 2.20855 0.0590551
vn 0.720854 4.57837e-016 0.693087
v 153.557 53 -62.155
vt 2.20855 1.9685
vt 1.5405 1.9685
f 43/265/60 42/266/61 154/267/61 153/268/60 

vt 2.04195 0.0590551
vt 2.71 0.0590551
vn 0.875675 1.04916e-015 0.4829
v 163.621 53 -75.8171
vt 2.71 1.9685
vt 2.04195 1.9685
f 42/269/61 41/270/62 155/271/62 154/272/61 

vt 2.38149 0.0590551
vt 3.04953 0.0590551
vn 0.970821 2.1889e-015 0.239805
v 169.805 53 -91.6183
vt 3.04953 1.9685
vt 2.38149 1.9685
f 41/273/62 40/274/63 156/275/63 155/276/62 

vt 2.53596 0.0590551
vt 3.20401 0.0590551
vn 0.999807 1.88204e-015 -0.0196337
v 171.689 53 -108.482
vt 3.20401 1.9685
vt 2.53596 1.9685
f 40/277/63 39/278/64 157/279/64 156/280/63 

vt 2.49485 0.0590551
vt 3.1629 0.0590551
vn 0.960658 1.43623e-015 -0.277734
v 169.144 53 -125.258
vt 3.1629 1.9685
vt 2.49485 1.9685
f 39/281/64 38/282/65 158/283/65 157/284/64 

vt 2.26096 0.0590551
vt 2.929 0.0590551
vn 0.856042 1.28424e-015 -0.516907
v 162.344 53 -140.805
vt 2.929 1.9685
vt 2.26096 1.9685
f 38/285/65 37/286/66 159/287/66 158/288/65 

vt 1.85022 0.0590551
vt 2.51827 0.0590551
vn 0.781248 1.18509e-015 -0.624221
v 151.752 53 -154.061
vt 2.51827 1.9685
vt 1.85022 1.9685
f 37/289/66 36/290/67 160/291/67 159/292/66 

vt 1.29063 0.0590551
vn 0.593068 1.33304e-015 -0.805153
vt 1.95868 0.0590551
vn 0.4829 9.47359e-016 -0.875675
v 138.09 53 -164.125
vt 1.95868 1.9685
vt 1.29063 1.9685
f 36/293/68 35/294/69 161/295/69 160/296/68 

vt 0.620322 0.0590551
vt 1.28837 0.0590551
vn 0.239805 -2.42524e-016 -0.970821
v 122.289 53 -170.309
vt 1.28837 1.9685
vt 0.620322 1.9685
f 35/297/69 34/298/70 162/299/70 161/300/69 

vt 0.417447 0.0590551
vn 0.111035 -1.02637e-015 -0.993816
v 108.848 13 -171.811
vt 0.417447 0.393701
v 105.425 13 -172.193
vt 0.553025 0.393701
v 105.425 53 -172.193
vt 0.553025 1.9685
vt -0.115022 1.9685
f 34/88/70 33/301/71 163/302/71 164/303/71 165/304/71 162/305/70 

vt 5.40715 0.0590551
vn 0.993816 -7.74723e-015 0.111035
vt 5.54272 0.0590551
v 109.23 4.51195e-014 -175.233
vt 5.54272 -0.11811
v 109.346 2.25597e-014 -176.271
vt 5.58383 -0.11811
v 109.346 13 -176.271
vt 5.58383 0.393701
vt 5.40715 0.393701
f 33/306/72 32/307/72 166/308/72 167/309/72 168/310/72 163/311/72 

vt 5.24582 0.0590551
vn 0.931215 -1.15073e-016 0.364471
vt 5.20471 0.0590551
v 108.85 4.51195e-014 -174.261
vt 5.20471 -0.11811
vt 5.24582 -0.11811
f 32/312/73 31/313/73 169/314/73 166/315/73 

vt 4.55171 0.0590551
vn 0.805153 -2.27906e-017 0.593068
vt 4.5106 0.0590551
v 108.23 4.51195e-014 -173.42
vt 4.5106 -0.11811
vt 4.55171 -0.11811
f 31/316/74 30/317/74 170/318/74 169/319/74 

vt 3.5488 0.0590551
vn 0.624221 7.10453e-017 0.781248
vt 3.50769 0.0590551
v 107.415 2.25597e-014 -172.768
vt 3.50769 -0.11811
vt 3.5488 -0.11811
f 30/320/75 29/321/75 171/322/75 170/323/75 

vt 2.30546 0.0590551
vn 0.400749 1.6004e-016 0.916188
vt 2.26435 0.0590551
v 106.458 2.25597e-014 -172.35
vt 2.26435 -0.11811
vt 2.30546 -0.11811
f 29/324/76 28/325/76 172/326/76 171/327/76 

vt 0.906402 0.0590551
vn 0.149967 1.12592e-015 0.988691
v 105.425 2.25597e-014 -172.193
vt 0.865291 -0.11811
vt 0.906402 -0.11811
f 28/328/77 27/257/77 173/329/77 172/330/77 

vn -0.111035 -8.37287e-016 0.993816
vt -0.594136 0.0590551
v 104.388 2.25597e-014 -172.309
vt -0.594136 -0.11811
vt -0.553025 -0.11811
f 27/62/78 26/331/78 174/332/78 173/333/78 

vt -1.97336 0.0590551
vn -0.364471 3.41403e-016 0.931215
vt -2.01447 0.0590551
v 103.415 0 -172.69
vt -2.01447 -0.11811
vt -1.97336 -0.11811
f 26/334/79 25/335/79 175/336/79 174/337/79 

vt -3.25782 0.0590551
vn -0.593068 3.59553e-016 0.805153
vt -3.29893 0.0590551
v 102.575 4.51195e-014 -173.309
vt -3.29893 -0.11811
vt -3.25782 -0.11811
f 25/338/80 24/339/80 176/340/80 175/341/80 

v 101.923 13 -174.125
vt -4.35997 0.393701
vn -0.856042 1.43691e-015 0.516907
v 101.923 4.51195e-014 -174.125
vt -4.35997 -0.11811
vt -4.31886 -0.11811
vn -0.781248 1.31474e-015 0.624221
vt -4.31886 0.0590551
v 102.575 13 -173.309
vt -4.31886 0.393701
f 177/342/81 178/343/81 176/344/82 24/345/82 179/346/82 

v 101.504 13 -175.081
vt -5.12529 0.393701
vn -0.960658 1.60582e-015 0.277734
v 101.504 4.51195e-014 -175.081
vt -5.12529 -0.11811
vt -5.08418 -0.11811
vt -5.08418 0.393701
f 180/347/83 181/348/83 178/349/81 177/350/81 

v 101.348 13 -176.114
vt -5.54272 0.393701
vn -0.999807 1.6653e-015 0.0196337
v 101.348 4.51195e-014 -176.114
vt -5.54272 -0.11811
vt -5.50161 -0.11811
vt -5.50161 0.393701
f 182/351/84 183/352/84 181/353/83 180/354/83 

v 101.464 13 -177.152
vt -5.58383 0.393701
vn -0.970821 1.6113e-015 -0.239805
v 101.464 4.51195e-014 -177.152
vt -5.58383 -0.11811
f 184/355/85 185/356/85 183/352/84 182/351/84 

v 101.844 13 -178.124
vt -5.24582 0.393701
vn -0.875675 1.44748e-015 -0.4829
v 101.844 4.51195e-014 -178.124
vt -5.24582 -0.11811
vt -5.20471 -0.11811
vt -5.20471 0.393701
f 186/357/86 187/358/86 185/359/85 184/360/85 

v 102.464 13 -178.965
vt -4.55171 0.393701
vn -0.720854 1.18502e-015 -0.693087
v 102.464 4.51195e-014 -178.965
vt -4.55171 -0.11811
vt -4.5106 -0.11811
vt -4.5106 0.393701
f 188/361/87 189/362/87 187/363/86 186/364/86 

v 103.279 13 -179.617
vt -3.5488 0.393701
vn -0.516907 8.41806e-016 -0.856042
v 103.279 2.25597e-014 -179.617
vt -3.5488 -0.11811
vt -3.50769 -0.11811
vt -3.50769 0.393701
f 190/365/88 191/366/88 189/367/87 188/368/87 

v 104.236 13 -180.035
vt -2.30546 0.393701
vn -0.277734 4.41223e-016 -0.960658
v 104.236 2.25597e-014 -180.035
vt -2.30546 -0.11811
vt -2.26435 -0.11811
vt -2.26435 0.393701
f 192/369/89 193/370/89 191/371/88 190/372/88 

v 105.268 13 -180.192
vt -0.906402 0.393701
vn -0.0196337 1.05709e-017 -0.999807
v 105.268 2.25597e-014 -180.192
vt -0.906402 -0.11811
vt -0.865291 -0.11811
vt -0.865291 0.393701
f 194/373/90 195/374/90 193/375/89 192/376/89 

v 106.306 13 -180.076
vn 0.239805 -4.20802e-016 -0.970821
v 106.306 2.25597e-014 -180.076
vt 0.553025 -0.11811
vt 0.594136 -0.11811
vt 0.594136 0.393701
f 196/303/91 197/377/91 195/378/90 194/379/90 

v 107.279 13 -179.695
vt 1.97336 0.393701
vn 0.4829 -8.23497e-016 -0.875675
v 107.279 2.25597e-014 -179.695
vt 1.97336 -0.11811
vt 2.01447 -0.11811
vt 2.01447 0.393701
f 198/380/92 199/381/92 197/382/91 196/383/91 

v 108.119 13 -179.076
vt 3.25782 0.393701
vn 0.693087 -1.17007e-015 -0.720854
v 108.119 2.25597e-014 -179.076
vt 3.25782 -0.11811
vt 3.29893 -0.11811
vt 3.29893 0.393701
f 200/384/93 201/385/93 199/386/92 198/387/92 

v 108.771 13 -178.26
vt 4.31886 0.393701
vn 0.856042 -1.43691e-015 -0.516907
v 108.771 2.25597e-014 -178.26
vt 4.31886 -0.11811
vt 4.35997 -0.11811
vt 4.35997 0.393701
f 202/388/94 203/389/94 201/390/93 200/391/93 

v 109.19 13 -177.303
vt 5.08418 0.393701
vn 0.960658 -1.60582e-015 -0.277734
v 109.19 2.25597e-014 -177.303
vt 5.08418 -0.11811
vt 5.12529 -0.11811
vt 5.12529 0.393701
f 204/392/95 205/393/95 203/394/94 202/395/94 

vt 5.50161 0.393701
vn 0.988691 -1.64968e-015 -0.149967
vt 5.50161 -0.11811
vt 5.54272 0.393701
f 168/396/96 167/397/96 205/308/95 204/398/95 

vn -2.31589e-016 -1 2.75979e-016
vt -0.309595 5.63131
vt -0.314961 5.59055
f 166/32/97 205/399/97 167/400/97

f 169/31/97 205/399/97 166/32/97

vt -0.293862 5.66929
f 169/31/97 203/401/97 205/399/97

vt -0.268836 5.70191
f 169/31/97 201/402/97 203/401/97

f 170/30/97 201/402/97 169/31/97

vt -0.23622 5.72693
f 170/30/97 199/403/97 201/402/97

f 171/29/97 199/403/97 170/30/97

v 107.347 2.25597e-014 -176.232
vt -0.23622 5.59055
f 206/404/97 199/403/97 171/29/97

v 107.268 2.25597e-014 -176.748
vt -0.233537 5.61093
f 207/405/97 199/403/97 206/404/97

v 107.059 2.25597e-014 -177.226
vt -0.225671 5.62992
f 208/406/97 199/403/97 207/405/97

v 106.733 2.25597e-014 -177.634
vt -0.213158 5.64623
f 209/407/97 199/403/97 208/406/97

vt -0.198239 5.74267
f 209/407/97 197/408/97 199/403/97

v 106.313 2.25597e-014 -177.944
vt -0.19685 5.65874
f 210/409/97 197/408/97 209/407/97

v 105.827 2.25597e-014 -178.134
vt -0.17786 5.66661
f 211/410/97 197/408/97 210/409/97

v 105.308 2.25597e-014 -178.192
vt -0.15748 5.66929
f 212/411/97 197/408/97 211/410/97

vt -0.15748 5.74803
f 212/411/97 195/412/97 197/408/97

v 104.791 2.25597e-014 -178.114
vt -0.137101 5.66661
f 213/413/97 195/412/97 212/411/97

v 104.313 2.25597e-014 -177.904
vt -0.11811 5.65874
f 214/414/97 195/412/97 213/413/97

vt -0.116721 5.74267
f 214/414/97 193/415/97 195/412/97

v 103.905 2.25597e-014 -177.579
vt -0.101803 5.64623
f 215/416/97 193/415/97 214/414/97

v 103.596 2.25597e-014 -177.158
vt -0.0892893 5.62992
f 216/417/97 193/415/97 215/416/97

v 103.405 2.25597e-014 -176.672
vt -0.0814232 5.61093
f 217/418/97 193/415/97 216/417/97

vt -0.0787402 5.72693
f 217/418/97 191/419/97 193/415/97

v 103.347 2.25597e-014 -176.153
vt -0.0787402 5.59055
f 218/420/97 191/419/97 217/418/97

f 176/24/97 191/419/97 218/420/97

vt -0.0461249 5.70191
f 176/24/97 189/421/97 191/419/97

vt -0.0210984 5.51181
f 178/422/97 189/421/97 176/24/97

vt -0.0210984 5.66929
f 178/422/97 187/423/97 189/421/97

vt -0.00536601 5.54979
f 181/424/97 187/423/97 178/422/97

vt -0.00536601 5.63131
f 181/424/97 185/425/97 187/423/97

vt 1.74837e-015 5.59055
f 185/425/97 181/424/97 183/426/97

f 218/420/97 175/25/97 176/24/97

v 103.426 2.25597e-014 -175.637
vt -0.0814232 5.57017
f 175/25/97 218/420/97 219/427/97

v 103.426 13 -175.637
vt 5.51189 0.393701
vt 5.51189 -0.11811
vt 5.53245 -0.11811
vn 0.999807 -1.6653e-015 -0.0196337
v 103.347 13 -176.153
vt 5.53245 0.393701
f 220/428/95 219/429/95 218/430/98 221/431/98 

v 103.635 13 -175.159
vt 5.09445 0.393701
v 103.635 2.25597e-014 -175.159
vt 5.09445 -0.11811
vt 5.11501 -0.11811
vt 5.11501 0.393701
f 222/432/94 223/433/94 219/434/95 220/435/95 

v 103.961 13 -174.751
vt 4.32914 0.393701
v 103.961 2.25597e-014 -174.751
vt 4.32914 -0.11811
vt 4.34969 -0.11811
vt 4.34969 0.393701
f 224/436/93 225/437/93 223/438/94 222/439/94 

v 104.381 13 -174.441
vt 3.2681 0.393701
v 104.381 2.25597e-014 -174.441
vt 3.2681 -0.11811
vt 3.28865 -0.11811
vt 3.28865 0.393701
f 226/440/92 227/441/92 225/442/93 224/443/93 

v 104.867 13 -174.251
vt 1.98364 0.393701
v 104.867 2.25597e-014 -174.251
vt 1.98364 -0.11811
vt 2.0042 -0.11811
vt 2.0042 0.393701
f 228/444/91 229/445/91 227/446/92 226/447/92 

v 105.386 13 -174.193
vt 0.563303 0.393701
v 105.386 2.25597e-014 -174.193
vt 0.563303 -0.11811
vt 0.583858 -0.11811
vt 0.583858 0.393701
f 230/448/90 231/449/90 229/450/91 228/451/91 

v 105.902 13 -174.271
vt -0.896124 0.393701
v 105.902 2.25597e-014 -174.271
vt -0.896124 -0.11811
vt -0.875569 -0.11811
vt -0.875569 0.393701
f 232/452/89 233/453/89 231/454/90 230/455/90 

v 106.381 13 -174.48
vt -2.29518 0.393701
v 106.381 2.25597e-014 -174.48
vt -2.29518 -0.11811
vt -2.27463 -0.11811
vt -2.27463 0.393701
f 234/456/88 235/457/88 233/458/89 232/459/89 

v 106.789 13 -174.806
vt -3.53853 0.393701
v 106.789 2.25597e-014 -174.806
vt -3.53853 -0.11811
vt -3.51797 -0.11811
vt -3.51797 0.393701
f 236/460/87 237/461/87 235/462/88 234/463/88 

v 107.098 13 -175.227
vt -4.54143 0.393701
v 107.098 2.25597e-014 -175.227
vt -4.54143 -0.11811
vt -4.52087 -0.11811
vt -4.52087 0.393701
f 238/464/86 239/465/86 237/466/87 236/467/87 

v 107.289 13 -175.713
vt -5.23554 0.393701
v 107.289 2.25597e-014 -175.713
vt -5.23554 -0.11811
vt -5.21498 -0.11811
vt -5.21498 0.393701
f 240/468/85 241/469/85 239/470/86 238/471/86 

v 107.347 13 -176.232
vt -5.57356 0.393701
vt -5.57356 -0.11811
vt -5.553 -0.11811
vt -5.553 0.393701
f 242/472/84 206/473/84 241/474/85 240/475/85 

v 107.268 13 -176.748
vt -5.53245 0.393701
vt -5.53245 -0.11811
vt -5.51189 -0.11811
vt -5.51189 0.393701
f 243/476/83 207/477/83 206/478/84 242/479/84 

v 107.059 13 -177.226
vt -5.11501 0.393701
vt -5.11501 -0.11811
vt -5.09445 -0.11811
vt -5.09445 0.393701
f 244/480/81 208/481/81 207/482/83 243/483/83 

v 106.733 13 -177.634
vt -4.34969 0.393701
vn -0.693087 1.17007e-015 0.720854
vt -4.34969 -0.11811
vt -4.32914 -0.11811
vt -4.32914 0.393701
f 245/484/99 209/485/99 208/486/81 244/487/81 

v 106.313 13 -177.944
vt -3.28865 0.393701
vn -0.4829 8.23497e-016 0.875675
vt -3.28865 -0.11811
vt -3.2681 -0.11811
vt -3.2681 0.393701
f 246/488/100 210/489/100 209/490/99 245/491/99 

v 105.827 13 -178.134
vt -2.0042 0.393701
vn -0.239805 4.20802e-016 0.970821
vt -2.0042 -0.11811
vt -1.98364 -0.11811
vt -1.98364 0.393701
f 247/492/101 211/493/101 210/494/100 246/495/100 

v 105.308 13 -178.192
vt -0.583858 0.393701
vn 0.0196337 -1.05709e-017 0.999807
vt -0.583858 -0.11811
vt -0.563303 -0.11811
vt -0.563303 0.393701
f 248/496/102 212/497/102 211/498/101 247/499/101 

v 104.791 13 -178.114
vt 0.875569 0.393701
vn 0.277734 -4.41223e-016 0.960658
vt 0.875569 -0.11811
vt 0.896124 -0.11811
vt 0.896124 0.393701
f 249/500/103 213/501/103 212/502/102 248/503/102 

v 104.313 13 -177.904
vt 2.27463 0.393701
vn 0.516907 -8.41806e-016 0.856042
vt 2.27463 -0.11811
vt 2.29518 -0.11811
vt 2.29518 0.393701
f 250/504/104 214/505/104 213/506/103 249/507/103 

v 103.905 13 -177.579
vt 3.51797 0.393701
vn 0.720854 -1.18502e-015 0.693087
vt 3.51797 -0.11811
vt 3.53853 -0.11811
vt 3.53853 0.393701
f 251/508/105 215/509/105 214/510/104 250/511/104 

v 103.596 13 -177.158
vt 4.52087 0.393701
vt 4.52087 -0.11811
vt 4.54143 -0.11811
vt 4.54143 0.393701
f 252/512/23 216/513/23 215/514/105 251/515/105 

v 103.405 13 -176.672
vt 5.21498 0.393701
vn 0.970821 -1.6113e-015 0.239805
vt 5.21498 -0.11811
vt 5.23554 -0.11811
vt 5.23554 0.393701
f 253/516/106 217/517/106 216/518/23 252/519/23 

vt 5.553 0.393701
vt 5.553 -0.11811
vt 5.57356 -0.11811
vt 5.57356 0.393701
f 221/520/98 218/521/98 217/522/106 253/523/106 

vt 0.0787402 5.72693
vn 1.66519e-015 1 -2.21271e-017
vt 0.0787402 5.59055
vt 0.0814232 5.61093
f 190/524/107 221/525/107 253/526/107

vt 0.0461249 5.4792
f 190/524/107 179/527/107 221/525/107

vt 0.0461249 5.70191
f 188/528/107 179/527/107 190/524/107

vt 0.0210984 5.51181
f 188/528/107 177/529/107 179/527/107

vt 0.0210984 5.66929
f 186/530/107 177/529/107 188/528/107

vt 0.00536601 5.63131
f 184/531/107 177/529/107 186/530/107

vt 0.00536601 5.54979
f 184/531/107 180/532/107 177/529/107

vt -2.43199e-015 5.59055
f 180/532/107 184/531/107 182/533/107

vt 0.0814232 5.57017
f 179/527/107 220/534/107 221/525/107

v 105.484 13 -169.194
vt 0.15748 5.31496
f 220/534/107 179/527/107 254/535/107

vt -4.50917 0.0590551
vn -0.816508 1.96537e-015 0.577334
vt -4.31074 0.0590551
vt -4.31074 0.393701
vt -4.50917 0.393701
f 24/536/108 23/537/108 254/538/108 179/539/108 

vt -0.537609 0.0590551
vn -0.111035 9.92769e-016 0.993816
vt 0.099606 0.0590551
vn -0.239805 1.12942e-015 0.970821
v 121.57 53 -167.397
vt 0.099606 1.9685
v 105.484 53 -169.194
vt -0.537609 1.9685
vt -0.537609 0.393701
f 23/540/109 22/541/110 255/542/110 256/543/109 254/544/109 

vt -1.27295 0.0590551
vt -0.635738 0.0590551
vn -0.4829 8.56624e-016 0.875675
v 136.641 53 -161.498
vt -0.635738 1.9685
vt -1.27295 1.9685
f 22/545/110 21/546/111 257/547/111 255/548/110 

vt -1.94326 0.0590551
vt -1.30605 0.0590551
vn -0.693087 8.25864e-016 0.720854
v 149.673 53 -151.899
vt -1.30605 1.9685
vt -1.94326 1.9685
f 21/549/111 20/550/112 258/551/112 257/552/111 

vt -2.50285 0.0590551
vt -1.86563 0.0590551
vn -0.856042 1.63628e-015 0.516907
v 159.776 53 -139.254
vt -1.86563 1.9685
vt -2.50285 1.9685
f 20/553/112 19/554/113 259/555/113 258/556/112 

vt -2.91359 0.0590551
vt -2.27637 0.0590551
vn -0.960658 1.41553e-015 0.277734
v 166.262 53 -124.425
vt -2.27637 1.9685
vt -2.91359 1.9685
f 19/557/113 18/558/114 260/559/114 259/560/113 

vt -3.14748 0.0590551
vt -2.51027 0.0590551
vn -0.988691 7.48039e-016 0.149967
v 168.69 53 -108.423
vt -2.51027 1.9685
vt -3.14748 1.9685
f 18/561/114 17/562/115 261/563/115 260/564/114 

vt -3.18859 0.0590551
vn -0.993816 7.50974e-016 -0.111035
vt -2.55138 0.0590551
vn -0.970821 1.08091e-015 -0.239805
v 166.893 53 -92.3378
vt -2.55138 1.9685
vt -3.18859 1.9685
f 17/565/116 16/566/117 262/567/117 261/568/116 

vt -3.03412 0.0590551
vt -2.3969 0.0590551
vn -0.875675 1.30464e-015 -0.4829
v 160.994 53 -77.2658
vt -2.3969 1.9685
vt -3.03412 1.9685
f 16/569/117 15/570/118 263/571/118 262/572/117 

vt -2.69459 0.0590551
vt -2.05737 0.0590551
vn -0.720854 1.0651e-015 -0.693087
v 151.395 53 -64.2342
vt -2.05737 1.9685
vt -2.69459 1.9685
f 15/573/118 14/574/119 264/575/119 263/576/118 

vt -2.19313 0.0590551
vt -1.55592 0.0590551
vn -0.516907 7.68256e-016 -0.856042
v 138.75 53 -54.1311
vt -1.55592 1.9685
vt -2.19313 1.9685
f 14/577/119 13/578/120 265/579/120 264/580/119 

vt -1.56394 0.0590551
vt -0.926724 0.0590551
vn -0.277734 4.735e-016 -0.960658
v 123.921 53 -47.6448
vt -0.926724 1.9685
vt -1.56394 1.9685
f 13/581/120 12/582/121 266/583/121 265/584/120 

vt -0.849875 0.0590551
vt -0.21266 0.0590551
vn -0.149967 3.32914e-016 -0.988691
v 107.919 53 -45.2176
vt -0.21266 1.9685
vt -0.849875 1.9685
f 12/585/121 11/586/122 267/587/122 266/588/121 

vt -0.099606 0.0590551
vn 0.111035 -2.10181e-016 -0.993816
vt 0.537609 0.0590551
v 91.8338 53 -47.0147
vt 0.537609 1.9685
vt -0.099606 1.9685
f 11/589/123 10/590/123 268/591/123 267/592/123 

vt 0.635738 0.0590551
vn 0.364471 1.2349e-016 -0.931215
vt 1.27295 0.0590551
v 76.7618 53 -52.9138
vt 1.27295 1.9685
vt 0.635738 1.9685
f 10/593/124 9/594/124 269/595/124 268/596/124 

vt 1.30605 0.0590551
vn 0.593068 1.50047e-016 -0.805153
vt 1.94326 0.0590551
v 63.7302 53 -62.5127
vt 1.94326 1.9685
vt 1.30605 1.9685
f 9/597/125 8/598/125 270/599/125 269/600/125 

vt 1.86563 0.0590551
vn 0.781248 1.66378e-016 -0.624221
vt 2.50285 0.0590551
v 53.6271 53 -75.1574
vt 2.50285 1.9685
vt 1.86563 1.9685
f 8/601/126 7/602/126 271/603/126 270/604/126 

vt 0.867555 0.0590551
vn -0.516907 -1.91274e-017 -0.856042
vt 0.985665 0.0590551
v 51.0589 53 -73.6067
vt 0.985665 1.9685
vt 0.867555 1.9685
f 7/605/127 6/606/127 272/607/127 271/608/127 

vt -2.51827 0.0590551
vn -0.781248 -1.66378e-016 0.624221
vt -1.85022 0.0590551
vn -0.693087 -1.59578e-016 0.720854
v 61.651 53 -60.3502
vt -1.85022 1.9685
vt -2.51827 1.9685
f 6/609/128 5/610/129 273/611/129 272/612/128 

vt -1.95868 0.0590551
vt -1.29063 0.0590551
vn -0.4829 -1.37948e-016 0.875675
v 75.3131 53 -50.2867
vt -1.29063 1.9685
vt -1.95868 1.9685
f 5/613/129 4/614/130 274/615/130 273/616/129 

vt -1.28837 0.0590551
vt -0.620322 0.0590551
vt -0.620322 1.9685
vt -1.28837 1.9685
f 4/617/130 3/618/3 61/619/3 274/620/130 

vn 3.0124e-016 1 -3.05072e-016
vt 0.819813 0.402158
vt 1.43701 0.657809
vt 1.96701 1.06449
vt 2.37369 1.59449
vt 2.62934 2.21168
vt 2.71654 2.87402
vt 2.62934 3.53635
vt 2.37369 4.15354
vt 1.96701 4.68354
vt 1.43701 5.09022
vt 0.819813 5.34587
vt 0.15748 5.43307
vt 0.789243 5.23179
vt 1.37795 4.98794
vt 1.88349 4.60002
vt 2.2714 4.09449
vt 2.51525 3.50578
vt 2.59843 2.87402
vt 2.51525 2.24225
vt 2.2714 1.65354
vt 1.88349 1.14801
vt 1.37795 0.760095
vt 0.789243 0.516244
vt 0.15748 0.433071
vt -0.474283 0.516244
vt -1.06299 0.760095
vt -1.56853 1.14801
vt -1.95644 1.65354
vt -2.05873 1.59449
vt -1.65204 1.06449
vt -1.12205 0.657809
vt -0.504852 0.402158
vt -6.04669e-016 0.335693
f 63/71/131 152/219/131 151/224/131 150/621/131 153/622/131 154/623/131 155/624/131 156/625/131 157/626/131 158/627/131 159/628/131 160/629/131 161/630/131 162/631/131 165/632/131 256/535/131 255/633/131 257/634/131 258/635/131 259/636/131 260/637/131 261/638/131 262/639/131 263/640/131 264/641/131 265/642/131 266/643/131 267/644/131 268/645/131 269/646/131 270/647/131 271/648/131 272/649/131 273/650/131 274/651/131 61/652/131 60/653/131 

vn -0.111035 3.72437e-016 0.993816
vt 0.115022 1.9685
f 62/67/132 148/121/132 152/654/132 63/68/132 

vt -5.43307 1.9685
vn -0.999807 5.39015e-017 0.0196337
vt -5.43307 0.393701
vt -5.31496 0.393701
vt -5.31496 1.9685
f 165/655/133 164/656/133 254/657/133 256/658/133 

vt 0.15748 5.51181
f 230/659/107 254/535/107 164/632/107

vt 0.137101 5.51449
f 228/660/107 254/535/107 230/659/107

vt 0.11811 5.52236
f 226/661/107 254/535/107 228/660/107

vt 0.101803 5.53487
f 224/662/107 254/535/107 226/661/107

vt 0.0892893 5.55118
f 222/663/107 254/535/107 224/662/107

f 220/534/107 254/535/107 222/663/107

vt 0.17786 5.51449
f 230/659/107 164/632/107 232/664/107

vt 0.291898 5.41537
f 232/664/107 164/632/107 163/665/107

vt 0.19685 5.52236
f 232/664/107 163/665/107 234/666/107

vt 0.213158 5.53487
f 234/666/107 163/665/107 236/667/107

vt 0.225671 5.55118
f 236/667/107 163/665/107 238/668/107

vt 0.233537 5.57017
f 238/668/107 163/665/107 240/669/107

vt 0.23622 5.59055
f 240/669/107 163/665/107 242/670/107

vt 0.23622 5.72693
f 242/670/107 163/665/107 198/671/107

vt 0.268836 5.70191
f 198/671/107 163/665/107 200/672/107

vt 0.293862 5.66929
f 200/672/107 163/665/107 202/673/107

vt 0.314961 5.59055
f 202/673/107 163/665/107 168/674/107

vt 0.309595 5.63131
f 202/673/107 168/674/107 204/675/107

vt 0.233537 5.61093
f 198/671/107 243/676/107 242/670/107

vt 0.225671 5.62992
f 198/671/107 244/677/107 243/676/107

vt 0.213158 5.64623
f 198/671/107 245/678/107 244/677/107

vt 0.198239 5.74267
f 196/679/107 245/678/107 198/671/107

vt 0.19685 5.65874
f 196/679/107 246/680/107 245/678/107

vt 0.17786 5.66661
f 196/679/107 247/681/107 246/680/107

vt 0.15748 5.66929
f 196/679/107 248/682/107 247/681/107

vt 0.15748 5.74803
f 194/683/107 248/682/107 196/679/107

vt 0.137101 5.66661
f 194/683/107 249/684/107 248/682/107

vt 0.11811 5.65874
f 194/683/107 250/685/107 249/684/107

vt 0.116721 5.74267
f 192/686/107 250/685/107 194/683/107

vt 0.101803 5.64623
f 192/686/107 251/687/107 250/685/107

vt 0.0892893 5.62992
f 192/686/107 252/688/107 251/687/107

f 192/686/107 253/526/107 252/688/107

f 190/524/107 253/526/107 192/686/107

vt -0.233537 5.57017
f 171/29/97 241/689/97 206/404/97

vt -0.225671 5.55118
f 171/29/97 239/690/97 241/689/97

vt -0.213158 5.53487
f 171/29/97 237/691/97 239/690/97

f 172/28/97 237/691/97 171/29/97

vt -0.19685 5.52236
f 172/28/97 235/692/97 237/691/97

vt -0.17786 5.51449
f 172/28/97 233/693/97 235/692/97

f 173/27/97 233/693/97 172/28/97

vt -0.15748 5.51181
f 173/27/97 231/694/97 233/693/97

vt -0.137101 5.51449
f 173/27/97 229/695/97 231/694/97

vt -0.11811 5.52236
f 173/27/97 227/696/97 229/695/97

f 174/26/97 227/696/97 173/27/97

vt -0.101803 5.53487
f 174/26/97 225/697/97 227/696/97

vt -0.0892893 5.55118
f 174/26/97 223/698/97 225/697/97

f 174/26/97 219/427/97 223/698/97

f 175/25/97 219/427/97 174/26/97

