# Alias OBJ Model File
# Exported from SketchUp, (c) 2000-2012 Trimble Navigation Limited
# File units = millimeters

mtllib disk.mtl

g Mesh1 Group1 Model

usemtl FrontColor
v 158.744 0 -50.2993
vt 3.25407 -1.67063e-016
vn 0.707107 0 0.707107
v 169.074 0 -63.7612
vt 3.92211 -1.67063e-016
vn 0.866025 2.79951e-017 0.5
v 169.074 2.5 -63.7612
vt 3.92211 0.0984252
v 158.744 2.5 -50.2993
vt 3.25407 0.0984252
f 1/1/1 2/2/2 3/3/2 4/4/1 

vt -4.36858 0.74953
vn -2.9943e-017 -1 5.39034e-017
v 169.074 0 -128.761
vt -4.77526 3.83858
vt -4.77526 1.27953
f 1/5/3 5/6/3 2/7/3

v 158.744 0 -142.223
vt -4.36858 4.36858
f 1/5/3 6/8/3 5/6/3

v 145.282 0 -152.553
vt -3.83858 4.77526
f 1/5/3 7/9/3 6/8/3

v 145.282 0 -39.9696
vt -3.83858 0.342848
f 8/10/3 7/9/3 1/5/3

v 129.605 -9.02389e-014 -159.046
vt -3.22139 5.03091
f 8/10/3 9/11/3 7/9/3

v 129.605 0 -33.4761
vt -3.22139 0.0871977
f 10/12/3 9/11/3 8/10/3

v 116.082 9.02389e-014 -93.5574
vt -2.68898 2.4526
f 11/13/3 9/11/3 10/12/3

v 116.082 9.02389e-014 -98.9651
vt -2.68898 2.66551
f 12/14/3 9/11/3 11/13/3

v 115.823 9.02389e-014 -99.3024
vt -2.67879 2.67879
f 13/15/3 9/11/3 12/14/3

v 114.932 9.02389e-014 -99.9859
vt -2.64372 2.7057
f 14/16/3 9/11/3 13/15/3

v 113.895 1.35358e-013 -100.416
vt -2.60288 2.72261
f 15/17/3 9/11/3 14/16/3

v 112.782 9.02389e-014 -100.562
vt -2.55906 2.72838
f 16/18/3 9/11/3 15/17/3

v 112.782 0 -161.261
vt -2.55906 5.11811
f 16/18/3 17/19/3 9/11/3

v 111.669 1.35358e-013 -100.416
vt -2.51523 2.72261
f 18/20/3 17/19/3 16/18/3

v 110.632 4.51195e-014 -99.9859
vt -2.47439 2.7057
f 19/21/3 17/19/3 18/20/3

v 109.741 9.02389e-014 -99.3024
vt -2.43932 2.67879
f 20/22/3 17/19/3 19/21/3

v 109.057 1.35358e-013 -98.4117
vt -2.41242 2.64372
f 21/23/3 17/19/3 20/22/3

v 108.628 9.02389e-014 -97.3744
vt -2.3955 2.60288
f 22/24/3 17/19/3 21/23/3

v 108.481 9.02389e-014 -96.2612
vt -2.38973 2.55906
f 23/25/3 17/19/3 22/24/3

v 95.9587 0 -159.046
vt -1.89672 5.03091
f 17/19/3 23/25/3 24/26/3

v 112.782 -4.51195e-014 -31.2612
vt -2.55906 -3.55271e-015
f 25/27/3 24/26/3 23/25/3

v 95.9587 0 -33.4761
vt -1.89672 0.0871977
f 26/28/3 24/26/3 25/27/3

v 80.282 0 -39.9696
vt -1.27953 0.342848
f 27/29/3 24/26/3 26/28/3

v 80.282 0 -152.553
vt -1.27953 4.77526
f 27/29/3 28/30/3 24/26/3

v 66.82 0 -142.223
vt -0.74953 4.36858
f 27/29/3 29/31/3 28/30/3

v 66.82 0 -50.2993
vt -0.74953 0.74953
f 30/32/3 29/31/3 27/29/3

v 56.4903 0 -128.761
vt -0.342848 3.83858
f 30/32/3 31/33/3 29/31/3

v 56.4903 0 -63.7612
vt -0.342848 1.27953
f 32/34/3 31/33/3 30/32/3

v 49.9968 0 -79.438
vt -0.0871977 1.89672
f 33/35/3 31/33/3 32/34/3

v 49.9968 0 -113.084
vt -0.0871977 3.22139
f 33/35/3 34/36/3 31/33/3

v 47.782 0 -96.2612
vt 0 2.55906
f 34/36/3 33/35/3 35/37/3

vt -2.53716 1.8542e-017
vn -1 2.79951e-017 3.35941e-016
vt -1.86911 1.8542e-017
vn -0.965926 5.59902e-017 0.258819
v 49.9968 2.5 -79.438
vt -1.86911 0.0984252
v 47.782 2.5 -96.2612
vt -2.53716 0.0984252
f 35/38/4 33/39/5 36/40/5 37/41/4 

vt -1.71897 4.47644e-017
vt -1.05093 4.47644e-017
vn -0.866025 2.79951e-017 0.5
v 56.4903 2.5 -63.7612
vt -1.05093 0.0984252
vt -1.71897 0.0984252
f 33/42/5 32/43/6 38/44/6 36/45/5 

vt -0.806405 0
vt -0.138357 0
vn -0.707107 -2.79951e-017 0.707107
v 66.82 2.5 -50.2993
vt -0.138357 0.0984252
vt -0.806405 0.0984252
f 32/46/6 30/47/7 39/48/7 38/49/6 

vt 0.138357 -5.83382e-017
vt 0.806405 -5.83382e-017
vn -0.5 -2.79951e-017 0.866025
v 80.282 2.5 -39.9696
vt 0.806405 0.0984252
vt 0.138357 0.0984252
f 30/50/7 27/51/8 40/52/8 39/53/7 

vt 1.05093 0
vt 1.71897 0
vn -0.258819 -1.39975e-017 0.965926
v 95.9587 2.5 -33.4761
vt 1.71897 0.0984252
vt 1.05093 0.0984252
f 27/54/8 26/55/9 41/56/9 40/57/8 

vt 1.86911 -9.27102e-018
vt 2.53716 -1.78563e-015
vn -9.93825e-016 -1.74969e-017 1
v 112.782 2.5 -31.2612
vt 2.53716 0.0984252
vt 1.86911 0.0984252
f 26/58/9 25/59/10 42/60/10 41/61/9 

vt 2.53716 -1.77404e-015
vt 3.20521 2.31776e-018
vn 0.258819 -3.49938e-018 0.965926
v 129.605 2.5 -33.4761
vt 3.20521 0.0984252
f 25/62/10 10/63/11 43/64/11 42/60/10 

v 112.782 9.02389e-014 -91.9604
vt -2.55906 2.38973
f 25/27/3 44/65/3 10/12/3

v 111.669 9.02389e-014 -92.1069
vt -2.51523 2.3955
f 25/27/3 45/66/3 44/65/3

v 110.632 9.02389e-014 -92.5366
vt -2.47439 2.41242
f 25/27/3 46/67/3 45/66/3

v 109.741 9.02389e-014 -93.2201
vt -2.43932 2.43932
f 25/27/3 47/68/3 46/67/3

v 109.057 9.02389e-014 -94.1108
vt -2.41242 2.47439
f 25/27/3 48/69/3 47/68/3

v 108.628 9.02389e-014 -95.1481
vt -2.3955 2.51523
f 25/27/3 49/70/3 48/69/3

f 25/27/3 23/25/3 49/70/3

v 108.481 11.5 -96.2612
vt 2.22524 0.452756
vn 1 1.79168e-015 -6.90079e-015
v 108.628 11.5 -95.1481
vt 2.18104 0.452756
vn 0.965926 2.43557e-015 -0.258819
vt 2.18104 -2.14971e-015
vt 2.22524 -2.14971e-015
f 50/71/12 51/72/13 49/73/13 23/74/12 

vt 2.38973 2.55906
vn 0 1 -0
v 109.032 11.5 -89.766
vt 2.41142 2.30334
vt 2.3955 2.51523
f 50/75/14 52/76/14 51/77/14

v 107.479 11.5 -101.565
vt 2.35026 2.76785
f 53/78/14 52/76/14 50/75/14

v 107.479 11.5 -90.9579
vt 2.35026 2.35026
f 53/78/14 54/79/14 52/76/14

v 106.287 11.5 -100.011
vt 2.30334 2.70669
f 55/80/14 54/79/14 53/78/14

v 106.287 11.5 -92.5112
vt 2.30334 2.41142
f 55/80/14 56/81/14 54/79/14

v 105.538 11.5 -98.2024
vt 2.27384 2.63548
f 57/82/14 56/81/14 55/80/14

v 105.538 11.5 -94.3201
vt 2.27384 2.48263
f 57/82/14 58/83/14 56/81/14

v 105.282 11.5 -96.2612
vt 2.26378 2.55906
f 58/83/14 57/82/14 59/84/14

v 105.538 2.5 -98.2024
vt -2.90973 0.0984252
vn -0.965926 8.39852e-017 -0.258819
v 105.282 2.5 -96.2612
vt -2.83264 0.0984252
vn -1 -5.59902e-017 -0
vt -2.83264 0.452756
vt -2.90973 0.452756
f 60/85/15 61/86/16 59/87/16 57/88/15 

v 112.782 2.5 -161.261
vt 2.55906 5.11811
vn 1.1372e-016 1 -2.73743e-017
f 62/89/17 61/84/17 60/82/17

v 95.9587 2.5 -159.046
vt 1.89672 5.03091
f 61/84/17 62/89/17 63/90/17

vt -3.20521 -3.28924e-017
vn 9.93825e-016 1.74969e-017 -1
vt -2.53716 -3.28924e-017
vn -0.258819 3.49938e-018 -0.965926
vt -3.20521 0.0984252
f 17/91/18 24/92/19 63/41/19 62/93/18 

vt -3.67759 0
vt -3.00954 0
vn -0.5 2.79951e-017 -0.866025
v 80.282 2.5 -152.553
vt -3.00954 0.0984252
vt -3.67759 0.0984252
f 24/94/19 28/95/20 64/96/20 63/97/19 

vt -3.92211 -1.67063e-016
vt -3.25407 -1.67063e-016
vn -0.707107 2.79951e-017 -0.707107
v 66.82 2.5 -142.223
vt -3.25407 0.0984252
vt -3.92211 0.0984252
f 28/98/20 29/99/21 65/100/21 64/101/20 

vt -3.92211 0
vt -3.25407 0
vn -0.866025 0 -0.5
v 56.4903 2.5 -128.761
f 29/102/21 31/103/22 66/100/22 65/101/21 

vn -0.965926 0 -0.258819
v 49.9968 2.5 -113.084
f 31/94/22 34/95/23 67/96/23 66/97/22 

vt -3.20521 0
vt -2.53716 0
f 34/104/23 35/105/4 37/41/4 67/93/23 

vt 0.0871977 1.89672
vt 0.0871977 3.22139
vt -1.11929e-017 2.55906
f 36/106/17 67/107/17 37/108/17

vt 0.342848 3.83858
f 67/107/17 36/106/17 66/109/17

vt 0.342848 1.27953
f 66/109/17 36/106/17 38/110/17

vt 0.74953 0.74953
f 66/109/17 38/110/17 39/111/17

vt 0.74953 4.36858
f 66/109/17 39/111/17 65/112/17

vt 1.27953 0.342848
f 65/112/17 39/111/17 40/113/17

vt 1.27953 4.77526
f 65/112/17 40/113/17 64/114/17

f 64/114/17 40/113/17 63/90/17

vt 1.89672 0.0871977
f 63/90/17 40/113/17 41/115/17

vt 2.55906 -1.77905e-015
f 63/90/17 41/115/17 42/116/17

f 63/90/17 42/116/17 61/84/17

v 105.538 2.5 -94.3201
f 61/84/17 42/116/17 68/83/17

v 106.287 2.5 -92.5112
f 68/83/17 42/116/17 69/81/17

v 107.479 2.5 -90.9579
f 69/81/17 42/116/17 70/79/17

v 109.032 2.5 -89.766
f 70/79/17 42/116/17 71/76/17

v 110.841 2.5 -89.0168
vt 2.48263 2.27384
f 71/76/17 42/116/17 72/117/17

v 112.782 2.5 -88.7612
vt 2.55906 2.26378
f 72/117/17 42/116/17 73/118/17

vt 3.22139 0.0871977
f 73/118/17 42/116/17 43/119/17

v 114.723 2.5 -89.0168
vt 2.63548 2.27384
f 73/118/17 43/119/17 74/120/17

v 116.532 2.5 -89.766
vt 2.70669 2.30334
f 74/120/17 43/119/17 75/121/17

v 118.085 2.5 -90.9579
vt 2.76785 2.35026
f 75/121/17 43/119/17 76/122/17

v 119.277 2.5 -92.5112
vt 2.81477 2.41142
f 76/122/17 43/119/17 77/123/17

v 120.026 2.5 -94.3201
vt 2.84427 2.48263
f 77/123/17 43/119/17 78/124/17

v 120.282 2.5 -96.2612
vt 2.85433 2.55906
f 78/124/17 43/119/17 79/125/17

v 129.605 2.5 -159.046
vt 3.22139 5.03091
f 80/126/17 79/125/17 43/119/17

v 120.026 2.5 -98.2024
vt 2.84427 2.63548
f 80/126/17 81/127/17 79/125/17

v 119.277 2.5 -100.011
vt 2.81477 2.70669
f 80/126/17 82/128/17 81/127/17

v 118.085 2.5 -101.565
vt 2.76785 2.76785
f 80/126/17 83/129/17 82/128/17

v 116.532 2.5 -102.756
vt 2.70669 2.81477
f 80/126/17 84/130/17 83/129/17

v 114.723 2.5 -103.506
vt 2.63548 2.84427
f 80/126/17 85/131/17 84/130/17

v 112.782 2.5 -103.761
vt 2.55906 2.85433
f 80/126/17 86/132/17 85/131/17

f 62/89/17 86/132/17 80/126/17

v 110.841 2.5 -103.506
vt 2.48263 2.84427
f 62/89/17 87/133/17 86/132/17

v 109.032 2.5 -102.756
vt 2.41142 2.81477
f 62/89/17 88/134/17 87/133/17

v 107.479 2.5 -101.565
f 62/89/17 89/78/17 88/134/17

v 106.287 2.5 -100.011
f 62/89/17 90/80/17 89/78/17

f 62/89/17 60/82/17 90/80/17

vt -3.38211 0.0984252
vn -0.866025 2.79951e-017 -0.5
vt -3.30503 0.0984252
vt -3.30503 0.452756
vt -3.38211 0.452756
f 90/135/24 60/136/15 57/137/15 55/138/24 

vt -3.62663 0.0984252
vn -0.707107 5.59902e-017 -0.707107
vt -3.54955 0.0984252
vt -3.54955 0.452756
vt -3.62663 0.452756
f 89/139/25 90/140/24 55/141/24 53/142/25 

vn -0.5 6.99877e-017 -0.866025
v 109.032 11.5 -102.756
f 88/139/26 89/140/25 53/141/25 91/142/26 

f 50/75/14 91/134/14 53/78/14

v 108.628 11.5 -97.3744
vt 2.3955 2.60288
f 91/134/14 50/75/14 92/143/14

vt 2.89329 0.452756
vn 0.965926 1.06381e-015 0.258819
vt 2.84908 0.452756
vt 2.84908 6.15241e-016
vt 2.89329 6.15241e-016
f 92/144/27 50/145/12 23/146/12 22/147/27 

v 109.057 11.5 -98.4117
vt 3.36567 0.452756
vn 0.866025 2.23961e-016 0.5
vt 3.32147 0.452756
vt 3.32147 2.74198e-015
vt 3.36567 4.51834e-015
f 93/148/28 92/149/27 22/150/27 21/151/28 

vt 2.41242 2.64372
f 91/134/14 92/143/14 93/152/14

v 110.841 11.5 -103.506
f 91/134/14 93/152/14 94/133/14

v 109.741 11.5 -99.3024
vt 2.43932 2.67879
f 94/133/14 93/152/14 95/153/14

vt 3.61019 0.452756
vn 0.707107 -5.59902e-016 0.707107
vt 3.56599 0.452756
vt 3.56599 5.39668e-015
vt 3.61019 3.62033e-015
f 95/154/29 93/155/28 21/156/28 20/157/29 

v 110.632 11.5 -99.9859
vn 0.5 -1.28777e-015 0.866025
vt 3.56599 2.98405e-015
vt 3.61019 1.20769e-015
f 96/154/30 95/155/29 20/158/29 19/159/30 

vt 2.47439 2.7057
f 94/133/14 95/153/14 96/160/14

v 111.669 11.5 -100.416
vt 2.51523 2.72261
f 94/133/14 96/160/14 97/161/14

vn 0.258819 -2.00865e-015 0.965926
vt 3.32147 -8.0962e-016
vt 3.36567 2.74309e-015
f 97/148/31 96/149/30 19/162/30 18/163/31 

v 112.782 11.5 -100.562
vn 1.25418e-014 -2.58255e-015 1
vt 2.84908 -1.65972e-016
vt 2.89329 -1.94233e-015
f 98/144/32 97/145/31 18/164/31 16/165/32 

v 112.782 11.5 -103.761
vt 2.55906 2.72838
f 99/132/14 97/161/14 98/166/14

f 94/133/14 97/161/14 99/132/14

vn 0 -1.04982e-017 -1
vn -0.258819 1.04982e-017 -0.965926
f 86/85/33 87/86/34 94/87/34 99/88/33 

f 87/135/34 88/136/26 91/137/26 94/138/34 

vt -2.24168 0.0984252
vn 0.258819 -6.99877e-018 -0.965926
vt -2.1646 0.0984252
vt -2.1646 0.452756
v 114.723 11.5 -103.506
vt -2.24168 0.452756
f 85/167/35 86/168/33 99/169/33 100/170/35 

v 113.895 11.5 -100.416
vt 2.60288 2.72261
f 99/132/14 101/171/14 100/131/14

f 99/132/14 98/166/14 101/171/14

vn -0.258819 -2.95348e-015 0.965926
vt 2.18104 -4.96673e-015
vt 2.22524 -3.19037e-015
f 101/71/36 98/72/32 16/172/32 15/173/36 

v 114.932 11.5 -99.9859
vt 1.40705 0.452756
vn -0.5 -3.16344e-015 0.866025
vt 1.36285 0.452756
vt 1.36285 -5.39176e-015
vt 1.40705 -7.16812e-015
f 102/174/37 101/175/36 15/176/36 14/177/37 

vt 2.64372 2.7057
f 100/131/14 101/171/14 102/178/14

v 116.532 11.5 -102.756
f 100/131/14 102/178/14 103/130/14

v 115.823 11.5 -99.3024
vt 2.67879 2.67879
f 103/130/14 102/178/14 104/179/14

vt 0.494482 0.452756
vn -0.707107 -3.16344e-015 0.707107
vt 0.450279 0.452756
vt 0.450279 -8.54017e-015
vt 0.494482 -8.54017e-015
f 104/180/38 102/181/37 14/182/37 13/183/38 

v 116.082 11.5 -98.9651
vt -0.477743 0.452756
vn -0.793353 -3.05311e-015 0.608761
vt -0.494482 0.452756
vt -0.494482 -7.91468e-015
vt -0.477743 -7.91468e-015
f 105/184/39 104/185/38 13/186/38 12/187/39 

vt 2.68898 2.66551
f 103/130/14 104/179/14 105/188/14

v 116.082 11.5 -93.5574
vt 2.68898 2.4526
f 103/130/14 105/188/14 106/189/14

vt -2.4526 0.452756
vn -1 -1.88738e-015 9.03444e-015
vt -2.66551 0.452756
vt -2.66551 -1.5224e-015
vt -2.4526 -1.5224e-015
f 106/190/40 105/191/40 12/192/40 11/193/40 

v 115.823 11.5 -93.2201
vt -3.56599 0.452756
vn -0.707107 5.59902e-016 -0.707107
vt -3.58273 0.452756
vn -0.793353 1.66533e-016 -0.608761
vt -3.58273 3.65934e-015
v 115.823 1.35358e-013 -93.2201
vt -3.56599 5.43569e-015
f 107/194/41 106/195/42 11/196/42 108/197/41 

vt 2.67879 2.43932
v 116.532 11.5 -89.766
f 107/198/14 109/121/14 106/189/14

v 114.932 11.5 -92.5366
vt 2.64372 2.41242
f 110/199/14 109/121/14 107/198/14

v 114.723 11.5 -89.0168
f 110/199/14 111/120/14 109/121/14

v 113.895 11.5 -92.1069
vt 2.60288 2.3955
f 112/200/14 111/120/14 110/199/14

v 112.782 11.5 -91.9604
vt 2.55906 2.38973
f 113/201/14 111/120/14 112/200/14

v 112.782 11.5 -88.7612
f 113/201/14 114/118/14 111/120/14

v 111.669 11.5 -92.1069
vt 2.51523 2.3955
f 115/202/14 114/118/14 113/201/14

v 110.841 11.5 -89.0168
f 115/202/14 116/117/14 114/118/14

v 110.632 11.5 -92.5366
vt 2.47439 2.41242
f 117/203/14 116/117/14 115/202/14

v 109.741 11.5 -93.2201
vt 2.43932 2.43932
f 118/204/14 116/117/14 117/203/14

v 109.057 11.5 -94.1108
vt 2.41242 2.47439
f 119/205/14 116/117/14 118/204/14

f 119/205/14 52/76/14 116/117/14

f 51/77/14 52/76/14 119/205/14

vn 0.866025 2.88349e-015 -0.5
vt 1.36285 -5.08531e-015
vt 1.40705 -5.08531e-015
f 51/174/13 119/175/43 48/206/43 49/207/13 

vn 0.707107 3.07946e-015 -0.707107
vt 0.450279 -6.69972e-015
vt 0.494482 -6.69972e-015
f 119/180/43 118/181/44 47/208/44 48/209/43 

vt -0.450279 0.452756
vn 0.5 3.13545e-015 -0.866025
vt -0.494482 -7.07944e-015
vt -0.450279 -7.07944e-015
f 118/210/44 117/185/45 46/211/45 47/212/44 

vt -1.36285 0.452756
vt -1.40705 0.452756
vn 0.258819 2.99547e-015 -0.965926
vt -1.40705 -6.31931e-015
vt -1.36285 -6.31931e-015
f 117/213/45 115/214/46 45/215/46 46/216/45 

vt -2.18104 0.452756
vt -2.22524 0.452756
vn 1.62231e-014 2.59654e-015 -1
vt -2.22524 -4.10054e-015
vt -2.18104 -4.10054e-015
f 115/217/46 113/218/47 44/219/47 45/220/46 

vt -2.84908 0.452756
vt -2.89329 0.452756
vn -0.258819 2.00865e-015 -0.965926
v 113.895 9.02389e-014 -92.1069
vt -2.89329 -1.16419e-015
vt -2.84908 -1.16419e-015
f 113/221/47 112/222/48 120/223/48 44/224/47 

vt -3.32147 0.452756
vt -3.36567 0.452756
vn -0.5 1.31577e-015 -0.866025
v 114.932 9.02389e-014 -92.5366
vt -3.36567 1.52588e-015
vt -3.32147 1.52588e-015
f 112/225/48 110/226/49 121/227/49 120/228/48 

vt -3.61019 0.452756
vt -3.61019 5.04171e-015
vt -3.56599 3.26536e-015
f 110/194/49 107/229/41 108/230/41 121/231/49 

vt -2.64372 2.41242
vt -2.67879 2.43932
f 10/12/3 121/232/3 108/233/3

vt -2.60288 2.3955
f 10/12/3 120/234/3 121/232/3

f 10/12/3 44/65/3 120/234/3

f 10/12/3 108/233/3 11/13/3

vt 1.34641 0.0984252
vt 1.42349 0.0984252
vn -0.258819 6.99877e-018 0.965926
vt 1.42349 0.452756
vt 1.34641 0.452756
f 71/235/8 72/236/50 116/237/50 52/238/8 

vt 2.1646 0.0984252
vt 2.24168 0.0984252
vn 0 1.04982e-017 1
vt 2.24168 0.452756
vt 2.1646 0.452756
f 72/239/50 73/240/51 114/241/51 116/242/50 

vt 2.83264 0.0984252
vt 2.90973 0.0984252
vn 0.258819 -1.04982e-017 0.965926
vt 2.90973 0.452756
vt 2.83264 0.452756
f 73/243/51 74/244/52 111/245/52 114/246/51 

vt 3.30503 0.0984252
vt 3.38211 0.0984252
vn 0.5 -6.99877e-017 0.866025
vt 3.38211 0.452756
vt 3.30503 0.452756
f 74/247/52 75/248/53 109/249/53 111/250/52 

vt 3.54955 0.0984252
vt 3.62663 0.0984252
vn 0.707107 -5.59902e-017 0.707107
v 118.085 11.5 -90.9579
vt 3.62663 0.452756
vt 3.54955 0.452756
f 75/251/53 76/252/54 122/253/54 109/254/53 

vn 0.866025 -2.79951e-017 0.5
v 119.277 11.5 -92.5112
f 76/251/54 77/252/55 123/253/55 122/254/54 

vn 0.965926 -8.39852e-017 0.258819
v 120.026 11.5 -94.3201
f 77/247/55 78/248/56 124/249/56 123/250/55 

vn 1 5.59902e-017 -0
v 120.282 11.5 -96.2612
f 78/243/56 79/244/57 125/245/57 124/246/56 

vn 0.965926 8.39852e-017 -0.258819
v 120.026 11.5 -98.2024
f 79/239/57 81/240/58 126/241/58 125/242/57 

vn 0.866025 -6.21616e-033 -0.5
v 119.277 11.5 -100.011
f 81/235/58 82/236/59 127/237/59 126/238/58 

vt 0.43384 0.0984252
vt 0.510922 0.0984252
vn 0.707107 5.59902e-017 -0.707107
v 118.085 11.5 -101.565
vt 0.510922 0.452756
vt 0.43384 0.452756
f 82/255/59 83/256/60 128/257/60 127/258/59 

vt -0.510922 0.0984252
vt -0.43384 0.0984252
vn 0.5 2.79951e-017 -0.866025
vt -0.43384 0.452756
vt -0.510922 0.452756
f 83/259/60 84/260/61 103/261/61 128/262/60 

vt -1.42349 0.0984252
vt -1.34641 0.0984252
vt -1.34641 0.452756
vt -1.42349 0.452756
f 84/263/61 85/264/35 100/265/35 103/266/61 

f 103/130/14 122/122/14 128/129/14

f 103/130/14 109/121/14 122/122/14

f 103/130/14 106/189/14 109/121/14

f 128/129/14 122/122/14 123/123/14

f 128/129/14 123/123/14 127/128/14

f 127/128/14 123/123/14 126/127/14

f 126/127/14 123/123/14 124/124/14

f 126/127/14 124/124/14 125/125/14

vn -0.707107 -5.59902e-017 0.707107
f 70/255/62 71/256/8 52/257/8 54/258/62 

vn -0.866025 6.21616e-033 0.5
f 69/259/63 70/260/62 54/261/62 56/262/63 

vn -0.965926 -8.39852e-017 0.258819
f 68/263/64 69/264/63 56/265/63 58/266/64 

f 61/167/16 68/168/64 58/169/64 59/170/16 

vt -2.53716 -3.70283e-015
vn 0.258819 3.10808e-033 -0.965926
vt -1.86911 -1.50112e-016
f 9/267/65 17/268/18 62/40/18 80/41/65 

vt -1.71897 1.63223e-016
vn 0.5 4.19926e-017 -0.866025
vt -1.05093 -3.38949e-015
v 145.282 2.5 -152.553
f 7/269/66 9/270/65 80/44/65 129/45/66 

v 145.282 2.5 -39.9696
vt 3.83858 0.342848
vt 3.83858 4.77526
f 80/126/17 130/271/17 129/272/17

f 80/126/17 43/119/17 130/271/17

vt 3.00954 0
vt 3.67759 0
vn 0.5 -2.79951e-017 0.866025
vt 3.67759 0.0984252
vt 3.00954 0.0984252
f 10/273/11 8/274/67 130/275/67 43/276/11 

vt 3.25407 1.14618e-016
vt 3.92211 1.14618e-016
f 8/277/67 1/278/1 4/3/1 130/4/67 

vt 4.36858 0.74953
f 129/272/17 130/271/17 4/279/17

v 158.744 2.5 -142.223
vt 4.36858 4.36858
f 129/272/17 4/279/17 131/280/17

vt 4.77526 1.27953
f 131/280/17 4/279/17 3/281/17

v 169.074 2.5 -128.761
vt 4.77526 3.83858
f 131/280/17 3/281/17 132/282/17

v 175.567 2.5 -79.438
vt 5.03091 1.89672
f 132/282/17 3/281/17 133/283/17

v 175.567 0 -79.438
vn 0.965926 -2.79951e-017 0.258819
f 2/273/2 134/274/68 133/275/68 3/276/2 

vt -5.03091 1.89672
f 2/7/3 5/6/3 134/284/3

v 175.567 0 -113.084
vt -5.03091 3.22139
f 134/284/3 5/6/3 135/285/3

vt 1.05093 -1.30578e-015
vt 1.71897 -1.30578e-015
vn 0.866025 1.39975e-016 -0.5
v 175.567 2.5 -113.084
f 135/286/58 5/287/69 132/56/69 136/57/58 

vt 0.138357 -3.4002e-016
vt 0.806405 -3.4002e-016
vn 0.707107 8.39852e-017 -0.707107
f 5/288/69 6/289/70 131/52/70 132/53/69 

vt -0.806405 -6.80039e-016
vt -0.138357 -6.80039e-016
f 6/290/70 7/291/66 129/48/66 131/49/70 

vt 5.03091 3.22139
f 132/282/17 133/283/17 136/292/17

v 177.782 2.5 -96.2612
vt 5.11811 2.55906
f 136/292/17 133/283/17 137/293/17

vt 2.53716 2.6314e-016
v 177.782 0 -96.2612
vt 3.20521 2.6314e-016
vn 1 -5.59902e-017 4.19926e-017
f 134/294/68 138/295/71 137/64/71 133/60/68 

vt -5.11811 2.55906
f 134/284/3 135/285/3 138/296/3

vt 1.86911 3.00224e-016
vt 2.53716 3.00224e-016
f 138/297/71 135/298/58 136/60/58 137/61/71 

