# Alias OBJ Model File
# Exported from SketchUp, (c) 2000-2012 Trimble Navigation Limited
# File units = millimeters

mtllib DODEL.mtl

g Mesh1 Group1 Model

usemtl FrontColor
v 55.8032 9 -25.7666
vt -0.0787402 -1.87414e-014
vn 1 4.75731e-014 -1.83421e-014
v 55.8032 4.51195e-014 -25.7666
vt -0.0787402 -0.354331
v 55.8032 9.02389e-014 -48.7666
vt 0.826772 -0.354331
v 55.8032 9 -48.7666
vt 0.826772 -1.87414e-014
v 55.8032 9 -46.7666
vt 0.748031 -1.87414e-014
v 55.8032 27 -46.7666
vt 0.748031 0.708661
v 55.8032 27 -44.5666
vt 0.661417 0.708661
v 55.8032 27 -27.7666
vt -9.96539e-015 0.708661
v 55.8032 9 -27.7666
vt -2.06235e-014 -1.87414e-014
f 1/1/1 2/2/1 3/3/1 4/4/1 5/5/1 6/6/1 7/7/1 8/8/1 9/9/1 

v 54.318 3.85295 -25.7666
vt 0.484835 -0.20264
vn -1.08767e-014 -4.76355e-015 1
vt 0.543307 -0.354331
vt 0.543307 7.48051e-015
f 10/10/2 2/11/2 1/12/2

v 54.0683 3.25 -25.7666
vt 0.475003 -0.226378
f 11/13/2 2/11/2 10/10/2

v 53.671 2.73223 -25.7666
vt 0.459361 -0.246762
f 12/14/2 2/11/2 11/13/2

v 53.1532 2.33494 -25.7666
vt 0.438976 -0.262404
f 13/15/2 2/11/2 12/14/2

v 52.5503 2.08519 -25.7666
vt 0.415238 -0.272237
f 14/16/2 2/11/2 13/15/2

v 51.9032 2 -25.7666
vt 0.389764 -0.275591
f 2/11/2 14/16/2 15/17/2

v 52.5503 2.08519 -29.9666
vt -0.0866142 0.376152
vn -0.258819 0.965926 -1.55381e-014
v 51.9032 2 -29.9666
vt -0.0866142 0.350458
vn 1.20659e-014 1 -1.33134e-014
vt 0.0787402 0.350458
vt 0.0787402 0.376152
f 16/18/3 17/19/4 15/20/4 14/21/3 

vt -0.415238 -0.272237
vn 2.13969e-014 6.53384e-015 -1
v 54.8032 9.02389e-014 -29.9666
vt -0.503937 -0.354331
vt -0.389764 -0.275591
f 16/22/5 18/23/5 17/24/5

v 53.1532 2.33494 -29.9666
vt -0.438976 -0.262404
f 19/25/5 18/23/5 16/22/5

v 53.671 2.73223 -29.9666
vt -0.459361 -0.246762
f 20/26/5 18/23/5 19/25/5

v 54.0683 3.25 -29.9666
vt -0.475003 -0.226378
f 21/27/5 18/23/5 20/26/5

v 54.318 3.85295 -29.9666
vt -0.484835 -0.20264
f 22/28/5 18/23/5 21/27/5

v 54.4032 4.5 -29.9666
vt -0.488189 -0.177165
f 23/29/5 18/23/5 22/28/5

v 54.8032 27 -29.9666
vt -0.503937 0.708661
f 18/23/5 23/29/5 24/30/5

v 54.318 5.14705 -29.9666
vt -0.484835 -0.151691
f 24/30/5 23/29/5 25/31/5

vt -0.0866142 -0.213677
vn -0.965926 -0.258819 -6.54472e-015
vt -0.0866142 -0.239371
vn -1 3.65336e-015 -1.03411e-014
v 54.4032 4.5 -25.7666
vt 0.0787402 -0.239371
v 54.318 5.14705 -25.7666
vt 0.0787402 -0.213677
f 25/32/6 23/33/7 26/34/7 27/35/6 

vt -0.0866142 -0.111928
vt -0.0866142 -0.137622
vn -0.965926 0.258819 -1.34302e-014
vt 0.0787402 -0.137622
vt 0.0787402 -0.111928
f 23/36/7 22/37/8 10/38/8 26/39/7 

vt -0.0866142 -0.00167624
vt -0.0866142 -0.0273704
vn -0.866025 0.5 -1.56108e-014
vt 0.0787402 -0.0273704
vt 0.0787402 -0.00167624
f 22/40/8 21/41/9 11/42/9 10/43/8 

vt -0.0866142 0.109565
vt -0.0866142 0.0838714
vn -0.707107 0.707107 -1.67297e-014
vt 0.0787402 0.0838714
vt 0.0787402 0.109565
f 21/44/9 20/45/10 12/46/10 11/47/9 

vt -0.0866142 0.214216
v 53.5294 2.62361 -29.9666
vt -0.0866142 0.207191
vn -0.608761 0.793353 -1.6865e-014
v 53.5294 2.62361 -25.7666
vt 0.0787402 0.207191
vt 0.0787402 0.214216
f 20/48/10 28/49/11 29/50/11 12/51/10 

vt -0.453788 -0.251039
f 20/26/5 19/25/5 28/52/5

vt -0.0866142 0.188522
vn -0.5 0.866025 -1.67052e-014
vt 0.0787402 0.188522
f 28/49/11 19/53/12 13/54/12 29/50/11 

vt -0.0866142 0.305144
vt -0.0866142 0.279449
vt 0.0787402 0.279449
vt 0.0787402 0.305144
f 19/55/12 16/56/3 14/57/3 13/58/12 

vt 0.453788 -0.251039
f 13/15/2 12/14/2 29/59/2

vt 0.488189 -0.177165
f 10/10/2 1/12/2 26/60/2

vt 0.484835 -0.151691
f 26/60/2 1/12/2 27/61/2

v 54.0683 5.75 -25.7666
vt 0.475003 -0.127953
f 27/61/2 1/12/2 30/62/2

v 53.671 6.26777 -25.7666
vt 0.459361 -0.107568
f 30/62/2 1/12/2 31/63/2

v 53.1532 6.66506 -25.7666
vt 0.438976 -0.0919266
f 31/63/2 1/12/2 32/64/2

v 52.5503 6.91481 -25.7666
vt 0.415238 -0.0820939
f 32/64/2 1/12/2 33/65/2

v 51.9032 7 -25.7666
vt 0.389764 -0.0787402
f 33/65/2 1/12/2 34/66/2

v 45.6912 9 -25.7666
vt 0.145195 3.75083e-016
f 34/66/2 1/12/2 35/67/2

v 42.2032 15.0137 -25.7666
vt 0.00787402 0.23676
f 35/67/2 1/12/2 36/68/2

v 42.2032 19 -25.7666
vt 0.00787402 0.393701
f 36/68/2 1/12/2 37/69/2

vt -1.22675e-015 -0.437716
vn 0.59239 0.805651 1.02834e-014
v 42.2032 19 -27.7666
vt -3.41603e-015 0.226881
vt -0.0787402 0.226881
vt -0.0787402 -0.437716
f 9/70/13 38/71/13 37/72/13 1/73/13 

v 42.2032 27 -27.7666
vt 0.00787402 0.708661
vn 4.42962e-015 6.00041e-015 1
vt 0.543307 7.10543e-015
vt 0.543307 0.708661
f 39/74/14 38/69/14 9/75/14 8/76/14 

v 42.2032 27 -29.9666
vt -0.0866142 0.708661
vn -1 1.19349e-014 2.64806e-015
v 42.2032 19 -29.9666
vt -0.0866142 0.393701
vt 3.57356e-015 0.393701
vt 8.90264e-015 0.708661
f 40/77/15 41/78/15 38/79/15 39/80/15 

vt -0.00787402 0.393701
vt -0.00787402 0.708661
f 24/30/5 41/81/5 40/82/5

v 48.0032 9 -29.9666
vt -0.23622 2.98679e-015
f 24/30/5 42/83/5 41/81/5

v 51.9032 7 -29.9666
vt -0.389764 -0.0787402
f 24/30/5 43/84/5 42/83/5

v 52.5503 6.91481 -29.9666
vt -0.415238 -0.0820939
f 24/30/5 44/85/5 43/84/5

v 53.1532 6.66506 -29.9666
vt -0.438976 -0.0919266
f 24/30/5 45/86/5 44/85/5

v 53.671 6.26777 -29.9666
vt -0.459361 -0.107568
f 24/30/5 46/87/5 45/86/5

v 54.0683 5.75 -29.9666
vt -0.475003 -0.127953
f 24/30/5 47/88/5 46/87/5

f 24/30/5 25/31/5 47/88/5

vt -0.0866142 -0.299989
vn -0.866025 -0.5 -2.29647e-015
vt -0.0866142 -0.325683
vt 0.0787402 -0.325683
vt 0.0787402 -0.299989
f 47/89/16 25/90/6 27/91/6 30/92/16 

vt -0.0866142 -0.364981
vn -0.707107 -0.707107 2.10379e-015
vt -0.0866142 -0.390675
vt 0.0787402 -0.390675
vt 0.0787402 -0.364981
f 46/93/17 47/94/16 30/95/16 31/96/17 

vt -0.0866142 -0.404225
vn -0.5 -0.866025 6.36254e-015
vt -0.0866142 -0.429919
vt 0.0787402 -0.429919
vt 0.0787402 -0.404225
f 45/97/18 46/98/17 31/99/17 32/100/18 

vt -0.0866142 -0.415046
vn -0.258819 -0.965926 1.0185e-014
vt -0.0866142 -0.44074
vt 0.0787402 -0.44074
vt 0.0787402 -0.415046
f 44/101/19 45/102/18 32/103/18 33/104/19 

vt -0.0866142 -0.396707
vn -1.20659e-014 -1 1.33134e-014
vt -0.0866142 -0.422401
vt 0.0787402 -0.422401
vt 0.0787402 -0.396707
f 43/105/20 44/106/19 33/107/19 34/108/20 

v 51.2562 6.91481 -29.9666
vt 0.0866142 0.350458
vn 0.258819 -0.965926 1.55381e-014
vt 0.0866142 0.376152
vt -0.0787402 0.376152
v 51.2562 6.91481 -25.7666
vt -0.0787402 0.350458
f 48/109/21 43/110/20 34/111/20 49/112/21 

vt -0.364289 -0.0820939
f 48/113/5 42/83/5 43/84/5

v 50.6532 6.66506 -29.9666
vt -0.340551 -0.0919266
f 50/114/5 42/83/5 48/113/5

v 50.277 6.37639 -29.9666
vt -0.32574 -0.103292
f 51/115/5 42/83/5 50/114/5

v 50.1355 6.26777 -29.9666
vt -0.320167 -0.107568
f 52/116/5 42/83/5 51/115/5

v 49.7382 5.75 -29.9666
vt -0.304525 -0.127953
f 53/117/5 42/83/5 52/116/5

v 49.4884 5.14705 -29.9666
vt -0.294692 -0.151691
f 54/118/5 42/83/5 53/117/5

v 49.4032 4.5 -29.9666
vt -0.291339 -0.177165
f 55/119/5 42/83/5 54/118/5

v 49.4884 3.85295 -29.9666
vt -0.294692 -0.20264
f 56/120/5 42/83/5 55/119/5

v 48.0032 0 -29.9666
vt -0.23622 -0.354331
f 56/120/5 57/121/5 42/83/5

v 49.7382 3.25 -29.9666
vt -0.304525 -0.226378
f 58/122/5 57/121/5 56/120/5

v 50.1355 2.73223 -29.9666
vt -0.320167 -0.246762
f 59/123/5 57/121/5 58/122/5

v 50.6532 2.33494 -29.9666
vt -0.340551 -0.262404
f 60/124/5 57/121/5 59/123/5

f 57/121/5 60/124/5 18/23/5

v 51.2562 2.08519 -29.9666
vt -0.364289 -0.272237
f 18/23/5 60/124/5 61/125/5

vt 0.0866142 -0.44074
vn 0.258819 0.965926 -1.0185e-014
vt 0.0866142 -0.415046
vn 0.5 0.866025 -6.36254e-015
v 50.6532 2.33494 -25.7666
vt -0.0787402 -0.415046
v 51.2562 2.08519 -25.7666
vt -0.0787402 -0.44074
f 61/126/22 60/127/23 62/128/23 63/129/22 

vt 0.0866142 -0.429919
vt 0.0866142 -0.404225
vn 0.707107 0.707107 -2.10379e-015
v 50.1355 2.73223 -25.7666
vt -0.0787402 -0.404225
vt -0.0787402 -0.429919
f 60/130/23 59/131/24 64/132/24 62/133/23 

vt 0.0866142 -0.390675
vt 0.0866142 -0.364981
vn 0.866025 0.5 2.29647e-015
v 49.7382 3.25 -25.7666
vt -0.0787402 -0.364981
vt -0.0787402 -0.390675
f 59/134/24 58/135/25 65/136/25 64/137/24 

vt 0.0866142 -0.325683
vt 0.0866142 -0.299989
vn 0.965926 0.258819 6.54472e-015
v 49.4884 3.85295 -25.7666
vt -0.0787402 -0.299989
vt -0.0787402 -0.325683
f 58/138/25 56/139/26 66/140/26 65/141/25 

vt 0.0866142 -0.239371
vt 0.0866142 -0.213677
vn 1 -3.65336e-015 1.03411e-014
v 49.4032 4.5 -25.7666
vt -0.0787402 -0.213677
vt -0.0787402 -0.239371
f 56/142/26 55/143/27 67/144/27 66/145/26 

vt 0.0866142 -0.137622
vt 0.0866142 -0.111928
vn 0.965926 -0.258819 1.34302e-014
v 49.4884 5.14705 -25.7666
vt -0.0787402 -0.111928
vt -0.0787402 -0.137622
f 55/146/27 54/147/28 68/148/28 67/149/27 

vt 0.0866142 -0.0273704
vt 0.0866142 -0.00167624
vn 0.866025 -0.5 1.56108e-014
v 49.7382 5.75 -25.7666
vt -0.0787402 -0.00167624
vt -0.0787402 -0.0273704
f 54/150/28 53/151/29 69/152/29 68/153/28 

vt 0.0866142 0.0838714
vt 0.0866142 0.109565
vn 0.707107 -0.707107 1.67262e-014
v 50.1355 6.26777 -25.7666
vt -0.0787402 0.109565
vt -0.0787402 0.0838714
f 53/154/29 52/155/30 70/156/30 69/157/29 

vt 0.0866142 0.188522
vt 0.0866142 0.195547
vn 0.608761 -0.793353 1.68615e-014
v 50.277 6.37639 -25.7666
vt -0.0787402 0.195547
vt -0.0787402 0.188522
f 52/158/30 51/159/31 71/160/31 70/161/30 

vt 0.0866142 0.214216
vn 0.5 -0.866025 1.67052e-014
v 50.6532 6.66506 -25.7666
vt -0.0787402 0.214216
f 51/159/31 50/162/32 72/163/32 71/160/31 

vt 0.0866142 0.279449
vt 0.0866142 0.305144
vt -0.0787402 0.305144
vt -0.0787402 0.279449
f 50/164/32 48/165/21 49/166/21 72/167/32 

vt 0.340551 -0.0919266
vt 0.364289 -0.0820939
f 35/67/2 72/168/2 49/169/2

vt 0.32574 -0.103292
f 35/67/2 71/170/2 72/168/2

vt 0.320167 -0.107568
f 35/67/2 70/171/2 71/170/2

vt 0.304525 -0.127953
f 35/67/2 69/172/2 70/171/2

vt 0.294692 -0.151691
f 35/67/2 68/173/2 69/172/2

vt 0.291339 -0.177165
f 35/67/2 67/174/2 68/173/2

vt 0.294692 -0.20264
f 35/67/2 66/175/2 67/174/2

vt 0.304525 -0.226378
f 35/67/2 65/176/2 66/175/2

v 45.6912 0 -25.7666
vt 0.145195 -0.354331
f 73/177/2 65/176/2 35/67/2

vt 0.320167 -0.246762
f 65/176/2 73/177/2 64/178/2

vt 0.340551 -0.262404
f 64/178/2 73/177/2 62/179/2

f 62/179/2 73/177/2 2/11/2

vt -0.145195 -0.0787402
vn 4.55191e-015 -1 -5.2805e-015
vt -0.23622 0.0866142
vt -0.543307 -0.0787402
f 73/180/33 57/181/33 2/182/33

v 48.0032 9.02389e-014 -44.5666
vt -0.23622 0.661417
f 57/181/33 73/180/33 74/183/33

v 45.6912 1.80478e-013 -48.7666
vt -0.145195 0.826772
f 75/184/33 74/183/33 73/180/33

vt -0.543307 0.826772
f 74/183/33 75/184/33 3/185/33

v 52.5762 1.98859 -48.7666
vt -0.416257 -0.27604
vn 5.40106e-015 6.80098e-015 -1
vt -0.543307 -0.354331
vt -0.145195 -0.354331
f 76/186/34 3/187/34 75/188/34

v 53.2032 2.24833 -48.7666
vt -0.440945 -0.265814
f 77/189/34 3/187/34 76/186/34

v 53.7417 2.66152 -48.7666
vt -0.462145 -0.249546
f 78/190/34 3/187/34 77/189/34

v 54.1549 3.2 -48.7666
vt -0.478412 -0.228346
f 79/191/34 3/187/34 78/190/34

v 54.4146 3.82707 -48.7666
vt -0.488638 -0.203659
f 80/192/34 3/187/34 79/191/34

vt -0.543307 1.48257e-015
f 3/187/34 80/192/34 4/193/34

v 54.5032 4.5 -48.7666
vt -0.492126 -0.177165
f 4/193/34 80/192/34 81/194/34

v 54.4146 3.82707 -44.5666
vt -0.661417 -0.138136
vn -0.965926 0.258819 -8.22793e-016
v 54.5032 4.5 -44.5666
vt -0.661417 -0.111414
vn -1 -1.7077e-014 -1.97059e-015
vt -0.826772 -0.111414
vt -0.826772 -0.138136
f 82/195/35 83/196/36 81/197/36 80/198/35 

vt 0.488638 -0.203659
vn 7.1991e-015 2.88831e-016 1
v 54.8032 0 -44.5666
vt 0.503937 -0.354331
vt 0.492126 -0.177165
f 82/199/37 84/200/37 83/201/37

v 54.1549 3.2 -44.5666
vt 0.478412 -0.228346
f 85/202/37 84/200/37 82/199/37

v 53.7417 2.66152 -44.5666
vt 0.462145 -0.249546
f 86/203/37 84/200/37 85/202/37

v 53.2032 2.24833 -44.5666
vt 0.440945 -0.265814
f 87/204/37 84/200/37 86/203/37

vt 0.23622 -0.354331
f 84/200/37 87/204/37 74/205/37

v 52.5762 1.98859 -44.5666
vt 0.416257 -0.27604
f 74/205/37 87/204/37 88/206/37

vt -0.661417 0.278936
vn -0.258819 0.965926 3.54138e-015
vt -0.661417 0.305657
vn -0.5 0.866025 2.64466e-015
vt -0.826772 0.305657
vt -0.826772 0.278936
f 88/207/38 87/208/39 77/209/39 76/210/38 

vt -0.661417 0.188008
vt -0.661417 0.21473
vn -0.707107 0.707107 1.56772e-015
vt -0.826772 0.21473
vt -0.826772 0.188008
f 87/211/39 86/212/40 78/213/40 77/214/39 

vt -0.661417 0.0833575
vt -0.661417 0.110079
vn -0.866025 0.5 3.85807e-016
vt -0.826772 0.110079
vt -0.826772 0.0833575
f 86/215/40 85/216/41 79/217/41 78/218/40 

vt -0.661417 -0.0278843
vt -0.661417 -0.00116235
vt -0.826772 -0.00116235
vt -0.826772 -0.0278843
f 85/219/41 82/220/35 80/221/35 79/222/41 

v 51.9032 1.9 -44.5666
vt -0.661417 0.349944
vn -1.23178e-015 1 4.19489e-015
vt -0.661417 0.376666
vt -0.826772 0.376666
v 51.9032 1.9 -48.7666
vt -0.826772 0.349944
f 89/223/42 88/224/38 76/225/38 90/226/42 

vt 0.389764 -0.279528
f 74/205/37 88/206/37 89/227/37

v 51.2303 1.98859 -44.5666
vt 0.36327 -0.27604
f 91/228/37 74/205/37 89/227/37

v 50.6032 2.24833 -44.5666
vt 0.338583 -0.265814
f 92/229/37 74/205/37 91/228/37

v 50.212 2.54855 -44.5666
vt 0.323179 -0.253994
f 93/230/37 74/205/37 92/229/37

v 50.0647 2.66152 -44.5666
vt 0.317383 -0.249546
f 94/231/37 74/205/37 93/230/37

v 49.6516 3.2 -44.5666
vt 0.301116 -0.228346
f 95/232/37 74/205/37 94/231/37

v 49.3918 3.82707 -44.5666
vt 0.290889 -0.203659
f 96/233/37 74/205/37 95/232/37

v 48.0032 9 -44.5666
vt 0.23622 1.91038e-016
f 74/205/37 96/233/37 97/234/37

v 49.3032 4.5 -44.5666
vt 0.287402 -0.177165
f 97/234/37 96/233/37 98/235/37

vt 0.661417 -0.213163
vn 1 1.7077e-014 1.97059e-015
vt 0.661417 -0.239885
vn 0.965926 0.258819 2.98388e-015
v 49.3918 3.82707 -48.7666
vt 0.826772 -0.239885
v 49.3032 4.5 -48.7666
vt 0.826772 -0.213163
f 98/236/43 96/237/44 99/238/44 100/239/43 

vt 0.661417 -0.299475
vt 0.661417 -0.326197
vn 0.866025 0.5 3.79886e-015
v 49.6516 3.2 -48.7666
vt 0.826772 -0.326197
vt 0.826772 -0.299475
f 96/240/44 95/241/45 101/242/45 99/243/44 

vt 0.661417 -0.364467
vt 0.661417 -0.391189
vn 0.707107 0.707107 4.36127e-015
v 50.0647 2.66152 -48.7666
vt 0.826772 -0.391189
vt 0.826772 -0.364467
f 95/244/45 94/245/46 102/246/46 101/247/45 

vt 0.661417 -0.403711
vt 0.661417 -0.411017
vn 0.608761 0.793353 4.53392e-015
v 50.212 2.54855 -48.7666
vt 0.826772 -0.411017
vt 0.826772 -0.403711
f 94/248/46 93/249/47 103/250/47 102/251/46 

vt 0.661417 -0.430433
vn 0.5 0.866025 4.62236e-015
v 50.6032 2.24833 -48.7666
vt 0.826772 -0.430433
f 93/249/47 92/252/48 104/253/48 103/250/47 

vt 0.661417 -0.414532
vt 0.661417 -0.441254
vn 0.258819 0.965926 4.56407e-015
v 51.2303 1.98859 -48.7666
vt 0.826772 -0.441254
vt 0.826772 -0.414532
f 92/254/48 91/255/49 105/256/49 104/257/48 

vt 0.661417 -0.396193
vt 0.661417 -0.422915
vt 0.826772 -0.422915
vt 0.826772 -0.396193
f 91/258/49 89/259/42 90/260/42 105/261/49 

vt -0.36327 -0.27604
vt -0.389764 -0.279528
f 75/188/34 105/262/34 90/263/34

vt -0.338583 -0.265814
f 105/262/34 75/188/34 104/264/34

vt -0.323179 -0.253994
f 104/264/34 75/188/34 103/265/34

vt -0.317383 -0.249546
f 103/265/34 75/188/34 102/266/34

vt -0.301116 -0.228346
f 102/266/34 75/188/34 101/267/34

v 45.6912 9 -48.7666
vt -0.145195 -2.07015e-015
f 101/267/34 75/188/34 106/268/34

vt 0.0787402 0
vn -1 0 -0
vt -0.826772 3.55271e-015
vt -0.826772 -0.354331
vt 0.0787402 -0.354331
f 35/269/50 106/270/50 75/271/50 73/272/50 

vt 0.0787402 0.200854
vn -0.865031 -0.501718 -7.80626e-018
v 42.2032 15.0137 -48.7666
vt -0.826772 0.200854
vt -0.826772 -0.0728468
vt 0.0787402 -0.0728468
f 36/273/51 107/274/51 106/275/51 35/276/51 

vt -0.826772 0.23676
vn -1 8.16014e-015 8.69096e-016
vt 0.0787402 0.23676
vt 0.0787402 0.393701
vt 3.55956e-015 0.393701
v 42.2032 19 -44.5666
vt -0.661417 0.393701
v 42.2032 27 -44.5666
vt -0.661417 0.708661
v 42.2032 27 -46.7666
vt -0.748031 0.708661
v 42.2032 19 -46.7666
vt -0.748031 0.393701
v 42.2032 19 -48.7666
vt -0.826772 0.393701
f 107/277/52 36/278/52 37/279/52 38/280/52 41/78/52 108/281/52 109/282/52 110/283/52 111/284/52 112/285/52 

vt 0.661417 0.336613
vn 0.865031 0.501718 1.73472e-018
vt 0.0866142 0.336613
vt 0.0866142 -0.118516
vt 0.661417 -0.118516
f 108/286/53 41/287/53 42/288/53 97/289/53 

vt 0.661417 0
vn 1 0 -0
vt 0.0866142 3.55271e-015
vt 0.0866142 -0.354331
vt 0.661417 -0.354331
f 97/290/54 42/291/54 57/292/54 74/293/54 

v 54.8032 27 -44.5666
vt 0.503937 0.708661
f 97/234/37 113/294/37 108/69/37

v 51.9032 7.1 -44.5666
vt 0.389764 -0.0748031
f 114/295/37 113/294/37 97/234/37

v 52.5762 7.01141 -44.5666
vt 0.416257 -0.0782911
f 115/296/37 113/294/37 114/295/37

v 53.2032 6.75167 -44.5666
vt 0.440945 -0.0885171
f 116/297/37 113/294/37 115/296/37

v 53.5945 6.45145 -44.5666
vt 0.456349 -0.100337
f 117/298/37 113/294/37 116/297/37

v 53.7417 6.33848 -44.5666
vt 0.462145 -0.104784
f 118/299/37 113/294/37 117/298/37

v 54.1549 5.8 -44.5666
vt 0.478412 -0.125984
f 119/300/37 113/294/37 118/299/37

v 54.4146 5.17293 -44.5666
vt 0.488638 -0.150672
f 120/301/37 113/294/37 119/300/37

f 83/201/37 113/294/37 120/301/37

f 83/201/37 84/200/37 113/294/37

vt -0.0866142 -0.354331
vn -1 -2.33147e-015 1.95842e-013
vt -0.661417 -0.354331
f 18/302/55 24/77/55 113/282/55 84/303/55 

vt 0.00787402 -1.68245e-014
vn -3.94129e-015 1 -1.1208e-014
vt 0.543307 -7.94271e-015
vt 0.543307 0.661417
vt 0.503937 0.661417
vt 0.503937 0.0866142
vt 0.00787402 0.0866142
f 39/304/56 8/305/56 7/306/56 113/307/56 24/308/56 40/309/56 

vt 0.543307 0.748031
vn -3.38618e-015 1 2.01167e-014
vt 0.00787402 0.748031
vt 0.00787402 0.661417
f 6/310/57 110/311/57 109/312/57 113/307/57 7/306/57 

vt -0.543307 0.708661
vn -1.3739e-015 -6.70384e-015 -1
vt -0.543307 1.21201e-014
f 6/313/58 5/314/58 111/81/58 110/82/58 

vt 0.748031 0.226881
vn 0.59239 0.805651 8.67839e-015
vt 0.748031 -0.437716
vt 0.826772 -0.437716
vt 0.826772 0.226881
f 111/315/59 5/316/59 4/317/59 112/318/59 

vt -0.00787402 0.23676
f 4/193/34 107/319/34 112/81/34

f 4/193/34 106/268/34 107/319/34

v 51.9032 7.1 -48.7666
vt -0.389764 -0.0748031
f 4/193/34 121/320/34 106/268/34

v 52.5762 7.01141 -48.7666
vt -0.416257 -0.0782911
f 4/193/34 122/321/34 121/320/34

v 53.2032 6.75167 -48.7666
vt -0.440945 -0.0885171
f 4/193/34 123/322/34 122/321/34

v 53.5945 6.45145 -48.7666
vt -0.456349 -0.100337
f 4/193/34 124/323/34 123/322/34

v 53.7417 6.33848 -48.7666
vt -0.462145 -0.104784
f 4/193/34 125/324/34 124/323/34

v 54.1549 5.8 -48.7666
vt -0.478412 -0.125984
f 4/193/34 126/325/34 125/324/34

v 54.4146 5.17293 -48.7666
vt -0.488638 -0.150672
f 4/193/34 127/326/34 126/325/34

f 4/193/34 81/194/34 127/326/34

vt -0.661417 -0.239885
vt -0.661417 -0.213163
vn -0.965926 -0.258819 -2.98388e-015
vt -0.826772 -0.213163
vt -0.826772 -0.239885
f 83/327/36 120/328/60 127/329/60 81/330/36 

vt -0.661417 -0.326197
vt -0.661417 -0.299475
vn -0.866025 -0.5 -3.79886e-015
vt -0.826772 -0.299475
vt -0.826772 -0.326197
f 120/331/60 119/332/61 126/333/61 127/334/60 

vt -0.661417 -0.391189
vt -0.661417 -0.364467
vn -0.707107 -0.707107 -4.36062e-015
vt -0.826772 -0.364467
vt -0.826772 -0.391189
f 119/335/61 118/336/62 125/337/62 126/338/61 

vt -0.661417 -0.430433
vt -0.661417 -0.423127
vn -0.608761 -0.793353 -4.53619e-015
vt -0.826772 -0.423127
vt -0.826772 -0.430433
f 118/339/62 117/340/63 124/341/63 125/342/62 

vt -0.661417 -0.403711
vn -0.5 -0.866025 -4.62531e-015
vt -0.826772 -0.403711
f 117/340/63 116/343/64 123/344/64 124/341/63 

vt -0.661417 -0.441254
vt -0.661417 -0.414532
vn -0.258819 -0.965926 -4.56407e-015
vt -0.826772 -0.414532
vt -0.826772 -0.441254
f 116/345/64 115/346/65 122/347/65 123/348/64 

vt -0.661417 -0.422915
vt -0.661417 -0.396193
vn 1.23178e-015 -1 -4.19489e-015
vt -0.826772 -0.396193
vt -0.826772 -0.422915
f 115/349/65 114/350/66 121/351/66 122/352/65 

vt 0.661417 0.376666
v 51.2303 7.01141 -44.5666
vt 0.661417 0.349944
vn 0.258819 -0.965926 -3.54138e-015
v 51.2303 7.01141 -48.7666
vt 0.826772 0.349944
vt 0.826772 0.376666
f 114/353/66 128/354/67 129/355/67 121/356/66 

vt 0.36327 -0.0782911
f 97/234/37 128/357/37 114/295/37

v 50.6032 6.75167 -44.5666
vt 0.338583 -0.0885171
f 97/234/37 130/358/37 128/357/37

v 50.0647 6.33848 -44.5666
vt 0.317383 -0.104784
f 97/234/37 131/359/37 130/358/37

v 49.6516 5.8 -44.5666
vt 0.301116 -0.125984
f 97/234/37 132/360/37 131/359/37

v 49.3918 5.17293 -44.5666
vt 0.290889 -0.150672
f 97/234/37 133/361/37 132/360/37

f 97/234/37 98/235/37 133/361/37

vt 0.661417 -0.111414
vn 0.965926 -0.258819 8.22793e-016
vt 0.661417 -0.138136
vt 0.826772 -0.138136
v 49.3918 5.17293 -48.7666
vt 0.826772 -0.111414
f 133/362/68 98/363/43 100/364/43 134/365/68 

vt -0.287402 -0.177165
vt -0.290889 -0.150672
f 100/366/34 106/268/34 134/367/34

vt -0.290889 -0.203659
f 99/368/34 106/268/34 100/366/34

f 101/267/34 106/268/34 99/368/34

v 49.6516 5.8 -48.7666
vt -0.301116 -0.125984
f 134/367/34 106/268/34 135/369/34

v 50.0647 6.33848 -48.7666
vt -0.317383 -0.104784
f 135/369/34 106/268/34 136/370/34

v 50.6032 6.75167 -48.7666
vt -0.338583 -0.0885171
f 136/370/34 106/268/34 137/371/34

vt -0.36327 -0.0782911
f 137/371/34 106/268/34 129/372/34

f 129/372/34 106/268/34 121/320/34

vt 0.661417 0.305657
vt 0.661417 0.278936
vn 0.5 -0.866025 -2.64466e-015
vt 0.826772 0.278936
vt 0.826772 0.305657
f 128/373/67 130/374/69 137/375/69 129/376/67 

vt 0.661417 0.21473
vt 0.661417 0.188008
vn 0.707107 -0.707107 -1.56772e-015
vt 0.826772 0.188008
vt 0.826772 0.21473
f 130/377/69 131/378/70 136/379/70 137/380/69 

vt 0.661417 0.110079
vt 0.661417 0.0833575
vn 0.866025 -0.5 -3.85807e-016
vt 0.826772 0.0833575
vt 0.826772 0.110079
f 131/381/70 132/382/71 135/383/71 136/384/70 

vt 0.661417 -0.00116235
vt 0.661417 -0.0278843
vt 0.826772 -0.0278843
vt 0.826772 -0.00116235
f 132/385/71 133/386/68 134/387/68 135/388/71 

f 108/69/37 113/294/37 109/74/37

vt -0.503937 0.661417
vt -0.503937 0.0866142
f 84/389/33 3/185/33 18/390/33

f 74/183/33 3/185/33 84/389/33

f 2/182/33 18/390/33 3/185/33

f 2/182/33 57/181/33 18/390/33

f 76/186/34 75/188/34 90/263/34

vt 0.364289 -0.272237
f 62/179/2 2/11/2 63/391/2

f 63/391/2 2/11/2 15/17/2

vt 0.0866142 -0.422401
vt 0.0866142 -0.396707
vt -0.0787402 -0.396707
vt -0.0787402 -0.422401
f 17/392/4 61/393/22 63/394/22 15/395/4 

f 18/23/5 61/125/5 17/24/5

f 35/67/2 49/169/2 34/66/2

