# Alias OBJ Model File
# Exported from SketchUp, (c) 2000-2012 Trimble Navigation Limited
# File units = millimeters

mtllib motor_crep.mtl

g Mesh1 Group1 Model

usemtl FrontColor
v 84.589 30.5 -55.6662
vt 0.256723 1.20079
vn -0.258819 3.86665e-015 0.965926
v 84.0714 30.5 -55.7344
vt 0.236168 1.20079
vn -0.130526 2.94395e-015 0.991445
v 84.0714 28.5 -55.7344
vt 0.236168 1.12205
v 84.589 28.5 -55.6662
vt 0.256723 1.12205
f 1/1/1 2/2/2 3/3/2 4/4/1 

v 120.071 30.5 -63.7344
vt 1.81102 1.49606
vn 2.62561e-015 1 -1.07034e-014
vt 0.393701 1.1811
vt 0.41408 1.17842
f 5/5/3 2/6/3 1/7/3

v 81.5714 30.5 -55.7344
vt 0.295276 1.1811
f 5/5/3 6/8/3 2/6/3

v 81.0537 30.5 -55.6662
vt 0.274896 1.17842
f 5/5/3 7/9/3 6/8/3

v 74.0714 30.5 -63.7344
vt 9.2817e-015 1.49606
f 8/10/3 7/9/3 5/5/3

v 80.5714 30.5 -55.4664
vt 0.255906 1.17055
f 7/9/3 8/10/3 9/11/3

v 80.4613 30.5 -55.382
vt 0.251572 1.16723
f 9/11/3 8/10/3 10/12/3

v 80.1572 30.5 -55.1486
vt 0.239598 1.15804
f 10/12/3 8/10/3 11/13/3

v 79.8393 30.5 -54.7344
vt 0.227085 1.14173
f 11/13/3 8/10/3 12/14/3

v 79.6395 30.5 -54.252
vt 0.219218 1.12274
f 12/14/3 8/10/3 13/15/3

v 79.5714 30.5 -53.7344
vt 0.216535 1.10236
f 13/15/3 8/10/3 14/16/3

v 79.5714 30.5 -35.7344
vt 0.216535 0.393701
f 8/10/3 15/17/3 14/16/3

v 79.6395 30.5 -35.2167
vt 0.219218 0.373321
f 8/10/3 16/18/3 15/17/3

v 74.0714 30.5 -25.7344
vt 3.95263e-015 -5.74707e-015
f 17/19/3 16/18/3 8/10/3

v 79.8393 30.5 -34.7344
vt 0.227085 0.354331
f 16/18/3 17/19/3 18/20/3

v 80.1572 30.5 -34.3202
vt 0.239598 0.338023
f 18/20/3 17/19/3 19/21/3

v 80.5714 30.5 -34.0023
vt 0.255906 0.32551
f 19/21/3 17/19/3 20/22/3

v 81.0537 30.5 -33.8025
vt 0.274896 0.317644
f 20/22/3 17/19/3 21/23/3

v 120.071 30.5 -25.7344
vt 1.81102 -1.28525e-014
f 21/23/3 17/19/3 22/24/3

vt 1.81102 1.20079
vn 8.32667e-017 -1.18699e-014 1
vt 7.10543e-015 1.20079
v 74.0714 0 -25.7344
vt 7.10543e-015 -3.79534e-028
v 120.071 0 -25.7344
vt 1.81102 -2.09062e-028
f 22/25/4 17/26/4 23/27/4 24/28/4 

vt -7.10543e-015 1.20079
vn -1 -3.39174e-017 8.32667e-017
v 74.0714 26.5 -28.2344
vt -0.0984252 1.04331
vt -3.19744e-014 -2.40997e-031
f 17/29/5 25/30/5 23/31/5

vt -1.49606 1.20079
f 25/30/5 17/29/5 8/32/5

v 74.0714 26.5 -61.2344
vt -1.39764 1.04331
f 25/30/5 8/32/5 26/33/5

v 74.0714 3 -61.2344
vt -1.39764 0.11811
f 26/33/5 8/32/5 27/34/5

v 74.0714 7.61391e-014 -63.7344
vt -1.49606 2.9976e-015
f 28/35/5 27/34/5 8/32/5

v 74.0714 3 -28.2344
vt -0.0984252 0.11811
f 28/35/5 29/36/5 27/34/5

f 23/31/5 29/36/5 28/35/5

f 29/36/5 23/31/5 25/30/5

vt -5.33727e-015 1.04331
vn -8.32667e-017 1.99867e-014 -1
v 120.071 26.5 -28.2344
vt -1.81102 1.04331
v 120.071 3 -28.2344
vt -1.81102 0.11811
vt -8.19554e-018 0.11811
f 25/37/6 30/38/6 31/39/6 29/40/6 

vt -5.28246e-015 0.0984252
vn -4.46796e-017 -1 -2.17267e-015
vt 4.66145e-017 1.39764
v 120.071 26.5 -61.2344
vt -1.81102 1.39764
v 120.071 26.5 -58.7344
vt -1.81102 1.29921
v 81.5714 26.5 -58.7344
vt -0.295276 1.29921
v 80.2773 26.5 -58.564
vt -0.244327 1.29251
v 79.0714 26.5 -58.0645
vt -0.19685 1.27284
v 78.0358 26.5 -57.2699
vt -0.156081 1.24156
v 77.2412 26.5 -56.2344
vt -0.124798 1.20079
v 76.7417 26.5 -55.0285
vt -0.105133 1.15331
v 76.5714 26.5 -53.7344
vt -0.0984252 1.10236
v 76.7417 26.5 -52.4403
vt -0.105133 1.05141
v 77.2412 26.5 -51.2344
vt -0.124798 1.00394
v 78.0358 26.5 -50.1988
vt -0.156081 0.963168
v 79.0714 26.5 -49.4043
vt -0.19685 0.931885
v 80.2773 26.5 -48.9048
vt -0.244327 0.912219
v 81.5714 26.5 -48.7344
vt -0.295276 0.905512
v 81.5714 26.5 -40.7344
vt -0.295276 0.590551
v 80.2773 26.5 -40.564
vt -0.244327 0.583844
v 79.0714 26.5 -40.0645
vt -0.19685 0.564178
v 78.0358 26.5 -39.2699
vt -0.156081 0.532895
v 77.2412 26.5 -38.2344
vt -0.124798 0.492126
v 76.7417 26.5 -37.0285
vt -0.105133 0.444649
v 76.5714 26.5 -35.7344
vt -0.0984252 0.393701
v 76.7417 26.5 -34.4403
vt -0.105133 0.342752
v 77.2412 26.5 -33.2344
vt -0.124798 0.295276
v 78.0358 26.5 -32.1988
vt -0.156081 0.254507
v 79.0714 26.5 -31.4043
vt -0.19685 0.223223
v 80.2773 26.5 -30.9048
vt -0.244327 0.203558
v 81.5714 26.5 -30.7344
vt -0.295276 0.19685
v 120.071 26.5 -30.7344
vt -1.81102 0.19685
v 120.071 26.5 -28.7344
vt -1.81102 0.0984252
f 25/41/7 26/42/7 32/43/7 33/44/7 34/45/7 35/46/7 36/47/7 37/48/7 38/49/7 39/50/7 40/51/7 41/52/7 42/53/7 43/54/7 44/55/7 45/56/7 46/57/7 47/58/7 48/59/7 49/60/7 50/61/7 51/62/7 52/63/7 53/64/7 54/65/7 55/66/7 56/67/7 57/68/7 58/69/7 59/70/7 60/71/7 61/39/7 30/72/7 

vt 1.81102 1.04331
vn 8.32667e-017 1.4988e-015 1
vt 1.16377e-016 1.04331
vt 1.16377e-016 0.11811
v 120.071 3 -61.2344
vt 1.81102 0.11811
f 32/73/8 26/74/8 27/75/8 62/76/8 

vt 1.34337e-016 1.39764
vn -1.13738e-015 1 -2.16998e-016
v 81.0537 3 -55.6662
vt 1.81102 1.39764
f 27/77/9 63/9/9 62/78/9

v 80.5714 3 -55.4664
f 63/9/9 27/77/9 64/11/9

v 80.1572 3 -55.1486
f 64/11/9 27/77/9 65/13/9

v 79.8393 3 -54.7344
f 65/13/9 27/77/9 66/14/9

v 79.6395 3 -54.252
f 66/14/9 27/77/9 67/15/9

v 79.5714 3 -53.7344
f 67/15/9 27/77/9 68/16/9

v 79.5714 3 -35.7344
f 68/16/9 27/77/9 69/17/9

v 79.6395 3 -35.2167
f 27/77/9 70/18/9 69/17/9

vt 1.34337e-016 0.0984252
f 29/79/9 70/18/9 27/77/9

v 79.8393 3 -34.7344
f 70/18/9 29/79/9 71/20/9

v 80.1572 3 -34.3202
f 71/20/9 29/79/9 72/21/9

v 80.5714 3 -34.0023
f 72/21/9 29/79/9 73/22/9

v 81.0537 3 -33.8025
f 73/22/9 29/79/9 74/23/9

vt 1.81102 0.0984252
f 74/23/9 29/79/9 31/80/9

v 81.5714 3 -33.7344
vt 0.295276 0.314961
f 74/23/9 31/80/9 75/81/9

v 82.089 3 -33.8025
vt 0.315655 0.317644
f 75/81/9 31/80/9 76/82/9

v 82.5714 3 -34.0023
vt 0.334646 0.32551
f 76/82/9 31/80/9 77/83/9

v 82.9856 3 -34.3202
vt 0.350953 0.338023
f 77/83/9 31/80/9 78/84/9

v 83.3034 3 -34.7344
vt 0.363467 0.354331
f 78/84/9 31/80/9 79/85/9

v 83.5032 3 -35.2167
vt 0.371333 0.373321
f 79/85/9 31/80/9 80/86/9

v 83.5714 3 -35.7344
vt 0.374016 0.393701
f 80/86/9 31/80/9 81/87/9

v 83.5714 3 -53.7344
vt 0.374016 1.10236
f 81/87/9 31/80/9 82/88/9

v 113.205 3 -34.3684
vt 1.54071 0.33992
f 82/88/9 31/80/9 83/89/9

v 113.605 3 -34.0613
vt 1.55646 0.327833
f 83/89/9 31/80/9 84/90/9

v 114.071 3 -33.8684
vt 1.5748 0.320235
f 84/90/9 31/80/9 85/91/9

v 114.571 3 -33.8025
vt 1.59449 0.317644
f 85/91/9 31/80/9 86/92/9

v 115.071 3 -33.8684
vt 1.61417 0.320235
f 86/92/9 31/80/9 87/93/9

v 115.537 3 -34.0613
vt 1.63252 0.327833
f 87/93/9 31/80/9 88/94/9

v 115.937 3 -34.3684
vt 1.64827 0.33992
f 88/94/9 31/80/9 89/95/9

v 116.244 3 -34.7685
vt 1.66036 0.355672
f 89/95/9 31/80/9 90/96/9

v 116.437 3 -35.2344
vt 1.66795 0.374016
f 90/96/9 31/80/9 91/97/9

v 116.503 3 -35.7344
vt 1.67055 0.393701
f 91/97/9 31/80/9 92/98/9

v 116.503 3 -53.2167
vt 1.67055 1.08198
f 92/98/9 31/80/9 93/99/9

v 116.571 3 -53.7344
vt 1.67323 1.10236
f 93/99/9 31/80/9 94/100/9

f 94/100/9 31/80/9 62/78/9

v 120.071 30.5 -53.7344
vt 1.10236 1.20079
vn 1 4.1129e-015 -2.44165e-015
v 120.071 28.5 -53.7344
vt 1.10236 1.12205
v 120.071 28.5 -58.7344
vt 1.29921 1.12205
vt 1.29921 1.04331
vt 1.39764 1.04331
vt 1.39764 0.11811
vt 0.0984252 0.11811
vt 0.0984252 1.04331
vt 0.11811 1.04331
vt 0.19685 1.04331
v 120.071 28.5 -30.7344
vt 0.19685 1.12205
v 120.071 28.5 -35.7344
vt 0.393701 1.12205
v 120.071 30.5 -35.7344
vt 0.393701 1.20079
vt -4.42189e-015 1.20079
vt 1.33417e-014 -7.44855e-015
v 120.071 8.1779e-014 -63.7344
vt 1.49606 -4.22891e-015
vt 1.49606 1.20079
f 95/101/10 96/102/10 97/103/10 33/104/10 32/105/10 62/106/10 31/107/10 30/108/10 61/109/10 60/110/10 98/111/10 99/112/10 100/113/10 22/114/10 24/115/10 101/116/10 5/117/10 

v 119.935 28.5 -52.6991
vt 1.28821 1.12205
vn 0.965926 -2.81853e-015 0.258819
vt 1.32932 1.12205
vn 0.991445 -2.50436e-015 0.130526
vt 1.32932 1.20079
v 119.935 30.5 -52.6991
vt 1.28821 1.20079
f 102/118/11 96/119/12 95/120/12 103/121/11 

vt -1.80566 1.0616
vn -3.92746e-015 -1 1.8736e-015
vt -1.81102 1.10236
f 102/122/13 97/44/13 96/123/13

v 119.535 28.5 -51.7344
vt -1.78993 1.02362
f 104/124/13 97/44/13 102/122/13

v 118.9 28.5 -50.906
vt -1.7649 0.991007
f 105/125/13 97/44/13 104/124/13

v 118.071 28.5 -50.2703
vt -1.73228 0.96598
f 106/126/13 97/44/13 105/125/13

v 117.107 28.5 -49.8707
vt -1.6943 0.950248
f 107/127/13 97/44/13 106/126/13

v 116.571 28.5 -53.7344
vt -1.67323 1.10236
f 108/128/13 97/44/13 107/127/13

v 116.503 28.5 -54.252
vt -1.67055 1.12274
f 109/129/13 97/44/13 108/128/13

v 116.303 28.5 -54.7344
vt -1.66268 1.14173
f 110/130/13 97/44/13 109/129/13

v 115.986 28.5 -55.1486
vt -1.65017 1.15804
f 111/131/13 97/44/13 110/130/13

v 115.571 28.5 -55.4664
vt -1.63386 1.17055
f 112/132/13 97/44/13 111/131/13

v 115.089 28.5 -55.6662
vt -1.61487 1.17842
f 113/133/13 97/44/13 112/132/13

v 114.571 28.5 -55.7344
vt -1.59449 1.1811
f 114/134/13 97/44/13 113/133/13

v 114.054 28.5 -55.6662
vt -1.57411 1.17842
f 115/135/13 97/44/13 114/134/13

v 113.571 28.5 -55.4664
vt -1.55512 1.17055
f 116/136/13 97/44/13 115/135/13

v 87.3157 28.5 -49.7344
vt -0.521432 0.944882
f 117/137/13 97/44/13 116/136/13

v 86.0714 28.5 -53.7344
vt -0.472441 1.10236
f 118/138/13 97/44/13 117/137/13

v 86.0032 28.5 -54.252
vt -0.469758 1.12274
f 119/139/13 97/44/13 118/138/13

v 85.8034 28.5 -54.7344
vt -0.461892 1.14173
f 120/140/13 97/44/13 119/139/13

v 85.4856 28.5 -55.1486
vt -0.449378 1.15804
f 121/141/13 97/44/13 120/140/13

v 85.0714 28.5 -55.4664
vt -0.433071 1.17055
f 122/142/13 97/44/13 121/141/13

vt -0.41408 1.17842
f 4/143/13 97/44/13 122/142/13

vt -0.393701 1.1811
f 3/144/13 97/44/13 4/143/13

v 81.5714 28.5 -58.7344
f 3/144/13 123/45/13 97/44/13

v 81.5714 28.5 -55.7344
vt -0.295276 1.1811
f 124/145/13 123/45/13 3/144/13

v 81.0537 28.5 -55.6662
vt -0.274896 1.17842
f 125/146/13 123/45/13 124/145/13

v 80.5714 28.5 -55.4664
vt -0.255906 1.17055
f 126/147/13 123/45/13 125/146/13

v 80.2773 28.5 -58.564
f 126/147/13 127/46/13 123/45/13

v 80.1572 28.5 -55.1486
vt -0.239598 1.15804
f 128/148/13 127/46/13 126/147/13

v 79.8393 28.5 -54.7344
vt -0.227085 1.14173
f 129/149/13 127/46/13 128/148/13

v 79.6395 28.5 -54.252
vt -0.219218 1.12274
f 130/150/13 127/46/13 129/149/13

v 79.0714 28.5 -58.0645
f 130/150/13 131/47/13 127/46/13

v 79.5714 28.5 -53.7344
vt -0.216535 1.10236
f 132/151/13 131/47/13 130/150/13

v 79.0714 28.5 -49.4043
f 133/55/13 131/47/13 132/151/13

v 78.0358 28.5 -50.1988
f 134/54/13 131/47/13 133/55/13

v 78.0358 28.5 -57.2699
f 134/54/13 135/48/13 131/47/13

v 77.2412 28.5 -56.2344
f 134/54/13 136/49/13 135/48/13

v 77.2412 28.5 -51.2344
f 137/53/13 136/49/13 134/54/13

v 76.7417 28.5 -52.4403
f 138/52/13 136/49/13 137/53/13

v 76.7417 28.5 -55.0285
f 138/52/13 139/50/13 136/49/13

v 76.5714 28.5 -53.7344
f 139/50/13 138/52/13 140/51/13

vt 1.08008 1.12205
vn 1 3.39174e-017 3.35941e-016
vt 1.0287 1.12205
vn 0.965926 -1.83687e-016 -0.258819
vt 1.0287 1.04331
vt 1.08008 1.04331
f 140/152/14 138/153/15 41/154/15 40/155/14 

vt 0.931147 1.12205
vt 0.879759 1.12205
vn 0.866025 -4.1908e-016 -0.5
vt 0.879759 1.04331
vt 0.931147 1.04331
f 138/156/15 137/157/16 42/158/16 41/159/15 

vt 0.720504 1.12205
vt 0.669116 1.12205
vn 0.707107 -4.47933e-016 -0.707107
vt 0.669116 1.04331
vt 0.720504 1.04331
f 137/160/16 134/161/17 43/162/17 42/163/16 

vt 0.462512 1.12205
vt 0.411124 1.12205
vn 0.5 -5.25174e-016 -0.866025
vt 0.411124 1.04331
vt 0.462512 1.04331
f 134/164/17 133/165/18 44/166/18 43/167/17 

vt 0.174751 1.12205
v 80.2773 28.5 -48.9048
vt 0.123363 1.12205
vn 0.258819 1.15729e-015 -0.965926
vt 0.123363 1.04331
vt 0.174751 1.04331
f 133/168/18 141/169/19 45/170/19 44/171/18 

v 79.6395 28.5 -53.2167
vt -0.219218 1.08198
f 133/55/13 142/172/13 141/56/13

f 142/172/13 133/55/13 132/151/13

vt 1.04411 1.12205
vn 0.965926 -1.20698e-016 -0.258819
vt 1.06467 1.12205
vn 1 3.39174e-017 1.39975e-016
vt 1.06467 1.20079
v 79.6395 30.5 -53.2167
vt 1.04411 1.20079
f 142/173/20 132/174/21 14/175/21 143/176/20 

vt 1.12119 1.12205
vt 1.14175 1.12205
vn 0.965926 1.86221e-016 0.258819
vt 1.14175 1.20079
vt 1.12119 1.20079
f 132/177/21 130/178/22 13/179/22 14/180/21 

vt 1.12117 1.12205
vt 1.14172 1.12205
vn 0.866025 3.79844e-016 0.5
vt 1.14172 1.20079
vt 1.12117 1.20079
f 130/181/22 129/182/23 12/183/23 13/184/22 

vt 1.04404 1.12205
vt 1.06459 1.12205
vn 0.707107 -1.32928e-014 0.707107
vt 1.06459 1.20079
vt 1.04404 1.20079
f 129/185/23 128/186/24 11/187/24 12/188/23 

vt 0.895056 1.12205
vt 0.915611 1.12205
vn 0.5 -1.32996e-014 0.866025
vt 0.915611 1.20079
vt 0.910149 1.20079
vn 0.608761 -2.68812e-014 0.793353
vt 0.895056 1.20079
f 128/189/24 126/190/25 9/191/25 10/192/26 11/193/24 

vt 0.684377 1.12205
vt 0.704932 1.12205
vn 0.258819 6.86645e-016 0.965926
vt 0.704932 1.20079
vt 0.684377 1.20079
f 126/194/25 125/195/27 7/196/27 9/197/25 

vt 0.426359 1.12205
vt 0.446914 1.12205
vn 0.130526 8.52027e-016 0.991445
vt 0.446914 1.20079
vt 0.426359 1.20079
f 125/198/27 124/199/28 6/200/28 7/201/27 

vt 0.295276 1.12205
vn -1.80478e-014 -2.25597e-014 1
vt 0.295276 1.20079
f 124/202/29 3/112/29 2/113/29 6/203/29 

vt 0.219218 1.08198
f 15/17/3 143/204/3 14/16/3

v 79.6395 30.5 -36.252
vt 0.219218 0.41408
f 143/204/3 15/17/3 144/205/3

v 79.5714 28.5 -35.7344
vt 0.418596 1.12205
v 79.6395 28.5 -36.252
vt 0.439151 1.12205
vt 0.439151 1.20079
vt 0.418596 1.20079
f 145/206/21 146/207/22 144/208/22 15/209/21 

v 79.0714 28.5 -40.0645
vt -0.219218 0.41408
vt -0.216535 0.393701
f 147/60/13 146/210/13 145/211/13

v 80.2773 28.5 -40.564
f 146/210/13 147/60/13 148/59/13

vt 0.449156 1.12205
vn 0.258819 -4.9282e-015 0.965926
vt 0.397768 1.12205
vn 0.5 5.59091e-016 0.866025
vt 0.397768 1.04331
vt 0.449156 1.04331
f 148/212/30 147/213/31 49/214/31 48/215/30 

vt 0.499622 1.12205
v 78.0358 28.5 -39.2699
vt 0.448234 1.12205
vn 0.707107 4.95899e-016 0.707107
vt 0.448234 1.04331
vt 0.499622 1.04331
f 147/216/31 149/217/32 50/218/32 49/219/31 

v 78.0358 28.5 -32.1988
f 150/67/13 149/61/13 147/60/13

v 77.2412 28.5 -38.2344
f 150/67/13 151/62/13 149/61/13

v 77.2412 28.5 -33.2344
f 152/66/13 151/62/13 150/67/13

v 76.7417 28.5 -34.4403
f 153/65/13 151/62/13 152/66/13

v 76.7417 28.5 -37.0285
f 153/65/13 154/63/13 151/62/13

v 76.5714 28.5 -35.7344
f 154/63/13 153/65/13 155/64/13

vt 0.377486 1.12205
vt 0.326097 1.12205
vn 0.965926 -1.41694e-016 -0.258819
vt 0.326097 1.04331
vt 0.377486 1.04331
f 155/220/14 153/221/33 54/222/33 53/223/14 

vt 0.276429 1.12205
vt 0.225041 1.12205
vn 0.866025 -2.65107e-016 -0.5
vt 0.225041 1.04331
vt 0.276429 1.04331
f 153/224/33 152/225/34 55/226/34 54/227/33 

vt 0.158286 1.12205
vt 0.106897 1.12205
vn 0.707107 -3.35952e-016 -0.707107
vt 0.106897 1.04331
vt 0.158286 1.04331
f 152/228/34 150/229/35 56/230/35 55/231/34 

vt 0.0311061 1.12205
v 79.0714 28.5 -31.4043
vt -0.0202822 1.12205
vt -0.0202822 1.04331
vt 0.0311061 1.04331
f 150/232/35 156/233/18 57/234/18 56/235/35 

f 150/67/13 147/60/13 156/68/13

f 156/68/13 147/60/13 145/211/13

v 79.6395 28.5 -35.2167
vt -0.219218 0.373321
f 156/68/13 145/211/13 157/236/13

vt 0.341514 1.12205
vn 0.965926 -1.90686e-016 -0.258819
vt 0.362069 1.12205
vt 0.362069 1.20079
vt 0.341514 1.20079
f 157/237/36 145/238/21 15/239/21 16/240/36 

v 79.8393 28.5 -34.7344
vt 0.240457 1.12205
vn 0.866025 -4.05083e-016 -0.5
vt 0.261013 1.12205
vt 0.261013 1.20079
vt 0.240457 1.20079
f 158/241/37 157/242/36 16/243/36 18/244/37 

v 80.2773 28.5 -30.9048
vt -0.227085 0.354331
f 159/69/13 157/236/13 158/245/13

f 156/68/13 157/236/13 159/69/13

vt -0.0964422 1.12205
vt -0.14783 1.12205
vn 0.258819 -5.4311e-016 -0.965926
vt -0.14783 1.04331
vt -0.0964422 1.04331
f 156/246/18 159/247/38 58/248/38 57/249/18 

vt -0.215667 1.12205
v 81.5714 28.5 -30.7344
vt -0.267055 1.12205
vn 0.130526 -4.2684e-016 -0.991445
vt -0.267055 1.04331
vt -0.215667 1.04331
f 159/250/38 160/251/39 59/252/39 58/253/38 

v 80.5714 28.5 -34.0023
vt -0.255906 0.32551
f 159/69/13 161/254/13 160/70/13

v 80.1572 28.5 -34.3202
vt -0.239598 0.338023
f 159/69/13 162/255/13 161/254/13

f 159/69/13 158/245/13 162/255/13

vt 0.122314 1.12205
vn 0.707107 -6.29901e-016 -0.707107
vt 0.142869 1.12205
vt 0.142869 1.20079
vt 0.122314 1.20079
f 162/256/40 158/257/37 18/258/37 19/259/40 

vt -0.00486568 1.12205
vn 0.5 -6.23157e-016 -0.866025
vt 0.0156896 1.12205
vt 0.0156896 1.20079
vt -0.00486568 1.20079
f 161/260/41 162/261/40 19/262/40 20/263/41 

v 81.0537 28.5 -33.8025
vt -0.132414 1.12205
vn 0.258819 -5.29112e-016 -0.965926
vt -0.111859 1.12205
vt -0.111859 1.20079
vt -0.132414 1.20079
f 163/264/42 161/265/41 20/266/41 21/267/42 

vt -0.274896 0.317644
f 160/70/13 161/254/13 163/268/13

v 81.5714 28.5 -33.7344
vt -0.295276 0.314961
f 160/70/13 163/268/13 164/269/13

vt -0.251639 1.12205
vn 0.130526 -5.65618e-016 -0.991445
vt -0.231084 1.12205
vt -0.231084 1.20079
v 81.5714 30.5 -33.7344
vt -0.251639 1.20079
f 164/270/43 163/271/42 21/272/42 165/273/43 

f 21/23/3 22/24/3 165/81/3

v 84.0714 30.5 -33.7344
vt 0.393701 0.314961
f 165/81/3 22/24/3 166/274/3

v 84.589 30.5 -33.8025
vt 0.41408 0.317644
f 166/274/3 22/24/3 167/275/3

v 85.0714 30.5 -34.0023
vt 0.433071 0.32551
f 167/275/3 22/24/3 168/276/3

v 85.4856 30.5 -34.3202
vt 0.449378 0.338023
f 168/276/3 22/24/3 169/277/3

v 85.8034 30.5 -34.7344
vt 0.461892 0.354331
f 169/277/3 22/24/3 170/278/3

v 86.0032 30.5 -35.2167
vt 0.469758 0.373321
f 170/278/3 22/24/3 171/279/3

v 86.0714 30.5 -35.7344
vt 0.472441 0.393701
f 171/279/3 22/24/3 172/280/3

v 87.3157 30.5 -39.7344
vt 0.521432 0.551181
f 172/280/3 22/24/3 173/281/3

v 113.157 30.5 -34.3202
vt 1.53881 0.338023
f 173/281/3 22/24/3 174/282/3

v 113.571 30.5 -34.0023
vt 1.55512 0.32551
f 174/282/3 22/24/3 175/283/3

v 114.054 30.5 -33.8025
vt 1.57411 0.317644
f 175/283/3 22/24/3 176/284/3

v 114.571 30.5 -33.7344
vt 1.59449 0.314961
f 176/284/3 22/24/3 177/285/3

v 115.089 30.5 -33.8025
vt 1.61487 0.317644
f 177/285/3 22/24/3 178/286/3

v 115.571 30.5 -34.0023
vt 1.63386 0.32551
f 178/286/3 22/24/3 179/287/3

v 115.986 30.5 -34.3202
vt 1.65017 0.338023
f 179/287/3 22/24/3 180/288/3

v 116.303 30.5 -34.7344
vt 1.66268 0.354331
f 180/288/3 22/24/3 181/289/3

v 116.503 30.5 -35.2167
vt 1.67055 0.373321
f 181/289/3 22/24/3 182/290/3

v 116.571 30.5 -35.7344
vt 1.67323 0.393701
f 182/290/3 22/24/3 183/291/3

v 117.107 30.5 -39.5981
vt 1.6943 0.545815
f 183/291/3 22/24/3 184/292/3

v 118.071 30.5 -39.1985
vt 1.73228 0.530083
f 184/292/3 22/24/3 185/293/3

v 118.9 30.5 -38.5628
vt 1.7649 0.505056
f 185/293/3 22/24/3 186/294/3

v 119.535 30.5 -37.7344
vt 1.78993 0.472441
f 186/294/3 22/24/3 187/295/3

v 119.935 30.5 -36.7697
vt 1.80566 0.43446
f 187/295/3 22/24/3 188/296/3

vt 1.81102 0.393701
f 188/296/3 22/24/3 100/297/3

vt 0.153947 1.12205
vn 0.991445 -5.07942e-015 -0.130526
v 119.935 28.5 -36.7697
vt 0.195057 1.12205
vn 0.965926 -4.75884e-015 -0.258819
vt 0.195057 1.20079
vt 0.153947 1.20079
f 99/298/44 189/299/45 188/300/45 100/301/44 

vt -1.80566 0.43446
vt -1.81102 0.393701
f 98/71/13 189/302/13 99/303/13

v 119.535 28.5 -37.7344
vt -1.78993 0.472441
f 98/71/13 190/304/13 189/302/13

v 118.9 28.5 -38.5628
vt -1.7649 0.505056
f 98/71/13 191/305/13 190/304/13

v 118.071 28.5 -39.1985
vt -1.73228 0.530083
f 98/71/13 192/306/13 191/305/13

v 117.107 28.5 -39.5981
vt -1.6943 0.545815
f 98/71/13 193/307/13 192/306/13

v 116.571 28.5 -35.7344
vt -1.67323 0.393701
f 98/71/13 194/308/13 193/307/13

v 116.503 28.5 -35.2167
vt -1.67055 0.373321
f 98/71/13 195/309/13 194/308/13

v 116.303 28.5 -34.7344
vt -1.66268 0.354331
f 98/71/13 196/310/13 195/309/13

v 115.986 28.5 -34.3202
vt -1.65017 0.338023
f 98/71/13 197/311/13 196/310/13

v 115.571 28.5 -34.0023
vt -1.63386 0.32551
f 98/71/13 198/312/13 197/311/13

v 115.089 28.5 -33.8025
vt -1.61487 0.317644
f 98/71/13 199/313/13 198/312/13

v 114.571 28.5 -33.7344
vt -1.59449 0.314961
f 98/71/13 200/314/13 199/313/13

v 114.054 28.5 -33.8025
vt -1.57411 0.317644
f 98/71/13 201/315/13 200/314/13

v 113.571 28.5 -34.0023
vt -1.55512 0.32551
f 98/71/13 202/316/13 201/315/13

v 87.3157 28.5 -39.7344
vt -0.521432 0.551181
f 98/71/13 203/317/13 202/316/13

v 86.0714 28.5 -35.7344
vt -0.472441 0.393701
f 98/71/13 204/318/13 203/317/13

v 86.0032 28.5 -35.2167
vt -0.469758 0.373321
f 98/71/13 205/319/13 204/318/13

v 85.8034 28.5 -34.7344
vt -0.461892 0.354331
f 98/71/13 206/320/13 205/319/13

v 85.4856 28.5 -34.3202
vt -0.449378 0.338023
f 98/71/13 207/321/13 206/320/13

v 85.0714 28.5 -34.0023
vt -0.433071 0.32551
f 98/71/13 208/322/13 207/321/13

v 84.589 28.5 -33.8025
vt -0.41408 0.317644
f 98/71/13 209/323/13 208/322/13

v 84.0714 28.5 -33.7344
vt -0.393701 0.314961
f 98/71/13 210/324/13 209/323/13

f 160/70/13 210/324/13 98/71/13

f 160/70/13 164/269/13 210/324/13

vt -0.295276 1.20079
vn -9.02389e-014 -2.25597e-014 -1
vt -0.393701 1.20079
vt -0.393701 1.12205
vt -0.295276 1.12205
f 165/325/46 166/326/46 210/327/46 164/328/46 

vt -0.431443 1.20079
vn -0.130526 -3.88442e-014 -0.991445
vt -0.451999 1.20079
vn -0.258819 -1.66666e-014 -0.965926
vt -0.451999 1.12205
vt -0.431443 1.12205
f 166/329/47 167/330/48 209/331/48 210/332/47 

vt -0.504117 1.20079
vt -0.524673 1.20079
vn -0.5 2.04263e-015 -0.866025
vt -0.524673 1.12205
vt -0.504117 1.12205
f 167/333/48 168/334/49 208/335/49 209/336/48 

vt -0.541736 1.20079
vt -0.562291 1.20079
vn -0.707107 -5.5045e-015 -0.707107
vt -0.562291 1.12205
vt -0.541736 1.12205
f 168/337/49 169/338/50 207/339/50 208/340/49 

vn -0.866025 -1.26765e-014 -0.5
f 169/337/50 170/338/51 206/339/51 207/340/50 

vn -0.965926 -1.89846e-014 -0.258819
f 170/333/51 171/334/52 205/335/52 206/336/51 

vn -1 -2.3999e-014 -7.89741e-014
f 171/329/52 172/330/53 204/331/53 205/332/52 

vt -0.328667 1.20079
v 86.0032 30.5 -36.252
vt -0.349222 1.20079
vn -0.965926 -2.73779e-014 0.258819
v 86.0032 28.5 -36.252
vt -0.349222 1.12205
vt -0.328667 1.12205
f 172/341/53 211/342/54 212/343/54 204/344/53 

v 86.3287 30.5 -40.4917
vt 0.482573 0.580998
vt 0.469758 0.41408
f 213/345/3 211/346/3 172/280/3

v 85.8034 30.5 -36.7344
vt 0.461892 0.433071
f 213/345/3 214/347/3 211/346/3

v 85.4856 30.5 -37.1486
vt 0.449378 0.449378
f 213/345/3 215/348/3 214/347/3

v 85.3752 30.5 -41.7344
vt 0.445033 0.629921
f 216/349/3 215/348/3 213/345/3

v 85.0714 30.5 -37.4664
vt 0.433071 0.461892
f 216/349/3 217/350/3 215/348/3

v 84.7758 30.5 -43.1815
vt 0.421435 0.686893
f 218/351/3 217/350/3 216/349/3

v 84.589 30.5 -37.6662
vt 0.41408 0.469758
f 218/351/3 219/352/3 217/350/3

v 84.5714 30.5 -44.7344
vt 0.413386 0.748031
f 220/353/3 219/352/3 218/351/3

v 84.0714 30.5 -51.7344
vt 0.393701 1.02362
f 221/354/3 219/352/3 220/353/3

v 84.0714 30.5 -37.7344
vt 0.393701 0.472441
f 221/354/3 222/355/3 219/352/3

v 81.5714 30.5 -37.7344
vt 0.295276 0.472441
f 221/354/3 223/356/3 222/355/3

v 81.5714 30.5 -51.7344
vt 0.295276 1.02362
f 224/357/3 223/356/3 221/354/3

v 81.0537 30.5 -51.8025
vt 0.274896 1.02631
f 225/358/3 223/356/3 224/357/3

v 81.0537 30.5 -37.6662
vt 0.274896 0.469758
f 225/358/3 226/359/3 223/356/3

v 80.5714 30.5 -37.4664
vt 0.255906 0.461892
f 225/358/3 227/360/3 226/359/3

v 80.5714 30.5 -52.0023
vt 0.255906 1.03417
f 228/361/3 227/360/3 225/358/3

v 80.4613 30.5 -52.0868
vt 0.251572 1.0375
f 229/362/3 227/360/3 228/361/3

v 80.1572 30.5 -37.1486
vt 0.239598 0.449378
f 229/362/3 230/363/3 227/360/3

v 80.1572 30.5 -52.3202
vt 0.239598 1.04668
f 231/364/3 230/363/3 229/362/3

v 79.8393 30.5 -36.7344
vt 0.227085 0.433071
f 231/364/3 232/365/3 230/363/3

v 79.8393 30.5 -52.7344
vt 0.227085 1.06299
f 233/366/3 232/365/3 231/364/3

f 143/204/3 232/365/3 233/366/3

f 143/204/3 144/205/3 232/365/3

vt 0.466452 1.12205
v 79.8393 28.5 -36.7344
vt 0.487007 1.12205
vn 0.866025 3.37851e-016 0.5
vt 0.487007 1.20079
vt 0.466452 1.20079
f 146/367/22 234/368/55 232/369/55 144/370/22 

vt -0.227085 0.433071
f 146/210/13 148/59/13 234/371/13

v 80.1572 28.5 -37.1486
vt -0.239598 0.449378
f 234/371/13 148/59/13 235/372/13

v 80.5714 28.5 -37.4664
vt -0.255906 0.461892
f 235/372/13 148/59/13 236/373/13

v 81.5714 28.5 -40.7344
f 236/373/13 148/59/13 237/58/13

vt 0.369832 1.12205
vn 0.130526 -1.04481e-014 0.991445
vt 0.318444 1.12205
vt 0.318444 1.04331
vt 0.369832 1.04331
f 237/374/56 148/375/30 48/376/30 47/377/56 

vt 0.590551 1.12205
vn 1 3.94795e-014 1.40998e-014
vt 0.590551 1.04331
vt 0.905512 1.04331
v 81.5714 28.5 -48.7344
vt 0.905512 1.12205
f 237/378/57 47/379/57 46/380/57 238/381/57 

vt -0.123168 1.12205
vt -0.174556 1.12205
vn 0.130526 2.94486e-015 -0.991445
vt -0.174556 1.04331
vt -0.123168 1.04331
f 141/382/19 238/383/58 46/384/58 45/385/19 

v 80.5714 28.5 -52.0023
vt -0.255906 1.03417
f 141/56/13 239/386/13 238/57/13

v 80.1572 28.5 -52.3202
vt -0.239598 1.04668
f 141/56/13 240/387/13 239/386/13

v 79.8393 28.5 -52.7344
vt -0.227085 1.06299
f 141/56/13 241/388/13 240/387/13

f 141/56/13 142/172/13 241/388/13

vt 0.895175 1.12205
vn 0.866025 -3.21097e-016 -0.5
vt 0.91573 1.12205
vt 0.91573 1.20079
vt 0.895175 1.20079
f 241/389/59 142/390/20 143/391/20 233/392/59 

vt 0.684533 1.12205
vn 0.707107 -1.91034e-014 -0.707107
vt 0.705088 1.12205
vt 0.705088 1.20079
vt 0.684533 1.20079
f 240/393/60 241/394/59 233/395/59 231/396/60 

vt 0.42654 1.12205
vn 0.5 -1.91107e-014 -0.866025
vt 0.447095 1.12205
vt 0.447095 1.20079
vt 0.432003 1.20079
vn 0.608761 -3.74108e-014 -0.793353
vt 0.42654 1.20079
f 239/397/61 240/398/60 231/399/60 229/400/62 228/401/61 

v 81.0537 28.5 -51.8025
vt 0.138779 1.12205
vn 0.258819 -6.69088e-016 -0.965926
vt 0.159334 1.12205
vt 0.159334 1.20079
vt 0.138779 1.20079
f 242/402/63 239/403/61 228/404/61 225/405/63 

vt -0.274896 1.02631
f 238/57/13 239/386/13 242/406/13

v 81.5714 28.5 -51.7344
vt -0.295276 1.02362
f 238/57/13 242/406/13 243/407/13

vt -0.15914 1.12205
vn 0.130526 -8.43173e-016 -0.991445
vt -0.138585 1.12205
vt -0.138585 1.20079
vt -0.15914 1.20079
f 243/408/64 242/409/63 225/410/63 224/411/64 

v 84.0714 28.5 -51.7344
vn 3.60956e-014 -1.35358e-013 -1
f 244/327/65 243/328/65 224/325/65 221/326/65 

vt -0.393701 1.02362
f 238/57/13 243/407/13 244/412/13

v 81.5714 28.5 -37.7344
vt -0.295276 0.472441
f 238/57/13 244/412/13 245/413/13

v 84.0714 28.5 -37.7344
vt -0.393701 0.472441
f 245/413/13 244/412/13 246/414/13

v 84.589 28.5 -37.6662
vt -0.41408 0.469758
f 246/414/13 244/412/13 247/415/13

v 84.5714 28.5 -44.7344
vt -0.413386 0.748031
f 247/415/13 244/412/13 248/416/13

v 84.589 28.5 -51.8025
vt -0.41408 1.02631
f 249/417/13 248/416/13 244/412/13

v 84.7758 28.5 -46.2873
vt -0.421435 0.80917
f 248/416/13 249/417/13 250/418/13

v 85.0714 28.5 -52.0023
vt -0.433071 1.03417
f 250/418/13 249/417/13 251/419/13

v 84.589 30.5 -51.8025
vt -0.77531 1.20079
vn -0.258819 -3.84839e-014 -0.965926
v 85.0714 30.5 -52.0023
vt -0.795866 1.20079
vn -0.5 2.38936e-014 -0.866025
vt -0.795866 1.12205
vt -0.77531 1.12205
f 252/420/66 253/421/67 251/422/67 249/423/66 

vt 0.41408 1.02631
v 84.7758 30.5 -46.2873
vt 0.421435 0.80917
vt 0.433071 1.03417
f 252/424/3 254/425/3 253/426/3

f 252/424/3 220/353/3 254/425/3

f 220/353/3 252/424/3 221/354/3

vt -0.523942 1.20079
vn -0.130526 -9.68283e-014 -0.991445
vt -0.544497 1.20079
vt -0.544497 1.12205
vt -0.523942 1.12205
f 221/427/68 252/428/66 249/429/66 244/430/68 

vt 0.857256 1.20079
vn 0.965926 -1.53651e-015 0.258819
vt 0.79559 1.20079
vn 1 -1.6145e-015 -0
vt 0.79559 1.12205
vt 0.857256 1.12205
f 254/431/69 220/432/70 248/433/70 250/434/69 

vt 0.687674 1.20079
vt 0.626008 1.20079
vn 0.965926 -1.58246e-015 -0.258819
v 84.7758 28.5 -43.1815
vt 0.626008 1.12205
vt 0.687674 1.12205
f 220/435/70 218/436/71 255/437/71 248/438/70 

vt 0.47333 1.20079
vt 0.411664 1.20079
vn 0.866025 -1.44258e-015 -0.5
v 85.3752 28.5 -41.7344
vt 0.411664 1.12205
vt 0.47333 1.12205
f 218/439/71 216/440/72 256/441/72 255/442/71 

vt 0.228831 1.20079
vt 0.167165 1.20079
vn 0.707107 -6.78618e-016 -0.707107
v 86.3287 28.5 -40.4917
vt 0.167165 1.12205
vt 0.228831 1.12205
f 216/443/72 213/444/73 257/445/73 256/446/72 

vt -0.0291616 1.20079
vt -0.0781419 1.20079
vn 0.608761 -1.07147e-017 -0.793353
vt -0.0781419 1.12205
vt -0.0291616 1.12205
f 213/447/73 173/448/74 203/449/74 257/450/73 

f 172/280/3 173/281/3 213/345/3

v 116.071 28.5 -39.7344
vt -1.65354 1.12205
vn 2.09106e-015 -1.50398e-014 -1
vt -0.521432 1.12205
vt -0.521432 1.20079
v 116.071 30.5 -39.7344
vt -1.65354 1.20079
f 258/451/75 203/452/75 173/453/75 259/454/75 

v 113.157 28.5 -37.1486
vt -1.53881 0.449378
vt -1.65354 0.551181
f 260/455/13 203/317/13 258/456/13

v 112.839 28.5 -36.7344
vt -1.5263 0.433071
f 261/457/13 203/317/13 260/455/13

v 112.64 28.5 -36.252
vt -1.51843 0.41408
f 262/458/13 203/317/13 261/457/13

v 112.571 28.5 -35.7344
vt -1.51575 0.393701
f 203/317/13 262/458/13 263/459/13

vt 0.588177 1.12205
vn 1 -5.3131e-015 -0
vt 0.608733 1.12205
vn 0.965926 -5.50527e-015 0.258819
v 112.64 30.5 -36.252
vt 0.608733 1.20079
v 112.571 30.5 -35.7344
vt 0.588177 1.20079
f 263/460/76 262/461/77 264/462/77 265/463/76 

vt 0.963639 1.12205
vt 0.984194 1.12205
vn 0.866025 -5.32227e-015 0.5
v 112.839 30.5 -36.7344
vt 0.984194 1.20079
vt 0.963639 1.20079
f 262/464/77 261/465/78 266/466/78 264/467/77 

vt 1.27273 1.12205
vt 1.29328 1.12205
vn 0.707107 -4.77656e-015 0.707107
v 113.157 30.5 -37.1486
vt 1.29328 1.20079
vt 1.27273 1.20079
f 261/468/78 260/469/79 267/470/79 266/471/78 

vt 1.49438 1.12205
v 113.571 28.5 -37.4664
vt 1.51494 1.12205
vn 0.5 -3.90534e-015 0.866025
v 113.571 30.5 -37.4664
vt 1.51494 1.20079
vt 1.49438 1.20079
f 260/472/79 268/473/80 269/474/80 267/475/79 

vt -1.55512 0.461892
f 260/455/13 258/456/13 268/476/13

v 114.054 28.5 -37.6662
vt -1.57411 0.469758
f 268/476/13 258/456/13 270/477/13

v 114.571 28.5 -37.7344
vt -1.59449 0.472441
f 270/477/13 258/456/13 271/478/13

v 115.089 28.5 -37.6662
vt -1.61487 0.469758
f 271/478/13 258/456/13 272/479/13

v 115.571 28.5 -37.4664
vt -1.63386 0.461892
f 272/479/13 258/456/13 273/480/13

v 115.986 28.5 -37.1486
vt -1.65017 0.449378
f 273/480/13 258/456/13 274/481/13

v 116.303 28.5 -36.7344
vt -1.66268 0.433071
f 274/481/13 258/456/13 275/482/13

f 275/482/13 258/456/13 193/307/13

vt -1.60856 1.12205
vn 0.258819 1.77175e-017 -0.965926
vt -1.56745 1.12205
vn 0.130526 7.36148e-016 -0.991445
vt -1.56745 1.20079
vt -1.60856 1.20079
f 193/483/81 258/484/82 259/485/82 184/486/81 

vt 1.65354 0.551181
v 116.303 30.5 -36.7344
vt 1.66268 0.433071
f 259/487/3 276/488/3 184/292/3

v 115.986 30.5 -37.1486
vt 1.65017 0.449378
f 259/487/3 277/489/3 276/488/3

v 115.571 30.5 -37.4664
vt 1.63386 0.461892
f 259/487/3 278/490/3 277/489/3

v 115.089 30.5 -37.6662
vt 1.61487 0.469758
f 259/487/3 279/491/3 278/490/3

v 114.571 30.5 -37.7344
vt 1.59449 0.472441
f 259/487/3 280/492/3 279/491/3

v 114.054 30.5 -37.6662
vt 1.57411 0.469758
f 259/487/3 281/493/3 280/492/3

vt 1.55512 0.461892
f 259/487/3 269/494/3 281/493/3

vt 1.53881 0.449378
f 259/487/3 267/495/3 269/494/3

f 173/281/3 267/495/3 259/487/3

vt 1.5263 0.433071
f 267/495/3 173/281/3 266/496/3

vt 1.51843 0.41408
f 266/496/3 173/281/3 264/497/3

vt 1.51575 0.393701
f 264/497/3 173/281/3 265/498/3

v 112.64 30.5 -35.2167
vt 1.51843 0.373321
f 173/281/3 282/499/3 265/498/3

v 112.839 30.5 -34.7344
vt 1.5263 0.354331
f 173/281/3 283/500/3 282/499/3

f 173/281/3 174/282/3 283/500/3

v 113.157 28.5 -34.3202
vt -0.668597 1.12205
vn 0.707107 -2.73729e-015 -0.707107
v 112.839 28.5 -34.7344
vt -0.648041 1.12205
vn 0.866025 -3.88028e-015 -0.5
vt -0.648041 1.20079
vt -0.668597 1.20079
f 284/501/83 285/502/84 283/503/84 174/504/83 

vt -1.53881 0.338023
vt -1.5263 0.354331
f 284/505/13 203/317/13 285/506/13

f 202/316/13 203/317/13 284/505/13

vt -1.0356 1.12205
vn 0.5 -1.40775e-015 -0.866025
vt -1.01505 1.12205
vt -1.01505 1.20079
vt -1.0356 1.20079
f 202/507/85 284/508/83 174/509/83 175/510/85 

vt -1.33273 1.12205
vn 0.258819 -3.53532e-016 -0.965926
vt -1.31217 1.12205
vt -1.31217 1.20079
vt -1.33273 1.20079
f 201/511/86 202/512/85 175/513/85 176/514/86 

vt -1.53974 1.12205
vn 0 0 -1
vt -1.51918 1.12205
vt -1.51918 1.20079
vt -1.53974 1.20079
f 200/515/87 201/516/86 176/517/86 177/518/87 

vt -1.64251 1.12205
vn -0.258819 1.69725e-015 -0.965926
vt -1.62196 1.12205
vt -1.62196 1.20079
vt -1.64251 1.20079
f 199/519/88 200/520/87 177/521/87 178/522/88 

vt -1.63406 1.12205
vn -0.5 3.90534e-015 -0.866025
vt -1.6135 1.12205
vt -1.6135 1.20079
vt -1.63406 1.20079
f 198/523/89 199/524/88 178/525/88 179/526/89 

vt -1.51494 1.12205
vn -0.707107 4.77656e-015 -0.707107
vt -1.49438 1.12205
vt -1.49438 1.20079
vt -1.51494 1.20079
f 197/527/90 198/528/89 179/529/89 180/530/90 

vt -1.29328 1.12205
vn -0.866025 5.32227e-015 -0.5
vt -1.27273 1.12205
vt -1.27273 1.20079
vt -1.29328 1.20079
f 196/531/91 197/532/90 180/533/90 181/534/91 

vt -0.984194 1.12205
vn -0.965926 5.50527e-015 -0.258819
vt -0.963639 1.12205
vt -0.963639 1.20079
vt -0.984194 1.20079
f 195/535/92 196/536/91 181/537/91 182/538/92 

vt -0.608733 1.12205
vn -1 5.3131e-015 -0
vt -0.588177 1.12205
vt -0.588177 1.20079
vt -0.608733 1.20079
f 194/539/93 195/540/92 182/541/92 183/542/93 

v 116.503 28.5 -36.252
vt -0.192488 1.12205
vn -0.965926 4.75884e-015 0.258819
vt -0.171932 1.12205
vt -0.171932 1.20079
v 116.503 30.5 -36.252
vt -0.192488 1.20079
f 286/543/94 194/544/93 183/545/93 287/546/94 

vt -1.67055 0.41408
f 286/547/13 193/307/13 194/308/13

f 275/482/13 193/307/13 286/547/13

vt 0.236174 1.12205
vn -0.866025 3.88028e-015 0.5
vt 0.25673 1.12205
vt 0.25673 1.20079
vt 0.236174 1.20079
f 275/548/95 286/549/94 287/550/94 276/551/95 

vt 1.67055 0.41408
f 184/292/3 276/488/3 287/552/3

f 184/292/3 287/552/3 183/291/3

vt 0.648041 1.12205
vn -0.707107 2.73729e-015 0.707107
vt 0.668597 1.12205
vt 0.668597 1.20079
vt 0.648041 1.20079
f 274/553/96 275/554/95 276/555/95 277/556/96 

vt 1.01505 1.12205
vn -0.5 1.40775e-015 0.866025
vt 1.0356 1.12205
vt 1.0356 1.20079
vt 1.01505 1.20079
f 273/557/97 274/558/96 277/559/96 278/560/97 

vt 1.31217 1.12205
vn -0.258819 -1.77175e-017 0.965926
vt 1.33273 1.12205
vt 1.33273 1.20079
vt 1.31217 1.20079
f 272/561/98 273/562/97 278/563/97 279/564/98 

vt 1.51918 1.12205
vn 0 -1.44198e-015 1
vt 1.53974 1.12205
vt 1.53974 1.20079
vt 1.51918 1.20079
f 271/565/99 272/566/98 279/567/98 280/568/99 

vt 1.62196 1.12205
vn 0.258819 -2.76798e-015 0.965926
vt 1.64251 1.12205
vt 1.64251 1.20079
vt 1.62196 1.20079
f 270/569/100 271/570/99 280/571/99 281/572/100 

vt 1.6135 1.12205
vt 1.63406 1.12205
vt 1.63406 1.20079
vt 1.6135 1.20079
f 268/573/80 270/574/100 281/575/100 269/576/80 

v 112.64 28.5 -35.2167
vt -1.51843 0.373321
f 285/506/13 203/317/13 288/577/13

f 288/577/13 203/317/13 263/459/13

vt 0.171932 1.12205
vt 0.192488 1.12205
vt 0.192488 1.20079
vt 0.171932 1.20079
f 288/578/45 263/579/76 265/580/76 282/581/45 

vt -0.25673 1.12205
vt -0.236174 1.12205
vt -0.236174 1.20079
vt -0.25673 1.20079
f 285/582/84 288/583/45 282/584/45 283/585/84 

vt -1.39757 1.12205
vt -1.35646 1.12205
vt -1.35646 1.20079
vt -1.39757 1.20079
f 192/586/85 193/587/81 184/588/81 185/589/85 

vt -1.09273 1.12205
vt -1.05162 1.12205
vt -1.05162 1.20079
vt -1.09273 1.20079
f 191/590/83 192/591/85 185/592/85 186/593/83 

vt -0.714825 1.12205
vt -0.673714 1.12205
vt -0.673714 1.20079
vt -0.714825 1.20079
f 190/594/84 191/595/83 186/596/83 187/597/84 

vt -0.289607 1.12205
vt -0.248496 1.12205
vt -0.248496 1.20079
vt -0.289607 1.20079
f 189/598/45 190/599/84 187/600/84 188/601/45 

vt -0.482573 0.580998
f 203/317/13 204/318/13 257/602/13

vt -0.469758 0.41408
f 212/603/13 257/602/13 204/318/13

v 85.8034 28.5 -36.7344
vt -0.461892 0.433071
f 289/604/13 257/602/13 212/603/13

v 85.4856 28.5 -37.1486
vt -0.449378 0.449378
f 290/605/13 257/602/13 289/604/13

vt -0.445033 0.629921
f 290/605/13 256/606/13 257/602/13

v 85.0714 28.5 -37.4664
vt -0.433071 0.461892
f 291/607/13 256/606/13 290/605/13

vt -0.421435 0.686893
f 291/607/13 255/608/13 256/606/13

f 247/415/13 255/608/13 291/607/13

f 247/415/13 248/416/13 255/608/13

vt 0.223347 1.20079
vn -0.5 -2.60416e-014 0.866025
vt 0.202792 1.20079
vn -0.258819 1.03738e-014 0.965926
vt 0.202792 1.12205
vt 0.223347 1.12205
f 217/609/101 219/610/102 247/611/102 291/612/101 

vt 0.349222 1.20079
vt 0.328667 1.20079
vn -0.130526 4.47342e-014 0.991445
vt 0.328667 1.12205
vt 0.349222 1.12205
f 219/613/102 222/614/103 246/615/103 247/616/102 

vn -1.6243e-013 1.57918e-013 1
f 245/202/104 246/112/104 222/113/104 223/203/104 

v 81.0537 28.5 -37.6662
vt 0.33386 1.12205
vn 0.258819 5.46669e-016 0.965926
vt 0.354415 1.12205
vn 0.130526 5.74472e-016 0.991445
vt 0.354415 1.20079
vt 0.33386 1.20079
f 292/617/105 245/618/106 223/619/106 226/620/105 

vt -0.274896 0.469758
f 292/621/13 237/58/13 245/413/13

f 236/373/13 237/58/13 292/621/13

vt 0.413184 1.12205
vn 0.5 6.57074e-016 0.866025
vt 0.433739 1.12205
vt 0.433739 1.20079
vt 0.413184 1.20079
f 236/622/107 292/623/105 226/624/105 227/625/107 

vt 0.46365 1.12205
vn 0.707107 6.21877e-016 0.707107
vt 0.484205 1.12205
vt 0.484205 1.20079
vt 0.46365 1.20079
f 235/626/108 236/627/107 227/628/107 230/629/108 

vt 0.481819 1.12205
vt 0.502374 1.12205
vt 0.502374 1.20079
vt 0.481819 1.20079
f 234/630/55 235/631/108 230/632/108 232/633/55 

f 245/413/13 237/58/13 238/57/13

vt 0.0829516 1.20079
vn -0.707107 -2.84352e-014 0.707107
vt 0.0623963 1.20079
vt 0.0623963 1.12205
vt 0.0829516 1.12205
f 215/634/109 217/635/101 291/636/101 290/637/109 

vt -0.0623963 1.20079
vn -0.866025 -2.8891e-014 0.5
vt -0.0829516 1.20079
vt -0.0829516 1.12205
vt -0.0623963 1.12205
f 214/638/110 215/639/109 290/640/109 289/641/110 

vt -0.202792 1.20079
vt -0.223347 1.20079
vt -0.223347 1.12205
vt -0.202792 1.12205
f 211/642/54 214/643/110 289/644/110 212/645/54 

v 85.3752 30.5 -47.7344
vt 0.970518 1.20079
vn 0.866025 -1.35381e-015 0.5
vt 0.908852 1.20079
vt 0.908852 1.12205
v 85.3752 28.5 -47.7344
vt 0.970518 1.12205
f 293/646/111 254/647/69 250/648/69 294/649/111 

vt 0.445033 0.866142
f 253/426/3 254/425/3 293/650/3

v 85.4856 30.5 -52.3202
vt 0.449378 1.04668
f 253/426/3 293/650/3 295/651/3

v 86.3287 30.5 -48.977
vt 0.482573 0.915065
f 295/651/3 293/650/3 296/652/3

vt 1.01974 1.20079
vn 0.707107 -6.18669e-016 0.707107
vt 0.958076 1.20079
vt 0.958076 1.12205
v 86.3287 28.5 -48.977
vt 1.01974 1.12205
f 296/653/112 293/654/111 294/655/111 297/656/112 

vt -0.445033 0.866142
v 85.4856 28.5 -52.3202
vt -0.449378 1.04668
vt -0.482573 0.915065
f 294/657/13 298/658/13 297/659/13

f 294/657/13 251/419/13 298/658/13

f 250/418/13 251/419/13 294/657/13

vt -0.973142 1.20079
vt -0.993697 1.20079
vn -0.707107 2.93656e-014 -0.707107
vt -0.993697 1.12205
vt -0.973142 1.12205
f 253/660/67 295/661/113 298/662/113 251/663/67 

vt -1.10395 1.20079
v 85.8034 30.5 -52.7344
vt -1.12451 1.20079
vn -0.866025 3.28364e-014 -0.5
v 85.8034 28.5 -52.7344
vt -1.12451 1.12205
vt -1.10395 1.12205
f 295/664/113 299/665/114 300/666/114 298/667/113 

vt 0.461892 1.06299
f 295/651/3 296/652/3 299/668/3

v 86.0032 30.5 -53.2167
vt 0.469758 1.08198
f 299/668/3 296/652/3 301/669/3

v 86.0714 30.5 -53.7344
vt 0.472441 1.10236
f 301/669/3 296/652/3 302/670/3

v 87.3157 30.5 -49.7344
vt 0.521432 0.944882
f 303/671/3 302/670/3 296/652/3

f 5/5/3 302/670/3 303/671/3

v 86.0032 30.5 -54.252
vt 0.469758 1.12274
f 5/5/3 304/672/3 302/670/3

v 85.8034 30.5 -54.7344
vt 0.461892 1.14173
f 5/5/3 305/673/3 304/672/3

v 85.4856 30.5 -55.1486
vt 0.449378 1.15804
f 5/5/3 306/674/3 305/673/3

v 85.0714 30.5 -55.4664
vt 0.433071 1.17055
f 5/5/3 307/675/3 306/674/3

f 5/5/3 1/7/3 307/675/3

vt -0.047846 1.20079
vn -0.5 9.08695e-015 0.866025
vt -0.0684013 1.20079
vt -0.0684013 1.12205
vt -0.047846 1.12205
f 307/676/115 1/677/1 4/678/1 122/679/115 

vt -0.348454 1.20079
vn -0.707107 1.7276e-014 0.707107
vt -0.369009 1.20079
vt -0.369009 1.12205
vt -0.348454 1.12205
f 306/680/116 307/681/115 122/682/115 121/683/116 

vt -0.624615 1.20079
vn -0.866025 2.42877e-014 0.5
vt -0.645171 1.20079
vt -0.645171 1.12205
vt -0.624615 1.12205
f 305/684/117 306/685/116 121/686/116 120/687/117 

vt -0.857509 1.20079
vn -0.965926 2.96443e-014 0.258819
vt -0.878065 1.20079
vt -0.878065 1.12205
vt -0.857509 1.12205
f 304/688/118 305/689/117 120/690/117 119/691/118 

vt -1.03127 1.20079
vn -1 3.29806e-014 -0
vt -1.05182 1.20079
vt -1.05182 1.12205
vt -1.03127 1.12205
f 302/692/119 304/693/118 119/694/118 118/695/119 

vt -1.13404 1.20079
vn -0.965926 3.40694e-014 -0.258819
vt -1.1546 1.20079
vt -1.1546 1.12205
v 86.0032 28.5 -53.2167
vt -1.13404 1.12205
f 301/696/120 302/697/119 118/698/119 308/699/120 

vt -0.469758 1.08198
f 297/659/13 308/700/13 118/138/13

vt -0.461892 1.06299
f 297/659/13 300/701/13 308/700/13

f 297/659/13 298/658/13 300/701/13

vt -1.15883 1.20079
vt -1.17939 1.20079
vt -1.17939 1.12205
vt -1.15883 1.12205
f 299/702/114 301/703/120 308/704/120 300/705/114 

f 118/138/13 117/137/13 297/659/13

vt 0.988887 1.20079
vn 0.608761 6.92436e-020 0.793353
vt 0.939907 1.20079
vt 0.939907 1.12205
vt 0.988887 1.12205
f 303/706/121 296/707/112 297/708/112 117/709/121 

vt 0.521432 1.12205
vn -5.89071e-015 -8.96956e-029 1
v 116.071 28.5 -49.7344
vt 1.65354 1.12205
v 116.071 30.5 -49.7344
vt 1.65354 1.20079
vt 0.521432 1.20079
f 117/710/122 309/711/122 310/712/122 303/713/122 

v 113.157 28.5 -52.3202
vt -1.53881 1.04668
vt -1.65354 0.944882
f 117/137/13 311/714/13 309/715/13

v 112.839 28.5 -52.7344
vt -1.5263 1.06299
f 311/714/13 117/137/13 312/716/13

v 112.64 28.5 -53.2167
vt -1.51843 1.08198
f 312/716/13 117/137/13 313/717/13

v 112.571 28.5 -53.7344
vt -1.51575 1.10236
f 313/717/13 117/137/13 314/718/13

v 112.64 28.5 -54.252
vt -1.51843 1.12274
f 117/137/13 315/719/13 314/718/13

v 112.839 28.5 -54.7344
vt -1.5263 1.14173
f 117/137/13 316/720/13 315/719/13

v 113.157 28.5 -55.1486
vt -1.53881 1.15804
f 117/137/13 317/721/13 316/720/13

f 117/137/13 116/136/13 317/721/13

vt 1.92579 1.12205
vn 0.707107 -3.55205e-015 0.707107
vt 1.94635 1.12205
vn 0.5 -3.56438e-015 0.866025
v 113.571 30.5 -55.4664
vt 1.94635 1.20079
v 113.157 30.5 -55.1486
vt 1.92579 1.20079
f 317/722/123 116/723/124 318/724/124 319/725/123 

vt 1.88469 1.12205
vt 1.90525 1.12205
vn 0.258819 -1.75443e-015 0.965926
v 114.054 30.5 -55.6662
vt 1.90525 1.20079
vt 1.88469 1.20079
f 116/726/124 115/727/125 320/728/125 318/729/124 

vt 1.71446 1.12205
vt 1.73501 1.12205
vn 0 -8.37543e-030 1
v 114.571 30.5 -55.7344
vt 1.73501 1.20079
vt 1.71446 1.20079
f 115/730/125 114/731/126 321/732/126 320/733/125 

vt 1.42668 1.12205
vt 1.44724 1.12205
vn -0.258819 -9.25597e-016 0.965926
v 115.089 30.5 -55.6662
vt 1.44724 1.20079
vt 1.42668 1.20079
f 114/734/126 113/735/127 322/736/127 321/737/126 

vt 1.04098 1.12205
vt 1.06154 1.12205
vn -0.5 -1.41705e-015 0.866025
v 115.571 30.5 -55.4664
vt 1.06154 1.20079
vt 1.04098 1.20079
f 113/738/127 112/739/128 323/740/128 322/741/127 

vt 0.583639 1.12205
vt 0.604195 1.12205
vn -0.707107 -5.15268e-016 0.707107
v 115.986 30.5 -55.1486
vt 0.604195 1.20079
vt 0.583639 1.20079
f 112/742/128 111/743/129 324/744/129 323/745/128 

vt 0.0858225 1.12205
vt 0.106378 1.12205
vn -0.866025 4.21627e-016 0.5
v 116.303 30.5 -54.7344
vt 0.106378 1.20079
vt 0.0858225 1.20079
f 111/746/129 110/747/130 325/748/130 324/749/129 

vt -0.418543 1.12205
vt -0.397988 1.12205
vn -0.965926 1.32979e-015 0.258819
v 116.503 30.5 -54.252
vt -0.397988 1.20079
vt -0.418543 1.20079
f 110/750/130 109/751/131 326/752/131 325/753/130 

vt -0.895087 1.12205
vt -0.874531 1.12205
vn -1 2.14733e-015 -0
v 116.571 30.5 -53.7344
vt -0.874531 1.20079
vt -0.895087 1.20079
f 109/754/131 108/755/132 327/756/132 326/757/131 

vt -1.31133 1.12205
v 116.503 28.5 -53.2167
vt -1.29078 1.12205
vn -0.965926 2.81853e-015 -0.258819
v 116.503 30.5 -53.2167
vt -1.29078 1.20079
vt -1.31133 1.20079
f 108/758/132 328/759/133 329/760/133 327/761/132 

vt -1.67055 1.08198
f 107/127/13 328/762/13 108/128/13

v 116.303 28.5 -52.7344
vt -1.66268 1.06299
f 107/127/13 330/763/13 328/762/13

f 309/715/13 330/763/13 107/127/13

v 115.986 28.5 -52.3202
vt -1.65017 1.04668
f 309/715/13 331/764/13 330/763/13

v 115.571 28.5 -52.0023
vt -1.63386 1.03417
f 309/715/13 332/765/13 331/764/13

v 115.089 28.5 -51.8025
vt -1.61487 1.02631
f 309/715/13 333/766/13 332/765/13

v 114.571 28.5 -51.7344
vt -1.59449 1.02362
f 309/715/13 334/767/13 333/766/13

v 114.054 28.5 -51.8025
vt -1.57411 1.02631
f 309/715/13 335/768/13 334/767/13

v 113.571 28.5 -52.0023
vt -1.55512 1.03417
f 309/715/13 336/769/13 335/768/13

f 309/715/13 311/714/13 336/769/13

vt -0.604195 1.12205
vn 0.5 1.41705e-015 -0.866025
vt -0.583639 1.12205
vn 0.707107 5.15268e-016 -0.707107
v 113.157 30.5 -52.3202
vt -0.583639 1.20079
v 113.571 30.5 -52.0023
vt -0.604195 1.20079
f 336/770/134 311/771/135 337/772/135 338/773/134 

vt -0.106378 1.12205
vt -0.0858225 1.12205
vn 0.866025 -4.21627e-016 -0.5
v 112.839 30.5 -52.7344
vt -0.0858225 1.20079
vt -0.106378 1.20079
f 311/774/135 312/775/136 339/776/136 337/777/135 

vt 0.397988 1.12205
vt 0.418543 1.12205
vn 0.965926 -1.32979e-015 -0.258819
v 112.64 30.5 -53.2167
vt 0.418543 1.20079
vt 0.397988 1.20079
f 312/778/136 313/779/137 340/780/137 339/781/136 

vt 0.874531 1.12205
vt 0.895087 1.12205
vn 1 -2.14733e-015 -0
v 112.571 30.5 -53.7344
vt 0.895087 1.20079
vt 0.874531 1.20079
f 313/782/137 314/783/138 341/784/138 340/785/137 

vt 1.29078 1.12205
vt 1.31133 1.12205
v 112.64 30.5 -54.252
vt 1.31133 1.20079
vt 1.29078 1.20079
f 314/786/138 315/787/11 342/788/11 341/789/138 

vt 1.61836 1.12205
vt 1.63891 1.12205
vn 0.866025 -3.29766e-015 0.5
v 112.839 30.5 -54.7344
vt 1.63891 1.20079
vt 1.61836 1.20079
f 315/790/11 316/791/139 343/792/139 342/793/11 

vt 1.83495 1.12205
vt 1.8555 1.12205
vt 1.8555 1.20079
vt 1.83495 1.20079
f 316/794/139 317/795/123 319/796/123 343/797/139 

vt 1.53881 1.15804
vt 1.5263 1.14173
f 319/798/3 303/671/3 343/799/3

f 5/5/3 303/671/3 319/798/3

vt 1.55512 1.17055
f 5/5/3 319/798/3 318/800/3

vt 1.57411 1.17842
f 5/5/3 318/800/3 320/801/3

vt 1.59449 1.1811
f 5/5/3 320/801/3 321/802/3

vt 1.61487 1.17842
f 5/5/3 321/802/3 322/803/3

vt 1.63386 1.17055
f 5/5/3 322/803/3 323/804/3

vt 1.65017 1.15804
f 5/5/3 323/804/3 324/805/3

vt 1.66268 1.14173
f 5/5/3 324/805/3 325/806/3

vt 1.67055 1.12274
f 5/5/3 325/806/3 326/807/3

f 5/5/3 326/807/3 327/100/3

v 117.107 30.5 -49.8707
vt 1.6943 0.950248
f 5/5/3 327/100/3 344/808/3

f 329/99/3 344/808/3 327/100/3

v 116.303 30.5 -52.7344
vt 1.66268 1.06299
f 345/809/3 344/808/3 329/99/3

vt 1.65354 0.944882
f 345/809/3 310/810/3 344/808/3

v 115.986 30.5 -52.3202
vt 1.65017 1.04668
f 346/811/3 310/810/3 345/809/3

v 115.571 30.5 -52.0023
vt 1.63386 1.03417
f 347/812/3 310/810/3 346/811/3

v 115.089 30.5 -51.8025
vt 1.61487 1.02631
f 348/813/3 310/810/3 347/812/3

v 114.571 30.5 -51.7344
vt 1.59449 1.02362
f 349/814/3 310/810/3 348/813/3

v 114.054 30.5 -51.8025
vt 1.57411 1.02631
f 350/815/3 310/810/3 349/814/3

vt 1.55512 1.03417
f 338/816/3 310/810/3 350/815/3

vt 1.53881 1.04668
f 337/817/3 310/810/3 338/816/3

f 337/817/3 303/671/3 310/810/3

vt 1.5263 1.06299
f 339/818/3 303/671/3 337/817/3

vt 1.51843 1.08198
f 340/819/3 303/671/3 339/818/3

vt 1.51575 1.10236
f 303/671/3 340/819/3 341/820/3

vt 1.51843 1.12274
f 342/821/3 303/671/3 341/820/3

f 343/799/3 303/671/3 342/821/3

vt -1.06154 1.12205
vn 0.258819 2.22226e-015 -0.965926
vt -1.04098 1.12205
vt -1.04098 1.20079
vt -1.06154 1.20079
f 335/822/140 336/823/134 338/824/134 350/825/140 

vt -1.44724 1.12205
vn 0 2.87603e-015 -1
vt -1.42668 1.12205
vt -1.42668 1.20079
vt -1.44724 1.20079
f 334/826/141 335/827/140 350/828/140 349/829/141 

vt -1.73501 1.12205
vn -0.258819 3.3338e-015 -0.965926
vt -1.71446 1.12205
vt -1.71446 1.20079
vt -1.73501 1.20079
f 333/830/142 334/831/141 349/832/141 348/833/142 

vt -1.90525 1.12205
vn -0.5 3.56438e-015 -0.866025
vt -1.88469 1.12205
vt -1.88469 1.20079
vt -1.90525 1.20079
f 332/834/143 333/835/142 348/836/142 347/837/143 

vt -1.94635 1.12205
vn -0.707107 3.55205e-015 -0.707107
vt -1.92579 1.12205
vt -1.92579 1.20079
vt -1.94635 1.20079
f 331/838/144 332/839/143 347/840/143 346/841/144 

vt -1.8555 1.12205
vn -0.866025 3.29766e-015 -0.5
vt -1.83495 1.12205
vt -1.83495 1.20079
vt -1.8555 1.20079
f 330/842/145 331/843/144 346/844/144 345/845/145 

vt -1.63891 1.12205
vt -1.61836 1.12205
vt -1.61836 1.20079
vt -1.63891 1.20079
f 328/846/133 330/847/145 345/848/145 329/849/133 

vt 1.76273 1.12205
vn 0.130526 -3.13171e-015 0.991445
vt 1.80384 1.12205
vn 0.258819 -3.3338e-015 0.965926
vt 1.80384 1.20079
vt 1.76273 1.20079
f 309/850/146 107/851/147 344/852/147 310/853/146 

vt 1.92898 1.12205
vt 1.97009 1.12205
v 118.071 30.5 -50.2703
vt 1.97009 1.20079
vt 1.92898 1.20079
f 107/854/147 106/855/124 351/856/124 344/857/147 

vt 1.96236 1.12205
vt 2.00348 1.12205
v 118.9 30.5 -50.906
vt 2.00348 1.20079
vt 1.96236 1.20079
f 106/858/124 105/859/123 352/860/123 351/861/124 

vt 1.86062 1.12205
vt 1.90173 1.12205
v 119.535 30.5 -51.7344
vt 1.90173 1.20079
vt 1.86062 1.20079
f 105/862/123 104/863/139 353/864/139 352/865/123 

vt 1.63068 1.12205
vt 1.67179 1.12205
vt 1.67179 1.20079
vt 1.63068 1.20079
f 104/866/139 102/867/11 103/868/11 353/869/139 

vt 1.78993 1.02362
vt 1.80566 1.0616
f 5/5/3 353/870/3 103/871/3

vt 1.7649 0.991007
f 5/5/3 352/872/3 353/870/3

vt 1.73228 0.96598
f 5/5/3 351/873/3 352/872/3

f 5/5/3 344/808/3 351/873/3

vt 1.81102 1.10236
f 5/5/3 103/871/3 95/874/3

vn -8.32667e-017 -7.49401e-016 -1
vt -1.81102 1.12205
vt -0.295276 1.04331
f 160/328/148 98/875/148 60/38/148 59/876/148 

vt 0.454568 1.12205
vn 0.965926 2.4921e-016 0.258819
vt 0.40318 1.12205
vt 0.40318 1.04331
vt 0.454568 1.04331
f 154/877/149 155/878/14 53/879/14 52/880/149 

vt 0.502423 1.12205
vn 0.866025 4.77827e-016 0.5
vt 0.451035 1.12205
vt 0.451035 1.04331
vt 0.502423 1.04331
f 151/881/150 154/882/149 52/883/149 51/884/150 

vt 0.51779 1.12205
vt 0.466402 1.12205
vt 0.466402 1.04331
vt 0.51779 1.04331
f 149/885/32 151/886/150 51/887/150 50/888/32 

vt 1.15717 1.12205
vn 0.965926 2.07217e-016 0.258819
vt 1.10578 1.12205
vt 1.10578 1.04331
vt 1.15717 1.04331
f 139/889/151 140/890/14 40/891/14 39/892/151 

vt 1.15714 1.12205
vn 0.866025 3.23854e-016 0.5
vt 1.10575 1.12205
vt 1.10575 1.04331
vt 1.15714 1.04331
f 136/893/152 139/894/151 39/895/151 38/896/152 

vt 1.08001 1.12205
vn 0.707107 3.83919e-016 0.707107
vt 1.02862 1.12205
vt 1.02862 1.04331
vt 1.08001 1.04331
f 135/897/153 136/898/152 38/899/152 37/900/153 

vt 0.931028 1.12205
vt 0.879639 1.12205
vt 0.879639 1.04331
vt 0.931028 1.04331
f 131/901/31 135/902/153 37/903/153 36/904/31 

vt 0.720349 1.12205
vn 0.258819 5.60667e-016 0.965926
vt 0.668961 1.12205
vt 0.668961 1.04331
vt 0.720349 1.04331
f 127/905/154 131/906/31 36/907/31 35/908/154 

vt 0.462331 1.12205
vn 0.130526 4.35694e-016 0.991445
vt 0.410942 1.12205
vt 0.410942 1.04331
vt 0.462331 1.04331
f 123/909/155 127/910/154 35/911/154 34/912/155 

vt 1.81102 1.12205
vn 8.32667e-017 7.49401e-016 1
vt 0.295276 1.04331
f 97/913/156 123/202/156 34/914/156 33/73/156 

v 116.571 1.29718e-013 -53.7344
vn -9.07216e-017 -1 -1.89361e-015
vt -1.81102 1.49606
vt -1.81102 1.77636e-014
f 354/128/157 101/915/157 24/916/157

v 116.503 1.32538e-013 -54.252
f 355/129/157 101/915/157 354/128/157

v 116.303 1.32538e-013 -54.7344
f 356/130/157 101/915/157 355/129/157

v 115.986 1.29718e-013 -55.1486
f 357/131/157 101/915/157 356/130/157

v 115.571 1.26898e-013 -55.4664
f 358/132/157 101/915/157 357/131/157

v 115.089 1.24079e-013 -55.6662
f 359/133/157 101/915/157 358/132/157

v 114.571 1.21259e-013 -55.7344
f 360/134/157 101/915/157 359/133/157

v 114.054 1.24079e-013 -55.6662
f 361/135/157 101/915/157 360/134/157

v 113.571 1.24079e-013 -55.4664
f 362/136/157 101/915/157 361/135/157

v 113.157 1.21259e-013 -55.1486
f 363/721/157 101/915/157 362/136/157

v 83.5714 1.32538e-013 -53.7344
vt -0.374016 1.10236
f 364/917/157 101/915/157 363/721/157

v 83.5032 1.32538e-013 -54.252
vt -0.371333 1.12274
f 365/918/157 101/915/157 364/917/157

v 83.3034 1.32538e-013 -54.7344
vt -0.363467 1.14173
f 366/919/157 101/915/157 365/918/157

v 82.9856 1.32538e-013 -55.1486
vt -0.350953 1.15804
f 367/920/157 101/915/157 366/919/157

v 82.5714 1.32538e-013 -55.4664
vt -0.334646 1.17055
f 368/921/157 101/915/157 367/920/157

v 82.089 1.32538e-013 -55.6662
vt -0.315655 1.17842
f 369/922/157 101/915/157 368/921/157

v 81.5714 1.29718e-013 -55.7344
f 370/145/157 101/915/157 369/922/157

v 81.0537 1.26898e-013 -55.6662
f 371/146/157 101/915/157 370/145/157

vt -1.06581e-014 1.49606
f 371/146/157 28/923/157 101/915/157

v 80.5714 1.26898e-013 -55.4664
f 372/147/157 28/923/157 371/146/157

v 80.1572 1.26898e-013 -55.1486
f 373/148/157 28/923/157 372/147/157

v 79.8393 1.26898e-013 -54.7344
f 374/149/157 28/923/157 373/148/157

v 79.6395 1.26898e-013 -54.252
f 375/150/157 28/923/157 374/149/157

v 79.5714 1.26898e-013 -53.7344
f 376/151/157 28/923/157 375/150/157

v 79.5714 1.52278e-013 -35.7344
f 28/923/157 376/151/157 377/211/157

v 79.6395 1.52278e-013 -36.252
f 376/151/157 378/210/157 377/211/157

v 79.6395 1.24079e-013 -53.2167
f 378/210/157 376/151/157 379/172/157

vt 1.06467 0.11811
vn 1 1.13738e-015 1.1198e-016
v 79.6395 3 -53.2167
vt 1.04411 0.11811
vn 0.965926 1.04246e-015 -0.258819
vt 1.04411 4.4908e-015
vt 1.06467 4.60182e-015
f 68/924/158 380/925/159 379/926/159 376/927/158 

v 79.6395 3 -36.252
f 68/16/9 381/205/9 380/204/9

f 381/205/9 68/16/9 69/17/9

vt 0.439151 0.11811
vn 0.965926 1.15479e-015 0.258819
vt 0.418596 0.11811
vt 0.418596 5.80644e-015
vt 0.439151 5.80644e-015
f 381/928/160 69/929/158 377/930/158 378/931/160 

vt 0.362069 0.11811
vt 0.341514 0.11811
v 79.6395 1.52278e-013 -35.2167
vt 0.341514 5.7027e-015
vt 0.362069 5.7027e-015
f 69/932/158 70/933/159 382/934/159 377/935/158 

vt 0.261013 0.11811
vt 0.240457 0.11811
vn 0.866025 8.76503e-016 -0.5
v 79.8393 1.49458e-013 -34.7344
vt 0.240457 5.54992e-015
vt 0.261013 5.66094e-015
f 70/936/159 71/937/161 383/938/161 382/939/159 

vt 0.142869 0.11811
vt 0.122314 0.11811
vn 0.707107 6.5081e-016 -0.707107
v 80.1572 1.52278e-013 -34.3202
vt 0.122314 5.69029e-015
vt 0.142869 5.57927e-015
f 71/940/161 72/941/162 384/942/162 383/943/161 

vt 0.0156896 0.11811
vt -0.00486568 0.11811
vn 0.5 3.80765e-016 -0.866025
v 80.5714 1.52278e-013 -34.0023
vt -0.00486568 5.77981e-015
vt 0.0156896 5.77981e-015
f 72/944/162 73/945/163 385/946/163 384/947/162 

vt -0.111859 0.11811
vt -0.132414 0.11811
vn 0.258819 8.47722e-017 -0.965926
v 81.0537 1.52278e-013 -33.8025
vt -0.132414 5.90161e-015
vt -0.111859 5.90161e-015
f 73/948/163 74/949/164 386/950/164 385/951/163 

vt -0.231084 0.11811
vt -0.251639 0.11811
vn 1.6797e-016 -2.16998e-016 -1
v 81.5714 1.55098e-013 -33.7344
vt -0.251639 6.12962e-015
vt -0.231084 6.0186e-015
f 74/952/164 75/953/165 387/954/165 386/955/164 

vt -0.33386 0.11811
vt -0.354415 0.11811
vn -0.258819 -5.0398e-016 -0.965926
v 82.089 1.55098e-013 -33.8025
vt -0.354415 6.20575e-015
vt -0.33386 6.20575e-015
f 75/956/165 76/957/166 388/958/166 387/959/165 

vt -0.413184 0.11811
vt -0.433739 0.11811
vn -0.5 -7.56617e-016 -0.866025
v 82.5714 1.57918e-013 -34.0023
vt -0.433739 6.32702e-015
vt -0.413184 6.216e-015
f 76/960/166 77/961/167 389/962/167 388/963/166 

vt -0.46365 0.11811
vt -0.484205 0.11811
vn -0.707107 -9.57692e-016 -0.707107
v 82.9856 1.57918e-013 -34.3202
vt -0.484205 6.26439e-015
vt -0.46365 6.26439e-015
f 77/964/167 78/965/168 390/966/168 389/967/167 

vt -0.481819 0.11811
vt -0.502374 0.11811
vn -0.866025 -1.0935e-015 -0.5
v 83.3034 1.60738e-013 -34.7344
vt -0.502374 6.25311e-015
vt -0.481819 6.14209e-015
f 78/968/168 79/969/169 391/970/169 390/971/168 

vt -0.466452 0.11811
vt -0.487007 0.11811
vn -0.965926 -1.15479e-015 -0.258819
v 83.5032 1.60738e-013 -35.2167
vt -0.487007 6.10127e-015
vt -0.466452 6.10127e-015
f 79/972/169 80/973/170 392/974/170 391/975/169 

vt -0.418596 0.11811
vt -0.439151 0.11811
vn -1 -1.13738e-015 -1.1198e-016
v 83.5714 1.60738e-013 -35.7344
vt -0.439151 5.95902e-015
vt -0.418596 5.95902e-015
f 80/976/170 81/977/171 393/978/171 392/979/170 

vt -0.341514 0.11811
v 83.5032 3 -36.252
vt -0.362069 0.11811
vn -0.965926 -1.04246e-015 0.258819
v 83.5032 1.60738e-013 -36.252
vt -0.362069 5.86413e-015
vt -0.341514 5.86413e-015
f 81/980/171 394/981/172 395/982/172 393/983/171 

v 83.5032 3 -53.2167
vt 0.371333 1.08198
vt 0.371333 0.41408
f 396/984/9 394/985/9 81/87/9

v 83.3034 3 -36.7344
vt 0.363467 0.433071
f 396/984/9 397/986/9 394/985/9

v 83.3034 3 -52.7344
vt 0.363467 1.06299
f 398/987/9 397/986/9 396/984/9

v 82.9856 3 -52.3202
vt 0.350953 1.04668
f 399/988/9 397/986/9 398/987/9

v 82.9856 3 -37.1486
vt 0.350953 0.449378
f 399/988/9 400/989/9 397/986/9

v 82.5714 3 -52.0023
vt 0.334646 1.03417
f 401/990/9 400/989/9 399/988/9

v 82.5714 3 -37.4664
vt 0.334646 0.461892
f 401/990/9 402/991/9 400/989/9

v 82.089 3 -51.8025
vt 0.315655 1.02631
f 403/992/9 402/991/9 401/990/9

v 82.089 3 -37.6662
vt 0.315655 0.469758
f 403/992/9 404/993/9 402/991/9

v 81.5714 3 -37.7344
f 403/992/9 405/356/9 404/993/9

v 81.5714 3 -51.7344
f 406/357/9 405/356/9 403/992/9

v 81.0537 3 -51.8025
f 407/358/9 405/356/9 406/357/9

v 81.0537 3 -37.6662
f 407/358/9 408/359/9 405/356/9

v 80.5714 3 -37.4664
f 407/358/9 409/360/9 408/359/9

v 80.5714 3 -52.0023
f 410/361/9 409/360/9 407/358/9

v 80.1572 3 -37.1486
f 410/361/9 411/363/9 409/360/9

v 80.1572 3 -52.3202
f 412/364/9 411/363/9 410/361/9

v 79.8393 3 -36.7344
f 412/364/9 413/365/9 411/363/9

v 79.8393 3 -52.7344
f 414/366/9 413/365/9 412/364/9

f 380/204/9 413/365/9 414/366/9

f 380/204/9 381/205/9 413/365/9

vt 0.487007 0.11811
vn 0.866025 1.0935e-015 0.5
vt 0.466452 0.11811
vt 0.466452 5.94524e-015
v 79.8393 1.52278e-013 -36.7344
vt 0.487007 5.94524e-015
f 413/994/173 381/995/160 378/996/160 415/997/173 

v 79.8393 1.24079e-013 -52.7344
f 378/210/157 416/388/157 415/371/157

f 378/210/157 379/172/157 416/388/157

vt 0.91573 0.11811
vt 0.895175 0.11811
vt 0.895175 4.28827e-015
vt 0.91573 4.28827e-015
f 380/998/159 414/999/161 416/1000/161 379/1001/159 

vt 0.705088 0.11811
vt 0.684533 0.11811
v 80.1572 1.26898e-013 -52.3202
vt 0.684533 4.3588e-015
vt 0.705088 4.24778e-015
f 414/1002/161 412/1003/162 417/1004/162 416/1005/161 

vt 0.447095 0.11811
vt 0.42654 0.11811
v 80.5714 1.26898e-013 -52.0023
vt 0.42654 4.48812e-015
vt 0.447095 4.48812e-015
f 412/1006/162 410/1007/163 418/1008/163 417/1009/162 

vt 0.159334 0.11811
vt 0.138779 0.11811
v 81.0537 1.26898e-013 -51.8025
vt 0.138779 4.74869e-015
vt 0.159334 4.74869e-015
f 410/1010/163 407/1011/164 419/1012/164 418/1013/163 

vt -0.138585 0.11811
vt -0.15914 0.11811
vn 1.53973e-016 -2.16998e-016 -1
v 81.5714 1.29718e-013 -51.7344
vt -0.15914 5.17727e-015
vt -0.138585 5.06625e-015
f 407/1014/164 406/1015/174 420/1016/174 419/1017/164 

vt -0.426359 0.11811
vt -0.446914 0.11811
v 82.089 1.32538e-013 -51.8025
vt -0.446914 5.57304e-015
vt -0.426359 5.46202e-015
f 406/1018/174 403/1019/166 421/1020/166 420/1021/174 

vt -0.684377 0.11811
vt -0.704932 0.11811
v 82.5714 1.32538e-013 -52.0023
vt -0.704932 5.74405e-015
vt -0.684377 5.74405e-015
f 403/1022/166 401/1023/167 422/1024/167 421/1025/166 

vt -0.895056 0.11811
vt -0.915611 0.11811
v 82.9856 1.29718e-013 -52.3202
vt -0.915611 5.64023e-015
vt -0.895056 5.75125e-015
f 401/1026/167 399/1027/168 423/1028/168 422/1029/167 

vt -1.04404 0.11811
vt -1.06459 0.11811
v 83.3034 1.32538e-013 -52.7344
vt -1.06459 5.58916e-015
vt -1.04404 5.47813e-015
f 399/1030/168 398/1031/169 424/1032/169 423/1033/168 

vt -1.12117 0.11811
vt -1.14172 0.11811
v 83.5032 1.32538e-013 -53.2167
vt -1.14172 5.29854e-015
vt -1.12117 5.29854e-015
f 398/1034/169 396/1035/170 425/1036/170 424/1037/169 

vt -1.12119 0.11811
vt -1.14175 0.11811
vt -1.14175 4.95572e-015
vt -1.12119 4.95572e-015
f 396/1038/170 82/1039/171 364/1040/171 425/1041/170 

f 396/984/9 81/87/9 82/88/9

vt -1.04411 0.11811
v 83.5032 3 -54.252
vt -1.06467 0.11811
vt -1.06467 4.65222e-015
vt -1.04411 4.65222e-015
f 82/1042/171 426/1043/172 365/1044/172 364/1045/171 

vt 0.371333 1.12274
f 62/78/9 426/1046/9 82/88/9

v 83.3034 3 -54.7344
vt 0.363467 1.14173
f 62/78/9 427/1047/9 426/1046/9

v 82.9856 3 -55.1486
vt 0.350953 1.15804
f 62/78/9 428/1048/9 427/1047/9

v 82.5714 3 -55.4664
vt 0.334646 1.17055
f 62/78/9 429/1049/9 428/1048/9

v 82.089 3 -55.6662
vt 0.315655 1.17842
f 62/78/9 430/1050/9 429/1049/9

v 81.5714 3 -55.7344
f 62/78/9 431/8/9 430/1050/9

f 62/78/9 63/9/9 431/8/9

vt 0.446914 0.11811
vn -1.53973e-016 2.16998e-016 1
vt 0.426359 0.11811
vn 0.258819 5.0398e-016 0.965926
vt 0.426359 5.40776e-015
vt 0.446914 5.51879e-015
f 431/1051/175 63/1052/176 371/1053/176 370/1054/175 

vt 0.704932 0.11811
vt 0.684377 0.11811
vn 0.5 7.56617e-016 0.866025
vt 0.684377 5.62126e-015
vt 0.704932 5.62126e-015
f 63/1055/176 64/1056/177 372/1057/177 371/1058/176 

vt 0.915611 0.11811
vt 0.895056 0.11811
vn 0.707107 9.57692e-016 0.707107
vt 0.895056 5.66419e-015
vt 0.915611 5.66419e-015
f 64/1059/177 65/1060/178 373/1061/178 372/1062/177 

vt 1.06459 0.11811
vt 1.04404 0.11811
vt 1.04404 5.52862e-015
vt 1.06459 5.52862e-015
f 65/1063/178 66/1064/173 374/1065/173 373/1066/178 

vt 1.14172 0.11811
vt 1.12117 0.11811
vt 1.12117 5.25353e-015
vt 1.14172 5.25353e-015
f 66/1067/173 67/1068/160 375/1069/160 374/1070/173 

vt 1.14175 0.11811
vt 1.12119 0.11811
vt 1.12119 4.91417e-015
vt 1.14175 4.91417e-015
f 67/1071/160 68/1072/158 376/1073/158 375/1074/160 

vt 0.15914 0.11811
vn -0.258819 -8.47722e-017 0.965926
vt 0.138585 0.11811
vt 0.138585 5.18768e-015
vt 0.15914 5.2987e-015
f 430/1075/179 431/1076/175 370/1077/175 369/1078/179 

vt -0.138779 0.11811
vn -0.5 -3.80765e-016 0.866025
vt -0.159334 0.11811
vt -0.159334 4.93408e-015
vt -0.138779 4.93408e-015
f 429/1079/180 430/1080/179 369/1081/179 368/1082/180 

vt -0.42654 0.11811
vn -0.707107 -6.5081e-016 0.707107
vt -0.447095 0.11811
vt -0.447095 4.62894e-015
vt -0.42654 4.62894e-015
f 428/1083/181 429/1084/180 368/1085/180 367/1086/181 

vt -0.684533 0.11811
vn -0.866025 -8.76503e-016 0.5
vt -0.705088 0.11811
vt -0.705088 4.46059e-015
vt -0.684533 4.46059e-015
f 427/1087/182 428/1088/181 367/1089/181 366/1090/182 

vt -0.895175 0.11811
vt -0.91573 0.11811
vt -0.91573 4.47024e-015
vt -0.895175 4.47024e-015
f 426/1091/172 427/1092/182 366/1093/182 365/1094/172 

v 113.157 3 -55.1486
f 62/78/9 82/88/9 432/798/9

v 112.839 3 -54.7344
f 432/798/9 82/88/9 433/799/9

v 112.64 3 -54.252
f 433/799/9 82/88/9 434/821/9

v 112.571 3 -53.7344
f 434/821/9 82/88/9 435/820/9

v 112.64 3 -35.7344
vt 1.51843 0.393701
f 82/88/9 436/1095/9 435/820/9

v 112.705 3 -35.2344
vt 1.52102 0.374016
f 82/88/9 437/1096/9 436/1095/9

v 112.898 3 -34.7685
vt 1.52862 0.355672
f 82/88/9 438/1097/9 437/1096/9

f 82/88/9 83/89/9 438/1097/9

vt -0.648392 0.11811
vt -0.668247 0.11811
v 113.205 1.55098e-013 -34.3684
vt -0.668247 5.00535e-015
v 112.898 1.55098e-013 -34.7685
vt -0.648392 5.00535e-015
f 438/1098/161 83/1099/162 439/1100/162 440/1101/161 

vt -1.0154 0.11811
vt -1.03525 0.11811
v 113.605 1.57918e-013 -34.0613
vt -1.03525 5.58901e-015
vt -1.0154 5.47799e-015
f 83/1102/162 84/1103/163 441/1104/163 439/1105/162 

vt -1.31252 0.11811
vt -1.33238 0.11811
v 114.071 1.57918e-013 -33.8684
vt -1.33238 6.0063e-015
vt -1.31252 6.0063e-015
f 84/1106/163 85/1107/164 442/1108/164 441/1109/163 

vt -1.51953 0.11811
vt -1.53939 0.11811
vn 2.65953e-016 -2.16998e-016 -1
v 114.571 1.57918e-013 -33.8025
vt -1.53939 6.25213e-015
vt -1.51953 6.25213e-015
f 85/1110/164 86/1111/183 443/1112/183 442/1113/164 

vt -1.62231 0.11811
vt -1.64216 0.11811
v 115.071 1.55098e-013 -33.8684
vt -1.64216 6.14506e-015
vt -1.62231 6.25608e-015
f 86/1114/183 87/1115/166 444/1116/166 443/1117/183 

vt -1.61385 0.11811
vt -1.63371 0.11811
v 115.537 1.55098e-013 -34.0613
vt -1.63371 5.90161e-015
vt -1.61385 5.90161e-015
f 87/1118/166 88/1119/167 445/1120/167 444/1121/166 

vt -1.49473 0.11811
vt -1.51459 0.11811
v 115.937 1.57918e-013 -34.3684
vt -1.51459 5.58291e-015
vt -1.49473 5.47188e-015
f 88/1122/167 89/1123/168 446/1124/168 445/1125/167 

vt -1.27308 0.11811
vt -1.29293 0.11811
v 116.244 1.57918e-013 -34.7685
vt -1.29293 5.0786e-015
vt -1.27308 5.0786e-015
f 89/1126/168 90/1127/169 447/1128/169 446/1129/168 

vt -0.963989 0.11811
vt -0.983844 0.11811
v 116.437 1.57918e-013 -35.2344
vt -0.983844 4.63229e-015
vt -0.963989 4.63229e-015
f 90/1130/169 91/1131/170 448/1132/170 447/1133/169 

vt -0.588528 0.11811
vt -0.608383 0.11811
vn -1 -1.13738e-015 -4.19926e-017
v 116.503 1.57918e-013 -35.7344
vt -0.608383 4.36206e-015
vt -0.588528 4.36206e-015
f 91/1134/170 92/1135/184 449/1136/184 448/1137/170 

vt -0.172283 0.11811
v 116.437 3 -36.2344
vt -0.192138 0.11811
v 116.437 1.60738e-013 -36.2344
vt -0.192138 4.45101e-015
vt -0.172283 4.33999e-015
f 92/1138/184 450/1139/172 451/1140/172 449/1141/184 

vt 1.66795 0.413386
f 93/99/9 450/1142/9 92/98/9

v 116.303 3 -52.7344
f 452/809/9 450/1142/9 93/99/9

v 116.244 3 -36.7003
vt 1.66036 0.431729
f 452/809/9 453/1143/9 450/1142/9

v 115.986 3 -52.3202
f 454/811/9 453/1143/9 452/809/9

v 115.937 3 -37.1004
vt 1.64827 0.447481
f 454/811/9 455/1144/9 453/1143/9

v 115.571 3 -52.0023
f 456/812/9 455/1144/9 454/811/9

v 115.537 3 -37.4074
vt 1.63252 0.459568
f 456/812/9 457/1145/9 455/1144/9

v 115.089 3 -51.8025
f 458/813/9 457/1145/9 456/812/9

v 115.071 3 -37.6004
vt 1.61417 0.467166
f 458/813/9 459/1146/9 457/1145/9

v 114.571 3 -51.7344
f 460/814/9 459/1146/9 458/813/9

v 114.571 3 -37.6662
vt 1.59449 0.469758
f 460/814/9 461/1147/9 459/1146/9

v 114.071 3 -37.6004
vt 1.5748 0.467166
f 460/814/9 462/1148/9 461/1147/9

v 114.054 3 -51.8025
f 463/815/9 462/1148/9 460/814/9

v 113.605 3 -37.4074
vt 1.55646 0.459568
f 463/815/9 464/1149/9 462/1148/9

v 113.571 3 -52.0023
f 465/816/9 464/1149/9 463/815/9

v 113.205 3 -37.1004
vt 1.54071 0.447481
f 465/816/9 466/1150/9 464/1149/9

v 113.157 3 -52.3202
f 467/817/9 466/1150/9 465/816/9

v 112.898 3 -36.7003
vt 1.52862 0.431729
f 467/817/9 468/1151/9 466/1150/9

v 112.839 3 -52.7344
f 469/818/9 468/1151/9 467/817/9

v 112.705 3 -36.2344
vt 1.52102 0.413386
f 469/818/9 470/1152/9 468/1151/9

f 469/818/9 436/1095/9 470/1152/9

v 112.64 3 -53.2167
f 436/1095/9 469/818/9 471/819/9

vt 0.418543 0.11811
vt 0.397988 0.11811
v 112.839 1.26898e-013 -52.7344
vt 0.397988 3.23767e-015
v 112.64 1.24079e-013 -53.2167
vt 0.418543 3.12665e-015
f 471/1153/159 469/1154/161 472/1155/161 473/1156/159 

vt -0.0858225 0.11811
vt -0.106378 0.11811
v 113.157 1.26898e-013 -52.3202
vt -0.106378 3.56489e-015
vt -0.0858225 3.56489e-015
f 469/1157/161 467/1158/162 474/1159/162 472/1160/161 

vt -0.583639 0.11811
vt -0.604195 0.11811
v 113.571 1.26898e-013 -52.0023
vt -0.604195 4.07666e-015
vt -0.583639 4.07666e-015
f 467/1161/162 465/1162/163 475/1163/163 474/1164/162 

vt -1.04098 0.11811
vt -1.06154 0.11811
v 114.054 1.26898e-013 -51.8025
vt -1.06154 4.63197e-015
vt -1.04098 4.63197e-015
f 465/1165/163 463/1166/164 476/1167/164 475/1168/163 

vt -1.42668 0.11811
vt -1.44724 0.11811
v 114.571 1.26898e-013 -51.7344
vt -1.44724 5.07756e-015
vt -1.42668 5.07756e-015
f 463/1169/164 460/1170/165 477/1171/165 476/1172/164 

vt -1.71446 0.11811
vt -1.73501 0.11811
v 115.089 1.26898e-013 -51.8025
vt -1.73501 5.28934e-015
vt -1.71446 5.28934e-015
f 460/1173/165 458/1174/166 478/1175/166 477/1176/165 

vt -1.88469 0.11811
vt -1.90525 0.11811
v 115.571 1.26898e-013 -52.0023
vt -1.90525 5.20592e-015
vt -1.88469 5.20592e-015
f 458/1177/166 456/1178/167 479/1179/167 478/1180/166 

vt -1.92579 0.11811
vt -1.94635 0.11811
v 115.986 1.26898e-013 -52.3202
vt -1.94635 4.84543e-015
vt -1.92579 4.84543e-015
f 456/1181/167 454/1182/168 480/1183/168 479/1184/167 

vt -1.83495 0.11811
vt -1.8555 0.11811
v 116.303 1.29718e-013 -52.7344
vt -1.8555 4.4119e-015
vt -1.83495 4.30087e-015
f 454/1185/168 452/1186/169 481/1187/169 480/1188/168 

vt -1.61836 0.11811
vt -1.63891 0.11811
v 116.503 1.29718e-013 -53.2167
vt -1.63891 3.82654e-015
vt -1.61836 3.82654e-015
f 452/1189/169 93/1190/170 482/1191/170 481/1192/169 

vt -1.29078 0.11811
vt -1.31133 0.11811
vt -1.31133 3.35569e-015
vt -1.29078 3.35569e-015
f 93/1193/170 94/1194/171 354/1195/171 482/1196/170 

vt -0.874531 0.11811
v 116.503 3 -54.252
vt -0.895087 0.11811
vt -0.895087 3.23618e-015
vt -0.874531 3.12516e-015
f 94/1197/171 483/1198/172 355/1199/172 354/1200/171 

f 62/78/9 483/807/9 94/100/9

v 116.303 3 -54.7344
f 62/78/9 484/806/9 483/807/9

v 115.986 3 -55.1486
f 62/78/9 485/805/9 484/806/9

v 115.571 3 -55.4664
f 62/78/9 486/804/9 485/805/9

v 115.089 3 -55.6662
f 62/78/9 487/803/9 486/804/9

v 114.571 3 -55.7344
f 62/78/9 488/802/9 487/803/9

v 114.054 3 -55.6662
f 62/78/9 489/801/9 488/802/9

v 113.571 3 -55.4664
f 62/78/9 490/800/9 489/801/9

f 62/78/9 432/798/9 490/800/9

vt 1.94635 0.11811
vt 1.92579 0.11811
vt 1.92579 4.75837e-015
vt 1.94635 4.86939e-015
f 490/1201/177 432/1202/178 363/1203/178 362/1204/177 

vt 1.8555 0.11811
vt 1.83495 0.11811
v 112.839 1.24079e-013 -54.7344
vt 1.83495 4.35136e-015
vt 1.8555 4.24034e-015
f 432/1205/178 433/1206/173 491/1207/173 363/1208/178 

vt 1.63891 0.11811
vt 1.61836 0.11811
v 112.64 1.24079e-013 -54.252
vt 1.61836 3.78153e-015
vt 1.63891 3.78153e-015
f 433/1209/173 434/1210/160 492/1211/160 491/1212/173 

vt 1.31133 0.11811
vt 1.29078 0.11811
v 112.571 1.24079e-013 -53.7344
vt 1.29078 3.31413e-015
vt 1.31133 3.31413e-015
f 434/1213/160 435/1214/158 493/1215/158 492/1216/160 

vt 0.895087 0.11811
vt 0.874531 0.11811
vt 0.874531 3.07475e-015
vt 0.895087 3.07475e-015
f 435/1217/158 471/1218/159 473/1219/159 493/1220/158 

f 435/820/9 436/1095/9 471/819/9

v 112.64 1.52278e-013 -35.7344
vt -1.51843 0.393701
f 494/1221/157 493/718/157 473/717/157

f 494/1221/157 364/917/157 493/718/157

v 112.705 1.52278e-013 -35.2344
vt -1.52102 0.374016
f 495/1222/157 364/917/157 494/1221/157

vt -1.52862 0.355672
f 440/1223/157 364/917/157 495/1222/157

vt -1.54071 0.33992
f 439/1224/157 364/917/157 440/1223/157

f 24/916/157 364/917/157 439/1224/157

vt -0.374016 0.393701
f 24/916/157 393/1225/157 364/917/157

vt -0.371333 0.373321
f 24/916/157 392/1226/157 393/1225/157

vt -0.363467 0.354331
f 24/916/157 391/1227/157 392/1226/157

vt -0.350953 0.338023
f 24/916/157 390/1228/157 391/1227/157

vt -0.334646 0.32551
f 24/916/157 389/1229/157 390/1228/157

vt -0.315655 0.317644
f 24/916/157 388/1230/157 389/1229/157

f 24/916/157 387/269/157 388/1230/157

f 24/916/157 386/268/157 387/269/157

vt -7.10543e-015 3.19744e-014
f 23/1231/157 386/268/157 24/916/157

f 386/268/157 23/1231/157 385/254/157

f 385/254/157 23/1231/157 384/255/157

f 384/255/157 23/1231/157 383/245/157

f 383/245/157 23/1231/157 382/236/157

f 382/236/157 23/1231/157 28/923/157

f 382/236/157 28/923/157 377/211/157

vt -0.371333 1.08198
f 393/1225/157 425/1232/157 364/917/157

vt -0.371333 0.41408
f 395/1233/157 425/1232/157 393/1225/157

v 83.3034 1.63558e-013 -36.7344
vt -0.363467 0.433071
f 496/1234/157 425/1232/157 395/1233/157

vt -0.363467 1.06299
f 496/1234/157 424/1235/157 425/1232/157

vt -0.350953 1.04668
f 496/1234/157 423/1236/157 424/1235/157

v 82.9856 1.55098e-013 -37.1486
vt -0.350953 0.449378
f 497/1237/157 423/1236/157 496/1234/157

vt -0.334646 1.03417
f 497/1237/157 422/1238/157 423/1236/157

v 82.5714 1.55098e-013 -37.4664
vt -0.334646 0.461892
f 498/1239/157 422/1238/157 497/1237/157

vt -0.315655 1.02631
f 498/1239/157 421/1240/157 422/1238/157

v 82.089 1.57918e-013 -37.6662
vt -0.315655 0.469758
f 499/1241/157 421/1240/157 498/1239/157

v 81.5714 1.55098e-013 -37.7344
f 500/413/157 421/1240/157 499/1241/157

f 500/413/157 420/407/157 421/1240/157

f 500/413/157 419/406/157 420/407/157

v 81.0537 1.55098e-013 -37.6662
f 501/621/157 419/406/157 500/413/157

v 80.5714 1.55098e-013 -37.4664
f 502/373/157 419/406/157 501/621/157

f 502/373/157 418/386/157 419/406/157

v 80.1572 1.55098e-013 -37.1486
f 503/372/157 418/386/157 502/373/157

f 503/372/157 417/387/157 418/386/157

f 415/371/157 417/387/157 503/372/157

f 415/371/157 416/388/157 417/387/157

vt 0.502374 0.11811
vt 0.481819 0.11811
vt 0.481819 6.08156e-015
vt 0.502374 6.19258e-015
f 411/1242/178 413/1243/173 415/1244/173 503/1245/178 

vt 0.484205 0.11811
vt 0.46365 0.11811
vt 0.46365 6.28835e-015
vt 0.484205 6.28835e-015
f 409/1246/177 411/1247/178 503/1248/178 502/1249/177 

vt 0.433739 0.11811
vt 0.413184 0.11811
vt 0.413184 6.31526e-015
vt 0.433739 6.31526e-015
f 408/1250/176 409/1251/177 502/1252/177 501/1253/176 

vt 0.354415 0.11811
vn -1.6797e-016 2.16998e-016 1
vt 0.33386 0.11811
vt 0.33386 6.26252e-015
vt 0.354415 6.26252e-015
f 405/1254/185 408/1255/176 501/1256/176 500/1257/185 

vt 0.251639 0.11811
vt 0.231084 0.11811
vt 0.231084 6.14003e-015
vt 0.251639 6.25105e-015
f 404/1258/179 405/1259/185 500/1260/185 499/1261/179 

vt 0.132414 0.11811
vt 0.111859 0.11811
vt 0.111859 6.087e-015
vt 0.132414 5.97597e-015
f 402/1262/180 404/1263/179 499/1264/179 498/1265/180 

vt 0.00486568 0.11811
vt -0.0156896 0.11811
vt -0.0156896 5.80961e-015
vt 0.00486568 5.80961e-015
f 400/1266/181 402/1267/180 498/1268/180 497/1269/181 

vt -0.122314 0.11811
vt -0.142869 0.11811
vt -0.142869 5.68106e-015
vt -0.122314 6.01412e-015
f 397/1270/182 400/1271/181 497/1272/181 496/1273/182 

vt -0.240457 0.11811
vt -0.261013 0.11811
vt -0.261013 5.95393e-015
vt -0.240457 5.84291e-015
f 394/1274/172 397/1275/182 496/1276/182 395/1277/172 

vt -1.55646 0.327833
f 24/916/157 439/1224/157 441/1278/157

vt -1.5748 0.320235
f 24/916/157 441/1278/157 442/1279/157

vt -1.59449 0.317644
f 24/916/157 442/1279/157 443/1280/157

vt -1.61417 0.320235
f 24/916/157 443/1280/157 444/1281/157

vt -1.63252 0.327833
f 24/916/157 444/1281/157 445/1282/157

vt -1.64827 0.33992
f 24/916/157 445/1282/157 446/1283/157

vt -1.66036 0.355672
f 24/916/157 446/1283/157 447/1284/157

vt -1.66795 0.374016
f 24/916/157 447/1284/157 448/1285/157

vt -1.67055 0.393701
f 24/916/157 448/1285/157 449/1286/157

f 24/916/157 449/1286/157 482/762/157

vt -1.66795 0.413386
f 451/1287/157 482/762/157 449/1286/157

f 451/1287/157 481/763/157 482/762/157

v 116.244 1.57918e-013 -36.7003
vt -1.66036 0.431729
f 504/1288/157 481/763/157 451/1287/157

f 504/1288/157 480/764/157 481/763/157

v 115.937 1.55098e-013 -37.1004
vt -1.64827 0.447481
f 505/1289/157 480/764/157 504/1288/157

f 505/1289/157 479/765/157 480/764/157

v 115.537 1.55098e-013 -37.4074
vt -1.63252 0.459568
f 506/1290/157 479/765/157 505/1289/157

f 506/1290/157 478/766/157 479/765/157

v 115.071 1.55098e-013 -37.6004
vt -1.61417 0.467166
f 507/1291/157 478/766/157 506/1290/157

f 507/1291/157 477/767/157 478/766/157

v 114.571 1.52278e-013 -37.6662
vt -1.59449 0.469758
f 508/1292/157 477/767/157 507/1291/157

v 114.071 1.52278e-013 -37.6004
vt -1.5748 0.467166
f 509/1293/157 477/767/157 508/1292/157

f 509/1293/157 476/768/157 477/767/157

v 113.605 1.52278e-013 -37.4074
vt -1.55646 0.459568
f 510/1294/157 476/768/157 509/1293/157

f 510/1294/157 475/769/157 476/768/157

v 113.205 1.52278e-013 -37.1004
vt -1.54071 0.447481
f 511/1295/157 475/769/157 510/1294/157

f 511/1295/157 474/714/157 475/769/157

v 112.898 1.52278e-013 -36.7003
vt -1.52862 0.431729
f 512/1296/157 474/714/157 511/1295/157

f 512/1296/157 472/716/157 474/714/157

v 112.705 1.52278e-013 -36.2344
vt -1.52102 0.413386
f 513/1297/157 472/716/157 512/1296/157

f 494/1221/157 472/716/157 513/1297/157

f 472/716/157 494/1221/157 473/717/157

vt 0.608383 0.11811
vt 0.588528 0.11811
vn 1 1.13738e-015 4.19926e-017
vt 0.588528 4.31435e-015
vt 0.608383 4.31435e-015
f 470/1298/160 436/1299/186 494/1300/186 513/1301/160 

vt 0.192138 0.11811
vt 0.172283 0.11811
vt 0.172283 4.28374e-015
vt 0.192138 4.28374e-015
f 436/1302/186 437/1303/159 495/1304/159 494/1305/186 

vt -0.236525 0.11811
vt -0.25638 0.11811
vt -0.25638 4.60777e-015
vt -0.236525 4.49675e-015
f 437/1306/159 438/1307/161 440/1308/161 495/1309/159 

vt 0.983844 0.11811
vt 0.963989 0.11811
vt 0.963989 4.58125e-015
vt 0.983844 4.58125e-015
f 468/1310/173 470/1311/160 513/1312/160 512/1313/173 

vt 1.29293 0.11811
vt 1.27308 0.11811
vt 1.27308 5.01257e-015
vt 1.29293 5.01257e-015
f 466/1314/178 468/1315/173 512/1316/173 511/1317/178 

vt 1.51459 0.11811
vt 1.49473 0.11811
vt 1.49473 5.49125e-015
vt 1.51459 5.49125e-015
f 464/1318/177 466/1319/178 511/1320/178 510/1321/177 

vt 1.63371 0.11811
vt 1.61385 0.11811
vt 1.61385 5.88646e-015
vt 1.63371 5.88646e-015
f 462/1322/176 464/1323/177 510/1324/177 509/1325/176 

vt 1.64216 0.11811
vn -2.65953e-016 2.16998e-016 1
vt 1.62231 0.11811
vt 1.62231 6.08887e-015
vt 1.64216 6.08887e-015
f 461/1326/187 462/1327/176 509/1328/176 508/1329/187 

vt 1.53939 0.11811
vt 1.51953 0.11811
vt 1.51953 6.04014e-015
vt 1.53939 6.15116e-015
f 459/1330/179 461/1331/187 508/1332/187 507/1333/179 

vt 1.33238 0.11811
vt 1.31252 0.11811
vt 1.31252 5.85987e-015
vt 1.33238 5.85987e-015
f 457/1334/180 459/1335/179 507/1336/179 506/1337/180 

vt 1.03525 0.11811
vt 1.0154 0.11811
vt 1.0154 5.39953e-015
vt 1.03525 5.39953e-015
f 455/1338/181 457/1339/180 506/1340/180 505/1341/181 

vt 0.668247 0.11811
vt 0.648392 0.11811
vt 0.648392 4.88918e-015
vt 0.668247 5.00021e-015
f 453/1342/182 455/1343/181 505/1344/181 504/1345/182 

vt 0.25638 0.11811
vt 0.236525 0.11811
vt 0.236525 4.57284e-015
vt 0.25638 4.68386e-015
f 450/1346/172 453/1347/182 504/1348/182 451/1349/172 

f 24/916/157 482/762/157 354/128/157

f 364/917/157 492/719/157 493/718/157

f 364/917/157 491/720/157 492/719/157

f 364/917/157 363/721/157 491/720/157

vt 1.90525 0.11811
vt 1.88469 0.11811
vt 1.88469 5.19416e-015
vt 1.90525 5.19416e-015
f 489/1350/176 490/1351/177 362/1352/177 361/1353/176 

vt 1.73501 0.11811
vt 1.71446 0.11811
vt 1.71446 5.23508e-015
vt 1.73501 5.12406e-015
f 488/1354/185 489/1355/176 361/1356/176 360/1357/185 

vt 1.44724 0.11811
vt 1.42668 0.11811
vt 1.42668 4.86592e-015
vt 1.44724 4.97695e-015
f 487/1358/179 488/1359/185 360/1360/185 359/1361/179 

vt 1.06154 0.11811
vt 1.04098 0.11811
vt 1.04098 4.48429e-015
vt 1.06154 4.59531e-015
f 486/1362/180 487/1363/179 359/1364/179 358/1365/180 

vt 0.604195 0.11811
vt 0.583639 0.11811
vt 0.583639 3.99543e-015
vt 0.604195 4.10646e-015
f 485/1366/181 486/1367/180 358/1368/180 357/1369/181 

vt 0.106378 0.11811
vt 0.0858225 0.11811
vt 0.0858225 3.55565e-015
vt 0.106378 3.66667e-015
f 484/1370/182 485/1371/181 357/1372/181 356/1373/182 

vt -0.397988 0.11811
vt -0.418543 0.11811
vt -0.418543 3.30862e-015
vt -0.397988 3.30862e-015
f 483/1374/172 484/1375/182 356/1376/182 355/1377/172 

vt -1.25591e-014 1.20079
vn -8.32667e-017 5.18556e-015 -1
vt -1.81102 1.20079
vt -1.81102 -4.53828e-015
vt -1.07827e-014 -4.76033e-015
f 8/1378/188 5/1379/188 101/1380/188 28/1381/188 

