# Alias OBJ Model File
# Exported from SketchUp, (c) 2000-2012 Trimble Navigation Limited
# File units = millimeters

mtllib pult_2.mtl

g Mesh1 Group1 Model

usemtl FrontColor
v 171.545 5 -86.1189
vt 4.13386 0.755906
vn -9.39989e-016 1 -3.06518e-016
v 171.545 5 -94.9189
vt 4.13386 1.10236
v 168.545 5 -94.9189
vt 4.01575 1.10236
v 168.545 5 -86.1189
vt 4.01575 0.755906
f 1/1/1 2/2/1 3/3/1 4/4/1 

v 171.545 3 -86.1189
vt 0.755906 0.11811
vn 1 -9.20205e-017 3.18678e-032
v 171.545 3 -66.9189
vt 8.88178e-016 0.11811
v 171.545 3.94795e-014 -66.9189
vt 8.88178e-016 1.93471e-015
v 171.545 0 -180.919
vt 4.48819 3.804e-016
v 171.545 3 -180.919
vt 4.48819 0.11811
v 171.545 3 -94.9189
vt 1.10236 0.11811
vt 1.10236 0.19685
vt 0.755906 0.19685
f 5/5/2 6/6/2 7/7/2 8/8/2 9/9/2 10/10/2 2/11/2 1/12/2 

v 168.545 3 -86.1189
vn 7.24611e-017 1 -3.05601e-016
vt 4.13386 8.52084e-016
f 11/4/3 6/13/3 5/1/3

v 166.545 3 -73.9189
vt 3.93701 0.275591
f 12/14/3 6/13/3 11/4/3

v 166.476 3 -73.4012
vt 3.93432 0.255211
f 13/15/3 6/13/3 12/14/3

v 166.277 3 -72.9189
vt 3.92646 0.23622
f 14/16/3 6/13/3 13/15/3

v 165.959 3 -72.5047
vt 3.91395 0.219913
f 15/17/3 6/13/3 14/16/3

v 165.545 3 -72.1868
vt 3.89764 0.2074
f 16/18/3 6/13/3 15/17/3

v 165.062 3 -71.987
vt 3.87865 0.199533
f 17/19/3 6/13/3 16/18/3

v 164.545 3 -71.9189
vt 3.85827 0.19685
f 18/20/3 6/13/3 17/19/3

v 164.027 3 -71.987
vt 3.83789 0.199533
f 19/21/3 6/13/3 18/20/3

v 163.545 3 -72.1868
vt 3.8189 0.2074
f 20/22/3 6/13/3 19/21/3

v 75.5446 3 -73.9189
vt 0.354331 0.275591
f 21/23/3 6/13/3 20/22/3

v 75.4765 3 -73.4012
vt 0.351648 0.255211
f 22/24/3 6/13/3 21/23/3

v 75.2767 3 -72.9189
vt 0.343782 0.23622
f 23/25/3 6/13/3 22/24/3

v 74.9588 3 -72.5047
vt 0.331268 0.219913
f 24/26/3 6/13/3 23/25/3

v 74.5446 3 -72.1868
vt 0.314961 0.2074
f 25/27/3 6/13/3 24/26/3

v 74.0623 3 -71.987
vt 0.29597 0.199533
f 26/28/3 6/13/3 25/27/3

v 73.5446 3 -71.9189
vt 0.275591 0.19685
f 27/29/3 6/13/3 26/28/3

v 66.5446 3 -66.9189
vt 8.7962e-016 -3.60946e-017
f 27/29/3 28/30/3 6/13/3

v 73.027 3 -71.987
vt 0.255211 0.199533
f 29/31/3 28/30/3 27/29/3

v 72.5446 3 -72.1868
vt 0.23622 0.2074
f 30/32/3 28/30/3 29/31/3

v 72.1304 3 -72.5047
vt 0.219913 0.219913
f 31/33/3 28/30/3 30/32/3

v 71.8126 3 -72.9189
vt 0.2074 0.23622
f 32/34/3 28/30/3 31/33/3

v 71.6128 3 -73.4012
vt 0.199533 0.255211
f 33/35/3 28/30/3 32/34/3

v 71.5446 3 -73.9189
vt 0.19685 0.275591
f 28/30/3 33/35/3 34/36/3

vt 0.247539 0.11811
vn 1 -9.20205e-017 1.41375e-015
vt 0.226983 0.11811
vn 0.965926 -1.55969e-016 -0.258819
v 71.6128 1 -73.4012
vt 0.226983 0.0393701
v 71.5446 1 -73.9189
vt 0.247539 0.0393701
f 34/37/4 33/38/5 35/39/5 36/40/4 

vt 0.159426 0.11811
vt 0.138871 0.11811
vn 0.866025 -2.09288e-016 -0.5
v 71.8126 1 -72.9189
vt 0.138871 0.0393701
vt 0.159426 0.0393701
f 33/41/5 32/42/6 37/43/6 35/44/5 

vt 0.0611494 0.11811
vt 0.0405941 0.11811
vn 0.707107 -2.48345e-016 -0.707107
v 72.1304 1 -72.5047
vt 0.0405941 0.0393701
vt 0.0611494 0.0393701
f 32/45/6 31/46/7 38/47/7 37/48/6 

vt -0.0405941 0.11811
vt -0.0611494 0.11811
vn 0.5 -2.70477e-016 -0.866025
v 72.5446 1 -72.1868
vt -0.0611494 0.0393701
vt -0.0405941 0.0393701
f 31/49/7 30/50/8 39/51/8 38/52/7 

vt -0.138871 0.11811
vt -0.159426 0.11811
vn 0.258819 -2.74177e-016 -0.965926
v 73.027 1 -71.987
vt -0.159426 0.0393701
vt -0.138871 0.0393701
f 30/53/8 29/54/9 40/55/9 39/56/8 

vt -0.226983 0.11811
vt -0.247539 0.11811
vn 2.81351e-015 -2.59192e-016 -1
v 73.5446 1 -71.9189
vt -0.247539 0.0393701
vt -0.226983 0.0393701
f 29/57/9 27/58/10 41/59/10 40/60/9 

vt -0.298927 0.11811
vt -0.319482 0.11811
vn -0.258819 -2.26544e-016 -0.965926
v 74.0623 1 -71.987
vt -0.319482 0.0393701
vt -0.298927 0.0393701
f 27/61/10 26/62/11 42/63/11 41/64/10 

vt -0.349799 0.11811
vt -0.370354 0.11811
vn -0.5 -1.78457e-016 -0.866025
v 74.5446 1 -72.1868
vt -0.370354 0.0393701
vt -0.349799 0.0393701
f 26/65/11 25/66/12 43/67/12 42/68/11 

vt -0.376132 0.11811
vt -0.396687 0.11811
vn -0.707107 -1.18208e-016 -0.707107
v 74.9588 1 -72.5047
vt -0.396687 0.0393701
vt -0.376132 0.0393701
f 25/69/12 24/70/13 44/71/13 43/72/12 

vn -0.866025 -4.9904e-017 -0.5
v 75.2767 1 -72.9189
f 24/69/13 23/70/14 45/71/14 44/72/13 

vn -0.965926 2.18011e-017 -0.258819
v 75.4765 1 -73.4012
f 23/65/14 22/66/15 46/67/15 45/68/14 

vn -1 9.20205e-017 1.41375e-015
v 75.5446 1 -73.9189
f 22/61/15 21/62/16 47/63/16 46/64/15 

v 75.4765 3 -74.4365
vn -0.965926 1.55969e-016 0.258819
v 75.4765 1 -74.4365
f 21/57/16 48/58/17 49/59/17 47/60/16 

v 75.4765 3 -173.401
vt 0.351648 4.19222
vt 0.351648 0.29597
f 50/73/3 48/74/3 21/23/3

v 75.2767 3 -172.919
vt 0.343782 4.17323
f 51/75/3 48/74/3 50/73/3

v 75.2767 3 -74.9189
vt 0.343782 0.314961
f 51/75/3 52/76/3 48/74/3

v 74.9588 3 -172.505
vt 0.331268 4.15692
f 53/77/3 52/76/3 51/75/3

v 74.9588 3 -75.3331
vt 0.331268 0.331268
f 53/77/3 54/78/3 52/76/3

v 74.5446 3 -172.187
vt 0.314961 4.14441
f 55/79/3 54/78/3 53/77/3

v 74.5446 3 -75.6509
vt 0.314961 0.343782
f 55/79/3 56/80/3 54/78/3

v 74.0623 3 -171.987
vt 0.29597 4.13654
f 57/81/3 56/80/3 55/79/3

v 74.0623 3 -75.8507
vt 0.29597 0.351648
f 57/81/3 58/82/3 56/80/3

v 73.5446 3 -171.919
vt 0.275591 4.13386
f 59/83/3 58/82/3 57/81/3

v 73.5446 3 -75.9189
vt 0.275591 0.354331
f 59/83/3 60/84/3 58/82/3

v 73.027 3 -171.987
vt 0.255211 4.13654
f 61/85/3 60/84/3 59/83/3

v 73.027 3 -75.8507
vt 0.255211 0.351648
f 61/85/3 62/86/3 60/84/3

v 72.5446 3 -172.187
vt 0.23622 4.14441
f 63/87/3 62/86/3 61/85/3

v 72.5446 3 -75.6509
vt 0.23622 0.343782
f 63/87/3 64/88/3 62/86/3

v 72.1304 3 -172.505
vt 0.219913 4.15692
f 65/89/3 64/88/3 63/87/3

v 72.1304 3 -75.3331
vt 0.219913 0.331268
f 65/89/3 66/90/3 64/88/3

v 71.8126 3 -172.919
vt 0.2074 4.17323
f 67/91/3 66/90/3 65/89/3

v 71.8126 3 -74.9189
vt 0.2074 0.314961
f 67/91/3 68/92/3 66/90/3

v 71.6128 3 -173.401
vt 0.199533 4.19222
f 69/93/3 68/92/3 67/91/3

v 71.6128 3 -74.4365
vt 0.199533 0.29597
f 69/93/3 70/94/3 68/92/3

v 71.5446 3 -173.919
vt 0.19685 4.2126
f 71/95/3 70/94/3 69/93/3

f 70/94/3 71/95/3 34/36/3

f 71/95/3 28/30/3 34/36/3

v 66.5446 3 -180.919
vt -8.5584e-018 4.48819
f 71/95/3 72/96/3 28/30/3

v 71.6128 3 -174.437
vt 0.199533 4.23298
f 73/97/3 72/96/3 71/95/3

v 71.8126 3 -174.919
vt 0.2074 4.25197
f 74/98/3 72/96/3 73/97/3

v 72.1304 3 -175.333
vt 0.219913 4.26828
f 75/99/3 72/96/3 74/98/3

v 72.5446 3 -175.651
vt 0.23622 4.28079
f 76/100/3 72/96/3 75/99/3

v 73.027 3 -175.851
vt 0.255211 4.28866
f 77/101/3 72/96/3 76/100/3

v 73.5446 3 -175.919
vt 0.275591 4.29134
f 78/102/3 72/96/3 77/101/3

vt 4.13386 4.48819
f 72/96/3 78/102/3 9/103/3

v 74.0623 3 -175.851
vt 0.29597 4.28866
f 9/103/3 78/102/3 79/104/3

vt -0.266344 0.11811
vn -0.258819 2.74177e-016 0.965926
vt -0.286899 0.11811
vn 2.8275e-015 2.59192e-016 1
v 73.5446 1 -175.919
vt -0.286899 0.0393701
v 74.0623 1 -175.851
vt -0.266344 0.0393701
f 79/105/18 78/106/19 80/107/19 81/108/18 

vt 0.833365 0.11811
vt 0.81281 0.11811
vn 0.258819 2.26544e-016 0.965926
v 73.027 1 -175.851
vt 0.81281 0.0393701
vt 0.833365 0.0393701
f 78/109/19 77/110/20 82/111/20 80/112/19 

vt 1.87698 0.11811
vt 1.85643 0.11811
vn 0.5 1.78457e-016 0.866025
v 72.5446 1 -175.651
vt 1.85643 0.0393701
vt 1.87698 0.0393701
f 77/113/20 76/114/21 83/115/21 82/116/20 

vt 2.79339 0.11811
vt 2.77283 0.11811
vn 0.707107 1.18208e-016 0.707107
v 72.1304 1 -175.333
vt 2.77283 0.0393701
vt 2.79339 0.0393701
f 76/117/21 75/118/22 84/119/22 83/120/21 

vt 3.52013 0.11811
vt 3.49957 0.11811
vn 0.866025 4.9904e-017 0.5
v 71.8126 1 -174.919
vt 3.49957 0.0393701
vt 3.52013 0.0393701
f 75/121/22 74/122/23 85/123/23 84/124/22 

vt 4.00768 0.11811
vt 3.98712 0.11811
vn 0.965926 -2.18011e-017 0.258819
v 71.6128 1 -174.437
vt 3.98712 0.0393701
vt 4.00768 0.0393701
f 74/125/23 73/126/24 86/127/24 85/128/23 

vt 4.22281 0.11811
vt 4.20225 0.11811
vn 1 -9.20205e-017 -0
v 71.5446 1 -173.919
vt 4.20225 0.0393701
vt 4.22281 0.0393701
f 73/129/24 71/130/25 87/131/25 86/132/24 

vt 4.15086 0.11811
vt 4.13031 0.11811
v 71.6128 1 -173.401
vt 4.13031 0.0393701
vt 4.15086 0.0393701
f 71/133/25 69/134/5 88/135/5 87/136/25 

vt 3.79675 0.11811
vt 3.77619 0.11811
v 71.8126 1 -172.919
vt 3.77619 0.0393701
vt 3.79675 0.0393701
f 69/137/5 67/138/6 89/139/6 88/140/5 

vt 3.18459 0.11811
vt 3.16403 0.11811
v 72.1304 1 -172.505
vt 3.16403 0.0393701
vt 3.18459 0.0393701
f 67/141/6 65/142/7 90/143/7 89/144/6 

vt 2.3561 0.11811
vt 2.33555 0.11811
v 72.5446 1 -172.187
vt 2.33555 0.0393701
vt 2.3561 0.0393701
f 65/145/7 63/146/8 91/147/8 90/148/7 

vt 1.36776 0.11811
vt 1.3472 0.11811
v 73.027 1 -171.987
vt 1.3472 0.0393701
vt 1.36776 0.0393701
f 63/149/8 61/150/9 92/151/9 91/152/8 

vt 0.286899 0.11811
vt 0.266344 0.11811
v 73.5446 1 -171.919
vt 0.266344 0.0393701
vt 0.286899 0.0393701
f 61/153/9 59/154/10 93/155/10 92/156/9 

vt -0.81281 0.11811
vt -0.833365 0.11811
v 74.0623 1 -171.987
vt -0.833365 0.0393701
vt -0.81281 0.0393701
f 59/157/10 57/158/11 94/159/11 93/160/10 

vt -1.85643 0.11811
vt -1.87698 0.11811
v 74.5446 1 -172.187
vt -1.87698 0.0393701
vt -1.85643 0.0393701
f 57/161/11 55/162/12 95/163/12 94/164/11 

vt -2.77283 0.11811
vt -2.79339 0.11811
v 74.9588 1 -172.505
vt -2.79339 0.0393701
vt -2.77283 0.0393701
f 55/165/12 53/166/13 96/167/13 95/168/12 

vt -3.49957 0.11811
vt -3.52013 0.11811
v 75.2767 1 -172.919
vt -3.52013 0.0393701
vt -3.49957 0.0393701
f 53/169/13 51/170/14 97/171/14 96/172/13 

vt -3.98712 0.11811
vt -4.00768 0.11811
v 75.4765 1 -173.401
vt -4.00768 0.0393701
vt -3.98712 0.0393701
f 51/173/14 50/174/15 98/175/15 97/176/14 

vt -4.20225 0.11811
v 75.5446 3 -173.919
vt -4.22281 0.11811
vn -1 9.20205e-017 -0
v 75.5446 1 -173.919
vt -4.22281 0.0393701
vt -4.20225 0.0393701
f 50/177/15 99/178/26 100/179/26 98/180/15 

vt 0.354331 4.2126
f 50/73/3 21/23/3 99/181/3

v 163.13 3 -72.5047
vt 3.80259 0.219913
f 21/23/3 101/182/3 99/181/3

f 21/23/3 20/22/3 101/182/3

vt -2.88292 0.11811
vt -2.90348 0.11811
v 163.545 1 -72.1868
vt -2.90348 0.0393701
v 163.13 1 -72.5047
vt -2.88292 0.0393701
f 101/183/7 20/184/8 102/185/8 103/186/7 

vt -3.44883 0.11811
vt -3.46939 0.11811
v 164.027 1 -71.987
vt -3.46939 0.0393701
vt -3.44883 0.0393701
f 20/187/8 19/188/9 104/189/9 102/190/8 

vt -3.77901 0.11811
vt -3.79957 0.11811
vn 5.64101e-015 -2.59192e-016 -1
v 164.545 1 -71.9189
vt -3.79957 0.0393701
vt -3.77901 0.0393701
f 19/191/9 18/192/27 105/193/27 104/194/9 

vt -3.85095 0.11811
vt -3.87151 0.11811
v 165.062 1 -71.987
vt -3.87151 0.0393701
vt -3.85095 0.0393701
f 18/195/27 17/196/11 106/197/11 105/198/27 

vt -3.65976 0.11811
vt -3.68032 0.11811
v 165.545 1 -72.1868
vt -3.68032 0.0393701
vt -3.65976 0.0393701
f 17/199/11 16/200/12 107/201/12 106/202/11 

vt -3.21846 0.11811
vt -3.23902 0.11811
v 165.959 1 -72.5047
vt -3.23902 0.0393701
vt -3.21846 0.0393701
f 16/203/12 15/204/13 108/205/13 107/206/12 

vt -2.55713 0.11811
vt -2.57768 0.11811
v 166.277 1 -72.9189
vt -2.57768 0.0393701
vt -2.55713 0.0393701
f 15/207/13 14/208/14 109/209/14 108/210/13 

vt -1.72083 0.11811
vt -1.74139 0.11811
v 166.476 1 -73.4012
vt -1.74139 0.0393701
vt -1.72083 0.0393701
f 14/211/14 13/212/15 110/213/15 109/214/14 

vt -0.76656 0.11811
vt -0.787115 0.11811
v 166.545 1 -73.9189
vt -0.787115 0.0393701
vt -0.76656 0.0393701
f 13/215/15 12/216/16 111/217/16 110/218/15 

vt 0.24065 0.11811
v 166.476 3 -74.4365
vt 0.220095 0.11811
v 166.476 1 -74.4365
vt 0.220095 0.0393701
vt 0.24065 0.0393701
f 12/219/16 112/220/17 113/221/17 111/222/16 

v 166.476 3 -173.401
vt 3.93432 4.19222
vt 3.93432 0.29597
f 114/223/3 112/224/3 12/14/3

v 166.277 3 -172.919
vt 3.92646 4.17323
f 115/225/3 112/224/3 114/223/3

v 166.277 3 -74.9189
vt 3.92646 0.314961
f 115/225/3 116/226/3 112/224/3

v 165.959 3 -172.505
vt 3.91395 4.15692
f 117/227/3 116/226/3 115/225/3

v 165.959 3 -75.3331
vt 3.91395 0.331268
f 117/227/3 118/228/3 116/226/3

v 165.545 3 -172.187
vt 3.89764 4.14441
f 119/229/3 118/228/3 117/227/3

v 165.545 3 -75.6509
vt 3.89764 0.343782
f 119/229/3 120/230/3 118/228/3

v 165.062 3 -171.987
vt 3.87865 4.13654
f 121/231/3 120/230/3 119/229/3

v 165.062 3 -75.8507
vt 3.87865 0.351648
f 121/231/3 122/232/3 120/230/3

v 164.545 3 -171.919
vt 3.85827 4.13386
f 123/233/3 122/232/3 121/231/3

v 164.545 3 -75.9189
vt 3.85827 0.354331
f 123/233/3 124/234/3 122/232/3

v 164.027 3 -171.987
vt 3.83789 4.13654
f 125/235/3 124/234/3 123/233/3

v 164.027 3 -75.8507
vt 3.83789 0.351648
f 125/235/3 126/236/3 124/234/3

v 163.545 3 -172.187
vt 3.8189 4.14441
f 127/237/3 126/236/3 125/235/3

v 163.545 3 -75.6509
vt 3.8189 0.343782
f 127/237/3 128/238/3 126/236/3

v 163.13 3 -172.505
vt 3.80259 4.15692
f 129/239/3 128/238/3 127/237/3

v 163.13 3 -75.3331
vt 3.80259 0.331268
f 129/239/3 130/240/3 128/238/3

v 162.813 3 -172.919
vt 3.79008 4.17323
f 131/241/3 130/240/3 129/239/3

v 162.813 3 -74.9189
vt 3.79008 0.314961
f 131/241/3 132/242/3 130/240/3

v 162.613 3 -173.401
vt 3.78221 4.19222
f 133/243/3 132/242/3 131/241/3

v 162.613 3 -74.4365
vt 3.78221 0.29597
f 133/243/3 134/244/3 132/242/3

v 162.545 3 -173.919
vt 3.77953 4.2126
f 135/245/3 134/244/3 133/243/3

v 162.545 3 -73.9189
vt 3.77953 0.275591
f 134/244/3 135/245/3 136/246/3

f 135/245/3 99/181/3 136/246/3

v 162.613 3 -174.437
vt 3.78221 4.23298
f 137/247/3 99/181/3 135/245/3

v 162.813 3 -174.919
vt 3.79008 4.25197
f 138/248/3 99/181/3 137/247/3

v 163.13 3 -175.333
vt 3.80259 4.26828
f 139/249/3 99/181/3 138/248/3

v 163.545 3 -175.651
vt 3.8189 4.28079
f 140/250/3 99/181/3 139/249/3

f 9/103/3 99/181/3 140/250/3

v 75.4765 3 -174.437
vt 0.351648 4.23298
f 9/103/3 141/251/3 99/181/3

v 75.2767 3 -174.919
vt 0.343782 4.25197
f 9/103/3 142/252/3 141/251/3

v 74.9588 3 -175.333
vt 0.331268 4.26828
f 9/103/3 143/253/3 142/252/3

v 74.5446 3 -175.651
vt 0.314961 4.28079
f 9/103/3 144/254/3 143/253/3

f 9/103/3 79/104/3 144/254/3

vt -1.3472 0.11811
vn -0.5 2.70477e-016 0.866025
vt -1.36776 0.11811
vt -1.36776 0.0393701
v 74.5446 1 -175.651
vt -1.3472 0.0393701
f 144/255/28 79/256/18 81/257/18 145/258/28 

vt -0.29597 4.28866
vn 0 -1 -0
v 74.3211 1 -176.817
vt -0.30616 4.32668
vt -0.314961 4.28079
f 81/259/29 146/260/29 145/261/29

vt -0.275591 4.29134
f 80/262/29 146/260/29 81/259/29

v 73.5446 1 -176.919
vt -0.275591 4.33071
f 80/262/29 147/263/29 146/260/29

vt -0.255211 4.28866
f 82/264/29 147/263/29 80/262/29

v 72.7682 1 -176.817
vt -0.245021 4.32668
f 82/264/29 148/265/29 147/263/29

vt -0.23622 4.28079
f 83/266/29 148/265/29 82/264/29

vt -0.219913 4.26828
f 84/267/29 148/265/29 83/266/29

v 72.0446 1 -176.517
vt -0.216535 4.31488
f 84/267/29 149/268/29 148/265/29

vt -0.2074 4.25197
f 85/269/29 149/268/29 84/267/29

vt -0.199533 4.23298
f 86/270/29 149/268/29 85/269/29

v 71.4233 1 -176.04
vt -0.192074 4.29611
f 86/270/29 150/271/29 149/268/29

vt -0.19685 4.2126
f 87/272/29 150/271/29 86/270/29

v 71.4233 1 -171.798
vt -0.192074 4.12908
f 151/273/29 150/271/29 87/272/29

v 70.9465 1 -172.419
vt -0.173304 4.15354
f 152/274/29 150/271/29 151/273/29

v 70.9465 1 -175.419
vt -0.173304 4.27165
f 152/274/29 153/275/29 150/271/29

v 70.6468 1 -173.142
vt -0.161505 4.18203
f 154/276/29 153/275/29 152/274/29

v 70.6468 1 -174.695
vt -0.161505 4.24317
f 154/276/29 155/277/29 153/275/29

v 70.5446 1 -173.919
vt -0.15748 4.2126
f 155/277/29 154/276/29 156/278/29

v 70.6468 0 -173.142
vt 4.12517 0
vn 0.965926 0 -0.258819
v 70.5446 0 -173.919
vt 4.156 0
vn 1 0 -0
vt 4.156 0.0393701
vt 4.12517 0.0393701
f 157/279/30 158/280/31 156/281/31 154/282/30 

v 70.6468 2.81997e-014 -74.6953
vt -0.161505 0.30616
vn -9.20205e-017 -1 2.59192e-016
f 159/283/32 158/278/32 157/276/32

v 70.5446 2.81997e-014 -73.9189
vt -0.15748 0.275591
f 158/278/32 159/283/32 160/284/32

vt 0.293788 1.11022e-015
vn 1 0 -9.51833e-016
vt 0.324621 1.11022e-015
vn 0.965926 0 0.258819
v 70.6468 1 -74.6953
vt 0.324621 0.0393701
v 70.5446 1 -73.9189
vt 0.293788 0.0393701
f 160/285/33 159/286/34 161/287/34 162/288/33 

vt 0.34466 1.11022e-015
v 70.9465 2.81997e-014 -75.4189
vt 0.375493 1.11022e-015
vn 0.866025 0 0.5
v 70.9465 1 -75.4189
vt 0.375493 0.0393701
vt 0.34466 0.0393701
f 159/289/34 163/290/35 164/291/35 161/292/34 

vt -0.173304 0.334646
f 159/283/32 157/276/32 163/293/32

v 70.9465 0 -172.419
f 163/293/32 157/276/32 165/274/32

vt 3.77105 0
vn 0.866025 0 -0.5
vt 3.80189 0
vt 3.80189 0.0393701
vt 3.77105 0.0393701
f 165/294/36 157/295/30 154/296/30 152/297/36 

v 71.4233 0 -171.798
vt 3.15889 0
vn 0.707107 0 -0.707107
vt 3.18973 0
vt 3.18973 0.0393701
vt 3.15889 0.0393701
f 166/298/37 165/299/36 152/300/36 151/301/37 

v 71.4233 2.81997e-014 -76.0402
vt -0.192074 0.359107
f 167/302/32 165/274/32 166/273/32

f 163/293/32 165/274/32 167/302/32

vt 0.370993 1.11022e-015
vt 0.401826 1.11022e-015
vn 0.707107 0 0.707107
v 71.4233 1 -76.0402
vt 0.401826 0.0393701
vt 0.370993 0.0393701
f 163/303/35 167/304/38 168/305/38 164/306/35 

v 72.0446 2.81997e-014 -76.5169
vn 0.5 0 0.866025
v 72.0446 1 -76.5169
f 167/303/38 169/304/39 170/305/39 168/306/38 

vt -0.216535 0.377877
f 167/302/32 166/273/32 169/307/32

v 72.0446 0 -171.321
vt -0.216535 4.11031
f 169/307/32 166/273/32 171/308/32

vt 2.33041 0
vn 0.5 0 -0.866025
vt 2.36124 0
vt 2.36124 0.0393701
v 72.0446 1 -171.321
vt 2.33041 0.0393701
f 171/309/40 166/310/37 151/311/37 172/312/40 

vt -0.199533 4.19222
f 151/273/29 88/313/29 172/308/29

f 88/313/29 151/273/29 87/272/29

vt -0.2074 4.17323
f 172/308/29 88/313/29 89/314/29

vt -0.219913 4.15692
f 172/308/29 89/314/29 90/315/29

v 72.7682 1 -171.021
vt -0.245021 4.09851
f 172/308/29 90/315/29 173/316/29

vt -0.23622 4.14441
f 173/316/29 90/315/29 91/317/29

vt -0.255211 4.13654
f 173/316/29 91/317/29 92/318/29

v 73.5446 1 -170.919
vt -0.275591 4.09449
f 173/316/29 92/318/29 174/319/29

vt -0.275591 4.13386
f 174/319/29 92/318/29 93/320/29

vt -0.29597 4.13654
f 174/319/29 93/320/29 94/321/29

v 74.3211 1 -171.021
vt -0.30616 4.09851
f 174/319/29 94/321/29 175/322/29

vt -0.314961 4.14441
f 175/322/29 94/321/29 95/323/29

v 75.0446 1 -171.321
vt -0.334646 4.11031
f 175/322/29 95/323/29 176/324/29

vt -0.331268 4.15692
f 176/324/29 95/323/29 96/325/29

vt -0.343782 4.17323
f 176/324/29 96/325/29 97/326/29

v 75.6659 1 -171.798
vt -0.359107 4.12908
f 176/324/29 97/326/29 177/327/29

vt -0.351648 4.19222
f 177/327/29 97/326/29 98/328/29

vt -0.354331 4.2126
f 177/327/29 98/328/29 100/329/29

v 75.6659 1 -176.04
vt -0.359107 4.29611
f 177/327/29 100/329/29 178/330/29

v 75.4765 1 -174.437
vt -0.351648 4.23298
f 179/331/29 178/330/29 100/329/29

v 75.2767 1 -174.919
vt -0.343782 4.25197
f 180/332/29 178/330/29 179/331/29

v 75.0446 1 -176.517
vt -0.334646 4.31488
f 180/332/29 181/333/29 178/330/29

v 74.9588 1 -175.333
vt -0.331268 4.26828
f 182/334/29 181/333/29 180/332/29

f 145/261/29 181/333/29 182/334/29

f 145/261/29 146/260/29 181/333/29

v 74.3211 0 -176.817
vt -1.3729 0
vn -0.258819 0 0.965926
v 75.0446 0 -176.517
vt -1.34206 0
vn -0.5 0 0.866025
vt -1.34206 0.0393701
vt -1.3729 0.0393701
f 183/335/41 184/336/42 181/337/42 146/338/41 

vt -4.13386 4.48819
f 183/260/32 8/339/32 184/333/32

v 73.5446 0 -176.919
f 185/263/32 8/339/32 183/260/32

v 66.5446 0 -180.919
vt 0 4.48819
f 185/263/32 186/340/32 8/339/32

v 72.7682 0 -176.817
f 187/265/32 186/340/32 185/263/32

v 72.0446 0 -176.517
f 188/268/32 186/340/32 187/265/32

v 71.4233 0 -176.04
f 189/271/32 186/340/32 188/268/32

v 70.9465 0 -175.419
f 190/275/32 186/340/32 189/271/32

v 70.6468 0 -174.695
f 191/277/32 186/340/32 190/275/32

f 158/278/32 186/340/32 191/277/32

v 66.5446 3.94795e-014 -66.9189
vt -8.88178e-016 -4.02866e-031
f 186/340/32 158/278/32 192/341/32

f 192/341/32 158/278/32 160/284/32

v 70.6468 2.81997e-014 -73.1424
vt -0.161505 0.245021
f 193/342/32 192/341/32 160/284/32

v 70.9465 2.81997e-014 -72.4189
vt -0.173304 0.216535
f 194/343/32 192/341/32 193/342/32

v 71.4233 2.81997e-014 -71.7975
vt -0.192074 0.192074
f 195/344/32 192/341/32 194/343/32

v 72.0446 2.81997e-014 -71.3208
vt -0.216535 0.173304
f 196/345/32 192/341/32 195/344/32

v 72.7682 2.81997e-014 -71.0211
vt -0.245021 0.161505
f 197/346/32 192/341/32 196/345/32

v 73.5446 2.81997e-014 -70.9189
vt -0.275591 0.15748
f 198/347/32 192/341/32 197/346/32

vt -4.13386 8.88178e-016
f 192/341/32 198/347/32 7/348/32

v 74.3211 2.81997e-014 -71.0211
vt -0.30616 0.161505
f 7/348/32 198/347/32 199/349/32

vt -0.324621 1.11022e-015
vn -0.258819 0 -0.965926
vt -0.293788 1.11022e-015
vn 0 0 -1
v 73.5446 1 -70.9189
vt -0.293788 0.0393701
v 74.3211 1 -71.0211
vt -0.324621 0.0393701
f 199/350/43 198/351/44 200/352/44 201/353/43 

vt -0.252678 1.11022e-015
vt -0.221845 1.11022e-015
vn 0.258819 0 -0.965926
v 72.7682 1 -71.0211
vt -0.221845 0.0393701
vt -0.252678 0.0393701
f 198/354/44 197/355/45 202/356/45 200/357/44 

vt -0.164565 1.11022e-015
vt -0.133732 1.11022e-015
v 72.0446 1 -71.3208
vt -0.133732 0.0393701
vt -0.164565 0.0393701
f 197/358/45 196/359/40 203/360/40 202/361/45 

vt -0.0662883 1.11022e-015
vt -0.0354553 1.11022e-015
v 71.4233 1 -71.7975
vt -0.0354553 0.0393701
vt -0.0662883 0.0393701
f 196/362/40 195/363/37 204/364/37 203/365/40 

vt 0.0354553 1.11022e-015
vt 0.0662883 1.11022e-015
v 70.9465 1 -72.4189
vt 0.0662883 0.0393701
vt 0.0354553 0.0393701
f 195/366/37 194/367/36 205/368/36 204/369/37 

vt 0.133732 1.11022e-015
vt 0.164565 1.11022e-015
v 70.6468 1 -73.1424
vt 0.164565 0.0393701
vt 0.133732 0.0393701
f 194/370/36 193/371/30 206/372/30 205/373/36 

vt 0.221845 1.11022e-015
vt 0.252678 1.11022e-015
vt 0.252678 0.0393701
vt 0.221845 0.0393701
f 193/374/30 160/375/33 162/376/33 206/377/30 

f 161/283/29 206/342/29 162/284/29

f 206/342/29 161/283/29 164/293/29

f 206/342/29 164/293/29 205/343/29

f 205/343/29 164/293/29 168/302/29

f 205/343/29 168/302/29 204/344/29

vt -0.19685 0.275591
f 204/344/29 168/302/29 36/378/29

v 71.6128 1 -74.4365
vt -0.199533 0.29597
f 36/378/29 168/302/29 207/379/29

f 207/379/29 168/302/29 170/307/29

v 71.8126 1 -74.9189
vt -0.2074 0.314961
f 207/379/29 170/307/29 208/380/29

v 72.1304 1 -75.3331
vt -0.219913 0.331268
f 208/380/29 170/307/29 209/381/29

v 72.7682 1 -76.8166
vt -0.245021 0.389676
f 209/381/29 170/307/29 210/382/29

v 72.7682 2.81997e-014 -76.8166
vn 0.258819 0 0.965926
f 169/289/39 211/290/46 210/291/46 170/292/39 

f 169/307/32 171/308/32 211/382/32

v 72.7682 0 -171.021
f 211/382/32 171/308/32 212/316/32

vt 1.34206 0
vt 1.3729 0
vt 1.3729 0.0393701
vt 1.34206 0.0393701
f 212/383/45 171/384/40 172/385/40 173/386/45 

v 73.5446 0 -170.919
vt 0.261205 0
vt 0.292038 0
vt 0.292038 0.0393701
vt 0.261205 0.0393701
f 213/387/44 212/388/45 173/389/45 174/390/44 

v 73.5446 2.81997e-014 -76.9189
vt -0.275591 0.393701
f 214/391/32 212/316/32 213/319/32

f 211/382/32 212/316/32 214/391/32

vn -7.12475e-015 0 1
v 73.5446 1 -76.9189
f 211/285/46 214/286/47 215/287/47 210/288/46 

v 74.3211 2.81997e-014 -76.8166
v 74.3211 1 -76.8166
f 214/374/47 216/375/41 217/376/41 215/377/47 

vt -0.30616 0.389676
f 214/391/32 213/319/32 216/392/32

v 74.3211 0 -171.021
f 216/392/32 213/319/32 218/322/32

vt -0.838504 0
vt -0.807671 0
vt -0.807671 0.0393701
vt -0.838504 0.0393701
f 218/393/43 213/394/44 174/395/44 175/396/43 

v 75.0446 0 -171.321
vt -1.88212 0
vn -0.5 0 -0.866025
vt -1.85129 0
vt -1.85129 0.0393701
vt -1.88212 0.0393701
f 219/397/48 218/398/43 175/399/43 176/400/48 

v 75.0446 2.81997e-014 -76.5169
vt -0.334646 0.377877
f 220/401/32 218/322/32 219/324/32

f 216/392/32 218/322/32 220/401/32

v 75.0446 1 -76.5169
f 216/370/41 220/371/42 221/372/42 217/373/41 

v 75.6659 2.81997e-014 -76.0402
vn -0.707107 0 0.707107
v 75.6659 1 -76.0402
f 220/366/42 222/367/49 223/368/49 221/369/42 

vt -0.359107 0.359107
f 220/401/32 219/324/32 222/402/32

v 75.6659 0 -171.798
f 222/402/32 219/324/32 224/327/32

vt -2.79852 0
vn -0.707107 0 -0.707107
vt -2.76769 0
vt -2.76769 0.0393701
vt -2.79852 0.0393701
f 224/403/50 219/404/48 176/405/48 177/406/50 

v 76.1427 0 -172.419
vt -3.52526 0
vn -0.866025 0 -0.5
vt -3.49443 0
vt -3.49443 0.0393701
v 76.1427 1 -172.419
vt -3.52526 0.0393701
f 225/407/51 224/408/50 177/409/50 226/410/51 

v 76.1427 2.81997e-014 -75.4189
vt -0.377877 0.334646
vt -0.377877 4.15354
f 227/411/32 224/327/32 225/412/32

f 222/402/32 224/327/32 227/411/32

vn -0.866025 0 0.5
v 76.1427 1 -75.4189
f 222/362/49 227/363/52 228/364/52 223/365/49 

v 76.4424 2.81997e-014 -74.6953
vn -0.965926 0 0.258819
v 76.4424 1 -74.6953
f 227/358/52 229/359/53 230/360/53 228/361/52 

vt -0.389676 0.30616
f 227/411/32 225/412/32 229/413/32

v 76.4424 0 -173.142
vt -0.389676 4.18203
f 229/413/32 225/412/32 231/414/32

vt -4.01281 0
vn -0.965926 0 -0.258819
vt -3.98198 0
vt -3.98198 0.0393701
v 76.4424 1 -173.142
vt -4.01281 0.0393701
f 231/415/54 225/416/51 226/417/51 232/418/54 

v 76.4424 1 -174.695
vt -0.389676 4.24317
f 226/412/29 233/419/29 232/414/29

v 76.1427 1 -175.419
vt -0.377877 4.27165
f 226/412/29 234/420/29 233/419/29

f 177/327/29 234/420/29 226/412/29

f 177/327/29 178/330/29 234/420/29

v 75.6659 0 -176.04
vt -3.18973 0
v 76.1427 0 -175.419
vt -3.15889 0
vt -3.15889 0.0393701
vt -3.18973 0.0393701
f 235/421/49 236/422/52 234/423/52 178/424/49 

f 235/330/32 8/339/32 236/420/32

f 184/333/32 8/339/32 235/330/32

vt -2.36124 0
vt -2.33041 0
vt -2.33041 0.0393701
vt -2.36124 0.0393701
f 184/425/42 235/426/49 178/427/49 181/428/42 

v 76.4424 0 -174.695
f 236/420/32 8/339/32 237/419/32

v 76.5446 0 -173.919
vt -0.393701 4.2126
f 237/419/32 8/339/32 238/429/32

v 163.045 0 -176.517
vt -3.79921 4.31488
f 238/429/32 8/339/32 239/430/32

v 163.768 0 -176.817
vt -3.8277 4.32668
f 239/430/32 8/339/32 240/431/32

v 164.545 0 -176.919
vt -3.85827 4.33071
f 240/431/32 8/339/32 241/432/32

v 165.321 0 -176.817
vt -3.88884 4.32668
f 241/432/32 8/339/32 242/433/32

v 166.045 0 -176.517
vt -3.91732 4.31488
f 242/433/32 8/339/32 243/434/32

v 166.666 0 -176.04
vt -3.94178 4.29611
f 243/434/32 8/339/32 244/435/32

v 167.143 0 -175.419
vt -3.96055 4.27165
f 244/435/32 8/339/32 245/436/32

v 167.442 0 -174.695
vt -3.97235 4.24317
f 245/436/32 8/339/32 246/437/32

v 167.545 0 -173.919
vt -3.97638 4.2126
f 246/437/32 8/339/32 247/438/32

f 7/348/32 247/438/32 8/339/32

v 167.545 1.12799e-014 -73.9189
vt -3.97638 0.275591
f 7/348/32 248/439/32 247/438/32

v 167.442 1.12799e-014 -73.1424
vt -3.97235 0.245021
f 7/348/32 249/440/32 248/439/32

v 167.143 1.12799e-014 -72.4189
vt -3.96055 0.216535
f 7/348/32 250/441/32 249/440/32

v 166.666 1.12799e-014 -71.7975
vt -3.94178 0.192074
f 7/348/32 251/442/32 250/441/32

v 166.045 1.12799e-014 -71.3208
vt -3.91732 0.173304
f 7/348/32 252/443/32 251/442/32

v 165.321 1.12799e-014 -71.0211
vt -3.88884 0.161505
f 7/348/32 253/444/32 252/443/32

v 164.545 1.12799e-014 -70.9189
vt -3.85827 0.15748
f 7/348/32 254/445/32 253/444/32

v 163.768 1.12799e-014 -71.0211
vt -3.8277 0.161505
f 7/348/32 255/446/32 254/445/32

v 163.045 1.12799e-014 -71.3208
vt -3.79921 0.173304
f 7/348/32 256/447/32 255/446/32

v 76.5446 2.81997e-014 -73.9189
vt -0.393701 0.275591
f 7/348/32 257/448/32 256/447/32

v 76.4424 2.81997e-014 -73.1424
vt -0.389676 0.245021
f 7/348/32 258/449/32 257/448/32

v 76.1427 2.81997e-014 -72.4189
vt -0.377877 0.216535
f 7/348/32 259/450/32 258/449/32

v 75.6659 2.81997e-014 -71.7975
vt -0.359107 0.192074
f 7/348/32 260/451/32 259/450/32

v 75.0446 2.81997e-014 -71.3208
vt -0.334646 0.173304
f 7/348/32 261/452/32 260/451/32

f 7/348/32 199/349/32 261/452/32

vt -0.375493 1.11022e-015
vt -0.34466 1.11022e-015
vt -0.34466 0.0393701
v 75.0446 1 -71.3208
vt -0.375493 0.0393701
f 261/453/48 199/454/43 201/455/43 262/456/48 

vt -0.314961 0.2074
f 201/349/29 43/457/29 262/452/29

vt -0.29597 0.199533
f 201/349/29 42/458/29 43/457/29

f 200/347/29 42/458/29 201/349/29

vt -0.275591 0.19685
f 200/347/29 41/459/29 42/458/29

vt -0.255211 0.199533
f 200/347/29 40/460/29 41/459/29

f 202/346/29 40/460/29 200/347/29

vt -0.23622 0.2074
f 202/346/29 39/461/29 40/460/29

vt -0.219913 0.219913
f 202/346/29 38/462/29 39/461/29

f 203/345/29 38/462/29 202/346/29

vt -0.2074 0.23622
f 203/345/29 37/463/29 38/462/29

vt -0.199533 0.255211
f 203/345/29 35/464/29 37/463/29

f 204/344/29 35/464/29 203/345/29

f 35/464/29 204/344/29 36/378/29

vt -0.331268 0.219913
f 262/452/29 43/457/29 44/465/29

vt -0.343782 0.23622
f 262/452/29 44/465/29 45/466/29

v 75.6659 1 -71.7975
f 262/452/29 45/466/29 263/451/29

vt -0.351648 0.255211
f 263/451/29 45/466/29 46/467/29

vt -0.354331 0.275591
f 263/451/29 46/467/29 47/468/29

f 263/451/29 47/468/29 223/402/29

vt -0.351648 0.29597
f 49/469/29 223/402/29 47/468/29

v 75.2767 1 -74.9189
vt -0.343782 0.314961
f 264/470/29 223/402/29 49/469/29

f 264/470/29 221/401/29 223/402/29

v 74.9588 1 -75.3331
vt -0.331268 0.331268
f 265/471/29 221/401/29 264/470/29

v 74.5446 1 -75.6509
vt -0.314961 0.343782
f 266/472/29 221/401/29 265/471/29

f 266/472/29 217/392/29 221/401/29

v 74.0623 1 -75.8507
vt -0.29597 0.351648
f 267/473/29 217/392/29 266/472/29

v 73.5446 1 -75.9189
vt -0.275591 0.354331
f 268/474/29 217/392/29 267/473/29

f 268/474/29 215/391/29 217/392/29

v 73.027 1 -75.8507
vt -0.255211 0.351648
f 269/475/29 215/391/29 268/474/29

f 269/475/29 210/382/29 215/391/29

v 72.5446 1 -75.6509
vt -0.23622 0.343782
f 270/476/29 210/382/29 269/475/29

f 209/381/29 210/382/29 270/476/29

vt 0.396687 0.11811
vt 0.376132 0.11811
vt 0.376132 0.0393701
vt 0.396687 0.0393701
f 64/477/21 66/478/22 209/479/22 270/480/21 

f 66/477/22 68/478/23 208/479/23 209/480/22 

vt 0.370354 0.11811
vt 0.349799 0.11811
vt 0.349799 0.0393701
vt 0.370354 0.0393701
f 68/481/23 70/482/24 207/483/24 208/484/23 

vt 0.319482 0.11811
vt 0.298927 0.11811
vt 0.298927 0.0393701
vt 0.319482 0.0393701
f 70/485/24 34/486/4 36/487/4 207/488/24 

f 62/481/20 64/482/21 270/483/21 269/484/20 

vn 2.81351e-015 2.59192e-016 1
f 60/485/55 62/486/20 269/487/20 268/488/55 

f 58/37/18 60/38/55 268/39/55 267/40/18 

f 56/41/28 58/42/18 267/43/18 266/44/28 

vn -0.707107 2.48345e-016 0.707107
f 54/45/56 56/46/28 266/47/28 265/48/56 

vn -0.866025 2.09288e-016 0.5
f 52/49/57 54/50/56 265/51/56 264/52/57 

f 48/53/17 52/54/57 264/55/57 49/56/17 

f 263/451/29 223/402/29 228/411/29

v 76.1427 1 -72.4189
f 263/451/29 228/411/29 271/450/29

f 271/450/29 228/411/29 230/413/29

v 76.4424 1 -73.1424
f 271/450/29 230/413/29 272/449/29

v 76.5446 1 -73.9189
f 272/449/29 230/413/29 273/448/29

vn -1 0 -0
f 229/354/53 257/355/58 273/356/58 230/357/53 

f 229/413/32 231/414/32 257/448/32

f 257/448/32 231/414/32 238/429/32

vt -4.22795 0
vt -4.19711 0
vt -4.19711 0.0393701
v 76.5446 1 -173.919
vt -4.22795 0.0393701
f 238/489/58 231/490/54 232/491/54 274/492/58 

f 232/414/29 233/419/29 274/429/29

vt -4.156 0
vt -4.12517 0
vt -4.12517 0.0393701
vt -4.156 0.0393701
f 237/493/53 238/494/58 274/495/58 233/496/53 

vt -3.80189 0
vt -3.77105 0
vt -3.77105 0.0393701
vt -3.80189 0.0393701
f 236/497/52 237/498/53 233/499/53 234/500/52 

v 162.423 1.12799e-014 -71.7975
vt -3.77475 0.192074
f 275/501/32 257/448/32 238/429/32

f 256/447/32 257/448/32 275/501/32

vt -2.90862 4.44089e-016
vt -2.87778 4.44089e-016
v 162.423 1 -71.7975
vt -2.87778 0.0393701
v 163.045 1 -71.3208
vt -2.90862 0.0393701
f 256/502/40 275/503/37 276/504/37 277/505/40 

vt -2.14554 4.44089e-016
v 161.947 1.12799e-014 -72.4189
vt -2.11471 4.44089e-016
v 161.947 1 -72.4189
vt -2.11471 0.0393701
vt -2.14554 0.0393701
f 275/506/37 278/507/36 279/508/36 276/509/37 

vt -3.75598 0.216535
f 275/501/32 238/429/32 278/510/32

v 161.647 1.12799e-014 -73.1424
vt -3.74418 0.245021
f 278/510/32 238/429/32 280/511/32

v 161.545 1.12799e-014 -73.9189
vt -3.74016 0.275591
f 280/511/32 238/429/32 281/512/32

v 161.545 0 -173.919
vt -3.74016 4.2126
f 238/429/32 282/513/32 281/512/32

v 161.647 0 -174.695
vt -3.74418 4.24317
f 238/429/32 283/514/32 282/513/32

v 161.947 0 -175.419
vt -3.75598 4.27165
f 238/429/32 284/515/32 283/514/32

v 162.423 0 -176.04
vt -3.77475 4.29611
f 238/429/32 285/516/32 284/515/32

f 238/429/32 239/430/32 285/516/32

vt 5.61002 0
vt 5.64085 0
v 163.045 1 -176.517
vt 5.64085 0.0393701
v 162.423 1 -176.04
vt 5.61002 0.0393701
f 285/517/38 239/518/39 286/519/39 287/520/38 

vt 5.16125 0
vt 5.19208 0
v 163.768 1 -176.817
vt 5.19208 0.0393701
vt 5.16125 0.0393701
f 239/521/39 240/522/46 288/523/46 286/524/39 

vt 4.3597 0
vt 4.39053 0
vn 0 0 1
v 164.545 1 -176.919
vt 4.39053 0.0393701
vt 4.3597 0.0393701
f 240/525/46 241/526/59 289/527/59 288/528/46 

vt 3.25999 0
vt 3.29082 0
v 165.321 1 -176.817
vt 3.29082 0.0393701
vt 3.25999 0.0393701
f 241/529/59 242/530/41 290/531/41 289/532/59 

vt 1.93707 0
vt 1.9679 0
v 166.045 1 -176.517
vt 1.9679 0.0393701
vt 1.93707 0.0393701
f 242/533/41 243/534/42 291/535/42 290/536/41 

vt 0.481086 0
vt 0.511919 0
v 166.666 1 -176.04
vt 0.511919 0.0393701
vt 0.481086 0.0393701
f 243/537/42 244/538/49 292/539/49 291/540/42 

vt -1.00873 0
vt -0.977898 0
v 167.143 1 -175.419
vt -0.977898 0.0393701
vt -1.00873 0.0393701
f 244/541/49 245/542/52 293/543/52 292/544/49 

vt -2.43085 0
vt -2.40002 0
v 167.442 1 -174.695
vt -2.40002 0.0393701
vt -2.43085 0.0393701
f 245/545/52 246/546/53 294/547/53 293/548/52 

vt -3.68837 0
vt -3.65754 0
v 167.545 1 -173.919
vt -3.65754 0.0393701
vt -3.68837 0.0393701
f 246/549/53 247/550/58 295/551/58 294/552/53 

vt -4.69558 0
v 167.442 0 -173.142
vt -4.66475 0
v 167.442 1 -173.142
vt -4.66475 0.0393701
vt -4.69558 0.0393701
f 247/553/58 296/554/54 297/555/54 295/556/58 

vt -3.97235 4.18203
f 248/439/32 296/557/32 247/438/32

v 167.442 1.12799e-014 -74.6953
vt -3.97235 0.30616
f 298/558/32 296/557/32 248/439/32

v 167.143 0 -172.419
vt -3.96055 4.15354
f 298/558/32 299/559/32 296/557/32

v 167.143 1.12799e-014 -75.4189
vt -3.96055 0.334646
f 300/560/32 299/559/32 298/558/32

v 166.666 0 -171.798
vt -3.94178 4.12908
f 300/560/32 301/561/32 299/559/32

v 166.666 1.12799e-014 -76.0402
vt -3.94178 0.359107
f 302/562/32 301/561/32 300/560/32

v 166.045 0 -171.321
vt -3.91732 4.11031
f 302/562/32 303/563/32 301/561/32

v 166.045 1.12799e-014 -76.5169
vt -3.91732 0.377877
f 304/564/32 303/563/32 302/562/32

v 165.321 0 -171.021
vt -3.88884 4.09851
f 304/564/32 305/565/32 303/563/32

v 165.321 1.12799e-014 -76.8166
vt -3.88884 0.389676
f 306/566/32 305/565/32 304/564/32

v 164.545 0 -170.919
vt -3.85827 4.09449
f 306/566/32 307/567/32 305/565/32

v 164.545 1.12799e-014 -76.9189
vt -3.85827 0.393701
f 308/568/32 307/567/32 306/566/32

v 163.768 0 -171.021
vt -3.8277 4.09851
f 308/568/32 309/569/32 307/567/32

v 163.768 1.12799e-014 -76.8166
vt -3.8277 0.389676
f 310/570/32 309/569/32 308/568/32

v 163.045 0 -171.321
vt -3.79921 4.11031
f 310/570/32 311/571/32 309/569/32

v 163.045 1.12799e-014 -76.5169
vt -3.79921 0.377877
f 312/572/32 311/571/32 310/570/32

v 162.423 0 -171.798
vt -3.77475 4.12908
f 312/572/32 313/573/32 311/571/32

v 162.423 1.12799e-014 -76.0402
vt -3.77475 0.359107
f 314/574/32 313/573/32 312/572/32

v 161.947 0 -172.419
vt -3.75598 4.15354
f 314/574/32 315/575/32 313/573/32

v 161.947 1.12799e-014 -75.4189
vt -3.75598 0.334646
f 316/576/32 315/575/32 314/574/32

v 161.647 0 -173.142
vt -3.74418 4.18203
f 316/576/32 317/577/32 315/575/32

v 161.647 1.12799e-014 -74.6953
vt -3.74418 0.30616
f 318/578/32 317/577/32 316/576/32

f 318/578/32 282/513/32 317/577/32

f 282/513/32 318/578/32 281/512/32

vt 0.761421 4.44089e-016
vt 0.792254 4.44089e-016
v 161.647 1 -74.6953
vt 0.792254 0.0393701
v 161.545 1 -73.9189
vt 0.761421 0.0393701
f 281/579/33 318/580/34 319/581/34 320/582/33 

vt 1.71569 4.44089e-016
vt 1.74652 4.44089e-016
v 161.947 1 -75.4189
vt 1.74652 0.0393701
vt 1.71569 0.0393701
f 318/583/34 316/584/35 321/585/35 319/586/34 

vt 2.55199 4.44089e-016
vt 2.58282 4.44089e-016
v 162.423 1 -76.0402
vt 2.58282 0.0393701
vt 2.55199 0.0393701
f 316/587/35 314/588/38 322/589/38 321/590/35 

vt 3.21332 4.44089e-016
vt 3.24415 4.44089e-016
v 163.045 1 -76.5169
vt 3.24415 0.0393701
vt 3.21332 0.0393701
f 314/591/38 312/592/39 323/593/39 322/594/38 

vt 3.65462 4.44089e-016
vt 3.68545 4.44089e-016
v 163.768 1 -76.8166
vt 3.68545 0.0393701
vt 3.65462 0.0393701
f 312/595/39 310/596/46 324/597/46 323/598/39 

vt 3.84582 4.44089e-016
vt 3.87665 4.44089e-016
v 164.545 1 -76.9189
vt 3.87665 0.0393701
vt 3.84582 0.0393701
f 310/599/46 308/600/47 325/601/47 324/602/46 

vt 3.77387 4.44089e-016
vt 3.8047 4.44089e-016
v 165.321 1 -76.8166
vt 3.8047 0.0393701
vt 3.77387 0.0393701
f 308/603/47 306/604/41 326/605/41 325/606/47 

vt 3.44369 4.44089e-016
vt 3.47453 4.44089e-016
v 166.045 1 -76.5169
vt 3.47453 0.0393701
vt 3.44369 0.0393701
f 306/607/41 304/608/42 327/609/42 326/610/41 

vt 2.87778 4.44089e-016
vt 2.90862 4.44089e-016
v 166.666 1 -76.0402
vt 2.90862 0.0393701
vt 2.87778 0.0393701
f 304/611/42 302/612/49 328/613/49 327/614/42 

vt 2.11471 4.44089e-016
vt 2.14554 4.44089e-016
v 167.143 1 -75.4189
vt 2.14554 0.0393701
vt 2.11471 0.0393701
f 302/615/49 300/616/52 329/617/52 328/618/49 

vt 1.20647 4.44089e-016
vt 1.2373 4.44089e-016
v 167.442 1 -74.6953
vt 1.2373 0.0393701
vt 1.20647 0.0393701
f 300/619/52 298/620/53 330/621/53 329/622/52 

vt 0.214956 4.44089e-016
vt 0.245789 4.44089e-016
v 167.545 1 -73.9189
vt 0.245789 0.0393701
vt 0.214956 0.0393701
f 298/623/53 248/624/58 331/625/58 330/626/53 

vt -0.792254 4.44089e-016
vt -0.761421 4.44089e-016
v 167.442 1 -73.1424
vt -0.761421 0.0393701
vt -0.792254 0.0393701
f 248/627/58 249/628/54 332/629/54 331/630/58 

vt -1.74652 4.44089e-016
vt -1.71569 4.44089e-016
v 167.143 1 -72.4189
vt -1.71569 0.0393701
vt -1.74652 0.0393701
f 249/631/54 250/632/51 333/633/51 332/634/54 

vt -2.58282 4.44089e-016
vt -2.55199 4.44089e-016
v 166.666 1 -71.7975
vt -2.55199 0.0393701
vt -2.58282 0.0393701
f 250/635/51 251/636/50 334/637/50 333/638/51 

vt -3.24415 4.44089e-016
vt -3.21332 4.44089e-016
v 166.045 1 -71.3208
vt -3.21332 0.0393701
vt -3.24415 0.0393701
f 251/639/50 252/640/48 335/641/48 334/642/50 

vt -3.68545 4.44089e-016
vt -3.65462 4.44089e-016
v 165.321 1 -71.0211
vt -3.65462 0.0393701
vt -3.68545 0.0393701
f 252/643/48 253/644/43 336/645/43 335/646/48 

vt -3.87665 4.44089e-016
vt -3.84582 4.44089e-016
v 164.545 1 -70.9189
vt -3.84582 0.0393701
vt -3.87665 0.0393701
f 253/647/43 254/648/44 337/649/44 336/650/43 

vt -3.8047 4.44089e-016
vt -3.77387 4.44089e-016
v 163.768 1 -71.0211
vt -3.77387 0.0393701
vt -3.8047 0.0393701
f 254/651/44 255/652/45 338/653/45 337/654/44 

vt -3.47453 4.44089e-016
vt -3.44369 4.44089e-016
vt -3.44369 0.0393701
vt -3.47453 0.0393701
f 255/655/45 256/656/40 277/657/40 338/658/45 

vt -3.80259 0.219913
f 277/447/29 103/659/29 338/446/29

v 162.813 1 -72.9189
vt -3.79008 0.23622
f 277/447/29 339/660/29 103/659/29

v 162.613 1 -73.4012
vt -3.78221 0.255211
f 277/447/29 340/661/29 339/660/29

f 276/501/29 340/661/29 277/447/29

v 162.545 1 -73.9189
vt -3.77953 0.275591
f 340/661/29 276/501/29 341/662/29

f 276/501/29 322/574/29 341/662/29

f 279/510/29 322/574/29 276/501/29

f 279/510/29 321/576/29 322/574/29

v 161.647 1 -73.1424
f 342/511/29 321/576/29 279/510/29

f 342/511/29 319/578/29 321/576/29

f 319/578/29 342/511/29 320/512/29

vt -0.245789 4.44089e-016
vt -0.214956 4.44089e-016
vt -0.214956 0.0393701
vt -0.245789 0.0393701
f 280/663/30 281/664/33 320/665/33 342/666/30 

vt -1.2373 4.44089e-016
vt -1.20647 4.44089e-016
vt -1.20647 0.0393701
vt -1.2373 0.0393701
f 278/667/36 280/668/30 342/669/30 279/670/36 

v 162.613 1 -74.4365
vt -3.78221 0.29597
f 341/662/29 322/574/29 343/671/29

f 343/671/29 322/574/29 323/572/29

v 162.813 1 -74.9189
vt -3.79008 0.314961
f 343/671/29 323/572/29 344/672/29

v 163.13 1 -75.3331
vt -3.80259 0.331268
f 344/672/29 323/572/29 345/673/29

f 345/673/29 323/572/29 324/570/29

v 163.545 1 -75.6509
vt -3.8189 0.343782
f 345/673/29 324/570/29 346/674/29

v 164.027 1 -75.8507
vt -3.83789 0.351648
f 346/674/29 324/570/29 347/675/29

f 347/675/29 324/570/29 325/568/29

v 164.545 1 -75.9189
vt -3.85827 0.354331
f 347/675/29 325/568/29 348/676/29

f 348/676/29 325/568/29 326/566/29

v 165.062 1 -75.8507
vt -3.87865 0.351648
f 348/676/29 326/566/29 349/677/29

v 165.545 1 -75.6509
vt -3.89764 0.343782
f 349/677/29 326/566/29 350/678/29

f 350/678/29 326/566/29 327/564/29

v 165.959 1 -75.3331
vt -3.91395 0.331268
f 350/678/29 327/564/29 351/679/29

v 166.277 1 -74.9189
vt -3.92646 0.314961
f 351/679/29 327/564/29 352/680/29

f 352/680/29 327/564/29 328/562/29

vt -3.93432 0.29597
f 352/680/29 328/562/29 113/681/29

vt -3.93701 0.275591
f 113/681/29 328/562/29 111/682/29

f 334/442/29 111/682/29 328/562/29

vt -3.93432 0.255211
f 334/442/29 110/683/29 111/682/29

vt -3.92646 0.23622
f 334/442/29 109/684/29 110/683/29

f 335/443/29 109/684/29 334/442/29

vt -3.91395 0.219913
f 335/443/29 108/685/29 109/684/29

vt -3.89764 0.2074
f 335/443/29 107/686/29 108/685/29

f 336/444/29 107/686/29 335/443/29

vt -3.87865 0.199533
f 336/444/29 106/687/29 107/686/29

f 337/445/29 106/687/29 336/444/29

vt -3.85827 0.19685
f 337/445/29 105/688/29 106/687/29

vt -3.83789 0.199533
f 337/445/29 104/689/29 105/688/29

f 338/446/29 104/689/29 337/445/29

vt -3.8189 0.2074
f 338/446/29 102/690/29 104/689/29

f 338/446/29 103/659/29 102/690/29

f 334/442/29 328/562/29 329/560/29

f 334/442/29 329/560/29 333/441/29

f 333/441/29 329/560/29 330/558/29

f 333/441/29 330/558/29 332/440/29

f 332/440/29 330/558/29 331/439/29

vt 1.23216 0.11811
vt 1.21161 0.11811
vt 1.21161 0.0393701
vt 1.23216 0.0393701
f 112/691/17 116/692/57 352/693/57 113/694/17 

vt 2.1404 0.11811
vt 2.11985 0.11811
vt 2.11985 0.0393701
vt 2.1404 0.0393701
f 116/695/57 118/696/56 351/697/56 352/698/57 

vt 2.90348 0.11811
vt 2.88292 0.11811
vt 2.88292 0.0393701
vt 2.90348 0.0393701
f 118/699/56 120/700/28 350/701/28 351/702/56 

vt 3.46939 0.11811
vt 3.44883 0.11811
vt 3.44883 0.0393701
vt 3.46939 0.0393701
f 120/703/28 122/704/18 349/705/18 350/706/28 

vt 3.79957 0.11811
vt 3.77901 0.11811
vn 5.64101e-015 2.59192e-016 1
vt 3.77901 0.0393701
vt 3.79957 0.0393701
f 122/707/18 124/708/60 348/709/60 349/710/18 

vt 3.87151 0.11811
vt 3.85095 0.11811
vt 3.85095 0.0393701
vt 3.87151 0.0393701
f 124/711/60 126/712/20 347/713/20 348/714/60 

vt 3.68032 0.11811
vt 3.65976 0.11811
vt 3.65976 0.0393701
vt 3.68032 0.0393701
f 126/715/20 128/716/21 346/717/21 347/718/20 

vt 3.23902 0.11811
vt 3.21846 0.11811
vt 3.21846 0.0393701
vt 3.23902 0.0393701
f 128/719/21 130/720/22 345/721/22 346/722/21 

vt 2.57768 0.11811
vt 2.55713 0.11811
vt 2.55713 0.0393701
vt 2.57768 0.0393701
f 130/723/22 132/724/23 344/725/23 345/726/22 

vt 1.74139 0.11811
vt 1.72083 0.11811
vt 1.72083 0.0393701
vt 1.74139 0.0393701
f 132/727/23 134/728/24 343/729/24 344/730/23 

vt 0.787115 0.11811
vt 0.76656 0.11811
vt 0.76656 0.0393701
vt 0.787115 0.0393701
f 134/731/24 136/732/4 341/733/4 343/734/24 

vt -0.220095 0.11811
v 162.613 3 -73.4012
vt -0.24065 0.11811
vt -0.24065 0.0393701
vt -0.220095 0.0393701
f 136/735/4 353/736/5 340/737/5 341/738/4 

vt 3.78221 0.255211
f 99/181/3 353/739/3 136/246/3

v 162.813 3 -72.9189
vt 3.79008 0.23622
f 99/181/3 354/740/3 353/739/3

f 99/181/3 101/182/3 354/740/3

vt -2.11985 0.11811
vt -2.1404 0.11811
vt -2.1404 0.0393701
vt -2.11985 0.0393701
f 354/741/6 101/742/7 103/743/7 339/744/6 

vt -1.21161 0.11811
vt -1.23216 0.11811
vt -1.23216 0.0393701
vt -1.21161 0.0393701
f 353/745/5 354/746/6 339/747/6 340/748/5 

vt 3.65754 0
vt 3.68837 0
v 161.545 1 -173.919
vt 3.68837 0.0393701
v 161.647 1 -173.142
vt 3.65754 0.0393701
f 317/749/30 282/750/31 355/751/31 356/752/30 

vt 4.66475 0
vt 4.69558 0
v 161.647 1 -174.695
vt 4.69558 0.0393701
vt 4.66475 0.0393701
f 282/753/31 283/754/34 357/755/34 355/756/31 

vt 5.35301 0
vt 5.38385 0
v 161.947 1 -175.419
vt 5.38385 0.0393701
vt 5.35301 0.0393701
f 283/757/34 284/758/35 358/759/35 357/760/34 

vt 5.67543 0
vt 5.70626 0
vt 5.70626 0.0393701
vt 5.67543 0.0393701
f 284/761/35 285/762/38 287/763/38 358/764/35 

v 161.947 1 -172.419
f 359/575/29 358/515/29 287/516/29

f 356/577/29 358/515/29 359/575/29

f 356/577/29 357/514/29 358/515/29

f 357/514/29 356/577/29 355/513/29

vt 2.40002 0
vt 2.43085 0
vt 2.43085 0.0393701
vt 2.40002 0.0393701
f 315/765/36 317/766/30 356/767/30 359/768/36 

vt 0.977898 0
vt 1.00873 0
vt 1.00873 0.0393701
v 162.423 1 -171.798
vt 0.977898 0.0393701
f 313/769/37 315/770/36 359/771/36 360/772/37 

f 359/575/29 287/516/29 360/573/29

v 162.545 1 -173.919
vt -3.77953 4.2126
f 360/573/29 287/516/29 361/773/29

v 162.613 1 -174.437
vt -3.78221 4.23298
f 361/773/29 287/516/29 362/774/29

f 362/774/29 287/516/29 286/430/29

v 162.813 1 -174.919
vt -3.79008 4.25197
f 362/774/29 286/430/29 363/775/29

v 163.13 1 -175.333
vt -3.80259 4.26828
f 363/775/29 286/430/29 364/776/29

f 364/776/29 286/430/29 288/431/29

v 163.545 1 -175.651
vt -3.8189 4.28079
f 364/776/29 288/431/29 365/777/29

v 164.027 1 -175.851
vt -3.83789 4.28866
f 365/777/29 288/431/29 366/778/29

f 366/778/29 288/431/29 289/432/29

v 164.545 1 -175.919
vt -3.85827 4.29134
f 366/778/29 289/432/29 367/779/29

f 367/779/29 289/432/29 290/433/29

v 165.062 1 -175.851
vt -3.87865 4.28866
f 367/779/29 290/433/29 368/780/29

v 165.545 1 -175.651
vt -3.89764 4.28079
f 368/780/29 290/433/29 369/781/29

f 369/781/29 290/433/29 291/434/29

v 165.959 1 -175.333
vt -3.91395 4.26828
f 369/781/29 291/434/29 370/782/29

v 166.277 1 -174.919
vt -3.92646 4.25197
f 370/782/29 291/434/29 371/783/29

f 371/783/29 291/434/29 292/435/29

v 166.476 1 -174.437
vt -3.93432 4.23298
f 371/783/29 292/435/29 372/784/29

v 166.545 1 -173.919
vt -3.93701 4.2126
f 372/784/29 292/435/29 373/785/29

v 166.666 1 -171.798
f 374/561/29 373/785/29 292/435/29

v 166.476 1 -173.401
vt -3.93432 4.19222
f 374/561/29 375/786/29 373/785/29

v 166.277 1 -172.919
vt -3.92646 4.17323
f 374/561/29 376/787/29 375/786/29

v 166.045 1 -171.321
f 377/563/29 376/787/29 374/561/29

v 165.959 1 -172.505
vt -3.91395 4.15692
f 377/563/29 378/788/29 376/787/29

v 165.545 1 -172.187
vt -3.89764 4.14441
f 377/563/29 379/789/29 378/788/29

v 165.321 1 -171.021
f 380/565/29 379/789/29 377/563/29

v 165.062 1 -171.987
vt -3.87865 4.13654
f 380/565/29 381/790/29 379/789/29

v 164.545 1 -170.919
f 382/567/29 381/790/29 380/565/29

v 164.545 1 -171.919
vt -3.85827 4.13386
f 382/567/29 383/791/29 381/790/29

v 164.027 1 -171.987
vt -3.83789 4.13654
f 382/567/29 384/792/29 383/791/29

v 163.768 1 -171.021
f 385/569/29 384/792/29 382/567/29

v 163.545 1 -172.187
vt -3.8189 4.14441
f 385/569/29 386/793/29 384/792/29

v 163.13 1 -172.505
vt -3.80259 4.15692
f 385/569/29 387/794/29 386/793/29

v 163.045 1 -171.321
f 388/571/29 387/794/29 385/569/29

v 162.813 1 -172.919
vt -3.79008 4.17323
f 388/571/29 389/795/29 387/794/29

v 162.613 1 -173.401
vt -3.78221 4.19222
f 388/571/29 390/796/29 389/795/29

f 360/573/29 390/796/29 388/571/29

f 390/796/29 360/573/29 361/773/29

vt 3.68323 0.11811
vt 3.66268 0.11811
vt 3.66268 0.0393701
vt 3.68323 0.0393701
f 135/797/25 133/798/5 390/799/5 361/800/25 

vt 2.42572 0.11811
vt 2.40516 0.11811
vt 2.40516 0.0393701
vt 2.42572 0.0393701
f 133/801/5 131/802/6 389/803/6 390/804/5 

vt 1.00359 0.11811
vt 0.983037 0.11811
vt 0.983037 0.0393701
vt 1.00359 0.0393701
f 131/805/6 129/806/7 387/807/7 389/808/6 

vt -0.486224 0.11811
vt -0.50678 0.11811
vt -0.50678 0.0393701
vt -0.486224 0.0393701
f 129/809/7 127/810/8 386/811/8 387/812/7 

vt -1.94221 0.11811
vt -1.96276 0.11811
vt -1.96276 0.0393701
vt -1.94221 0.0393701
f 127/813/8 125/814/9 384/815/9 386/816/8 

vt -3.26513 0.11811
vt -3.28568 0.11811
vt -3.28568 0.0393701
vt -3.26513 0.0393701
f 125/817/9 123/818/27 383/819/27 384/820/9 

vt -4.36484 0.11811
vt -4.38539 0.11811
vt -4.38539 0.0393701
vt -4.36484 0.0393701
f 123/821/27 121/822/11 381/823/11 383/824/27 

vt -5.16639 0.11811
vt -5.18694 0.11811
vt -5.18694 0.0393701
vt -5.16639 0.0393701
f 121/825/11 119/826/12 379/827/12 381/828/11 

vt -5.61516 0.11811
vt -5.63571 0.11811
vt -5.63571 0.0393701
vt -5.61516 0.0393701
f 119/829/12 117/830/13 378/831/13 379/832/12 

vt -5.68057 0.11811
vt -5.70112 0.11811
vt -5.70112 0.0393701
vt -5.68057 0.0393701
f 117/833/13 115/834/14 376/835/14 378/836/13 

vt -5.35815 0.11811
vt -5.37871 0.11811
vt -5.37871 0.0393701
vt -5.35815 0.0393701
f 115/837/14 114/838/15 375/839/15 376/840/14 

vt -4.66989 0.11811
v 166.545 3 -173.919
vt -4.69044 0.11811
vt -4.69044 0.0393701
vt -4.66989 0.0393701
f 114/841/15 391/842/26 373/843/26 375/844/15 

vt 3.93701 4.2126
f 114/223/3 12/14/3 391/845/3

f 12/14/3 11/4/3 391/845/3

v 168.545 3 -94.9189
f 392/3/3 391/845/3 11/4/3

f 9/103/3 391/845/3 392/3/3

v 166.476 3 -174.437
vt 3.93432 4.23298
f 9/103/3 393/846/3 391/845/3

v 166.277 3 -174.919
vt 3.92646 4.25197
f 9/103/3 394/847/3 393/846/3

v 165.959 3 -175.333
vt 3.91395 4.26828
f 9/103/3 395/848/3 394/847/3

v 165.545 3 -175.651
vt 3.89764 4.28079
f 9/103/3 396/849/3 395/848/3

v 165.062 3 -175.851
vt 3.87865 4.28866
f 9/103/3 397/850/3 396/849/3

v 164.545 3 -175.919
vt 3.85827 4.29134
f 9/103/3 398/851/3 397/850/3

v 164.027 3 -175.851
vt 3.83789 4.28866
f 9/103/3 399/852/3 398/851/3

f 9/103/3 140/250/3 399/852/3

vt 5.18694 0.11811
vt 5.16639 0.11811
vt 5.16639 0.0393701
vt 5.18694 0.0393701
f 399/853/20 140/854/21 365/855/21 366/856/20 

vt 5.63571 0.11811
vt 5.61516 0.11811
vt 5.61516 0.0393701
vt 5.63571 0.0393701
f 140/857/21 139/858/22 364/859/22 365/860/21 

vt 5.70112 0.11811
vt 5.68057 0.11811
vt 5.68057 0.0393701
vt 5.70112 0.0393701
f 139/861/22 138/862/23 363/863/23 364/864/22 

vt 5.37871 0.11811
vt 5.35815 0.11811
vt 5.35815 0.0393701
vt 5.37871 0.0393701
f 138/865/23 137/866/24 362/867/24 363/868/23 

vt 4.69044 0.11811
vt 4.66989 0.11811
vt 4.66989 0.0393701
vt 4.69044 0.0393701
f 137/869/24 135/870/25 361/871/25 362/872/24 

vt 4.38539 0.11811
vt 4.36484 0.11811
vt 4.36484 0.0393701
vt 4.38539 0.0393701
f 398/873/60 399/874/20 366/875/20 367/876/60 

vt 3.28568 0.11811
vt 3.26513 0.11811
vt 3.26513 0.0393701
vt 3.28568 0.0393701
f 397/877/18 398/878/60 367/879/60 368/880/18 

vt 1.96276 0.11811
vt 1.94221 0.11811
vt 1.94221 0.0393701
vt 1.96276 0.0393701
f 396/881/28 397/882/18 368/883/18 369/884/28 

vt 0.50678 0.11811
vt 0.486224 0.11811
vt 0.486224 0.0393701
vt 0.50678 0.0393701
f 395/885/56 396/886/28 369/887/28 370/888/56 

vt -0.983037 0.11811
vt -1.00359 0.11811
vt -1.00359 0.0393701
vt -0.983037 0.0393701
f 394/889/57 395/890/56 370/891/56 371/892/57 

vt -2.40516 0.11811
vt -2.42572 0.11811
vt -2.42572 0.0393701
vt -2.40516 0.0393701
f 393/893/17 394/894/57 371/895/57 372/896/17 

vt -3.66268 0.11811
vt -3.68323 0.11811
vt -3.68323 0.0393701
vt -3.66268 0.0393701
f 391/897/26 393/898/17 372/899/17 373/900/26 

f 9/103/3 392/3/3 10/2/3

vt -4.13386 0.11811
vn 0 -3.06518e-016 -1
vt -4.01575 0.11811
vt -4.01575 0.19685
vt -4.13386 0.19685
f 10/901/61 392/902/61 3/903/61 2/904/61 

vt -1.10236 0.11811
vn -1 -9.39989e-016 -2.45214e-015
vt -0.755906 0.11811
vt -0.755906 0.19685
vt -1.10236 0.19685
f 392/905/62 11/906/62 4/907/62 3/908/62 

vt 4.01575 0.11811
vn -5.76247e-031 3.06518e-016 1
vt 4.13386 0.11811
vt 4.13386 0.19685
vt 4.01575 0.19685
f 11/909/63 5/910/63 1/911/63 4/912/63 

vt -0.511919 0
vt -0.481086 0
vt -0.481086 0.0393701
vt -0.511919 0.0393701
f 311/913/40 313/914/37 360/915/37 388/916/40 

vt -1.9679 0
vt -1.93707 0
vt -1.93707 0.0393701
vt -1.9679 0.0393701
f 309/917/45 311/918/40 388/919/40 385/920/45 

vt -3.29082 0
vt -3.25999 0
vt -3.25999 0.0393701
vt -3.29082 0.0393701
f 307/921/44 309/922/45 385/923/45 382/924/44 

vt -4.39053 0
vt -4.3597 0
vt -4.3597 0.0393701
vt -4.39053 0.0393701
f 305/925/43 307/926/44 382/927/44 380/928/43 

vt -5.19208 0
vt -5.16125 0
vt -5.16125 0.0393701
vt -5.19208 0.0393701
f 303/929/48 305/930/43 380/931/43 377/932/48 

vt -5.64085 0
vt -5.61002 0
vt -5.61002 0.0393701
vt -5.64085 0.0393701
f 301/933/50 303/934/48 377/935/48 374/936/50 

vt -5.70626 0
vt -5.67543 0
vt -5.67543 0.0393701
v 167.143 1 -172.419
vt -5.70626 0.0393701
f 299/937/51 301/938/50 374/939/50 400/940/51 

f 374/561/29 293/436/29 400/559/29

f 374/561/29 292/435/29 293/436/29

f 400/559/29 293/436/29 294/437/29

f 400/559/29 294/437/29 297/557/29

f 297/557/29 294/437/29 295/438/29

vt -5.38385 0
vt -5.35301 0
vt -5.35301 0.0393701
vt -5.38385 0.0393701
f 296/941/54 299/942/51 400/943/51 297/944/54 

f 257/350/58 258/351/54 272/352/54 273/353/58 

f 258/453/54 259/454/51 271/455/51 272/456/54 

vt -0.401826 1.11022e-015
vt -0.370993 1.11022e-015
vt -0.370993 0.0393701
vt -0.401826 0.0393701
f 259/945/51 260/946/50 263/947/50 271/948/51 

f 260/945/50 261/946/48 262/947/48 263/948/50 

vn 2.14855e-016 2.59192e-016 1
vt 8.88178e-016 1.55431e-015
vt 4.13386 1.55431e-015
f 6/910/64 28/6/64 192/949/64 7/950/64 

vt 1.75764e-031 0.11811
vn -1 9.20205e-017 1.97892e-016
vt -4.48819 0.11811
vt -4.48819 8.17306e-032
vt 1.75764e-031 1.55431e-015
f 28/951/65 72/952/65 186/953/65 192/954/65 

vt 0 0.11811
vn 0 -2.59192e-016 -1
vt -4.13386 1.1633e-015
vt 0 1.1633e-015
f 72/955/66 9/901/66 8/956/66 186/957/66 

vt 4.19711 0
vt 4.22795 0
vt 4.22795 0.0393701
vt 4.19711 0.0393701
f 158/958/31 191/959/34 155/960/34 156/961/31 

vt 3.98198 0
vt 4.01281 0
vt 4.01281 0.0393701
vt 3.98198 0.0393701
f 191/962/34 190/963/35 153/964/35 155/965/34 

vt 3.49443 0
vt 3.52526 0
vt 3.52526 0.0393701
vt 3.49443 0.0393701
f 190/966/35 189/967/38 150/968/38 153/969/35 

vt 2.76769 0
vt 2.79852 0
vt 2.79852 0.0393701
vt 2.76769 0.0393701
f 189/970/38 188/971/39 149/972/39 150/973/38 

vt 1.85129 0
vt 1.88212 0
vt 1.88212 0.0393701
vt 1.85129 0.0393701
f 188/974/39 187/975/46 148/976/46 149/977/39 

vt 0.807671 0
vt 0.838504 0
vt 0.838504 0.0393701
vt 0.807671 0.0393701
f 187/978/46 185/979/59 147/980/59 148/981/46 

vt -0.292038 0
vt -0.261205 0
vt -0.261205 0.0393701
vt -0.292038 0.0393701
f 185/982/59 183/983/41 146/984/41 147/985/59 

vt -2.33555 0.11811
vt -2.3561 0.11811
vt -2.3561 0.0393701
vt -2.33555 0.0393701
f 143/986/56 144/987/28 145/988/28 182/989/56 

vt -3.16403 0.11811
vt -3.18459 0.11811
vt -3.18459 0.0393701
vt -3.16403 0.0393701
f 142/990/57 143/991/56 182/992/56 180/993/57 

vt -3.77619 0.11811
vt -3.79675 0.11811
vt -3.79675 0.0393701
vt -3.77619 0.0393701
f 141/994/17 142/995/57 180/996/57 179/997/17 

vt -4.13031 0.11811
vt -4.15086 0.11811
vt -4.15086 0.0393701
vt -4.13031 0.0393701
f 99/998/26 141/999/17 179/1000/17 100/1001/26 

