# Alias OBJ Model File
# Exported from SketchUp, (c) 2000-2012 Trimble Navigation Limited
# File units = millimeters

mtllib body.mtl

g Mesh1 OuterShell Model

usemtl FrontColor
v 59.5555 2 -229.345
vt -0.19685 0.748031
vn -2.64332e-034 -1 -9.06514e-031
v 166.556 2 -229.345
vt -4.40945 0.748031
v 166.556 2 -226.345
vt -4.40945 0.629921
v 161.806 2 -226.345
vt -4.22244 0.629921
v 161.806 2 -227.345
vt -4.22244 0.669291
v 149.306 2 -227.345
vt -3.73031 0.669291
v 149.306 2 -226.345
vt -3.73031 0.629921
v 141.806 2 -226.345
vt -3.43504 0.629921
v 141.806 2 -227.345
vt -3.43504 0.669291
v 129.306 2 -227.345
vt -2.94291 0.669291
v 129.306 2 -226.345
vt -2.94291 0.629921
v 121.306 2 -226.345
vt -2.62795 0.629921
v 121.306 2 -227.345
vt -2.62795 0.669291
v 108.806 2 -227.345
vt -2.13583 0.669291
v 108.806 2 -226.345
vt -2.13583 0.629921
v 102.306 2 -226.345
vt -1.87992 0.629921
v 102.306 2 -227.345
vt -1.87992 0.669291
v 89.8055 2 -227.345
vt -1.3878 0.669291
v 89.8055 2 -226.345
vt -1.3878 0.629921
v 79.3055 2 -226.345
vt -0.974409 0.629921
v 79.3055 2 -227.345
vt -0.974409 0.669291
v 66.8055 2 -227.345
vt -0.482283 0.669291
v 66.8055 2 -226.345
vt -0.482283 0.629921
v 59.5555 2 -226.345
vt -0.19685 0.629921
f 1/1/1 2/2/1 3/3/1 4/4/1 5/5/1 6/6/1 7/7/1 8/8/1 9/9/1 10/10/1 11/11/1 12/12/1 13/13/1 14/14/1 15/15/1 16/16/1 17/17/1 18/18/1 19/19/1 20/20/1 21/21/1 22/22/1 23/23/1 24/24/1 

v 166.556 32 -229.345
vt -4.40945 1.37795
vn 0 0 -1
vt -4.40945 0.19685
vt -0.19685 0.19685
v 59.5555 32 -229.345
vt -0.19685 1.37795
f 25/25/2 2/26/2 1/27/2 26/28/2 

v 166.556 -2.07973e-014 -213.245
vt -0.114173 0.11811
vn -1 2.08208e-016 -1.20175e-016
v 166.556 0 -226.345
vt -0.629921 0.11811
vt -0.629921 0.19685
vt -0.748031 0.19685
vt -0.748031 1.37795
v 166.556 32 -285.345
vt -2.95276 1.37795
v 166.556 2 -285.345
vt -2.95276 0.19685
v 166.556 2 -288.345
vt -3.07087 0.19685
v 166.556 -3 -288.345
vt -3.07087 1.26503e-015
v 166.556 -3 -276.845
vt -2.61811 2.63893e-015
v 166.556 11 -276.845
vt -2.61811 0.551181
v 166.556 11 -263.845
vt -2.1063 0.551181
v 166.556 -3 -263.845
vt -2.1063 2.63893e-015
v 166.556 -3 -245.845
vt -1.39764 2.63893e-015
v 166.556 11 -245.845
vt -1.39764 0.551181
v 166.556 11 -236.345
vt -1.02362 0.551181
v 166.556 -3 -236.345
vt -1.02362 2.63893e-015
v 166.556 -3 -213.245
vt -0.114173 1.80626e-015
f 27/29/3 28/30/3 3/31/3 2/32/3 25/33/3 29/34/3 30/35/3 31/36/3 32/37/3 33/38/3 34/39/3 35/40/3 36/41/3 37/42/3 38/43/3 39/44/3 40/45/3 41/46/3 

v 161.806 0 -226.345
vn 2.25597e-015 -1 -2.60305e-015
vt -4.40945 0.114173
v 161.806 -4.37095e-014 -213.245
vt -4.22244 0.114173
f 42/4/4 28/3/4 27/47/4 43/48/4 

vt -4.40945 0.11811
vn -2.68988e-061 9.06514e-031 -1
vt -4.22244 0.11811
vt -4.22244 0.19685
f 28/49/5 42/50/5 4/51/5 3/26/5 

v 161.806 15 -210.345
vt 0 0.708661
vn -1 0 -0
v 161.806 15 -227.345
vt -0.669291 0.708661
vt -0.669291 0.19685
v 161.806 3 -213.245
vt -0.114173 0.23622
v 161.806 3 -210.345
vt -1.77636e-015 0.23622
f 44/52/6 45/53/6 5/54/6 4/31/6 42/30/6 43/29/6 46/55/6 47/56/6 

v 149.306 15 -210.345
vt -3.73031 0
vn 0 -1 -0
v 149.306 15 -227.345
vt -4.22244 0
f 48/57/7 49/6/7 45/5/7 44/58/7 

v 149.306 -4.37095e-014 -213.245
vt 0.114173 0.11811
vn 1 0 -0
v 149.306 0 -226.345
vt 0.629921 0.11811
vt 0.629921 0.19685
vt 0.669291 0.19685
vt 0.669291 0.708661
v 149.306 3 -210.345
vt 1.77636e-015 0.23622
v 149.306 3 -213.245
vt 0.114173 0.23622
f 50/59/8 51/60/8 7/61/8 6/62/8 49/63/8 48/52/8 52/64/8 53/65/8 

v 141.806 -4.37095e-014 -213.245
vt -3.43504 0.114173
v 141.806 0 -226.345
vt -3.73031 0.114173
f 54/66/7 55/8/7 51/7/7 50/67/7 

v 141.806 15 -210.345
v 141.806 15 -227.345
v 141.806 3 -213.245
v 141.806 3 -210.345
f 56/52/6 57/53/6 9/54/6 8/31/6 55/30/6 54/29/6 58/55/6 59/56/6 

v 129.306 15 -210.345
vt -2.94291 0
v 129.306 15 -227.345
vt -3.43504 0
f 60/68/7 61/10/7 57/9/7 56/69/7 

v 129.306 -4.37095e-014 -213.245
v 129.306 0 -226.345
v 129.306 3 -210.345
v 129.306 3 -213.245
f 62/59/8 63/60/8 11/61/8 10/62/8 61/63/8 60/52/8 64/64/8 65/65/8 

v 121.306 -4.37095e-014 -213.245
vt -2.62795 0.114173
v 121.306 0 -226.345
vt -2.94291 0.114173
f 66/70/7 67/12/7 63/11/7 62/71/7 

v 121.306 15 -210.345
v 121.306 15 -227.345
v 121.306 3 -213.245
v 121.306 3 -210.345
f 68/52/6 69/53/6 13/54/6 12/31/6 67/30/6 66/29/6 70/55/6 71/56/6 

v 108.806 15 -210.345
vt -2.13583 0
v 108.806 15 -227.345
vt -2.62795 0
f 72/72/7 73/14/7 69/13/7 68/73/7 

v 108.806 3.52496e-016 -213.245
vn 1 -2.61646e-016 4.75445e-016
v 108.806 3.52496e-016 -226.345
vt 1.01547e-015 0.708661
v 108.806 3 -210.345
vt 1.01547e-015 0.23622
v 108.806 3 -213.245
f 74/59/9 75/60/9 15/61/9 14/62/9 73/63/9 72/74/9 76/75/9 77/65/9 

v 102.306 0 -213.245
vt -1.87992 0.114173
v 102.306 0 -226.345
vt -2.13583 0.114173
f 78/76/7 79/16/7 75/15/7 74/77/7 

v 102.306 15 -210.345
v 102.306 15 -227.345
v 102.306 3 -213.245
v 102.306 3 -210.345
vt 0 0.23622
f 80/52/6 81/53/6 17/54/6 16/31/6 79/30/6 78/29/6 82/55/6 83/78/6 

v 89.8055 15 -210.345
vt -1.3878 0
v 89.8055 15 -227.345
vt -1.87992 0
f 84/79/7 85/18/7 81/17/7 80/80/7 

v 89.8055 0 -213.245
v 89.8055 0 -226.345
v 89.8055 3 -210.345
v 89.8055 3 -213.245
f 86/59/8 87/60/8 19/61/8 18/62/8 85/63/8 84/52/8 88/78/8 89/65/8 

v 79.3055 0 -213.245
vt -0.974409 0.114173
v 79.3055 0 -226.345
vt -1.3878 0.114173
f 90/81/7 91/20/7 87/19/7 86/82/7 

v 79.3055 15 -210.345
v 79.3055 15 -227.345
v 79.3055 3 -213.245
v 79.3055 3 -210.345
f 92/52/6 93/53/6 21/54/6 20/31/6 91/30/6 90/29/6 94/55/6 95/78/6 

v 66.8055 15 -210.345
vt -0.482283 0
v 66.8055 15 -227.345
vt -0.974409 0
f 96/83/7 97/22/7 93/21/7 92/84/7 

v 66.8055 0 -213.245
v 66.8055 0 -226.345
v 66.8055 3 -210.345
v 66.8055 3 -213.245
f 98/59/8 99/60/8 23/61/8 22/62/8 97/63/8 96/52/8 100/78/8 101/65/8 

vt -0.482283 0.114173
vn -1.30909e-031 -1 -2.85315e-032
v 59.5555 0 -213.245
vt -0.19685 0.114173
v 59.5555 0 -226.345
f 98/85/10 102/86/10 103/24/10 99/23/10 

vt 0.482283 0.11811
vn 0 0 1
vt 0.482283 0.23622
v 57.4555 3 -213.245
v 57.4555 -3 -213.245
vt 0.114173 1.72085e-015
v 59.5555 -3 -213.245
vt 0.19685 1.72085e-015
vt 0.19685 0.11811
f 98/87/11 101/88/11 104/65/11 105/89/11 106/90/11 102/91/11 

v 54.5555 3 -210.345
vt 0 0
v 54.5555 3 -293.345
vt 0 3.26772
v 171.556 3 -293.345
vt -4.6063 3.26772
v 171.556 3 -276.845
vt -4.6063 2.61811
v 168.656 3 -276.845
vt -4.49213 2.61811
v 168.656 3 -290.445
vt -4.49213 3.15354
v 57.4555 3 -290.445
vt -0.114173 3.15354
vt -0.114173 0.114173
f 101/85/7 100/83/7 107/92/7 108/93/7 109/94/7 110/95/7 111/96/7 112/97/7 113/98/7 104/99/7 

vt 4.22244 0.23622
vn 4.19742e-016 -4.32351e-016 1
v 171.556 3 -210.345
vt 4.6063 0.23622
v 171.556 18 -210.345
vt 4.6063 0.826772
v 168.181 18 -210.345
vt 4.47343 0.826772
v 168.181 20 -210.345
vt 4.47343 0.905512
v 166.181 20 -210.345
vt 4.39469 0.905512
v 166.181 18 -210.345
vt 4.39469 0.826772
v 146.556 18 -210.345
vt 3.62205 0.826772
v 146.556 20 -210.345
vt 3.62205 0.905512
v 144.556 20 -210.345
vt 3.54331 0.905512
v 144.556 18 -210.345
vt 3.54331 0.826772
v 126.306 18 -210.345
vt 2.8248 0.826772
v 126.306 20 -210.345
vt 2.8248 0.905512
v 124.306 20 -210.345
vt 2.74606 0.905512
v 124.306 18 -210.345
vt 2.74606 0.826772
v 106.556 18 -210.345
vt 2.04724 0.826772
v 106.556 20 -210.345
vt 2.04724 0.905512
v 104.556 20 -210.345
vt 1.9685 0.905512
v 104.556 18 -210.345
vt 1.9685 0.826772
v 85.5555 18 -210.345
vt 1.22047 0.826772
v 85.5555 20 -210.345
vt 1.22047 0.905512
v 83.5555 20 -210.345
vt 1.14173 0.905512
v 83.5555 18 -210.345
vt 1.14173 0.826772
v 61.6805 18 -210.345
vt 0.280512 0.826772
v 61.6805 20 -210.345
vt 0.280512 0.905512
v 59.6805 20 -210.345
vt 0.201772 0.905512
v 59.6805 18 -210.345
vt 0.201772 0.826772
v 54.5555 18 -210.345
vt 0 0.826772
vt 0.482283 0.708661
vt 0.974409 0.708661
vt 0.974409 0.23622
vt 1.3878 0.23622
vt 1.3878 0.708661
vt 1.87992 0.708661
vt 1.87992 0.23622
vt 2.13583 0.23622
vt 2.13583 0.708661
vt 2.62795 0.708661
vt 2.62795 0.23622
vt 2.94291 0.23622
vt 2.94291 0.708661
vt 3.43504 0.708661
vt 3.43504 0.23622
vt 3.73031 0.23622
vt 3.73031 0.708661
vt 4.22244 0.708661
f 47/100/12 114/101/12 115/102/12 116/103/12 117/104/12 118/105/12 119/106/12 120/107/12 121/108/12 122/109/12 123/110/12 124/111/12 125/112/12 126/113/12 127/114/12 128/115/12 129/116/12 130/117/12 131/118/12 132/119/12 133/120/12 134/121/12 135/122/12 136/123/12 137/124/12 138/125/12 139/126/12 140/127/12 107/78/12 100/88/12 96/128/12 92/129/12 95/130/12 88/131/12 84/132/12 80/133/12 83/134/12 76/135/12 72/136/12 68/137/12 71/138/12 64/139/12 60/140/12 56/141/12 59/142/12 52/143/12 48/144/12 44/145/12 

vn 1.44925e-015 -1 -3.2135e-016
v 168.656 3 -213.245
vt -4.49213 0.114173
v 168.656 3 -236.345
vt -4.49213 1.02362
v 171.556 3 -236.345
vt -4.6063 1.02362
vt -4.6063 1.85227e-015
vt -4.22244 1.85227e-015
f 46/48/13 141/146/13 142/147/13 143/148/13 114/149/13 47/150/13 

v 168.656 -3 -213.245
vt 4.49213 1.71714e-015
vn 0 1.50398e-014 1
vt 4.49213 0.23622
vt 4.22244 0.11811
vt 4.40945 0.11811
vt 4.40945 2.60532e-015
f 144/151/14 141/152/14 46/100/14 43/153/14 27/154/14 41/155/14 

v 168.656 -3 -236.345
vt 1.02362 1.72085e-015
vt 1.02362 0.23622
vt 0.114173 0
f 145/156/8 142/157/8 141/65/8 144/158/8 

vt -4.49213 0.23622
vt -4.49213 1.72085e-015
vt -4.40945 1.72085e-015
vt -4.40945 0.551181
v 171.556 11 -236.345
vt -4.6063 0.551181
vt -4.6063 0.23622
f 142/159/2 145/160/2 40/161/2 39/162/2 146/163/2 143/164/2 

vn -4.61356e-015 -1 -1.59886e-015
vt -4.40945 1.02362
f 144/146/15 41/47/15 40/165/15 145/147/15 

vt -4.40945 1.39764
v 171.556 11 -245.845
vt -4.6063 1.39764
f 146/148/7 39/165/7 38/166/7 147/167/7 

vt 4.40945 1.72085e-015
v 168.656 -3 -245.845
vt 4.49213 1.72085e-015
v 168.656 3 -245.845
v 171.556 3 -245.845
vt 4.6063 0.551181
vt 4.40945 0.551181
f 37/168/11 148/169/11 149/152/11 150/101/11 147/170/11 38/171/11 

v 168.656 -3 -263.845
vt -4.49213 2.1063
vt -4.49213 1.39764
vt -4.40945 2.1063
f 151/172/7 148/173/7 37/166/7 36/174/7 

vt 2.1063 1.72085e-015
v 168.656 3 -263.845
vt 2.1063 0.23622
vt 1.39764 0.23622
vt 1.39764 1.72085e-015
f 151/175/8 152/176/8 149/177/8 148/178/8 

v 171.556 11 -263.845
v 171.556 3 -263.845
f 151/160/2 36/161/2 35/162/2 153/163/2 154/164/2 152/159/2 

vt -4.6063 2.1063
vt -4.40945 2.61811
v 171.556 11 -276.845
f 153/179/7 35/174/7 34/180/7 155/95/7 

v 168.656 -3 -276.845
f 34/171/11 33/168/11 156/169/11 111/152/11 110/101/11 155/170/11 

v 59.5555 -3 -288.345
vt -0.19685 3.07087
vn -1.13311e-033 -1 8.78338e-033
v 57.4555 -3 -290.445
v 168.656 -3 -290.445
vt -4.40945 3.07087
f 157/181/16 106/86/16 105/99/16 158/98/16 159/97/16 156/96/16 33/180/16 32/182/16 

vt 3.07087 3.46945e-016
v 59.5555 2 -288.345
vt 3.07087 0.19685
v 59.5555 2 -285.345
vt 2.95276 0.19685
v 59.5555 32 -285.345
vt 2.95276 1.37795
vt 0.748031 1.37795
vt 0.748031 0.19685
f 24/61/8 103/60/8 102/59/8 106/89/8 157/183/8 160/184/8 161/185/8 162/186/8 26/187/8 1/188/8 

vt -0.482283 0.11811
vn 1.58228e-061 9.06514e-031 -1
vt -0.19685 0.11811
vt -0.482283 0.19685
f 99/189/17 103/190/17 24/27/17 23/191/17 

vt 0.19685 0.19685
vn -5.03799e-016 1.62197e-014 1
vt 0.19685 5.01556e-014
vt 4.40945 5.01556e-014
vt 4.40945 0.19685
f 160/192/18 157/193/18 32/194/18 31/195/18 

vn -5.51549e-017 -1 -5.78234e-030
vt -4.40945 2.95276
vt -0.19685 2.95276
f 160/181/19 31/182/19 30/196/19 161/197/19 

v 80.2702 32 -285.345
vt 1.01239 1.37795
v 80.2702 29 -285.345
vt 1.01239 1.25984
v 74.2702 29 -285.345
vt 0.776168 1.25984
v 74.2702 32 -285.345
vt 0.776168 1.37795
vt 0.19685 1.37795
vt 4.40945 1.37795
f 163/198/11 164/199/11 165/200/11 166/201/11 162/202/11 161/192/11 30/195/11 29/203/11 

v 80.2702 29 -267.123
vt 2.23536 1.25984
vt 2.95276 1.25984
v 80.2702 32 -282.123
vt 2.82591 1.37795
v 80.2702 32 -270.123
vt 2.35347 1.37795
v 80.2702 32 -267.123
vt 2.23536 1.37795
f 167/204/8 164/205/8 163/186/8 168/206/8 169/207/8 170/208/8 

v 74.2702 29 -267.123
vt -0.776168 2.23536
vn 9.39989e-016 -1 -3.47673e-016
vt -0.776168 2.95276
vt -1.01239 2.95276
vt -1.01239 2.23536
f 171/209/20 165/210/20 164/211/20 167/212/20 

vn -1 -1.01848e-015 -5.29756e-016
vt -2.95276 1.25984
vt -2.23536 1.25984
v 74.2702 32 -267.123
vt -2.23536 1.37795
v 74.2702 32 -270.123
vt -2.35347 1.37795
v 74.2702 32 -282.123
vt -2.82591 1.37795
f 166/34/21 165/213/21 171/214/21 172/215/21 173/216/21 174/217/21 

f 170/198/11 172/201/11 171/200/11 167/199/11 

v 77.8055 32 -262.721
vt -0.915354 2.06205
f 170/212/7 175/218/7 172/209/7

v 149.306 32 -262.721
vt -3.73031 2.06205
f 175/218/7 170/212/7 176/219/7

v 83.2702 32 -270.123
vt -1.1305 2.35347
f 176/219/7 170/212/7 177/220/7

vt -1.01239 2.35347
f 177/220/7 170/212/7 169/221/7

vt -0.776168 1.37795
v 71.2702 32 -270.123
vt -0.658057 1.37795
v 71.2702 35 -270.123
vt -0.658057 1.49606
v 83.2702 35 -270.123
vt -1.1305 1.49606
vt -1.1305 1.37795
vt -1.01239 1.37795
f 173/222/2 178/223/2 179/224/2 180/225/2 177/226/2 169/227/2 

vt -0.658057 2.35347
vt -0.776168 2.35347
f 172/209/7 178/228/7 173/229/7

v 77.8055 32 -238.721
vt -0.915354 1.11717
f 181/230/7 178/228/7 172/209/7

f 181/230/7 26/1/7 178/228/7

f 26/1/7 181/230/7 25/2/7

v 149.306 32 -238.721
vt -3.73031 1.11717
f 25/2/7 181/230/7 182/231/7

vt -0.915354 1.37795
v 77.8055 35 -238.721
vt -0.915354 1.49606
v 149.306 35 -238.721
vt -3.73031 1.49606
vt -3.73031 1.37795
f 181/232/2 183/233/2 184/234/2 182/235/2 

vt 2.06205 1.37795
v 77.8055 35 -262.721
vt 2.06205 1.49606
vt 1.11717 1.49606
vt 1.11717 1.37795
f 175/236/8 185/237/8 183/238/8 181/239/8 

vt 3.73031 1.37795
v 149.306 35 -262.721
vt 3.73031 1.49606
vt 0.915354 1.49606
vt 0.915354 1.37795
f 176/240/11 186/241/11 185/242/11 175/243/11 

vt -1.11717 1.37795
vt -1.11717 1.49606
vt -2.06205 1.49606
vt -2.06205 1.37795
f 182/244/6 184/245/6 186/246/6 176/247/6 

vt 3.73031 1.11717
vn 2.3898e-017 1 3.48144e-017
v 171.556 35 -226.345
vt 4.6063 0.629921
vt 3.73031 2.06205
f 184/248/22 187/249/22 186/250/22

vt 0.915354 1.11717
f 183/251/22 187/249/22 184/248/22

v 54.5555 35 -226.345
vt -3.57529e-017 0.629921
f 183/251/22 188/252/22 187/249/22

v 54.5555 35 -293.345
vt -3.57529e-017 3.26772
f 188/252/22 183/251/22 189/253/22

vt 0.658057 2.35347
f 189/253/22 183/251/22 179/254/22

vt 0.915354 2.06205
f 185/255/22 179/254/22 183/251/22

vt 1.1305 2.35347
f 179/254/22 185/255/22 180/256/22

f 180/256/22 185/255/22 186/250/22

v 83.2702 35 -282.123
vt 1.1305 2.82591
f 180/256/22 186/250/22 190/257/22

v 171.556 35 -293.345
vt 4.6063 3.26772
f 191/258/22 190/257/22 186/250/22

v 71.2702 35 -282.123
vt 0.658057 2.82591
f 191/258/22 192/259/22 190/257/22

f 189/253/22 192/259/22 191/258/22

f 192/259/22 189/253/22 179/254/22

v 71.2702 32 -282.123
vt 2.82591 1.49606
vt 2.35347 1.49606
f 178/207/8 193/206/8 192/260/8 179/261/8 

vt -0.658057 2.82591
f 178/228/7 26/1/7 193/262/7

f 162/197/7 193/262/7 26/1/7

f 193/262/7 162/197/7 166/210/7

vt -0.776168 2.82591
f 193/262/7 166/210/7 174/263/7

v 83.2702 32 -282.123
vt 1.1305 1.37795
vt 1.1305 1.49606
vt 0.658057 1.49606
vt 0.658057 1.37795
f 168/198/11 194/264/11 190/265/11 192/266/11 193/267/11 174/201/11 

vt -1.01239 2.82591
vt -1.1305 2.82591
f 168/268/7 29/196/7 194/269/7

f 29/196/7 168/268/7 163/211/7

f 194/269/7 29/196/7 177/220/7

f 177/220/7 29/196/7 176/219/7

f 176/219/7 29/196/7 182/231/7

f 25/2/7 182/231/7 29/196/7

vt -2.35347 1.49606
vt -2.82591 1.49606
f 194/217/6 177/216/6 180/270/6 190/271/6 

vt 0.776168 2.35347
vn 0 1 -0
vt 1.01239 2.35347
vt 1.01239 2.82591
vt 0.776168 2.82591
f 173/272/23 169/273/23 168/274/23 174/275/23 

vt 0 1.49606
vt -4.6063 1.49606
f 189/276/2 191/277/2 109/164/2 108/78/2 

vt 1.39764 0.551181
vt 2.1063 0.551181
vt 2.61811 0.551181
vt 2.61811 0.23622
vt 3.26772 0.23622
vt 3.26772 1.49606
vt 0.629921 1.49606
v 171.556 18 -226.345
vt 0.629921 0.826772
vt 1.77636e-015 0.826772
vt 1.02362 0.551181
f 147/278/8 150/177/8 154/176/8 153/279/8 155/280/8 110/281/8 109/282/8 191/283/8 187/284/8 195/285/8 115/286/8 114/64/8 143/157/8 146/287/8 

f 149/173/7 152/172/7 154/179/7 150/167/7 

f 191/258/22 186/250/22 187/249/22

v 168.181 18 -226.345
vn 2.18786e-016 -1.08525e-015 1
vt 4.6063 1.49606
vt 1.37818e-016 1.49606
v 54.5555 18 -226.345
vt 1.37818e-016 0.826772
v 59.6805 18 -226.345
v 59.6805 20 -226.345
v 61.6805 20 -226.345
v 61.6805 18 -226.345
v 83.5555 18 -226.345
v 83.5555 20 -226.345
v 85.5555 20 -226.345
v 85.5555 18 -226.345
v 104.556 18 -226.345
v 104.556 20 -226.345
v 106.556 20 -226.345
v 106.556 18 -226.345
v 124.306 18 -226.345
v 124.306 20 -226.345
v 126.306 20 -226.345
v 126.306 18 -226.345
v 144.556 18 -226.345
v 144.556 20 -226.345
v 146.556 20 -226.345
v 146.556 18 -226.345
v 166.181 18 -226.345
v 166.181 20 -226.345
v 168.181 20 -226.345
f 196/103/24 195/102/24 187/288/24 188/289/24 197/290/24 198/126/24 199/125/24 200/124/24 201/123/24 202/122/24 203/121/24 204/120/24 205/119/24 206/118/24 207/117/24 208/116/24 209/115/24 210/114/24 211/113/24 212/112/24 213/111/24 214/110/24 215/109/24 216/108/24 217/107/24 218/106/24 219/105/24 220/104/24 

vn -1.28913e-015 1 7.04992e-016
vt 4.47343 0.629921
vt 4.47343 2.35922e-015
vt 4.6063 2.35922e-015
f 195/249/25 196/291/25 116/292/25 115/293/25 

vt 0.629921 0.905512
vt 1.77636e-015 0.905512
f 116/286/8 196/285/8 220/294/8 117/295/8 

vt 4.39469 2.09555e-015
vn 0 1 3.52496e-016
vt 4.47343 2.09555e-015
vt 4.39469 0.629921
f 118/296/26 117/297/26 220/291/26 219/298/26 

vt -0.629921 0.826772
vt -1.77636e-015 0.826772
vt -1.77636e-015 0.905512
vt -0.629921 0.905512
f 218/299/6 119/300/6 118/301/6 219/302/6 

vt 3.62205 1.92207e-015
vn -1.43693e-016 1 1.76248e-016
vt 4.39469 1.92207e-015
vt 3.62205 0.629921
f 120/303/27 119/304/27 218/298/27 217/305/27 

vn 1 -1.40998e-015 -2.48507e-031
f 120/286/28 217/285/28 216/294/28 121/295/28 

vt 3.54331 2.01575e-015
vn 1.40998e-015 1 2.64372e-016
vt 3.62205 2.01575e-015
vt 3.54331 0.629921
f 122/306/29 121/307/29 216/305/29 215/308/29 

vn -1 1.40998e-015 4.97013e-031
f 214/299/30 123/300/30 122/301/30 215/302/30 

vt 2.8248 2.06779e-015
vt 3.54331 2.06779e-015
vt 2.8248 0.629921
f 124/309/26 123/310/26 214/308/26 213/311/26 

vn 1 1.40998e-015 4.97013e-031
f 124/286/31 213/285/31 212/294/31 125/295/31 

vn -1.40998e-015 1 2.64372e-016
vt 2.74606 0.629921
vt 2.74606 2.01575e-015
vt 2.8248 2.01575e-015
f 212/311/32 211/312/32 126/313/32 125/314/32 

vn -1 -1.40998e-015 -2.48507e-031
f 210/299/33 127/300/33 126/301/33 211/302/33 

vt 2.04724 2.91434e-016
vn 3.00796e-016 1 3.52496e-016
vt 2.74606 2.06779e-015
vt 2.04724 0.629921
f 128/315/34 127/316/34 210/312/34 209/317/34 

vt 0 0.905512
f 128/127/8 209/285/8 208/294/8 129/318/8 

vt 1.9685 4.78784e-016
vn 0 1 5.28744e-016
vt 2.04724 4.78784e-016
vt 1.9685 0.629921
f 130/319/35 129/320/35 208/317/35 207/321/35 

f 206/299/6 131/127/6 130/318/6 207/302/6 

vn 2.96839e-016 1 7.04992e-016
vt 1.22047 0.629921
vt 1.22047 5.82867e-016
vt 1.9685 5.82867e-016
f 206/321/36 205/322/36 132/323/36 131/324/36 

f 132/127/8 205/285/8 204/294/8 133/318/8 

vt 1.14173 9.57567e-016
vn 0 1 1.05749e-015
vt 1.22047 9.57567e-016
vt 1.14173 0.629921
f 134/325/37 133/326/37 204/322/37 203/327/37 

f 202/299/6 135/127/6 134/318/6 203/302/6 

vt 1.14173 5.82867e-016
vn -2.70176e-016 1 7.04992e-016
vt 0.280512 0.629921
vt 0.280512 5.82867e-016
f 135/328/38 202/327/38 201/329/38 136/330/38 

vt -1.39418e-031 0.826772
vn 1 -1.40998e-015 -4.97013e-031
vt -1.39418e-031 0.905512
f 136/331/39 201/285/39 200/294/39 137/332/39 

vt 0.201772 3.98986e-016
vn 1.40998e-015 1 4.4062e-016
vt 0.280512 3.98986e-016
vt 0.201772 0.629921
f 138/333/40 137/334/40 200/329/40 199/335/40 

vn -1 1.40998e-015 7.4552e-031
vt 1.50425e-031 0.826772
vt 1.50425e-031 0.905512
f 198/299/41 139/336/41 138/337/41 199/302/41 

vt -5.70972e-016 6.55725e-016
vn 6.90604e-016 1 7.93116e-016
vt 0.201772 6.55725e-016
vt -5.70972e-016 0.629921
f 140/338/42 139/339/42 198/335/42 197/340/42 

vt -3.26772 0.23622
vt -0.629921 1.49606
vt -3.26772 1.49606
f 108/341/6 107/78/6 140/127/6 197/299/6 188/342/6 189/343/6 

f 181/230/7 172/209/7 175/218/7

vt -3.15354 0.23622
vt -3.15354 1.72085e-015
vt -0.114173 1.72085e-015
f 113/344/6 158/345/6 105/346/6 104/55/6 

f 158/346/2 113/55/2 112/159/2 159/160/2 

vt 3.15354 1.72085e-015
vt 3.15354 0.23622
vt 2.61811 1.72085e-015
f 159/347/8 112/348/8 111/281/8 156/349/8 

f 88/79/7 95/84/7 94/81/7 89/82/7 

vt 1.3878 0.11811
vt 0.974409 0.11811
f 86/350/11 89/131/11 94/130/11 90/351/11 

f 76/72/7 83/80/7 82/76/7 77/77/7 

vt 2.13583 0.11811
vt 1.87992 0.11811
f 74/352/11 77/135/11 82/134/11 78/353/11 

vt -2.94291 -1.77636e-015
vn 0 -1 1.50398e-014
vt -2.62795 -1.77636e-015
f 64/354/43 71/355/43 70/70/43 65/71/43 

vt 2.94291 0.11811
vt 2.62795 0.11811
f 62/356/14 65/139/14 70/138/14 66/357/14 

vt -3.73031 -1.77636e-015
vt -3.43504 -1.77636e-015
f 52/358/43 59/359/43 58/66/43 53/67/43 

vt 3.73031 0.11811
vt 3.43504 0.11811
f 50/360/14 53/143/14 58/142/14 54/361/14 

vt 0.482283 0.19685
vt 0.974409 0.19685
f 97/128/11 22/362/11 21/363/11 93/129/11 

vt -1.3878 0.11811
vn 0 9.06514e-031 -1
vt -0.974409 0.11811
vt -0.974409 0.19685
vt -1.3878 0.19685
f 87/364/44 91/365/44 20/366/44 19/367/44 

vt 1.3878 0.19685
vt 1.87992 0.19685
f 85/132/11 18/368/11 17/369/11 81/133/11 

vt -2.13583 0.11811
vt -1.87992 0.11811
vt -1.87992 0.19685
vt -2.13583 0.19685
f 75/370/44 79/371/44 16/372/44 15/373/44 

vt 2.13583 0.19685
vt 2.62795 0.19685
f 73/136/11 14/374/11 13/375/11 69/137/11 

vt -2.94291 0.11811
vt -2.62795 0.11811
vt -2.62795 0.19685
vt -2.94291 0.19685
f 63/376/44 67/377/44 12/378/44 11/379/44 

vt 2.94291 0.19685
vt 3.43504 0.19685
f 61/140/11 10/380/11 9/381/11 57/141/11 

vt -3.73031 0.11811
vt -3.43504 0.11811
vt -3.43504 0.19685
vt -3.73031 0.19685
f 51/382/44 55/383/44 8/384/44 7/385/44 

vt 3.73031 0.19685
vt 4.22244 0.19685
f 49/144/11 6/386/11 5/387/11 45/145/11 

g Mesh2 Group1 Model

v 89.8055 23 -378.645
vt 1.3878 0.106299
vn -1.10097e-015 -1 -1.87766e-014
v 79.3055 23 -378.645
vt 0.974409 0.106299
v 79.3055 23 -381.345
vt 0.974409 0
v 89.8055 23 -381.345
vt 1.3878 0
f 221/388/45 222/389/45 223/390/45 224/391/45 

v 168.856 32 -378.645
vt -4.5 0.11811
vn 2.0647e-016 -2.60162e-014 1
v 57.2555 32 -378.645
vt -0.106299 0.11811
v 57.2555 23 -378.645
vt -0.106299 0.472441
v 66.8055 23 -378.645
vt -0.482283 0.472441
v 66.8055 26 -378.645
vt -0.482283 0.354331
v 79.3055 26 -378.645
vt -0.974409 0.354331
vt -0.974409 0.472441
vt -1.3878 0.472441
v 89.8055 26 -378.645
vt -1.3878 0.354331
v 102.306 26 -378.645
vt -1.87992 0.354331
v 102.306 23 -378.645
vt -1.87992 0.472441
v 108.806 23 -378.645
vt -2.13583 0.472441
v 108.806 26 -378.645
vt -2.13583 0.354331
v 121.306 26 -378.645
vt -2.62795 0.354331
v 121.306 23 -378.645
vt -2.62795 0.472441
v 129.306 23 -378.645
vt -2.94291 0.472441
v 129.306 26 -378.645
vt -2.94291 0.354331
v 141.806 26 -378.645
vt -3.43504 0.354331
v 141.806 23 -378.645
vt -3.43504 0.472441
v 149.306 23 -378.645
vt -3.73031 0.472441
v 149.306 26 -378.645
vt -3.73031 0.354331
v 161.806 26 -378.645
vt -4.22244 0.354331
v 161.806 23 -378.645
vt -4.22244 0.472441
v 168.856 23 -378.645
vt -4.5 0.472441
f 225/392/46 226/393/46 227/394/46 228/395/46 229/396/46 230/397/46 222/398/46 221/399/46 231/400/46 232/401/46 233/402/46 234/403/46 235/404/46 236/405/46 237/406/46 238/407/46 239/408/46 240/409/46 241/410/46 242/411/46 243/412/46 244/413/46 245/414/46 246/415/46 

v 168.856 32 -301.045
vt 4.5 3.16142
vn -1.07592e-015 -1 -2.01941e-014
v 57.2555 32 -301.045
vt 0.106299 3.16142
vt 0.106299 0.106299
vt 4.5 0.106299
f 247/416/47 248/417/47 226/418/47 225/419/47 

vt 0.106299 0.11811
vn -3.32264e-016 1.87766e-014 -1
vt 4.5 0.11811
v 168.856 23 -301.045
vt 4.5 0.472441
v 57.2555 23 -301.045
vt 0.106299 0.472441
f 248/420/48 247/421/48 249/422/48 250/423/48 

vt -3.16142 0.11811
vn -1 -8.68317e-017 1.47459e-016
v 168.856 23 -355.345
vt -1.02362 0.472441
v 168.856 28 -355.345
vt -1.02362 0.275591
v 168.856 28 -345.845
vt -1.39764 0.275591
v 168.856 23 -345.845
vt -1.39764 0.472441
v 168.856 23 -327.845
vt -2.1063 0.472441
v 168.856 28 -327.845
vt -2.1063 0.275591
v 168.856 28 -314.845
vt -2.61811 0.275591
v 168.856 23 -314.845
vt -2.61811 0.472441
vt -3.16142 0.472441
f 247/424/49 225/393/49 246/394/49 251/425/49 252/426/49 253/427/49 254/428/49 255/429/49 256/430/49 257/431/49 258/432/49 249/433/49 

v 171.556 23 -381.345
vt 4.6063 2.04999e-015
vn 1.01434e-014 -1 -1.93558e-014
v 171.556 23 -355.345
vt 4.6063 1.02362
vt 4.5 1.02362
vt 4.22244 0.106299
v 161.806 23 -381.345
vt 4.22244 2.04999e-015
f 259/434/50 260/435/50 251/436/50 246/419/50 245/437/50 261/438/50 

v 171.556 35 -381.345
vt 1.0111e-015 2.5357e-015
vn 1 -5.50484e-016 -1.66132e-016
v 171.556 35 -298.345
vt 3.26772 7.19863e-015
v 171.556 23 -298.345
vt 3.26772 0.472441
v 171.556 23 -314.845
vt 2.61811 0.472441
v 171.556 28 -314.845
vt 2.61811 0.275591
v 171.556 28 -327.845
vt 2.1063 0.275591
v 171.556 23 -327.845
vt 2.1063 0.472441
v 171.556 23 -345.845
vt 1.39764 0.472441
v 171.556 28 -345.845
vt 1.39764 0.275591
v 171.556 28 -355.345
vt 1.02362 0.275591
vt 1.02362 0.472441
vt 1.0111e-015 0.472441
f 262/439/51 263/440/51 264/441/51 265/442/51 266/443/51 267/444/51 268/445/51 269/446/51 270/447/51 271/448/51 260/449/51 259/450/51 

v 54.5555 35 -298.345
vt 1.11435e-031 3.26772
vn 1.07707e-015 1 2.0204e-014
vt -4.6063 1.77636e-015
v 54.5555 35 -381.345
vt 5.30643e-033 1.77636e-015
f 272/451/52 263/94/52 262/452/52 273/453/52 

vt -4.6063 4.66294e-015
vn 3.32264e-016 -1.87766e-014 1
vt 0 4.66294e-015
v 54.5555 23 -298.345
vt 0 0.472441
vt -4.6063 0.472441
f 263/454/53 272/455/53 274/456/53 264/457/53 

vt -3.26772 4.66294e-015
vn -1 1.10097e-015 3.32264e-016
vt -1.77636e-015 2.22045e-016
v 54.5555 23 -381.345
vt -1.77636e-015 0.472441
vt -3.26772 0.472441
f 272/458/54 273/459/54 275/460/54 274/461/54 

vt 4.6063 0.472441
vn 3.58121e-017 2.01196e-014 -1
vt 4.22244 0.472441
v 161.806 26 -381.345
vt 4.22244 0.354331
v 149.306 26 -381.345
vt 3.73031 0.354331
v 149.306 23 -381.345
vt 3.73031 0.472441
v 141.806 23 -381.345
vt 3.43504 0.472441
v 141.806 26 -381.345
vt 3.43504 0.354331
v 129.306 26 -381.345
vt 2.94291 0.354331
v 129.306 23 -381.345
vt 2.94291 0.472441
v 121.306 23 -381.345
vt 2.62795 0.472441
v 121.306 26 -381.345
vt 2.62795 0.354331
v 108.806 26 -381.345
vt 2.13583 0.354331
v 108.806 23 -381.345
vt 2.13583 0.472441
v 102.306 23 -381.345
vt 1.87992 0.472441
v 102.306 26 -381.345
vt 1.87992 0.354331
v 89.8055 26 -381.345
vt 1.3878 0.354331
vt 1.3878 0.472441
vt 0.974409 0.472441
v 79.3055 26 -381.345
vt 0.974409 0.354331
v 66.8055 26 -381.345
vt 0.482283 0.354331
v 66.8055 23 -381.345
vt 0.482283 0.472441
vt 6.53834e-031 0.472441
vt 6.53834e-031 2.22045e-016
vt 4.6063 -1.08632e-031
f 259/462/55 261/463/55 276/464/55 277/465/55 278/466/55 279/467/55 280/468/55 281/469/55 282/470/55 283/471/55 284/472/55 285/473/55 286/474/55 287/475/55 288/476/55 289/477/55 224/478/55 223/479/55 290/480/55 291/481/55 292/482/55 275/483/55 273/484/55 262/485/55 

vt -1.77636e-015 0.354331
vt -0.106299 0.354331
f 276/486/54 261/460/54 245/394/54 244/487/54 

vt 3.73031 1.77636e-015
vt 4.22244 1.77636e-015
vt 3.73031 0.106299
f 277/488/45 276/489/45 244/437/45 243/490/45 

vt 1.77636e-015 0.472441
vn 1 -1.10097e-015 -3.32264e-016
vt 1.77636e-015 0.354331
vt 0.106299 0.354331
f 278/491/56 277/492/56 243/493/56 242/423/56 

vt 3.43504 0.106299
vt 3.43504 1.77636e-015
f 278/488/45 242/490/45 241/494/45 279/495/45 

f 280/486/54 279/460/54 241/394/54 240/487/54 

vt 2.94291 1.77636e-015
vt 2.94291 0.106299
f 281/496/45 280/495/45 240/494/45 239/497/45 

f 282/491/56 281/492/56 239/493/56 238/423/56 

vt 2.62795 0.106299
vt 2.62795 1.77636e-015
f 238/497/45 237/498/45 283/499/45 282/496/45 

f 284/486/54 283/460/54 237/394/54 236/487/54 

vt 2.13583 0
vt 2.13583 0.106299
f 285/500/45 284/499/45 236/498/45 235/501/45 

vt 0 0.354331
f 286/456/56 285/502/56 235/493/56 234/423/56 

vt 1.87992 0.106299
vt 1.87992 0
f 234/501/45 233/503/45 287/504/45 286/500/45 

f 288/502/54 287/456/54 233/394/54 232/487/54 

f 289/391/45 288/504/45 232/503/45 231/388/45 

f 224/456/56 289/502/56 231/493/56 221/423/56 

f 290/502/54 223/456/54 222/394/54 230/487/54 

vt 0.482283 0
vt 0.482283 0.106299
f 291/505/45 290/390/45 230/389/45 229/506/45 

f 292/456/56 291/502/56 229/493/56 228/423/56 

vn -7.35117e-016 -1 -1.95259e-014
vt 4.5 2.61811
vt 4.6063 2.61811
vt -1.72843e-016 3.26772
vt -1.72843e-016 2.13032e-015
vt 0.482283 3.53967e-016
f 249/416/57 258/507/57 265/508/57 264/258/57 274/509/57 275/510/57 292/511/57 228/506/57 227/418/57 250/417/57 

vt 4.5 0.275591
vt 4.6063 0.275591
f 265/462/48 258/422/48 257/512/48 266/513/48 

vn 9.60446e-015 -1 -1.9807e-014
vt 4.5 2.1063
vt 4.6063 2.1063
f 257/507/58 256/514/58 267/515/58 266/508/58 

vt -4.6063 0.275591
vt -4.5 0.275591
f 255/415/53 268/457/53 267/516/53 256/517/53 

vt 4.6063 1.39764
vn 4.90452e-015 -1 -1.87375e-014
vt 4.5 1.39764
f 269/518/59 268/515/59 255/514/59 254/519/59 

f 269/462/48 254/422/48 253/512/48 270/513/48 

vn 4.65679e-016 -1 -1.74409e-014
f 271/435/60 270/518/60 253/519/60 252/436/60 

f 251/415/53 260/457/53 271/516/53 252/517/53 

vt 3.16142 0.11811
vt 3.16142 0.472441
f 226/420/56 248/520/56 250/521/56 227/423/56 

