(kicad_sch (version 20211123) (generator eeschema)

  (uuid 3492d28e-b32e-4619-b9ef-9d31967f6adb)

  (paper "A4")

  (lib_symbols
    (symbol "Connector:Conn_01x02_Female" (pin_names (offset 1.016) hide) (in_bom yes) (on_board yes)
      (property "Reference" "J" (id 0) (at 0 2.54 0)
        (effects (font (size 1.27 1.27)))
      )
      (property "Value" "Conn_01x02_Female" (id 1) (at 0 -5.08 0)
        (effects (font (size 1.27 1.27)))
      )
      (property "Footprint" "" (id 2) (at 0 0 0)
        (effects (font (size 1.27 1.27)) hide)
      )
      (property "Datasheet" "~" (id 3) (at 0 0 0)
        (effects (font (size 1.27 1.27)) hide)
      )
      (property "ki_keywords" "connector" (id 4) (at 0 0 0)
        (effects (font (size 1.27 1.27)) hide)
      )
      (property "ki_description" "Generic connector, single row, 01x02, script generated (kicad-library-utils/schlib/autogen/connector/)" (id 5) (at 0 0 0)
        (effects (font (size 1.27 1.27)) hide)
      )
      (property "ki_fp_filters" "Connector*:*_1x??_*" (id 6) (at 0 0 0)
        (effects (font (size 1.27 1.27)) hide)
      )
      (symbol "Conn_01x02_Female_1_1"
        (arc (start 0 -2.032) (mid -0.508 -2.54) (end 0 -3.048)
          (stroke (width 0.1524) (type default) (color 0 0 0 0))
          (fill (type none))
        )
        (polyline
          (pts
            (xy -1.27 -2.54)
            (xy -0.508 -2.54)
          )
          (stroke (width 0.1524) (type default) (color 0 0 0 0))
          (fill (type none))
        )
        (polyline
          (pts
            (xy -1.27 0)
            (xy -0.508 0)
          )
          (stroke (width 0.1524) (type default) (color 0 0 0 0))
          (fill (type none))
        )
        (arc (start 0 0.508) (mid -0.508 0) (end 0 -0.508)
          (stroke (width 0.1524) (type default) (color 0 0 0 0))
          (fill (type none))
        )
        (pin passive line (at -5.08 0 0) (length 3.81)
          (name "Pin_1" (effects (font (size 1.27 1.27))))
          (number "1" (effects (font (size 1.27 1.27))))
        )
        (pin passive line (at -5.08 -2.54 0) (length 3.81)
          (name "Pin_2" (effects (font (size 1.27 1.27))))
          (number "2" (effects (font (size 1.27 1.27))))
        )
      )
    )
    (symbol "Connector:Conn_01x05_Female" (pin_names (offset 1.016) hide) (in_bom yes) (on_board yes)
      (property "Reference" "J" (id 0) (at 0 7.62 0)
        (effects (font (size 1.27 1.27)))
      )
      (property "Value" "Conn_01x05_Female" (id 1) (at 0 -7.62 0)
        (effects (font (size 1.27 1.27)))
      )
      (property "Footprint" "" (id 2) (at 0 0 0)
        (effects (font (size 1.27 1.27)) hide)
      )
      (property "Datasheet" "~" (id 3) (at 0 0 0)
        (effects (font (size 1.27 1.27)) hide)
      )
      (property "ki_keywords" "connector" (id 4) (at 0 0 0)
        (effects (font (size 1.27 1.27)) hide)
      )
      (property "ki_description" "Generic connector, single row, 01x05, script generated (kicad-library-utils/schlib/autogen/connector/)" (id 5) (at 0 0 0)
        (effects (font (size 1.27 1.27)) hide)
      )
      (property "ki_fp_filters" "Connector*:*_1x??_*" (id 6) (at 0 0 0)
        (effects (font (size 1.27 1.27)) hide)
      )
      (symbol "Conn_01x05_Female_1_1"
        (arc (start 0 -4.572) (mid -0.508 -5.08) (end 0 -5.588)
          (stroke (width 0.1524) (type default) (color 0 0 0 0))
          (fill (type none))
        )
        (arc (start 0 -2.032) (mid -0.508 -2.54) (end 0 -3.048)
          (stroke (width 0.1524) (type default) (color 0 0 0 0))
          (fill (type none))
        )
        (polyline
          (pts
            (xy -1.27 -5.08)
            (xy -0.508 -5.08)
          )
          (stroke (width 0.1524) (type default) (color 0 0 0 0))
          (fill (type none))
        )
        (polyline
          (pts
            (xy -1.27 -2.54)
            (xy -0.508 -2.54)
          )
          (stroke (width 0.1524) (type default) (color 0 0 0 0))
          (fill (type none))
        )
        (polyline
          (pts
            (xy -1.27 0)
            (xy -0.508 0)
          )
          (stroke (width 0.1524) (type default) (color 0 0 0 0))
          (fill (type none))
        )
        (polyline
          (pts
            (xy -1.27 2.54)
            (xy -0.508 2.54)
          )
          (stroke (width 0.1524) (type default) (color 0 0 0 0))
          (fill (type none))
        )
        (polyline
          (pts
            (xy -1.27 5.08)
            (xy -0.508 5.08)
          )
          (stroke (width 0.1524) (type default) (color 0 0 0 0))
          (fill (type none))
        )
        (arc (start 0 0.508) (mid -0.508 0) (end 0 -0.508)
          (stroke (width 0.1524) (type default) (color 0 0 0 0))
          (fill (type none))
        )
        (arc (start 0 3.048) (mid -0.508 2.54) (end 0 2.032)
          (stroke (width 0.1524) (type default) (color 0 0 0 0))
          (fill (type none))
        )
        (arc (start 0 5.588) (mid -0.508 5.08) (end 0 4.572)
          (stroke (width 0.1524) (type default) (color 0 0 0 0))
          (fill (type none))
        )
        (pin passive line (at -5.08 5.08 0) (length 3.81)
          (name "Pin_1" (effects (font (size 1.27 1.27))))
          (number "1" (effects (font (size 1.27 1.27))))
        )
        (pin passive line (at -5.08 2.54 0) (length 3.81)
          (name "Pin_2" (effects (font (size 1.27 1.27))))
          (number "2" (effects (font (size 1.27 1.27))))
        )
        (pin passive line (at -5.08 0 0) (length 3.81)
          (name "Pin_3" (effects (font (size 1.27 1.27))))
          (number "3" (effects (font (size 1.27 1.27))))
        )
        (pin passive line (at -5.08 -2.54 0) (length 3.81)
          (name "Pin_4" (effects (font (size 1.27 1.27))))
          (number "4" (effects (font (size 1.27 1.27))))
        )
        (pin passive line (at -5.08 -5.08 0) (length 3.81)
          (name "Pin_5" (effects (font (size 1.27 1.27))))
          (number "5" (effects (font (size 1.27 1.27))))
        )
      )
    )
    (symbol "Device:R" (pin_numbers hide) (pin_names (offset 0)) (in_bom yes) (on_board yes)
      (property "Reference" "R" (id 0) (at 2.032 0 90)
        (effects (font (size 1.27 1.27)))
      )
      (property "Value" "R" (id 1) (at 0 0 90)
        (effects (font (size 1.27 1.27)))
      )
      (property "Footprint" "" (id 2) (at -1.778 0 90)
        (effects (font (size 1.27 1.27)) hide)
      )
      (property "Datasheet" "~" (id 3) (at 0 0 0)
        (effects (font (size 1.27 1.27)) hide)
      )
      (property "ki_keywords" "R res resistor" (id 4) (at 0 0 0)
        (effects (font (size 1.27 1.27)) hide)
      )
      (property "ki_description" "Resistor" (id 5) (at 0 0 0)
        (effects (font (size 1.27 1.27)) hide)
      )
      (property "ki_fp_filters" "R_*" (id 6) (at 0 0 0)
        (effects (font (size 1.27 1.27)) hide)
      )
      (symbol "R_0_1"
        (rectangle (start -1.016 -2.54) (end 1.016 2.54)
          (stroke (width 0.254) (type default) (color 0 0 0 0))
          (fill (type none))
        )
      )
      (symbol "R_1_1"
        (pin passive line (at 0 3.81 270) (length 1.27)
          (name "~" (effects (font (size 1.27 1.27))))
          (number "1" (effects (font (size 1.27 1.27))))
        )
        (pin passive line (at 0 -3.81 90) (length 1.27)
          (name "~" (effects (font (size 1.27 1.27))))
          (number "2" (effects (font (size 1.27 1.27))))
        )
      )
    )
    (symbol "Transistor_BJT:TIP122" (pin_names (offset 0) hide) (in_bom yes) (on_board yes)
      (property "Reference" "Q" (id 0) (at 5.08 1.905 0)
        (effects (font (size 1.27 1.27)) (justify left))
      )
      (property "Value" "TIP122" (id 1) (at 5.08 0 0)
        (effects (font (size 1.27 1.27)) (justify left))
      )
      (property "Footprint" "Package_TO_SOT_THT:TO-220-3_Vertical" (id 2) (at 5.08 -1.905 0)
        (effects (font (size 1.27 1.27) italic) (justify left) hide)
      )
      (property "Datasheet" "https://www.onsemi.com/pub/Collateral/TIP120-D.PDF" (id 3) (at 0 0 0)
        (effects (font (size 1.27 1.27)) (justify left) hide)
      )
      (property "ki_keywords" "Darlington Power NPN Transistor" (id 4) (at 0 0 0)
        (effects (font (size 1.27 1.27)) hide)
      )
      (property "ki_description" "5A Ic, 100V Vce, Silicon Darlington Power NPN Transistor, TO-220" (id 5) (at 0 0 0)
        (effects (font (size 1.27 1.27)) hide)
      )
      (property "ki_fp_filters" "TO?220*" (id 6) (at 0 0 0)
        (effects (font (size 1.27 1.27)) hide)
      )
      (symbol "TIP122_0_1"
        (circle (center -0.762 0) (radius 0.127)
          (stroke (width 0) (type default) (color 0 0 0 0))
          (fill (type none))
        )
        (polyline
          (pts
            (xy -1.27 0)
            (xy -0.889 0)
          )
          (stroke (width 0) (type default) (color 0 0 0 0))
          (fill (type none))
        )
        (polyline
          (pts
            (xy 2.54 -2.032)
            (xy 2.54 -2.54)
          )
          (stroke (width 0) (type default) (color 0 0 0 0))
          (fill (type none))
        )
        (polyline
          (pts
            (xy 2.54 -1.524)
            (xy 3.175 -1.524)
          )
          (stroke (width 0) (type default) (color 0 0 0 0))
          (fill (type none))
        )
        (polyline
          (pts
            (xy 2.794 0.127)
            (xy 3.556 0.127)
          )
          (stroke (width 0) (type default) (color 0 0 0 0))
          (fill (type none))
        )
        (polyline
          (pts
            (xy 3.175 -0.635)
            (xy 3.175 -1.524)
          )
          (stroke (width 0) (type default) (color 0 0 0 0))
          (fill (type none))
        )
        (polyline
          (pts
            (xy 3.175 1.016)
            (xy 2.54 1.016)
          )
          (stroke (width 0) (type default) (color 0 0 0 0))
          (fill (type none))
        )
        (polyline
          (pts
            (xy 3.175 1.016)
            (xy 3.175 0.127)
          )
          (stroke (width 0) (type default) (color 0 0 0 0))
          (fill (type none))
        )
        (polyline
          (pts
            (xy -0.254 0.762)
            (xy 0.762 -0.254)
            (xy 1.27 -0.254)
          )
          (stroke (width 0) (type default) (color 0 0 0 0))
          (fill (type none))
        )
        (polyline
          (pts
            (xy -0.254 1.016)
            (xy -0.762 1.016)
            (xy -0.762 -2.032)
          )
          (stroke (width 0) (type default) (color 0 0 0 0))
          (fill (type none))
        )
        (polyline
          (pts
            (xy -0.254 1.27)
            (xy 0.762 2.286)
            (xy 2.54 2.286)
          )
          (stroke (width 0) (type default) (color 0 0 0 0))
          (fill (type none))
        )
        (polyline
          (pts
            (xy -0.254 2.032)
            (xy -0.254 0)
            (xy -0.254 0)
          )
          (stroke (width 0.3048) (type default) (color 0 0 0 0))
          (fill (type none))
        )
        (polyline
          (pts
            (xy 1.27 0.762)
            (xy 1.27 -1.27)
            (xy 1.27 -1.27)
          )
          (stroke (width 0.381) (type default) (color 0 0 0 0))
          (fill (type none))
        )
        (polyline
          (pts
            (xy 0.635 -0.127)
            (xy 0.381 0.381)
            (xy 0.127 0.127)
            (xy 0.635 -0.127)
          )
          (stroke (width 0) (type default) (color 0 0 0 0))
          (fill (type none))
        )
        (polyline
          (pts
            (xy 1.27 -0.508)
            (xy 2.286 -1.524)
            (xy 2.54 -1.524)
            (xy 2.54 -2.032)
          )
          (stroke (width 0) (type default) (color 0 0 0 0))
          (fill (type none))
        )
        (polyline
          (pts
            (xy 1.27 0)
            (xy 2.286 1.016)
            (xy 2.54 1.016)
            (xy 2.54 2.286)
          )
          (stroke (width 0) (type default) (color 0 0 0 0))
          (fill (type none))
        )
        (polyline
          (pts
            (xy 2.159 -1.397)
            (xy 1.905 -0.889)
            (xy 1.651 -1.143)
            (xy 2.159 -1.397)
          )
          (stroke (width 0) (type default) (color 0 0 0 0))
          (fill (type none))
        )
        (polyline
          (pts
            (xy 3.175 0.127)
            (xy 2.794 -0.635)
            (xy 3.556 -0.635)
            (xy 3.175 0.127)
          )
          (stroke (width 0) (type default) (color 0 0 0 0))
          (fill (type outline))
        )
        (polyline
          (pts
            (xy 0.762 -2.032)
            (xy 0.381 -2.032)
            (xy 0.254 -2.286)
            (xy 0.127 -1.778)
            (xy 0 -2.286)
            (xy -0.127 -1.778)
            (xy -0.254 -2.286)
            (xy -0.381 -1.778)
            (xy -0.508 -2.032)
            (xy -0.762 -2.032)
          )
          (stroke (width 0) (type default) (color 0 0 0 0))
          (fill (type none))
        )
        (polyline
          (pts
            (xy 0.762 -0.254)
            (xy 0.762 -2.032)
            (xy 1.143 -2.032)
            (xy 1.27 -1.778)
            (xy 1.397 -2.286)
            (xy 1.524 -1.778)
            (xy 1.651 -2.286)
            (xy 1.778 -1.778)
            (xy 1.905 -2.286)
            (xy 2.032 -2.032)
            (xy 2.54 -2.032)
          )
          (stroke (width 0) (type default) (color 0 0 0 0))
          (fill (type none))
        )
        (circle (center 0.762 -2.032) (radius 0.127)
          (stroke (width 0) (type default) (color 0 0 0 0))
          (fill (type none))
        )
        (circle (center 0.762 -0.254) (radius 0.127)
          (stroke (width 0) (type default) (color 0 0 0 0))
          (fill (type none))
        )
        (circle (center 1.27 0) (radius 3.175)
          (stroke (width 0.3556) (type default) (color 0 0 0 0))
          (fill (type none))
        )
        (circle (center 2.54 -2.032) (radius 0.127)
          (stroke (width 0) (type default) (color 0 0 0 0))
          (fill (type none))
        )
        (circle (center 2.54 -1.524) (radius 0.127)
          (stroke (width 0) (type default) (color 0 0 0 0))
          (fill (type none))
        )
        (circle (center 2.54 1.016) (radius 0.127)
          (stroke (width 0) (type default) (color 0 0 0 0))
          (fill (type none))
        )
        (circle (center 2.54 2.286) (radius 0.127)
          (stroke (width 0) (type default) (color 0 0 0 0))
          (fill (type none))
        )
      )
      (symbol "TIP122_1_1"
        (pin input line (at -5.08 0 0) (length 3.81)
          (name "B" (effects (font (size 1.27 1.27))))
          (number "1" (effects (font (size 1.27 1.27))))
        )
        (pin passive line (at 2.54 5.08 270) (length 2.667)
          (name "C" (effects (font (size 1.27 1.27))))
          (number "2" (effects (font (size 1.27 1.27))))
        )
        (pin passive line (at 2.54 -5.08 90) (length 2.54)
          (name "E" (effects (font (size 1.27 1.27))))
          (number "3" (effects (font (size 1.27 1.27))))
        )
      )
    )
    (symbol "Transistor_BJT:TIP127" (pin_names (offset 0) hide) (in_bom yes) (on_board yes)
      (property "Reference" "Q" (id 0) (at 5.08 1.905 0)
        (effects (font (size 1.27 1.27)) (justify left))
      )
      (property "Value" "TIP127" (id 1) (at 5.08 0 0)
        (effects (font (size 1.27 1.27)) (justify left))
      )
      (property "Footprint" "Package_TO_SOT_THT:TO-220-3_Vertical" (id 2) (at 5.08 -1.905 0)
        (effects (font (size 1.27 1.27) italic) (justify left) hide)
      )
      (property "Datasheet" "https://www.onsemi.com/pub/Collateral/TIP120-D.PDF" (id 3) (at 0 0 0)
        (effects (font (size 1.27 1.27)) (justify left) hide)
      )
      (property "ki_keywords" "Darlington Power PNP Transistor" (id 4) (at 0 0 0)
        (effects (font (size 1.27 1.27)) hide)
      )
      (property "ki_description" "5A Ic, 100V Vce, Silicon Darlington Power PNP Transistor, TO-220" (id 5) (at 0 0 0)
        (effects (font (size 1.27 1.27)) hide)
      )
      (property "ki_fp_filters" "TO?220*" (id 6) (at 0 0 0)
        (effects (font (size 1.27 1.27)) hide)
      )
      (symbol "TIP127_0_1"
        (circle (center -0.762 0) (radius 0.127)
          (stroke (width 0) (type default) (color 0 0 0 0))
          (fill (type none))
        )
        (polyline
          (pts
            (xy -1.27 0)
            (xy -0.889 0)
          )
          (stroke (width 0) (type default) (color 0 0 0 0))
          (fill (type none))
        )
        (polyline
          (pts
            (xy 2.54 -2.032)
            (xy 2.54 -2.54)
          )
          (stroke (width 0) (type default) (color 0 0 0 0))
          (fill (type none))
        )
        (polyline
          (pts
            (xy 2.54 -1.524)
            (xy 3.175 -1.524)
          )
          (stroke (width 0) (type default) (color 0 0 0 0))
          (fill (type none))
        )
        (polyline
          (pts
            (xy 2.794 -0.635)
            (xy 3.556 -0.635)
          )
          (stroke (width 0) (type default) (color 0 0 0 0))
          (fill (type none))
        )
        (polyline
          (pts
            (xy 3.175 -1.524)
            (xy 3.175 -0.635)
          )
          (stroke (width 0) (type default) (color 0 0 0 0))
          (fill (type none))
        )
        (polyline
          (pts
            (xy 3.175 0.127)
            (xy 3.175 1.016)
          )
          (stroke (width 0) (type default) (color 0 0 0 0))
          (fill (type none))
        )
        (polyline
          (pts
            (xy 3.175 1.016)
            (xy 2.54 1.016)
          )
          (stroke (width 0) (type default) (color 0 0 0 0))
          (fill (type none))
        )
        (polyline
          (pts
            (xy -0.254 0.762)
            (xy 0.762 -0.254)
            (xy 1.27 -0.254)
          )
          (stroke (width 0) (type default) (color 0 0 0 0))
          (fill (type none))
        )
        (polyline
          (pts
            (xy -0.254 1.016)
            (xy -0.762 1.016)
            (xy -0.762 -2.032)
          )
          (stroke (width 0) (type default) (color 0 0 0 0))
          (fill (type none))
        )
        (polyline
          (pts
            (xy -0.254 1.27)
            (xy 0.762 2.286)
            (xy 2.54 2.286)
          )
          (stroke (width 0) (type default) (color 0 0 0 0))
          (fill (type none))
        )
        (polyline
          (pts
            (xy -0.254 2.032)
            (xy -0.254 0)
            (xy -0.254 0)
          )
          (stroke (width 0.3048) (type default) (color 0 0 0 0))
          (fill (type none))
        )
        (polyline
          (pts
            (xy 1.27 0.762)
            (xy 1.27 -1.27)
            (xy 1.27 -1.27)
          )
          (stroke (width 0.381) (type default) (color 0 0 0 0))
          (fill (type none))
        )
        (polyline
          (pts
            (xy 0 0.508)
            (xy 0.254 0)
            (xy 0.508 0.254)
            (xy 0 0.508)
          )
          (stroke (width 0) (type default) (color 0 0 0 0))
          (fill (type none))
        )
        (polyline
          (pts
            (xy 1.27 -0.508)
            (xy 2.286 -1.524)
            (xy 2.54 -1.524)
            (xy 2.54 -2.032)
          )
          (stroke (width 0) (type default) (color 0 0 0 0))
          (fill (type none))
        )
        (polyline
          (pts
            (xy 1.27 0)
            (xy 2.286 1.016)
            (xy 2.54 1.016)
            (xy 2.54 2.286)
          )
          (stroke (width 0) (type default) (color 0 0 0 0))
          (fill (type none))
        )
        (polyline
          (pts
            (xy 1.524 -0.762)
            (xy 1.778 -1.27)
            (xy 2.032 -1.016)
            (xy 1.524 -0.762)
          )
          (stroke (width 0) (type default) (color 0 0 0 0))
          (fill (type none))
        )
        (polyline
          (pts
            (xy 3.175 -0.635)
            (xy 2.794 0.127)
            (xy 3.556 0.127)
            (xy 3.175 -0.635)
          )
          (stroke (width 0) (type default) (color 0 0 0 0))
          (fill (type outline))
        )
        (polyline
          (pts
            (xy 0.762 -2.032)
            (xy 0.381 -2.032)
            (xy 0.254 -2.286)
            (xy 0.127 -1.778)
            (xy 0 -2.286)
            (xy -0.127 -1.778)
            (xy -0.254 -2.286)
            (xy -0.381 -1.778)
            (xy -0.508 -2.032)
            (xy -0.762 -2.032)
          )
          (stroke (width 0) (type default) (color 0 0 0 0))
          (fill (type none))
        )
        (polyline
          (pts
            (xy 0.762 -0.254)
            (xy 0.762 -2.032)
            (xy 1.143 -2.032)
            (xy 1.27 -1.778)
            (xy 1.397 -2.286)
            (xy 1.524 -1.778)
            (xy 1.651 -2.286)
            (xy 1.778 -1.778)
            (xy 1.905 -2.286)
            (xy 2.032 -2.032)
            (xy 2.54 -2.032)
          )
          (stroke (width 0) (type default) (color 0 0 0 0))
          (fill (type none))
        )
        (circle (center 0.762 -2.032) (radius 0.127)
          (stroke (width 0) (type default) (color 0 0 0 0))
          (fill (type none))
        )
        (circle (center 0.762 -0.254) (radius 0.127)
          (stroke (width 0) (type default) (color 0 0 0 0))
          (fill (type none))
        )
        (circle (center 1.27 0) (radius 3.175)
          (stroke (width 0.3556) (type default) (color 0 0 0 0))
          (fill (type none))
        )
        (circle (center 2.54 -2.032) (radius 0.127)
          (stroke (width 0) (type default) (color 0 0 0 0))
          (fill (type none))
        )
        (circle (center 2.54 -1.524) (radius 0.127)
          (stroke (width 0) (type default) (color 0 0 0 0))
          (fill (type none))
        )
        (circle (center 2.54 1.016) (radius 0.127)
          (stroke (width 0) (type default) (color 0 0 0 0))
          (fill (type none))
        )
        (circle (center 2.54 2.286) (radius 0.127)
          (stroke (width 0) (type default) (color 0 0 0 0))
          (fill (type none))
        )
      )
      (symbol "TIP127_1_1"
        (pin input line (at -5.08 0 0) (length 3.81)
          (name "B" (effects (font (size 1.27 1.27))))
          (number "1" (effects (font (size 1.27 1.27))))
        )
        (pin passive line (at 2.54 5.08 270) (length 2.667)
          (name "C" (effects (font (size 1.27 1.27))))
          (number "2" (effects (font (size 1.27 1.27))))
        )
        (pin passive line (at 2.54 -5.08 90) (length 2.54)
          (name "E" (effects (font (size 1.27 1.27))))
          (number "3" (effects (font (size 1.27 1.27))))
        )
      )
    )
  )

  (junction (at 113.03 83.82) (diameter 0) (color 0 0 0 0)
    (uuid 465031a8-1d28-4f5c-a09c-88fdd7897f16)
  )
  (junction (at 135.89 64.77) (diameter 0) (color 0 0 0 0)
    (uuid 4a88fa0c-e48c-42c5-849a-f23a0d9bffc7)
  )
  (junction (at 135.89 100.33) (diameter 0) (color 0 0 0 0)
    (uuid 6eb10022-2bbd-46a4-9af7-9fb924115eab)
  )
  (junction (at 135.89 83.82) (diameter 0) (color 0 0 0 0)
    (uuid d3d3ab83-653f-4d1d-9184-6506f3f03b73)
  )

  (wire (pts (xy 154.94 100.33) (xy 135.89 100.33))
    (stroke (width 0) (type default) (color 0 0 0 0))
    (uuid 1bbbbabf-42ef-436f-823b-c44007472482)
  )
  (wire (pts (xy 82.55 88.9) (xy 80.01 88.9))
    (stroke (width 0) (type default) (color 0 0 0 0))
    (uuid 1d763b1a-d607-4333-8c72-79555797d1e9)
  )
  (wire (pts (xy 143.51 92.71) (xy 147.32 92.71))
    (stroke (width 0) (type default) (color 0 0 0 0))
    (uuid 2e947165-d02f-4a1e-a454-52900714bca8)
  )
  (wire (pts (xy 154.94 106.68) (xy 154.94 100.33))
    (stroke (width 0) (type default) (color 0 0 0 0))
    (uuid 2fe88147-535d-4984-bbff-92f7d770d8d7)
  )
  (wire (pts (xy 135.89 80.01) (xy 135.89 83.82))
    (stroke (width 0) (type default) (color 0 0 0 0))
    (uuid 30aa2f3b-40ba-480c-9cb4-20462e4fc900)
  )
  (wire (pts (xy 135.89 83.82) (xy 135.89 87.63))
    (stroke (width 0) (type default) (color 0 0 0 0))
    (uuid 35ec7012-1c28-416a-ae94-1c7f9f5c81fd)
  )
  (wire (pts (xy 153.67 76.2) (xy 153.67 74.93))
    (stroke (width 0) (type default) (color 0 0 0 0))
    (uuid 3989c7df-9342-48a7-9de9-9bad79c88f43)
  )
  (wire (pts (xy 125.73 83.82) (xy 135.89 83.82))
    (stroke (width 0) (type default) (color 0 0 0 0))
    (uuid 3c126a25-dd27-4664-9744-02481a12ecfa)
  )
  (wire (pts (xy 99.06 86.36) (xy 99.06 81.28))
    (stroke (width 0) (type default) (color 0 0 0 0))
    (uuid 487d70fb-d4c0-4b0a-8704-ace1b5323288)
  )
  (wire (pts (xy 125.73 106.68) (xy 125.73 83.82))
    (stroke (width 0) (type default) (color 0 0 0 0))
    (uuid 492ff99d-d807-4ad9-bb90-749069b5dd20)
  )
  (wire (pts (xy 113.03 83.82) (xy 113.03 87.63))
    (stroke (width 0) (type default) (color 0 0 0 0))
    (uuid 4d142571-79a8-4edc-bad8-627987b714ee)
  )
  (wire (pts (xy 135.89 64.77) (xy 135.89 69.85))
    (stroke (width 0) (type default) (color 0 0 0 0))
    (uuid 564a5165-f141-4a45-8309-9d51be738a4f)
  )
  (wire (pts (xy 90.17 76.2) (xy 90.17 74.93))
    (stroke (width 0) (type default) (color 0 0 0 0))
    (uuid 592a6743-3258-45c7-b3fb-2b9774888307)
  )
  (wire (pts (xy 99.06 81.28) (xy 147.32 81.28))
    (stroke (width 0) (type default) (color 0 0 0 0))
    (uuid 5e335866-cb7c-479d-b236-07aa4942e2fb)
  )
  (wire (pts (xy 161.29 81.28) (xy 163.83 81.28))
    (stroke (width 0) (type default) (color 0 0 0 0))
    (uuid 66bcecc8-2280-4b1a-91c9-aec0fb687912)
  )
  (wire (pts (xy 123.19 83.82) (xy 123.19 106.68))
    (stroke (width 0) (type default) (color 0 0 0 0))
    (uuid 6fd42e69-3d83-4b2f-af90-0ce14bf2d548)
  )
  (wire (pts (xy 113.03 100.33) (xy 135.89 100.33))
    (stroke (width 0) (type default) (color 0 0 0 0))
    (uuid 7fa26300-fb7a-4ffd-95e3-3e7826eefc37)
  )
  (wire (pts (xy 113.03 64.77) (xy 135.89 64.77))
    (stroke (width 0) (type default) (color 0 0 0 0))
    (uuid 869cf1ce-1c33-42d5-9a73-a8c51f5e60ad)
  )
  (wire (pts (xy 162.56 111.76) (xy 171.45 111.76))
    (stroke (width 0) (type default) (color 0 0 0 0))
    (uuid 8d1df6dc-9602-45a7-82c3-b19ff4d65d1c)
  )
  (wire (pts (xy 135.89 100.33) (xy 135.89 97.79))
    (stroke (width 0) (type default) (color 0 0 0 0))
    (uuid 8e5645b3-a4b2-4057-9821-5a00901e37dd)
  )
  (wire (pts (xy 101.6 92.71) (xy 101.6 86.36))
    (stroke (width 0) (type default) (color 0 0 0 0))
    (uuid 8f4bacf5-8bfe-4a48-a18d-8c9388a093ec)
  )
  (wire (pts (xy 154.94 116.84) (xy 154.94 120.65))
    (stroke (width 0) (type default) (color 0 0 0 0))
    (uuid 94da1f0c-6708-4745-91f4-d0f879790a1d)
  )
  (wire (pts (xy 147.32 92.71) (xy 147.32 81.28))
    (stroke (width 0) (type default) (color 0 0 0 0))
    (uuid a1f14d72-3f6d-4d8f-ad2f-9febef63e2d4)
  )
  (wire (pts (xy 90.17 86.36) (xy 99.06 86.36))
    (stroke (width 0) (type default) (color 0 0 0 0))
    (uuid a5e794dd-00cf-4181-8dbe-a203fe9f7d37)
  )
  (wire (pts (xy 113.03 97.79) (xy 113.03 100.33))
    (stroke (width 0) (type default) (color 0 0 0 0))
    (uuid ab58d150-8fa6-46dd-b1ae-7fb49788ced2)
  )
  (wire (pts (xy 105.41 92.71) (xy 101.6 92.71))
    (stroke (width 0) (type default) (color 0 0 0 0))
    (uuid b0e80851-94a3-4cb7-b53e-22d17ae458a4)
  )
  (wire (pts (xy 123.19 83.82) (xy 113.03 83.82))
    (stroke (width 0) (type default) (color 0 0 0 0))
    (uuid bcc42d89-f768-4ef0-899a-f6279a342d7c)
  )
  (wire (pts (xy 113.03 80.01) (xy 113.03 83.82))
    (stroke (width 0) (type default) (color 0 0 0 0))
    (uuid bce69664-8302-43eb-a262-80998e4b664d)
  )
  (wire (pts (xy 101.6 86.36) (xy 153.67 86.36))
    (stroke (width 0) (type default) (color 0 0 0 0))
    (uuid c4b693e6-39b9-465e-908a-cfb517757d71)
  )
  (wire (pts (xy 135.89 64.77) (xy 149.86 64.77))
    (stroke (width 0) (type default) (color 0 0 0 0))
    (uuid db30e9ed-bfc7-4422-a3c7-e6e53b46b9c1)
  )
  (wire (pts (xy 153.67 74.93) (xy 151.13 74.93))
    (stroke (width 0) (type default) (color 0 0 0 0))
    (uuid dbb4413e-c2bb-4395-9c13-352b8de76b23)
  )
  (wire (pts (xy 80.01 88.9) (xy 80.01 81.28))
    (stroke (width 0) (type default) (color 0 0 0 0))
    (uuid df07717e-0172-4033-b94d-9db9f5181210)
  )
  (wire (pts (xy 80.01 81.28) (xy 82.55 81.28))
    (stroke (width 0) (type default) (color 0 0 0 0))
    (uuid e02b4d4d-6cda-4589-875e-da80df29610f)
  )
  (wire (pts (xy 90.17 74.93) (xy 96.52 74.93))
    (stroke (width 0) (type default) (color 0 0 0 0))
    (uuid e594d88b-22cc-4118-98e3-7b30efdfb14a)
  )
  (wire (pts (xy 113.03 69.85) (xy 113.03 64.77))
    (stroke (width 0) (type default) (color 0 0 0 0))
    (uuid ea2d01d6-70dd-4885-9028-6476282b30a1)
  )
  (wire (pts (xy 104.14 74.93) (xy 105.41 74.93))
    (stroke (width 0) (type default) (color 0 0 0 0))
    (uuid eb656e08-8015-4b6e-b35c-a74248daf2f9)
  )
  (wire (pts (xy 154.94 120.65) (xy 161.29 120.65))
    (stroke (width 0) (type default) (color 0 0 0 0))
    (uuid f9848ccc-a162-4dd6-a7ff-2eaa8ddcbbfb)
  )

  (global_label "PWM" (shape input) (at 203.2 81.28 180) (fields_autoplaced)
    (effects (font (size 1.27 1.27)) (justify right))
    (uuid 17eb094d-ef33-4cc9-8284-7c15dbad04a3)
    (property "Обозначения листов" "${INTERSHEET_REFS}" (id 0) (at 196.614 81.2006 0)
      (effects (font (size 1.27 1.27)) (justify right) hide)
    )
  )
  (global_label "+24v" (shape input) (at 149.86 64.77 0) (fields_autoplaced)
    (effects (font (size 1.27 1.27)) (justify left))
    (uuid 2abc3dd4-c50c-4bd5-b2ef-922ec7ca7532)
    (property "Обозначения листов" "${INTERSHEET_REFS}" (id 0) (at 157.2321 64.6906 0)
      (effects (font (size 1.27 1.27)) (justify left) hide)
    )
  )
  (global_label "D10" (shape input) (at 82.55 88.9 0) (fields_autoplaced)
    (effects (font (size 1.27 1.27)) (justify left))
    (uuid 2c05b05f-f579-4ff4-b5f3-33efd64c995c)
    (property "Обозначения листов" "${INTERSHEET_REFS}" (id 0) (at 88.6521 88.8206 0)
      (effects (font (size 1.27 1.27)) (justify left) hide)
    )
  )
  (global_label "GND" (shape input) (at 161.29 120.65 0) (fields_autoplaced)
    (effects (font (size 1.27 1.27)) (justify left))
    (uuid 38d394cc-9268-4dc9-8763-137d38b36bba)
    (property "Обозначения листов" "${INTERSHEET_REFS}" (id 0) (at 167.5736 120.5706 0)
      (effects (font (size 1.27 1.27)) (justify left) hide)
    )
  )
  (global_label "D11" (shape input) (at 163.83 81.28 0) (fields_autoplaced)
    (effects (font (size 1.27 1.27)) (justify left))
    (uuid 3edc0ea6-370c-4203-add1-cfae8547d1e5)
    (property "Обозначения листов" "${INTERSHEET_REFS}" (id 0) (at 169.9321 81.2006 0)
      (effects (font (size 1.27 1.27)) (justify left) hide)
    )
  )
  (global_label "PWM" (shape input) (at 171.45 111.76 0) (fields_autoplaced)
    (effects (font (size 1.27 1.27)) (justify left))
    (uuid 53bf45a8-4b31-4c99-bb2a-3d612c5b3a26)
    (property "Обозначения листов" "${INTERSHEET_REFS}" (id 0) (at 178.036 111.6806 0)
      (effects (font (size 1.27 1.27)) (justify left) hide)
    )
  )
  (global_label "GND" (shape input) (at 203.2 83.82 180) (fields_autoplaced)
    (effects (font (size 1.27 1.27)) (justify right))
    (uuid 6e3d99b6-2d1b-4532-a74c-a857fa54ca71)
    (property "Обозначения листов" "${INTERSHEET_REFS}" (id 0) (at 196.9164 83.7406 0)
      (effects (font (size 1.27 1.27)) (justify right) hide)
    )
  )
  (global_label "+24v" (shape input) (at 203.2 73.66 180) (fields_autoplaced)
    (effects (font (size 1.27 1.27)) (justify right))
    (uuid 782f90cc-9da5-4551-a059-83aad2544f26)
    (property "Обозначения листов" "${INTERSHEET_REFS}" (id 0) (at 195.8279 73.5806 0)
      (effects (font (size 1.27 1.27)) (justify right) hide)
    )
  )
  (global_label "D10" (shape input) (at 203.2 78.74 180) (fields_autoplaced)
    (effects (font (size 1.27 1.27)) (justify right))
    (uuid e966c4d8-a5a1-4af8-b516-96acae8f98c7)
    (property "Обозначения листов" "${INTERSHEET_REFS}" (id 0) (at 197.0979 78.6606 0)
      (effects (font (size 1.27 1.27)) (justify right) hide)
    )
  )
  (global_label "D11" (shape input) (at 203.2 76.2 180) (fields_autoplaced)
    (effects (font (size 1.27 1.27)) (justify right))
    (uuid f285d2f4-c918-43ae-8601-73927c4fbeb3)
    (property "Обозначения листов" "${INTERSHEET_REFS}" (id 0) (at 197.0979 76.2794 0)
      (effects (font (size 1.27 1.27)) (justify right) hide)
    )
  )

  (symbol (lib_id "Transistor_BJT:TIP122") (at 110.49 92.71 0) (unit 1)
    (in_bom yes) (on_board yes) (fields_autoplaced)
    (uuid 020d65ea-82dc-4ee1-842d-d367b417d78e)
    (property "Reference" "Q?" (id 0) (at 116.84 91.4399 0)
      (effects (font (size 1.27 1.27)) (justify left))
    )
    (property "Value" "TIP122" (id 1) (at 116.84 93.9799 0)
      (effects (font (size 1.27 1.27)) (justify left))
    )
    (property "Footprint" "Package_TO_SOT_THT:TO-220-3_Vertical" (id 2) (at 115.57 94.615 0)
      (effects (font (size 1.27 1.27) italic) (justify left) hide)
    )
    (property "Datasheet" "https://www.onsemi.com/pub/Collateral/TIP120-D.PDF" (id 3) (at 110.49 92.71 0)
      (effects (font (size 1.27 1.27)) (justify left) hide)
    )
    (pin "1" (uuid d35318a5-4c35-4ad8-890b-5c4582e6080c))
    (pin "2" (uuid 9e3a9ae8-e47f-4859-99b3-e1575b94cd8c))
    (pin "3" (uuid d092800c-6b1f-4f39-83a6-682b58006e01))
  )

  (symbol (lib_id "Transistor_BJT:TIP127") (at 138.43 74.93 0) (mirror y) (unit 1)
    (in_bom yes) (on_board yes) (fields_autoplaced)
    (uuid 515d360f-dd44-4eb8-a123-e93d9f9690cb)
    (property "Reference" "Q?" (id 0) (at 132.08 73.6599 0)
      (effects (font (size 1.27 1.27)) (justify left))
    )
    (property "Value" "TIP127" (id 1) (at 132.08 76.1999 0)
      (effects (font (size 1.27 1.27)) (justify left))
    )
    (property "Footprint" "Package_TO_SOT_THT:TO-220-3_Vertical" (id 2) (at 133.35 76.835 0)
      (effects (font (size 1.27 1.27) italic) (justify left) hide)
    )
    (property "Datasheet" "https://www.onsemi.com/pub/Collateral/TIP120-D.PDF" (id 3) (at 138.43 74.93 0)
      (effects (font (size 1.27 1.27)) (justify left) hide)
    )
    (pin "1" (uuid 117c8ebb-2979-44c7-8f29-6a6cbd80b12c))
    (pin "2" (uuid 256c5910-539b-45bb-a2eb-2589e1a72bba))
    (pin "3" (uuid 00c0304b-f1aa-4d97-9e51-6e8f70584139))
  )

  (symbol (lib_id "Transistor_BJT:TIP127") (at 110.49 74.93 0) (unit 1)
    (in_bom yes) (on_board yes) (fields_autoplaced)
    (uuid 522ac777-9c3d-4694-b536-bacb7b578060)
    (property "Reference" "Q?" (id 0) (at 116.84 73.6599 0)
      (effects (font (size 1.27 1.27)) (justify left))
    )
    (property "Value" "TIP127" (id 1) (at 116.84 76.1999 0)
      (effects (font (size 1.27 1.27)) (justify left))
    )
    (property "Footprint" "Package_TO_SOT_THT:TO-220-3_Vertical" (id 2) (at 115.57 76.835 0)
      (effects (font (size 1.27 1.27) italic) (justify left) hide)
    )
    (property "Datasheet" "https://www.onsemi.com/pub/Collateral/TIP120-D.PDF" (id 3) (at 110.49 74.93 0)
      (effects (font (size 1.27 1.27)) (justify left) hide)
    )
    (pin "1" (uuid f052c9cd-250c-4ceb-aac1-2eefc67d5647))
    (pin "2" (uuid 01116039-1e1e-4d7a-a44c-fc1ba2e11860))
    (pin "3" (uuid 0a24801e-856a-45c6-aea3-65eb6b8d6e4f))
  )

  (symbol (lib_id "Transistor_BJT:TIP122") (at 156.21 81.28 0) (mirror y) (unit 1)
    (in_bom yes) (on_board yes) (fields_autoplaced)
    (uuid 74df1094-1e2b-418e-9870-975c83f1d5ce)
    (property "Reference" "Q?" (id 0) (at 149.86 80.0099 0)
      (effects (font (size 1.27 1.27)) (justify left))
    )
    (property "Value" "TIP122" (id 1) (at 149.86 82.5499 0)
      (effects (font (size 1.27 1.27)) (justify left))
    )
    (property "Footprint" "Package_TO_SOT_THT:TO-220-3_Vertical" (id 2) (at 151.13 83.185 0)
      (effects (font (size 1.27 1.27) italic) (justify left) hide)
    )
    (property "Datasheet" "https://www.onsemi.com/pub/Collateral/TIP120-D.PDF" (id 3) (at 156.21 81.28 0)
      (effects (font (size 1.27 1.27)) (justify left) hide)
    )
    (pin "1" (uuid 3da5b41d-73dc-4447-aee4-2a5168a56ad7))
    (pin "2" (uuid 9b917c66-d865-4e21-86f6-3609e157b686))
    (pin "3" (uuid f8452cbc-2b30-4f2d-a5ff-c3233c749081))
  )

  (symbol (lib_id "Device:R") (at 147.32 74.93 270) (unit 1)
    (in_bom yes) (on_board yes) (fields_autoplaced)
    (uuid a2bb3ad9-42f2-4d15-a5ce-616e6d9cb921)
    (property "Reference" "R?" (id 0) (at 147.32 68.58 90))
    (property "Value" "R" (id 1) (at 147.32 71.12 90))
    (property "Footprint" "" (id 2) (at 147.32 73.152 90)
      (effects (font (size 1.27 1.27)) hide)
    )
    (property "Datasheet" "~" (id 3) (at 147.32 74.93 0)
      (effects (font (size 1.27 1.27)) hide)
    )
    (pin "1" (uuid e27b5d15-253c-438f-87f6-2960428c9cae))
    (pin "2" (uuid 6da48c6c-0e5d-4081-86b8-99d8c00097e0))
  )

  (symbol (lib_id "Transistor_BJT:TIP122") (at 157.48 111.76 0) (mirror y) (unit 1)
    (in_bom yes) (on_board yes) (fields_autoplaced)
    (uuid a3000bd9-7faa-4d30-ae1e-e90123a8e63a)
    (property "Reference" "Q?" (id 0) (at 151.13 110.4899 0)
      (effects (font (size 1.27 1.27)) (justify left))
    )
    (property "Value" "TIP122" (id 1) (at 151.13 113.0299 0)
      (effects (font (size 1.27 1.27)) (justify left))
    )
    (property "Footprint" "Package_TO_SOT_THT:TO-220-3_Vertical" (id 2) (at 152.4 113.665 0)
      (effects (font (size 1.27 1.27) italic) (justify left) hide)
    )
    (property "Datasheet" "https://www.onsemi.com/pub/Collateral/TIP120-D.PDF" (id 3) (at 157.48 111.76 0)
      (effects (font (size 1.27 1.27)) (justify left) hide)
    )
    (pin "1" (uuid 7bd95a6b-b1fa-4a48-8271-7e0097a6c23e))
    (pin "2" (uuid d39039e7-f293-41c0-9746-d009ac76189e))
    (pin "3" (uuid 3353ca01-3fef-4d58-a0ce-fda658fe221b))
  )

  (symbol (lib_id "Transistor_BJT:TIP122") (at 87.63 81.28 0) (unit 1)
    (in_bom yes) (on_board yes) (fields_autoplaced)
    (uuid a525a9fe-d0fb-4379-9c58-c753086f1d1e)
    (property "Reference" "Q?" (id 0) (at 93.98 80.0099 0)
      (effects (font (size 1.27 1.27)) (justify left))
    )
    (property "Value" "TIP122" (id 1) (at 93.98 82.5499 0)
      (effects (font (size 1.27 1.27)) (justify left))
    )
    (property "Footprint" "Package_TO_SOT_THT:TO-220-3_Vertical" (id 2) (at 92.71 83.185 0)
      (effects (font (size 1.27 1.27) italic) (justify left) hide)
    )
    (property "Datasheet" "https://www.onsemi.com/pub/Collateral/TIP120-D.PDF" (id 3) (at 87.63 81.28 0)
      (effects (font (size 1.27 1.27)) (justify left) hide)
    )
    (pin "1" (uuid f232c3f0-976f-4a29-be4e-afc106b22093))
    (pin "2" (uuid ada71c07-1cb9-4890-a174-8f01c9bc2c57))
    (pin "3" (uuid 1fbf54b7-dc71-46d6-ab3a-ad8a9c6bcc00))
  )

  (symbol (lib_id "Connector:Conn_01x05_Female") (at 217.17 78.74 0) (unit 1)
    (in_bom yes) (on_board yes) (fields_autoplaced)
    (uuid b37f8ca9-d48a-45ae-9b5b-31fe20b8d5a0)
    (property "Reference" "J?" (id 0) (at 218.44 77.4699 0)
      (effects (font (size 1.27 1.27)) (justify left))
    )
    (property "Value" "Conn_01x05_Female" (id 1) (at 218.44 80.0099 0)
      (effects (font (size 1.27 1.27)) (justify left))
    )
    (property "Footprint" "" (id 2) (at 217.17 78.74 0)
      (effects (font (size 1.27 1.27)) hide)
    )
    (property "Datasheet" "~" (id 3) (at 217.17 78.74 0)
      (effects (font (size 1.27 1.27)) hide)
    )
    (pin "1" (uuid c0a02494-5d4a-4fba-a21c-b687c20ec6f7))
    (pin "2" (uuid 6ad2c003-a710-4ba3-935b-d8385dc35012))
    (pin "3" (uuid db8e910c-6dc5-4d5e-9d6b-b2bc79ef2bcd))
    (pin "4" (uuid e83cbd1e-373e-454b-b0c8-873cd7ffe655))
    (pin "5" (uuid adc8c8ec-51e6-4c31-b193-7cb4d78e1edd))
  )

  (symbol (lib_id "Transistor_BJT:TIP122") (at 138.43 92.71 0) (mirror y) (unit 1)
    (in_bom yes) (on_board yes) (fields_autoplaced)
    (uuid c80eb40e-c086-41dc-98ce-09cb3e167eb7)
    (property "Reference" "Q?" (id 0) (at 132.08 91.4399 0)
      (effects (font (size 1.27 1.27)) (justify left))
    )
    (property "Value" "TIP122" (id 1) (at 132.08 93.9799 0)
      (effects (font (size 1.27 1.27)) (justify left))
    )
    (property "Footprint" "Package_TO_SOT_THT:TO-220-3_Vertical" (id 2) (at 133.35 94.615 0)
      (effects (font (size 1.27 1.27) italic) (justify left) hide)
    )
    (property "Datasheet" "https://www.onsemi.com/pub/Collateral/TIP120-D.PDF" (id 3) (at 138.43 92.71 0)
      (effects (font (size 1.27 1.27)) (justify left) hide)
    )
    (pin "1" (uuid c01b51ec-0435-48ce-ac11-b25f0787708f))
    (pin "2" (uuid f5cdaf7a-f747-44d1-b57d-39d1a91acf94))
    (pin "3" (uuid 92215b05-db72-4317-9373-24a88cb4384d))
  )

  (symbol (lib_id "Device:R") (at 100.33 74.93 270) (unit 1)
    (in_bom yes) (on_board yes) (fields_autoplaced)
    (uuid d7bf23cc-7eb5-448b-bab7-720a63216a16)
    (property "Reference" "R?" (id 0) (at 100.33 68.58 90))
    (property "Value" "R" (id 1) (at 100.33 71.12 90))
    (property "Footprint" "" (id 2) (at 100.33 73.152 90)
      (effects (font (size 1.27 1.27)) hide)
    )
    (property "Datasheet" "~" (id 3) (at 100.33 74.93 0)
      (effects (font (size 1.27 1.27)) hide)
    )
    (pin "1" (uuid 6eb0f874-5b3f-46bc-a67a-0ae172d9d537))
    (pin "2" (uuid 68dde588-0835-46dc-841d-41fef228f096))
  )

  (symbol (lib_id "Connector:Conn_01x02_Female") (at 125.73 111.76 270) (unit 1)
    (in_bom yes) (on_board yes) (fields_autoplaced)
    (uuid fefb4817-2fd1-42ae-9613-a9ea0feeecf1)
    (property "Reference" "J?" (id 0) (at 127 109.8549 90)
      (effects (font (size 1.27 1.27)) (justify left))
    )
    (property "Value" "MOTOR1_OUT" (id 1) (at 127 112.3949 90)
      (effects (font (size 1.27 1.27)) (justify left))
    )
    (property "Footprint" "" (id 2) (at 125.73 111.76 0)
      (effects (font (size 1.27 1.27)) hide)
    )
    (property "Datasheet" "~" (id 3) (at 125.73 111.76 0)
      (effects (font (size 1.27 1.27)) hide)
    )
    (pin "1" (uuid 1514c0ce-10d5-4ec6-92fa-533f64575c9f))
    (pin "2" (uuid 2eb9a5a7-f94b-486d-bed6-fb81d3aae00a))
  )

  (sheet_instances
    (path "/" (page "1"))
  )

  (symbol_instances
    (path "/b37f8ca9-d48a-45ae-9b5b-31fe20b8d5a0"
      (reference "J?") (unit 1) (value "Conn_01x05_Female") (footprint "")
    )
    (path "/fefb4817-2fd1-42ae-9613-a9ea0feeecf1"
      (reference "J?") (unit 1) (value "MOTOR1_OUT") (footprint "")
    )
    (path "/020d65ea-82dc-4ee1-842d-d367b417d78e"
      (reference "Q?") (unit 1) (value "TIP122") (footprint "Package_TO_SOT_THT:TO-220-3_Vertical")
    )
    (path "/515d360f-dd44-4eb8-a123-e93d9f9690cb"
      (reference "Q?") (unit 1) (value "TIP127") (footprint "Package_TO_SOT_THT:TO-220-3_Vertical")
    )
    (path "/522ac777-9c3d-4694-b536-bacb7b578060"
      (reference "Q?") (unit 1) (value "TIP127") (footprint "Package_TO_SOT_THT:TO-220-3_Vertical")
    )
    (path "/74df1094-1e2b-418e-9870-975c83f1d5ce"
      (reference "Q?") (unit 1) (value "TIP122") (footprint "Package_TO_SOT_THT:TO-220-3_Vertical")
    )
    (path "/a3000bd9-7faa-4d30-ae1e-e90123a8e63a"
      (reference "Q?") (unit 1) (value "TIP122") (footprint "Package_TO_SOT_THT:TO-220-3_Vertical")
    )
    (path "/a525a9fe-d0fb-4379-9c58-c753086f1d1e"
      (reference "Q?") (unit 1) (value "TIP122") (footprint "Package_TO_SOT_THT:TO-220-3_Vertical")
    )
    (path "/c80eb40e-c086-41dc-98ce-09cb3e167eb7"
      (reference "Q?") (unit 1) (value "TIP122") (footprint "Package_TO_SOT_THT:TO-220-3_Vertical")
    )
    (path "/a2bb3ad9-42f2-4d15-a5ce-616e6d9cb921"
      (reference "R?") (unit 1) (value "R") (footprint "")
    )
    (path "/d7bf23cc-7eb5-448b-bab7-720a63216a16"
      (reference "R?") (unit 1) (value "R") (footprint "")
    )
  )
)
