(kicad_pcb (version 20221018) (generator pcbnew)

  (general
    (thickness 1.6)
  )

  (paper "A4")
  (layers
    (0 "F.Cu" signal)
    (31 "B.Cu" signal)
    (32 "B.Adhes" user "B.Adhesive")
    (33 "F.Adhes" user "F.Adhesive")
    (34 "B.Paste" user)
    (35 "F.Paste" user)
    (36 "B.SilkS" user "B.Silkscreen")
    (37 "F.SilkS" user "F.Silkscreen")
    (38 "B.Mask" user)
    (39 "F.Mask" user)
    (40 "Dwgs.User" user "User.Drawings")
    (41 "Cmts.User" user "User.Comments")
    (42 "Eco1.User" user "User.Eco1")
    (43 "Eco2.User" user "User.Eco2")
    (44 "Edge.Cuts" user)
    (45 "Margin" user)
    (46 "B.CrtYd" user "B.Courtyard")
    (47 "F.CrtYd" user "F.Courtyard")
    (48 "B.Fab" user)
    (49 "F.Fab" user)
    (50 "User.1" user)
    (51 "User.2" user)
    (52 "User.3" user)
    (53 "User.4" user)
    (54 "User.5" user)
    (55 "User.6" user)
    (56 "User.7" user)
    (57 "User.8" user)
    (58 "User.9" user)
  )

  (setup
    (pad_to_mask_clearance 0)
    (pcbplotparams
      (layerselection 0x0001000_fffffffe)
      (plot_on_all_layers_selection 0x0000000_00000000)
      (disableapertmacros false)
      (usegerberextensions false)
      (usegerberattributes true)
      (usegerberadvancedattributes true)
      (creategerberjobfile true)
      (dashed_line_dash_ratio 12.000000)
      (dashed_line_gap_ratio 3.000000)
      (svgprecision 4)
      (plotframeref false)
      (viasonmask false)
      (mode 1)
      (useauxorigin false)
      (hpglpennumber 1)
      (hpglpenspeed 20)
      (hpglpendiameter 15.000000)
      (dxfpolygonmode true)
      (dxfimperialunits true)
      (dxfusepcbnewfont true)
      (psnegative false)
      (psa4output false)
      (plotreference true)
      (plotvalue true)
      (plotinvisibletext false)
      (sketchpadsonfab false)
      (subtractmaskfromsilk false)
      (outputformat 1)
      (mirror false)
      (drillshape 0)
      (scaleselection 1)
      (outputdirectory "")
    )
  )

  (net 0 "")
  (net 1 "unconnected-(A1-D1{slash}TX-Pad1)")
  (net 2 "unconnected-(A1-D0{slash}RX-Pad2)")
  (net 3 "unconnected-(A1-~{RESET}-Pad3)")
  (net 4 "GND")
  (net 5 "RX")
  (net 6 "TX")
  (net 7 "unconnected-(A1-D4-Pad7)")
  (net 8 "unconnected-(A1-D5-Pad8)")
  (net 9 "unconnected-(A1-D6-Pad9)")
  (net 10 "unconnected-(A1-D7-Pad10)")
  (net 11 "unconnected-(A1-D8-Pad11)")
  (net 12 "unconnected-(A1-D9-Pad12)")
  (net 13 "unconnected-(A1-D10-Pad13)")
  (net 14 "unconnected-(A1-D11-Pad14)")
  (net 15 "unconnected-(A1-D12-Pad15)")
  (net 16 "unconnected-(A1-D13-Pad16)")
  (net 17 "unconnected-(A1-3V3-Pad17)")
  (net 18 "unconnected-(A1-AREF-Pad18)")
  (net 19 "SIG_optopara")
  (net 20 "unconnected-(A1-A1-Pad20)")
  (net 21 "unconnected-(A1-A2-Pad21)")
  (net 22 "unconnected-(A1-A3-Pad22)")
  (net 23 "unconnected-(A1-A4-Pad23)")
  (net 24 "unconnected-(A1-A5-Pad24)")
  (net 25 "unconnected-(A1-A6-Pad25)")
  (net 26 "unconnected-(A1-A7-Pad26)")
  (net 27 "+5V")
  (net 28 "unconnected-(A1-~{RESET}-Pad28)")
  (net 29 "unconnected-(A1-VIN-Pad30)")
  (net 30 "Net-(J1-Pin_1)")
  (net 31 "VIN")
  (net 32 "Net-(J6-Pin_1)")
  (net 33 "Net-(J6-Pin_2)")
  (net 34 "Net-(J7-Pin_1)")
  (net 35 "unconnected-(J9-Pin_4-Pad4)")
  (net 36 "unconnected-(J9-Pin_5-Pad5)")
  (net 37 "unconnected-(J10-Pin_1-Pad1)")
  (net 38 "unconnected-(J10-Pin_2-Pad2)")
  (net 39 "unconnected-(J10-Pin_3-Pad3)")
  (net 40 "unconnected-(J10-Pin_4-Pad4)")
  (net 41 "unconnected-(J10-Pin_5-Pad5)")
  (net 42 "unconnected-(J10-Pin_6-Pad6)")
  (net 43 "unconnected-(J10-Pin_7-Pad7)")
  (net 44 "unconnected-(J10-Pin_8-Pad8)")

  (footprint "Connector_BarrelJack:BarrelJack_Horizontal" (layer "F.Cu")
    (tstamp 29f6cf7f-8070-48d0-bc94-9c701ed1bffb)
    (at 10 54.5)
    (descr "DC Barrel Jack")
    (tags "Power Jack")
    (property "Sheetfile" "money_box.kicad_sch")
    (property "Sheetname" "")
    (property "ki_description" "Generic connector, single row, 01x02, script generated (kicad-library-utils/schlib/autogen/connector/)")
    (property "ki_keywords" "connector")
    (path "/ba7e5854-1433-48e8-9f30-a21dfbc3f2be")
    (attr through_hole)
    (fp_text reference "J1" (at -8.45 5.75) (layer "F.SilkS")
        (effects (font (size 1 1) (thickness 0.15)))
      (tstamp c73a1b3c-7ee1-4d1d-9559-57c6f5a8bec1)
    )
    (fp_text value "JACK" (at -6.2 -5.5) (layer "F.Fab")
        (effects (font (size 1 1) (thickness 0.15)))
      (tstamp 5a0dab6d-5d45-475b-b603-786c5e1b29a3)
    )
    (fp_text user "${REFERENCE}" (at -3 -2.95) (layer "F.Fab")
        (effects (font (size 1 1) (thickness 0.15)))
      (tstamp 91afe77e-de5e-477a-abb3-f90ed9ebc497)
    )
    (fp_line (start -13.8 -4.6) (end 0.9 -4.6)
      (stroke (width 0.12) (type solid)) (layer "F.SilkS") (tstamp 3141ea32-c3e4-4efb-a15c-9fbbf88e5115))
    (fp_line (start -13.8 4.6) (end -13.8 -4.6)
      (stroke (width 0.12) (type solid)) (layer "F.SilkS") (tstamp 06932923-6888-4b66-8a70-e2319857db6f))
    (fp_line (start -5 4.6) (end -13.8 4.6)
      (stroke (width 0.12) (type solid)) (layer "F.SilkS") (tstamp 9413d577-11bf-4224-b661-33153cab08a6))
    (fp_line (start 0.05 -4.8) (end 1.1 -4.8)
      (stroke (width 0.12) (type solid)) (layer "F.SilkS") (tstamp 4e0feb8e-2cf8-4fa1-b7d5-b9a022bf9788))
    (fp_line (start 0.9 -4.6) (end 0.9 -2)
      (stroke (width 0.12) (type solid)) (layer "F.SilkS") (tstamp 47f10121-5c73-4032-92ce-3e68b4a0c0f3))
    (fp_line (start 0.9 1.9) (end 0.9 4.6)
      (stroke (width 0.12) (type solid)) (layer "F.SilkS") (tstamp fd0b127c-e3df-4ad2-bd35-4c716cb348d5))
    (fp_line (start 0.9 4.6) (end -1 4.6)
      (stroke (width 0.12) (type solid)) (layer "F.SilkS") (tstamp 7340f550-5c7b-4131-899e-44af2e1d5a00))
    (fp_line (start 1.1 -3.75) (end 1.1 -4.8)
      (stroke (width 0.12) (type solid)) (layer "F.SilkS") (tstamp 6f609f0a-a669-4a16-bd5a-0f3b8d163912))
    (fp_line (start -14 4.75) (end -14 -4.75)
      (stroke (width 0.05) (type solid)) (layer "F.CrtYd") (tstamp a0db1eb7-b427-429c-ae24-dada935b62aa))
    (fp_line (start -5 4.75) (end -14 4.75)
      (stroke (width 0.05) (type solid)) (layer "F.CrtYd") (tstamp fd7e8e33-6eef-4374-8c3d-da825ee97c87))
    (fp_line (start -5 6.75) (end -5 4.75)
      (stroke (width 0.05) (type solid)) (layer "F.CrtYd") (tstamp 7653891c-691a-49ad-9277-501c96e01672))
    (fp_line (start -1 4.75) (end -1 6.75)
      (stroke (width 0.05) (type solid)) (layer "F.CrtYd") (tstamp ec235fa0-08d7-479b-9373-64259b394460))
    (fp_line (start -1 6.75) (end -5 6.75)
      (stroke (width 0.05) (type solid)) (layer "F.CrtYd") (tstamp 42dc8465-f46e-47a7-9919-9d9b3ccf2d4e))
    (fp_line (start 1 -4.75) (end -14 -4.75)
      (stroke (width 0.05) (type solid)) (layer "F.CrtYd") (tstamp 4ea8e0cf-c0c9-406f-b273-597dad9f54e4))
    (fp_line (start 1 -4.5) (end 1 -4.75)
      (stroke (width 0.05) (type solid)) (layer "F.CrtYd") (tstamp 468d6bb6-372b-4ff2-aed1-0e8d1e7dc887))
    (fp_line (start 1 -4.5) (end 1 -2)
      (stroke (width 0.05) (type solid)) (layer "F.CrtYd") (tstamp 4aa82476-343d-4202-95d9-83be832bcaf4))
    (fp_line (start 1 -2) (end 2 -2)
      (stroke (width 0.05) (type solid)) (layer "F.CrtYd") (tstamp 7dca7d30-2175-4529-954a-00f7fa3ce485))
    (fp_line (start 1 2) (end 1 4.75)
      (stroke (width 0.05) (type solid)) (layer "F.CrtYd") (tstamp 2f9e69fe-cb85-40a8-b166-3ac0a545bc17))
    (fp_line (start 1 4.75) (end -1 4.75)
      (stroke (width 0.05) (type solid)) (layer "F.CrtYd") (tstamp 0fbfe417-4cd9-46e6-b081-8928bea09dea))
    (fp_line (start 2 -2) (end 2 2)
      (stroke (width 0.05) (type solid)) (layer "F.CrtYd") (tstamp fd644776-1abf-4e5a-af24-ac940869dcba))
    (fp_line (start 2 2) (end 1 2)
      (stroke (width 0.05) (type solid)) (layer "F.CrtYd") (tstamp 095abf6f-60e3-4911-8f5b-bdaa74288d9f))
    (fp_line (start -13.7 -4.5) (end -13.7 4.5)
      (stroke (width 0.1) (type solid)) (layer "F.Fab") (tstamp de9e1688-e2d2-450e-a0a0-10a3d71d4451))
    (fp_line (start -13.7 4.5) (end 0.8 4.5)
      (stroke (width 0.1) (type solid)) (layer "F.Fab") (tstamp 798a2ec2-ddc2-4c14-bf82-9d73ccf15441))
    (fp_line (start -10.2 -4.5) (end -10.2 4.5)
      (stroke (width 0.1) (type solid)) (layer "F.Fab") (tstamp 276b3aac-d1ea-47f3-959a-337f79c1331c))
    (fp_line (start -0.003213 -4.505425) (end 0.8 -3.75)
      (stroke (width 0.1) (type solid)) (layer "F.Fab") (tstamp c6d84043-727c-4c1f-af5a-4dd2550ae53c))
    (fp_line (start 0 -4.5) (end -13.7 -4.5)
      (stroke (width 0.1) (type solid)) (layer "F.Fab") (tstamp ba3376df-bf20-4163-a6dd-70edc25e8694))
    (fp_line (start 0.8 4.5) (end 0.8 -3.75)
      (stroke (width 0.1) (type solid)) (layer "F.Fab") (tstamp 8b1db11f-09c3-42d3-a2ee-7a72effb6bcd))
    (pad "1" thru_hole rect (at 0 0) (size 3.5 3.5) (drill oval 1 3) (layers "*.Cu" "*.Mask")
      (net 30 "Net-(J1-Pin_1)") (pinfunction "Pin_1") (pintype "passive") (tstamp dff8a9b6-592b-4ea7-a77b-20190a6a52a0))
    (pad "2" thru_hole roundrect (at -6 0) (size 3 3.5) (drill oval 1 3) (layers "*.Cu" "*.Mask") (roundrect_rratio 0.25)
      (net 4 "GND") (pinfunction "Pin_2") (pintype "passive") (tstamp d20da8ca-981e-466d-b403-d974aee520cb))
    (pad "3" thru_hole roundrect (at -3 4.7) (size 3.5 3.5) (drill oval 3 1) (layers "*.Cu" "*.Mask") (roundrect_rratio 0.25) (tstamp 9c8ab8bb-a10d-4d75-be50-011b79c62277))
    (model "${KICAD6_3DMODEL_DIR}/Connector_BarrelJack.3dshapes/BarrelJack_Horizontal.wrl"
      (offset (xyz 0 0 0))
      (scale (xyz 1 1 1))
      (rotate (xyz 0 0 0))
    )
  )

  (footprint "Connector_PinSocket_2.54mm:PinSocket_1x09_P2.54mm_Vertical" (layer "F.Cu")
    (tstamp 3a223e39-3f86-4ad1-931a-1ae3f7d680db)
    (at 49 28.18)
    (descr "Through hole straight socket strip, 1x09, 2.54mm pitch, single row (from Kicad 4.0.7), script generated")
    (tags "Through hole socket strip THT 1x09 2.54mm single row")
    (property "Sheetfile" "money_box.kicad_sch")
    (property "Sheetname" "")
    (property "ki_description" "Generic connector, single row, 01x08, script generated")
    (property "ki_keywords" "connector")
    (path "/e040037d-b475-4021-9192-faacf0c60c7e")
    (attr through_hole)
    (fp_text reference "J9" (at 0 -2.77) (layer "F.SilkS")
        (effects (font (size 1 1) (thickness 0.15)))
      (tstamp 4893c0a3-7103-4d1f-896e-f4d099e18954)
    )
    (fp_text value "MP3_1" (at 0 23.09) (layer "F.Fab")
        (effects (font (size 1 1) (thickness 0.15)))
      (tstamp 7d532aba-9362-44e2-8b5d-08706c3be4d3)
    )
    (fp_text user "${REFERENCE}" (at 0 10.16 90) (layer "F.Fab")
        (effects (font (size 1 1) (thickness 0.15)))
      (tstamp 122835d0-5e40-43eb-84b9-6545764bbab6)
    )
    (fp_line (start -1.33 1.27) (end -1.33 21.65)
      (stroke (width 0.12) (type solid)) (layer "F.SilkS") (tstamp a245794f-2b6d-4a77-95a5-5d6b7a8bce39))
    (fp_line (start -1.33 1.27) (end 1.33 1.27)
      (stroke (width 0.12) (type solid)) (layer "F.SilkS") (tstamp 2751faf8-7c8b-47df-977a-0310290b99a9))
    (fp_line (start -1.33 21.65) (end 1.33 21.65)
      (stroke (width 0.12) (type solid)) (layer "F.SilkS") (tstamp 6e44fd69-3d57-4ee9-ab21-9eb166c55097))
    (fp_line (start 0 -1.33) (end 1.33 -1.33)
      (stroke (width 0.12) (type solid)) (layer "F.SilkS") (tstamp 0682a975-4999-44c6-87e0-e0bd26c37054))
    (fp_line (start 1.33 -1.33) (end 1.33 0)
      (stroke (width 0.12) (type solid)) (layer "F.SilkS") (tstamp f4e5b21a-3a56-48fe-ad8e-93e9d6c0a83b))
    (fp_line (start 1.33 1.27) (end 1.33 21.65)
      (stroke (width 0.12) (type solid)) (layer "F.SilkS") (tstamp 02b7aa8e-f96c-45fb-bab7-6d56e77f7a0f))
    (fp_line (start -1.8 -1.8) (end 1.75 -1.8)
      (stroke (width 0.05) (type solid)) (layer "F.CrtYd") (tstamp 9d60b22e-abe1-476b-aa26-0a6ce527d69d))
    (fp_line (start -1.8 22.1) (end -1.8 -1.8)
      (stroke (width 0.05) (type solid)) (layer "F.CrtYd") (tstamp 7570a76a-27cf-453c-a85e-bdc97aa3a036))
    (fp_line (start 1.75 -1.8) (end 1.75 22.1)
      (stroke (width 0.05) (type solid)) (layer "F.CrtYd") (tstamp 8408ed4e-754c-4072-9277-ef37e027317a))
    (fp_line (start 1.75 22.1) (end -1.8 22.1)
      (stroke (width 0.05) (type solid)) (layer "F.CrtYd") (tstamp e411e968-dcd1-4536-8029-640a596aa4ea))
    (fp_line (start -1.27 -1.27) (end 0.635 -1.27)
      (stroke (width 0.1) (type solid)) (layer "F.Fab") (tstamp 1e8dbafa-417b-49ae-8eb0-e6724a99414e))
    (fp_line (start -1.27 21.59) (end -1.27 -1.27)
      (stroke (width 0.1) (type solid)) (layer "F.Fab") (tstamp f0cb4039-8a8f-4144-a7da-e27439eda764))
    (fp_line (start 0.635 -1.27) (end 1.27 -0.635)
      (stroke (width 0.1) (type solid)) (layer "F.Fab") (tstamp 6a2e1e1e-1826-4145-843b-a33f807bc2ae))
    (fp_line (start 1.27 -0.635) (end 1.27 21.59)
      (stroke (width 0.1) (type solid)) (layer "F.Fab") (tstamp f031bfc2-fe77-4715-8ce4-475d42ecd613))
    (fp_line (start 1.27 21.59) (end -1.27 21.59)
      (stroke (width 0.1) (type solid)) (layer "F.Fab") (tstamp eec27f57-2479-4bd8-9ae4-cc1027e5647f))
    (pad "1" thru_hole rect (at 0 0) (size 1.7 1.7) (drill 1) (layers "*.Cu" "*.Mask")
      (net 27 "+5V") (pinfunction "Pin_1") (pintype "passive") (tstamp 6bc3706e-8f0a-4e68-872b-38111fb1b19a))
    (pad "2" thru_hole oval (at 0 2.54) (size 1.7 1.7) (drill 1) (layers "*.Cu" "*.Mask")
      (net 5 "RX") (pinfunction "Pin_2") (pintype "passive") (tstamp 3995db1f-1c27-45f3-a428-59eb9cb6fc70))
    (pad "3" thru_hole oval (at 0 5.08) (size 1.7 1.7) (drill 1) (layers "*.Cu" "*.Mask")
      (net 6 "TX") (pinfunction "Pin_3") (pintype "passive") (tstamp ce4c423c-cb1d-4775-ae5e-ef9a595b0785))
    (pad "4" thru_hole oval (at 0 7.62) (size 1.7 1.7) (drill 1) (layers "*.Cu" "*.Mask")
      (net 35 "unconnected-(J9-Pin_4-Pad4)") (pinfunction "Pin_4") (pintype "passive") (tstamp 95f64de2-947e-4278-8406-cf462840069f))
    (pad "5" thru_hole oval (at 0 10.16) (size 1.7 1.7) (drill 1) (layers "*.Cu" "*.Mask")
      (net 36 "unconnected-(J9-Pin_5-Pad5)") (pinfunction "Pin_5") (pintype "passive") (tstamp 958edeb0-7e7d-4572-808f-fefae16d7080))
    (pad "6" thru_hole oval (at 0 12.7) (size 1.7 1.7) (drill 1) (layers "*.Cu" "*.Mask")
      (net 33 "Net-(J6-Pin_2)") (pinfunction "Pin_6") (pintype "passive") (tstamp 4fdc5ee6-dc9e-4406-a313-8e42ab28d5f1))
    (pad "7" thru_hole oval (at 0 15.24) (size 1.7 1.7) (drill 1) (layers "*.Cu" "*.Mask")
      (net 4 "GND") (pinfunction "Pin_7") (pintype "passive") (tstamp 697b8f5b-3224-4619-8179-4ed73eb0a888))
    (pad "8" thru_hole oval (at 0 17.78) (size 1.7 1.7) (drill 1) (layers "*.Cu" "*.Mask")
      (net 32 "Net-(J6-Pin_1)") (pinfunction "Pin_8") (pintype "passive") (tstamp 68b4acac-e1ad-44c8-a3c3-cab3bc2f2b4d))
    (pad "9" thru_hole oval (at 0 20.32) (size 1.7 1.7) (drill 1) (layers "*.Cu" "*.Mask") (tstamp 65004246-c90a-4e77-a11a-1c8f76f12094))
    (model "${KICAD6_3DMODEL_DIR}/Connector_PinSocket_2.54mm.3dshapes/PinSocket_1x09_P2.54mm_Vertical.wrl"
      (offset (xyz 0 0 0))
      (scale (xyz 1 1 1))
      (rotate (xyz 0 0 0))
    )
  )

  (footprint "Resistor_THT:R_Axial_DIN0207_L6.3mm_D2.5mm_P10.16mm_Horizontal" (layer "F.Cu")
    (tstamp 477692ff-d846-4526-a6b0-b0c93c893f1e)
    (at 53.42 16.5)
    (descr "Resistor, Axial_DIN0207 series, Axial, Horizontal, pin pitch=10.16mm, 0.25W = 1/4W, length*diameter=6.3*2.5mm^2, http://cdn-reichelt.de/documents/datenblatt/B400/1_4W%23YAG.pdf")
    (tags "Resistor Axial_DIN0207 series Axial Horizontal pin pitch 10.16mm 0.25W = 1/4W length 6.3mm diameter 2.5mm")
    (property "Sheetfile" "money_box.kicad_sch")
    (property "Sheetname" "")
    (property "ki_description" "Resistor")
    (property "ki_keywords" "R res resistor")
    (path "/199033af-64c8-4915-bc2c-b4eb2261ed74")
    (attr through_hole)
    (fp_text reference "R2" (at 5.08 -2.37) (layer "F.SilkS")
        (effects (font (size 1 1) (thickness 0.15)))
      (tstamp 90fd61a6-526e-4bd0-906b-5049bd02bb02)
    )
    (fp_text value "100R" (at 5.08 2.37) (layer "F.Fab")
        (effects (font (size 1 1) (thickness 0.15)))
      (tstamp c36c9222-3efc-4f44-8de8-174eb73d25fa)
    )
    (fp_text user "${REFERENCE}" (at 5.08 0) (layer "F.Fab")
        (effects (font (size 1 1) (thickness 0.15)))
      (tstamp 2599c8c6-5b71-4e09-b989-df602856ac9e)
    )
    (fp_line (start 1.04 0) (end 1.81 0)
      (stroke (width 0.12) (type solid)) (layer "F.SilkS") (tstamp c26f1609-41d4-44f9-908a-8dd4dbe4e2c5))
    (fp_line (start 1.81 -1.37) (end 1.81 1.37)
      (stroke (width 0.12) (type solid)) (layer "F.SilkS") (tstamp 8b923000-42fe-49af-b2ee-69ca49962863))
    (fp_line (start 1.81 1.37) (end 8.35 1.37)
      (stroke (width 0.12) (type solid)) (layer "F.SilkS") (tstamp fd4a0377-3f6c-4448-9af7-5b4d00f7df88))
    (fp_line (start 8.35 -1.37) (end 1.81 -1.37)
      (stroke (width 0.12) (type solid)) (layer "F.SilkS") (tstamp 32945339-a264-48ca-aec6-c58cd7a8d508))
    (fp_line (start 8.35 1.37) (end 8.35 -1.37)
      (stroke (width 0.12) (type solid)) (layer "F.SilkS") (tstamp 4fe0d080-54ed-4c5c-96b4-4fdbd507c156))
    (fp_line (start 9.12 0) (end 8.35 0)
      (stroke (width 0.12) (type solid)) (layer "F.SilkS") (tstamp fcaccd80-3056-4bb1-a8a7-c5d83ed1a435))
    (fp_line (start -1.05 -1.5) (end -1.05 1.5)
      (stroke (width 0.05) (type solid)) (layer "F.CrtYd") (tstamp 98059a3a-f52c-4392-9d14-74ab18fadff9))
    (fp_line (start -1.05 1.5) (end 11.21 1.5)
      (stroke (width 0.05) (type solid)) (layer "F.CrtYd") (tstamp 5d8b86d4-a7a4-4679-a237-4b199a0497d2))
    (fp_line (start 11.21 -1.5) (end -1.05 -1.5)
      (stroke (width 0.05) (type solid)) (layer "F.CrtYd") (tstamp 0f7d8b1e-5429-4958-89b3-4c61fb3c71da))
    (fp_line (start 11.21 1.5) (end 11.21 -1.5)
      (stroke (width 0.05) (type solid)) (layer "F.CrtYd") (tstamp 5ce89a53-2440-4987-88e7-3fc5a104e29a))
    (fp_line (start 0 0) (end 1.93 0)
      (stroke (width 0.1) (type solid)) (layer "F.Fab") (tstamp 34ae0511-1d9a-4dd0-8d05-94e761d8592f))
    (fp_line (start 1.93 -1.25) (end 1.93 1.25)
      (stroke (width 0.1) (type solid)) (layer "F.Fab") (tstamp ae3e5f85-c097-44ed-97d1-b26064e342f3))
    (fp_line (start 1.93 1.25) (end 8.23 1.25)
      (stroke (width 0.1) (type solid)) (layer "F.Fab") (tstamp 5c8ddd22-82aa-422a-ae1f-27fdd5bec708))
    (fp_line (start 8.23 -1.25) (end 1.93 -1.25)
      (stroke (width 0.1) (type solid)) (layer "F.Fab") (tstamp 4c8a71a4-ebeb-491b-ba1f-502ec2569689))
    (fp_line (start 8.23 1.25) (end 8.23 -1.25)
      (stroke (width 0.1) (type solid)) (layer "F.Fab") (tstamp bab730c7-e61a-475d-8460-19b89899cbeb))
    (fp_line (start 10.16 0) (end 8.23 0)
      (stroke (width 0.1) (type solid)) (layer "F.Fab") (tstamp 13cd2429-8207-4bb4-8966-0c2550cd3b9b))
    (pad "1" thru_hole circle (at 0 0) (size 1.6 1.6) (drill 0.8) (layers "*.Cu" "*.Mask")
      (net 34 "Net-(J7-Pin_1)") (pintype "passive") (tstamp f2ad1d01-274b-4365-b703-cd03f98a80c4))
    (pad "2" thru_hole oval (at 10.16 0) (size 1.6 1.6) (drill 0.8) (layers "*.Cu" "*.Mask")
      (net 27 "+5V") (pintype "passive") (tstamp 6c2360d7-7f4f-4df8-af03-e5ab332d085d))
    (model "${KICAD6_3DMODEL_DIR}/Resistor_THT.3dshapes/R_Axial_DIN0207_L6.3mm_D2.5mm_P10.16mm_Horizontal.wrl"
      (offset (xyz 0 0 0))
      (scale (xyz 1 1 1))
      (rotate (xyz 0 0 0))
    )
  )

  (footprint "Connector_PinHeader_2.54mm:PinHeader_1x02_P2.54mm_Vertical" (layer "F.Cu")
    (tstamp 5c68bf73-d08c-4e81-9458-6f5674b60858)
    (at 58 56.5 90)
    (descr "Through hole straight pin header, 1x02, 2.54mm pitch, single row")
    (tags "Through hole pin header THT 1x02 2.54mm single row")
    (property "Sheetfile" "money_box.kicad_sch")
    (property "Sheetname" "")
    (property "ki_description" "Generic connector, single row, 01x02, script generated (kicad-library-utils/schlib/autogen/connector/)")
    (property "ki_keywords" "connector")
    (path "/62841ca3-840c-4f80-8196-6d0c34555ad7")
    (attr through_hole)
    (fp_text reference "J6" (at 0 -2.33 90) (layer "F.SilkS")
        (effects (font (size 1 1) (thickness 0.15)))
      (tstamp b9157ffe-1cf5-43e7-965b-dc0918885ee9)
    )
    (fp_text value "DINAMIK" (at 0 4.87 90) (layer "F.Fab")
        (effects (font (size 1 1) (thickness 0.15)))
      (tstamp efba48b3-cef4-4fc9-9596-af76ea00f68f)
    )
    (fp_line (start -1.8 -4.5) (end -1.8 4.35)
      (stroke (width 0.05) (type solid)) (layer "F.CrtYd") (tstamp 25356092-a99e-4872-9524-fef2b69a3f04))
    (fp_line (start -1.8 4.35) (end 1.8 4.35)
      (stroke (width 0.05) (type solid)) (layer "F.CrtYd") (tstamp f83256fb-bd25-461b-8a94-1e533b8a1604))
    (fp_line (start 1.8 -4.5) (end -1.8 -4.5)
      (stroke (width 0.05) (type solid)) (layer "F.CrtYd") (tstamp 81c949b1-d9ac-4110-94e3-42c80c769cec))
    (fp_line (start 1.8 4.35) (end 1.8 -4.5)
      (stroke (width 0.05) (type solid)) (layer "F.CrtYd") (tstamp 9743722e-9589-4fdc-89b0-2695b528100f))
    (pad "1" thru_hole rect (at 0 -3 90) (size 3 3) (drill 1) (layers "*.Cu" "*.Mask")
      (net 32 "Net-(J6-Pin_1)") (pinfunction "Pin_1") (pintype "passive") (tstamp 737e72da-6135-48bb-89fa-3fcb1e591976))
    (pad "2" thru_hole rect (at 0 2.54 90) (size 3 3) (drill 1) (layers "*.Cu" "*.Mask")
      (net 33 "Net-(J6-Pin_2)") (pinfunction "Pin_2") (pintype "passive") (tstamp d739ad84-0396-4c7a-8e54-a0560d4af497))
    (model "${KICAD6_3DMODEL_DIR}/Connector_PinHeader_2.54mm.3dshapes/PinHeader_1x02_P2.54mm_Vertical.wrl"
      (offset (xyz 0 0 0))
      (scale (xyz 1 1 1))
      (rotate (xyz 0 0 0))
    )
  )

  (footprint "Connector_PinHeader_2.54mm:PinHeader_1x02_P2.54mm_Vertical" (layer "F.Cu")
    (tstamp 6e502ac2-a352-4882-9b7c-8408a5292dde)
    (at 19 56.6 180)
    (descr "Through hole straight pin header, 1x02, 2.54mm pitch, single row")
    (tags "Through hole pin header THT 1x02 2.54mm single row")
    (property "Sheetfile" "money_box.kicad_sch")
    (property "Sheetname" "")
    (property "ki_description" "Generic connector, single row, 01x02, script generated (kicad-library-utils/schlib/autogen/connector/)")
    (property "ki_keywords" "connector")
    (path "/5d4c72f1-029e-4bab-93c8-0ac64e41cd27")
    (attr through_hole)
    (fp_text reference "J3" (at 0 -2.33) (layer "F.SilkS")
        (effects (font (size 1 1) (thickness 0.15)))
      (tstamp 0883a25a-5734-45ae-bb21-708fc10d8dac)
    )
    (fp_text value "button" (at 0 15.5) (layer "F.Fab")
        (effects (font (size 1 1) (thickness 0.15)))
      (tstamp 3c79f447-d50a-4833-93dc-3636915f926d)
    )
    (fp_line (start -1.8 -1.8) (end -1.8 7)
      (stroke (width 0.05) (type solid)) (layer "F.CrtYd") (tstamp 0498d7d7-e2b0-4c6a-aca6-88cf98f91cb6))
    (fp_line (start -1.8 7) (end 1.8 7)
      (stroke (width 0.05) (type solid)) (layer "F.CrtYd") (tstamp 4cce895b-9548-40b2-b2ca-6d0fb87e6686))
    (fp_line (start 1.8 -1.8) (end -1.8 -1.8)
      (stroke (width 0.05) (type solid)) (layer "F.CrtYd") (tstamp ec73e62b-689c-4f07-abb7-2e78eac4f644))
    (fp_line (start 1.8 7) (end 1.8 -1.8)
      (stroke (width 0.05) (type solid)) (layer "F.CrtYd") (tstamp 86fad0f4-b116-4a52-8d14-14b94c1da5fc))
    (pad "1" thru_hole rect (at 0 0 180) (size 3 3) (drill 1) (layers "*.Cu" "*.Mask")
      (net 30 "Net-(J1-Pin_1)") (pinfunction "Pin_1") (pintype "passive") (tstamp fd3afb8a-5b34-4e69-91d3-eb13711bec3e))
    (pad "2" thru_hole rect (at 0 5 180) (size 3 3) (drill 1) (layers "*.Cu" "*.Mask")
      (net 31 "VIN") (pinfunction "Pin_2") (pintype "passive") (tstamp 121865cb-dedb-4b8d-aeb1-8b277c1080f8))
    (model "${KICAD6_3DMODEL_DIR}/Connector_PinHeader_2.54mm.3dshapes/PinHeader_1x02_P2.54mm_Vertical.wrl"
      (offset (xyz 0 0 0))
      (scale (xyz 1 1 1))
      (rotate (xyz 0 0 0))
    )
  )

  (footprint "Resistor_THT:R_Axial_DIN0207_L6.3mm_D2.5mm_P10.16mm_Horizontal" (layer "F.Cu")
    (tstamp 7a8398f7-8d26-4335-ab0c-89c46322ae9e)
    (at 53.42 20)
    (descr "Resistor, Axial_DIN0207 series, Axial, Horizontal, pin pitch=10.16mm, 0.25W = 1/4W, length*diameter=6.3*2.5mm^2, http://cdn-reichelt.de/documents/datenblatt/B400/1_4W%23YAG.pdf")
    (tags "Resistor Axial_DIN0207 series Axial Horizontal pin pitch 10.16mm 0.25W = 1/4W length 6.3mm diameter 2.5mm")
    (property "Sheetfile" "money_box.kicad_sch")
    (property "Sheetname" "")
    (property "ki_description" "Resistor")
    (property "ki_keywords" "R res resistor")
    (path "/979d1c41-75a6-4920-9af5-e845ebb218cb")
    (attr through_hole)
    (fp_text reference "R1" (at 5.08 -2.37) (layer "F.SilkS")
        (effects (font (size 1 1) (thickness 0.15)))
      (tstamp e60a62d1-bc7f-4bff-8a24-0279b30dc88a)
    )
    (fp_text value "10K" (at 5.08 2.37) (layer "F.Fab")
        (effects (font (size 1 1) (thickness 0.15)))
      (tstamp cdbd3dce-b8f3-45ba-80c4-109417b22895)
    )
    (fp_text user "${REFERENCE}" (at 5.08 0) (layer "F.Fab")
        (effects (font (size 1 1) (thickness 0.15)))
      (tstamp 8342b682-4786-47eb-afcd-5fd975164702)
    )
    (fp_line (start 1.04 0) (end 1.81 0)
      (stroke (width 0.12) (type solid)) (layer "F.SilkS") (tstamp de008e92-aa60-4629-8a74-4cab6e3d8c35))
    (fp_line (start 1.81 -1.37) (end 1.81 1.37)
      (stroke (width 0.12) (type solid)) (layer "F.SilkS") (tstamp 75141e3a-9c79-4564-a6ab-20698bb310ef))
    (fp_line (start 1.81 1.37) (end 8.35 1.37)
      (stroke (width 0.12) (type solid)) (layer "F.SilkS") (tstamp eefbb9a9-edd7-412b-ae16-3c11deb90bdb))
    (fp_line (start 8.35 -1.37) (end 1.81 -1.37)
      (stroke (width 0.12) (type solid)) (layer "F.SilkS") (tstamp 9736c509-97a4-431a-89a5-7733f5f16b0d))
    (fp_line (start 8.35 1.37) (end 8.35 -1.37)
      (stroke (width 0.12) (type solid)) (layer "F.SilkS") (tstamp 46204ce7-87b1-472f-96ad-36b70d80b9e3))
    (fp_line (start 9.12 0) (end 8.35 0)
      (stroke (width 0.12) (type solid)) (layer "F.SilkS") (tstamp fcf0294e-8011-416a-ac31-d2adf33a253f))
    (fp_line (start -1.05 -1.5) (end -1.05 1.5)
      (stroke (width 0.05) (type solid)) (layer "F.CrtYd") (tstamp a258749b-c0a9-4a24-b4e0-43140942f8c1))
    (fp_line (start -1.05 1.5) (end 11.21 1.5)
      (stroke (width 0.05) (type solid)) (layer "F.CrtYd") (tstamp 918ce9c8-8d83-476f-b842-3ae3922cf89a))
    (fp_line (start 11.21 -1.5) (end -1.05 -1.5)
      (stroke (width 0.05) (type solid)) (layer "F.CrtYd") (tstamp cb6f7868-57ad-4fd0-a002-a99531324b32))
    (fp_line (start 11.21 1.5) (end 11.21 -1.5)
      (stroke (width 0.05) (type solid)) (layer "F.CrtYd") (tstamp cf6fedf8-50b8-446f-9186-be630d24199d))
    (fp_line (start 0 0) (end 1.93 0)
      (stroke (width 0.1) (type solid)) (layer "F.Fab") (tstamp 65c71460-80e8-4a4e-8b38-3fd5ba38e3f2))
    (fp_line (start 1.93 -1.25) (end 1.93 1.25)
      (stroke (width 0.1) (type solid)) (layer "F.Fab") (tstamp 6d45b643-0b9e-4591-9fd6-f498c2f8552f))
    (fp_line (start 1.93 1.25) (end 8.23 1.25)
      (stroke (width 0.1) (type solid)) (layer "F.Fab") (tstamp 1438e360-de2d-4be0-b06d-d92230cc7bc5))
    (fp_line (start 8.23 -1.25) (end 1.93 -1.25)
      (stroke (width 0.1) (type solid)) (layer "F.Fab") (tstamp ad34e647-80ed-45d5-9466-897b8f4fda34))
    (fp_line (start 8.23 1.25) (end 8.23 -1.25)
      (stroke (width 0.1) (type solid)) (layer "F.Fab") (tstamp 4bbc2263-1d30-4022-ac19-a0a6ee4ee9a5))
    (fp_line (start 10.16 0) (end 8.23 0)
      (stroke (width 0.1) (type solid)) (layer "F.Fab") (tstamp 8f0c2ed4-2163-45f0-9809-6fb4cad54747))
    (pad "1" thru_hole circle (at 0 0) (size 1.6 1.6) (drill 0.8) (layers "*.Cu" "*.Mask")
      (net 19 "SIG_optopara") (pintype "passive") (tstamp e8c37ff0-ee4f-4e32-8d1b-267033c9fad6))
    (pad "2" thru_hole oval (at 10.16 0) (size 1.6 1.6) (drill 0.8) (layers "*.Cu" "*.Mask")
      (net 27 "+5V") (pintype "passive") (tstamp 6f11dd22-83fb-4b9e-9376-3ad0745cfd38))
    (model "${KICAD6_3DMODEL_DIR}/Resistor_THT.3dshapes/R_Axial_DIN0207_L6.3mm_D2.5mm_P10.16mm_Horizontal.wrl"
      (offset (xyz 0 0 0))
      (scale (xyz 1 1 1))
      (rotate (xyz 0 0 0))
    )
  )

  (footprint "Connector_PinHeader_2.54mm:PinHeader_1x02_P2.54mm_Vertical" (layer "F.Cu")
    (tstamp 81cc9ce1-30b1-48b8-a88d-7616a0b660e4)
    (at 23.25 8.75 90)
    (descr "Through hole straight pin header, 1x02, 2.54mm pitch, single row")
    (tags "Through hole pin header THT 1x02 2.54mm single row")
    (property "Sheetfile" "money_box.kicad_sch")
    (property "Sheetname" "")
    (property "ki_description" "Generic connector, single row, 01x02, script generated (kicad-library-utils/schlib/autogen/connector/)")
    (property "ki_keywords" "connector")
    (path "/3518ffa5-e974-4cc4-b03a-3e8ab7cc40b5")
    (attr through_hole)
    (fp_text reference "J12" (at 0 -2.33 90) (layer "F.SilkS")
        (effects (font (size 1 1) (thickness 0.15)))
      (tstamp fc12bdde-0bd0-4401-b2db-4d24edc686cb)
    )
    (fp_text value "stab_out" (at 0 4.87 90) (layer "F.Fab")
        (effects (font (size 1 1) (thickness 0.15)))
      (tstamp 8b8bab91-b0df-4326-811d-156f2536391e)
    )
    (fp_line (start -1.8 -18.5) (end -1.8 1.5)
      (stroke (width 0.05) (type solid)) (layer "F.CrtYd") (tstamp 37a45b31-7294-4094-a44e-2cfa30cc831e))
    (fp_line (start -1.8 1.5) (end 1.8 1.5)
      (stroke (width 0.05) (type solid)) (layer "F.CrtYd") (tstamp d240646c-69d9-4f70-a79b-d84052ff4883))
    (fp_line (start 1.8 -18.5) (end -1.8 -18.5)
      (stroke (width 0.05) (type solid)) (layer "F.CrtYd") (tstamp 7a5e2e1d-47b2-4f5d-a5e8-94e7e33396ee))
    (fp_line (start 1.8 1.5) (end 1.8 -18.5)
      (stroke (width 0.05) (type solid)) (layer "F.CrtYd") (tstamp e8740b41-07b1-4128-b10d-82acf5bca850))
    (pad "1" thru_hole rect (at 0 0 90) (size 3 3) (drill 1) (layers "*.Cu" "*.Mask")
      (net 4 "GND") (pinfunction "Pin_1") (pintype "passive") (tstamp beaa6019-d256-45a2-9d61-ea0b91a3c2f4))
    (pad "2" thru_hole rect (at 0 -17 90) (size 3 3) (drill 1) (layers "*.Cu" "*.Mask")
      (net 27 "+5V") (pinfunction "Pin_2") (pintype "passive") (tstamp d38e768b-5032-4d91-b7de-212f8044a0b5))
    (model "${KICAD6_3DMODEL_DIR}/Connector_PinHeader_2.54mm.3dshapes/PinHeader_1x02_P2.54mm_Vertical.wrl"
      (offset (xyz 0 0 0))
      (scale (xyz 1 1 1))
      (rotate (xyz 0 0 0))
    )
  )

  (footprint "Connector_PinSocket_2.54mm:PinSocket_1x09_P2.54mm_Vertical" (layer "F.Cu")
    (tstamp 8f1e747a-0e6e-4850-84ed-9be2040a45c1)
    (at 67 28.18)
    (descr "Through hole straight socket strip, 1x09, 2.54mm pitch, single row (from Kicad 4.0.7), script generated")
    (tags "Through hole socket strip THT 1x09 2.54mm single row")
    (property "Sheetfile" "money_box.kicad_sch")
    (property "Sheetname" "")
    (property "ki_description" "Generic connector, single row, 01x08, script generated")
    (property "ki_keywords" "connector")
    (path "/a0671d40-2d12-4504-8022-6d8b817a6bc7")
    (attr through_hole)
    (fp_text reference "J10" (at 0 -2.77) (layer "F.SilkS")
        (effects (font (size 1 1) (thickness 0.15)))
      (tstamp 8a646ed1-5efd-4e53-84c2-532c9a236627)
    )
    (fp_text value "MP3_2" (at 0 23.09) (layer "F.Fab")
        (effects (font (size 1 1) (thickness 0.15)))
      (tstamp 61a7aa74-5563-4ad2-9b93-568eba0aec79)
    )
    (fp_text user "${REFERENCE}" (at 0 10.16 90) (layer "F.Fab")
        (effects (font (size 1 1) (thickness 0.15)))
      (tstamp 3a6eca3e-4df8-4e02-9c63-c5754965140b)
    )
    (fp_line (start -1.33 1.27) (end -1.33 21.65)
      (stroke (width 0.12) (type solid)) (layer "F.SilkS") (tstamp d65e4f79-2722-44e8-84cd-bfe0c6dfca74))
    (fp_line (start -1.33 1.27) (end 1.33 1.27)
      (stroke (width 0.12) (type solid)) (layer "F.SilkS") (tstamp 6bbd652b-0edc-42be-8f39-16b130ac4f72))
    (fp_line (start -1.33 21.65) (end 1.33 21.65)
      (stroke (width 0.12) (type solid)) (layer "F.SilkS") (tstamp 8afda98d-fcce-4f4e-baf1-1a9771bc8cb9))
    (fp_line (start 0 -1.33) (end 1.33 -1.33)
      (stroke (width 0.12) (type solid)) (layer "F.SilkS") (tstamp 4e3b33d1-2bfd-4379-889b-083a6768058c))
    (fp_line (start 1.33 -1.33) (end 1.33 0)
      (stroke (width 0.12) (type solid)) (layer "F.SilkS") (tstamp 567aca53-1d1b-431a-ab52-3516017c74bd))
    (fp_line (start 1.33 1.27) (end 1.33 21.65)
      (stroke (width 0.12) (type solid)) (layer "F.SilkS") (tstamp 97b3b87a-72b4-46b3-9d13-53edd824d416))
    (fp_line (start -1.8 -1.8) (end 1.75 -1.8)
      (stroke (width 0.05) (type solid)) (layer "F.CrtYd") (tstamp 010d9450-0d9d-4310-bde9-c48eba3c3632))
    (fp_line (start -1.8 22.1) (end -1.8 -1.8)
      (stroke (width 0.05) (type solid)) (layer "F.CrtYd") (tstamp 8ad831a2-04bf-407f-9736-d3c6f44f282d))
    (fp_line (start 1.75 -1.8) (end 1.75 22.1)
      (stroke (width 0.05) (type solid)) (layer "F.CrtYd") (tstamp c419dfdc-4a00-43fc-9ebd-a04e42083858))
    (fp_line (start 1.75 22.1) (end -1.8 22.1)
      (stroke (width 0.05) (type solid)) (layer "F.CrtYd") (tstamp 346f17be-b736-4423-b254-cd511c606eb2))
    (fp_line (start -1.27 -1.27) (end 0.635 -1.27)
      (stroke (width 0.1) (type solid)) (layer "F.Fab") (tstamp c8b81c9c-a873-4c70-9c63-92fb3400daae))
    (fp_line (start -1.27 21.59) (end -1.27 -1.27)
      (stroke (width 0.1) (type solid)) (layer "F.Fab") (tstamp 9b9846c9-1fc0-45a2-b3e8-5eddc15ae378))
    (fp_line (start 0.635 -1.27) (end 1.27 -0.635)
      (stroke (width 0.1) (type solid)) (layer "F.Fab") (tstamp ee58efc9-5267-4b4b-88b5-f3e0966cb8b8))
    (fp_line (start 1.27 -0.635) (end 1.27 21.59)
      (stroke (width 0.1) (type solid)) (layer "F.Fab") (tstamp 9c161dc7-ae4b-48d1-961e-ccc8db2db93a))
    (fp_line (start 1.27 21.59) (end -1.27 21.59)
      (stroke (width 0.1) (type solid)) (layer "F.Fab") (tstamp e93e86cc-4a2e-4a88-93d6-f2aca15051df))
    (pad "1" thru_hole rect (at 0 0) (size 1.7 1.7) (drill 1) (layers "*.Cu" "*.Mask")
      (net 37 "unconnected-(J10-Pin_1-Pad1)") (pinfunction "Pin_1") (pintype "passive") (tstamp 027e1246-ae85-4140-9639-f9e333528819))
    (pad "2" thru_hole oval (at 0 2.54) (size 1.7 1.7) (drill 1) (layers "*.Cu" "*.Mask")
      (net 38 "unconnected-(J10-Pin_2-Pad2)") (pinfunction "Pin_2") (pintype "passive") (tstamp ebb7b363-b6d3-410f-95e9-6bafd2d51c41))
    (pad "3" thru_hole oval (at 0 5.08) (size 1.7 1.7) (drill 1) (layers "*.Cu" "*.Mask")
      (net 39 "unconnected-(J10-Pin_3-Pad3)") (pinfunction "Pin_3") (pintype "passive") (tstamp fb44edb7-52c0-4f22-85cb-1b3148aae374))
    (pad "4" thru_hole oval (at 0 7.62) (size 1.7 1.7) (drill 1) (layers "*.Cu" "*.Mask")
      (net 40 "unconnected-(J10-Pin_4-Pad4)") (pinfunction "Pin_4") (pintype "passive") (tstamp 2f9eac28-5efc-46d3-b7b9-ee5bacb67cbf))
    (pad "5" thru_hole oval (at 0 10.16) (size 1.7 1.7) (drill 1) (layers "*.Cu" "*.Mask")
      (net 41 "unconnected-(J10-Pin_5-Pad5)") (pinfunction "Pin_5") (pintype "passive") (tstamp d7a32807-bf10-4868-a034-0c9344dbbe99))
    (pad "6" thru_hole oval (at 0 12.7) (size 1.7 1.7) (drill 1) (layers "*.Cu" "*.Mask")
      (net 42 "unconnected-(J10-Pin_6-Pad6)") (pinfunction "Pin_6") (pintype "passive") (tstamp 304895a4-3193-42e5-ade6-c12ddb5ecf15))
    (pad "7" thru_hole oval (at 0 15.24) (size 1.7 1.7) (drill 1) (layers "*.Cu" "*.Mask")
      (net 43 "unconnected-(J10-Pin_7-Pad7)") (pinfunction "Pin_7") (pintype "passive") (tstamp 99820bc8-d614-4ff2-8380-e82beb7fc482))
    (pad "8" thru_hole oval (at 0 17.78) (size 1.7 1.7) (drill 1) (layers "*.Cu" "*.Mask")
      (net 44 "unconnected-(J10-Pin_8-Pad8)") (pinfunction "Pin_8") (pintype "passive") (tstamp fb77e5d6-f133-4535-b75c-99a1363bad4b))
    (pad "9" thru_hole oval (at 0 20.32) (size 1.7 1.7) (drill 1) (layers "*.Cu" "*.Mask") (tstamp c63b8520-8d3f-47e7-8896-8dbf9c3d134f))
    (model "${KICAD6_3DMODEL_DIR}/Connector_PinSocket_2.54mm.3dshapes/PinSocket_1x09_P2.54mm_Vertical.wrl"
      (offset (xyz 0 0 0))
      (scale (xyz 1 1 1))
      (rotate (xyz 0 0 0))
    )
  )

  (footprint "Connector_PinHeader_2.54mm:PinHeader_1x02_P2.54mm_Vertical" (layer "F.Cu")
    (tstamp 97e323ab-6c7f-4218-8852-dcc1ad395a85)
    (at 53.46 9.25 90)
    (descr "Through hole straight pin header, 1x02, 2.54mm pitch, single row")
    (tags "Through hole pin header THT 1x02 2.54mm single row")
    (property "Sheetfile" "money_box.kicad_sch")
    (property "Sheetname" "")
    (property "ki_description" "Generic connector, single row, 01x02, script generated (kicad-library-utils/schlib/autogen/connector/)")
    (property "ki_keywords" "connector")
    (path "/d7510fd8-ed2f-436b-ae48-db4495e20e8f")
    (attr through_hole)
    (fp_text reference "J8" (at 0 -2.33 90) (layer "F.SilkS")
        (effects (font (size 1 1) (thickness 0.15)))
      (tstamp 6f11a94f-0b01-428d-a740-7de92c85731d)
    )
    (fp_text value "IR_transistor" (at 0 4.87 90) (layer "F.Fab")
        (effects (font (size 1 1) (thickness 0.15)))
      (tstamp 1a8929f6-4109-4c07-b2a0-ec751629cf55)
    )
    (fp_text user "${REFERENCE}" (at 0 1.27) (layer "F.Fab")
        (effects (font (size 1 1) (thickness 0.15)))
      (tstamp 1cdf3458-77ee-415c-ac0e-1e7b764e5940)
    )
    (fp_line (start -1.33 -1.33) (end 0 -1.33)
      (stroke (width 0.12) (type solid)) (layer "F.SilkS") (tstamp 1457bcd0-b061-4d2f-8381-6dd2e3ab8327))
    (fp_line (start -1.33 0) (end -1.33 -1.33)
      (stroke (width 0.12) (type solid)) (layer "F.SilkS") (tstamp 902e1b50-b4cc-4e0c-9597-92b5f843347a))
    (fp_line (start -1.33 1.27) (end -1.33 3.87)
      (stroke (width 0.12) (type solid)) (layer "F.SilkS") (tstamp a2e03534-2e71-426e-8343-dd7e394f2912))
    (fp_line (start -1.33 1.27) (end 1.33 1.27)
      (stroke (width 0.12) (type solid)) (layer "F.SilkS") (tstamp 4490348c-aeb9-4efc-81b0-12ceae2c7175))
    (fp_line (start -1.33 3.87) (end 1.33 3.87)
      (stroke (width 0.12) (type solid)) (layer "F.SilkS") (tstamp 3aeac259-5bff-49d4-9135-4029e08e4fc3))
    (fp_line (start 1.33 1.27) (end 1.33 3.87)
      (stroke (width 0.12) (type solid)) (layer "F.SilkS") (tstamp 2b2de341-99ce-4ade-afb2-1a1b129f4db9))
    (fp_line (start -1.8 -1.8) (end -1.8 4.35)
      (stroke (width 0.05) (type solid)) (layer "F.CrtYd") (tstamp a39e00b1-94f2-460a-a69d-29d843c68732))
    (fp_line (start -1.8 4.35) (end 1.8 4.35)
      (stroke (width 0.05) (type solid)) (layer "F.CrtYd") (tstamp cc2ae49f-990a-46a3-93f6-996a9de93c01))
    (fp_line (start 1.8 -1.8) (end -1.8 -1.8)
      (stroke (width 0.05) (type solid)) (layer "F.CrtYd") (tstamp 17398381-60da-4b7c-8f09-894594a8addc))
    (fp_line (start 1.8 4.35) (end 1.8 -1.8)
      (stroke (width 0.05) (type solid)) (layer "F.CrtYd") (tstamp 571ef898-eeec-4dd4-9eea-2975aed17616))
    (fp_line (start -1.27 -0.635) (end -0.635 -1.27)
      (stroke (width 0.1) (type solid)) (layer "F.Fab") (tstamp 35e71258-12f2-4f01-8c06-8209b2991879))
    (fp_line (start -1.27 3.81) (end -1.27 -0.635)
      (stroke (width 0.1) (type solid)) (layer "F.Fab") (tstamp 787d72bc-5960-4109-bde6-f0796fc44385))
    (fp_line (start -0.635 -1.27) (end 1.27 -1.27)
      (stroke (width 0.1) (type solid)) (layer "F.Fab") (tstamp 40e7c2a7-015c-4329-a1a5-d2762c4dd626))
    (fp_line (start 1.27 -1.27) (end 1.27 3.81)
      (stroke (width 0.1) (type solid)) (layer "F.Fab") (tstamp 9f65cae4-9696-412d-b0ec-e1253266b0a2))
    (fp_line (start 1.27 3.81) (end -1.27 3.81)
      (stroke (width 0.1) (type solid)) (layer "F.Fab") (tstamp 8df81263-5758-49de-b832-70abe1d9538c))
    (pad "1" thru_hole rect (at 0 0 90) (size 1.7 1.7) (drill 1) (layers "*.Cu" "*.Mask")
      (net 19 "SIG_optopara") (pinfunction "Pin_1") (pintype "passive") (tstamp 9ffa3603-cd2b-4ff8-a9f1-d98011671874))
    (pad "2" thru_hole oval (at 0 2.54 90) (size 1.7 1.7) (drill 1) (layers "*.Cu" "*.Mask")
      (net 4 "GND") (pinfunction "Pin_2") (pintype "passive") (tstamp 6d848608-28c0-469f-8ee2-e8b844af1d66))
    (model "${KICAD6_3DMODEL_DIR}/Connector_PinHeader_2.54mm.3dshapes/PinHeader_1x02_P2.54mm_Vertical.wrl"
      (offset (xyz 0 0 0))
      (scale (xyz 1 1 1))
      (rotate (xyz 0 0 0))
    )
  )

  (footprint "Connector_PinHeader_2.54mm:PinHeader_1x02_P2.54mm_Vertical" (layer "F.Cu")
    (tstamp c0dedad3-3175-4c39-a2f8-5279c3d96e91)
    (at 63.79 9.25 -90)
    (descr "Through hole straight pin header, 1x02, 2.54mm pitch, single row")
    (tags "Through hole pin header THT 1x02 2.54mm single row")
    (property "Sheetfile" "money_box.kicad_sch")
    (property "Sheetname" "")
    (property "ki_description" "Generic connector, single row, 01x02, script generated (kicad-library-utils/schlib/autogen/connector/)")
    (property "ki_keywords" "connector")
    (path "/003345e8-8ab2-4813-977b-b447b0c5501b")
    (attr through_hole)
    (fp_text reference "J7" (at 0 -2.33 90) (layer "F.SilkS")
        (effects (font (size 1 1) (thickness 0.15)))
      (tstamp d7e0fddc-718e-4db1-9ec0-8350e6538b58)
    )
    (fp_text value "IR_LED" (at 0 4.87 90) (layer "F.Fab")
        (effects (font (size 1 1) (thickness 0.15)))
      (tstamp 5b10a4b6-e139-4add-b18d-1d0e7865f25a)
    )
    (fp_text user "${REFERENCE}" (at 0 1.27) (layer "F.Fab")
        (effects (font (size 1 1) (thickness 0.15)))
      (tstamp 27d33572-9782-4692-b908-17f314d3bfb4)
    )
    (fp_line (start -1.33 -1.33) (end 0 -1.33)
      (stroke (width 0.12) (type solid)) (layer "F.SilkS") (tstamp ae3b8a2d-8bae-4735-a8d2-88956c0c228a))
    (fp_line (start -1.33 0) (end -1.33 -1.33)
      (stroke (width 0.12) (type solid)) (layer "F.SilkS") (tstamp e5b7c724-7734-45d9-819a-da8dd3f9a4e2))
    (fp_line (start -1.33 1.27) (end -1.33 3.87)
      (stroke (width 0.12) (type solid)) (layer "F.SilkS") (tstamp 914a735a-f0ae-4a44-972b-4ebc456cc842))
    (fp_line (start -1.33 1.27) (end 1.33 1.27)
      (stroke (width 0.12) (type solid)) (layer "F.SilkS") (tstamp 26721016-687b-4383-96d4-0369546c4ee2))
    (fp_line (start -1.33 3.87) (end 1.33 3.87)
      (stroke (width 0.12) (type solid)) (layer "F.SilkS") (tstamp e5c78976-79e7-4eaf-8666-2a86da557f38))
    (fp_line (start 1.33 1.27) (end 1.33 3.87)
      (stroke (width 0.12) (type solid)) (layer "F.SilkS") (tstamp a32015af-252d-4d8e-ad42-f5bd6199bb1c))
    (fp_line (start -1.8 -1.8) (end -1.8 4.35)
      (stroke (width 0.05) (type solid)) (layer "F.CrtYd") (tstamp 483f9496-6901-4069-a939-75a7b29dd083))
    (fp_line (start -1.8 4.35) (end 1.8 4.35)
      (stroke (width 0.05) (type solid)) (layer "F.CrtYd") (tstamp 3761dbd5-8771-42f0-aef4-2733859f2121))
    (fp_line (start 1.8 -1.8) (end -1.8 -1.8)
      (stroke (width 0.05) (type solid)) (layer "F.CrtYd") (tstamp 3f57a035-7d17-4a72-ad2b-8343c6ce3f78))
    (fp_line (start 1.8 4.35) (end 1.8 -1.8)
      (stroke (width 0.05) (type solid)) (layer "F.CrtYd") (tstamp e86af96f-03aa-4920-b89d-3c45a5c7b88a))
    (fp_line (start -1.27 -0.635) (end -0.635 -1.27)
      (stroke (width 0.1) (type solid)) (layer "F.Fab") (tstamp 0e48103f-a3fc-4c69-8bff-e861b454cead))
    (fp_line (start -1.27 3.81) (end -1.27 -0.635)
      (stroke (width 0.1) (type solid)) (layer "F.Fab") (tstamp adbfb921-4eac-4f35-9100-9f4127ee2bc8))
    (fp_line (start -0.635 -1.27) (end 1.27 -1.27)
      (stroke (width 0.1) (type solid)) (layer "F.Fab") (tstamp b8f4d4a4-41f5-4321-bc24-025c2966cc5f))
    (fp_line (start 1.27 -1.27) (end 1.27 3.81)
      (stroke (width 0.1) (type solid)) (layer "F.Fab") (tstamp e9f69414-d3f2-47a9-907d-a415cf7d6df9))
    (fp_line (start 1.27 3.81) (end -1.27 3.81)
      (stroke (width 0.1) (type solid)) (layer "F.Fab") (tstamp 157346cf-37c7-47bc-8bec-f4517c9e89c8))
    (pad "1" thru_hole rect (at 0 0 270) (size 1.7 1.7) (drill 1) (layers "*.Cu" "*.Mask")
      (net 34 "Net-(J7-Pin_1)") (pinfunction "Pin_1") (pintype "passive") (tstamp d9731104-a3a2-472b-8f54-83ff8fe209c8))
    (pad "2" thru_hole oval (at 0 2.54 270) (size 1.7 1.7) (drill 1) (layers "*.Cu" "*.Mask")
      (net 4 "GND") (pinfunction "Pin_2") (pintype "passive") (tstamp 90832d1f-7671-4521-ac8a-25440b387f3a))
    (model "${KICAD6_3DMODEL_DIR}/Connector_PinHeader_2.54mm.3dshapes/PinHeader_1x02_P2.54mm_Vertical.wrl"
      (offset (xyz 0 0 0))
      (scale (xyz 1 1 1))
      (rotate (xyz 0 0 0))
    )
  )

  (footprint "Connector_PinHeader_2.54mm:PinHeader_1x02_P2.54mm_Vertical" (layer "F.Cu")
    (tstamp d6d03fac-04a6-4073-8816-7ba3927d0aba)
    (at 25 56.6 180)
    (descr "Through hole straight pin header, 1x02, 2.54mm pitch, single row")
    (tags "Through hole pin header THT 1x02 2.54mm single row")
    (property "Sheetfile" "money_box.kicad_sch")
    (property "Sheetname" "")
    (property "ki_description" "Generic connector, single row, 01x02, script generated (kicad-library-utils/schlib/autogen/connector/)")
    (property "ki_keywords" "connector")
    (path "/8a781020-9178-4e90-bab0-3854c358fc19")
    (attr through_hole)
    (fp_text reference "J2" (at 0 -2.33) (layer "F.SilkS") hide
        (effects (font (size 1 1) (thickness 0.15)))
      (tstamp d087af27-75e9-44c3-9948-736cfd172897)
    )
    (fp_text value "BATT" (at 0 13) (layer "F.Fab")
        (effects (font (size 1 1) (thickness 0.15)))
      (tstamp 93c9f933-c124-4c37-9a1e-06dd3def6d62)
    )
    (fp_line (start -1.8 -1.8) (end -1.8 7)
      (stroke (width 0.05) (type solid)) (layer "F.CrtYd") (tstamp 19621660-78d2-441b-baf9-006c7115f130))
    (fp_line (start -1.8 7) (end 1.8 7)
      (stroke (width 0.05) (type solid)) (layer "F.CrtYd") (tstamp cd9ce79e-f292-419b-97c5-50e370b763cb))
    (fp_line (start 1.8 -1.8) (end -1.8 -1.8)
      (stroke (width 0.05) (type solid)) (layer "F.CrtYd") (tstamp 081ffdcd-73aa-4e8d-a6cb-b7e8a3059d90))
    (fp_line (start 1.8 7) (end 1.8 -1.8)
      (stroke (width 0.05) (type solid)) (layer "F.CrtYd") (tstamp a328d4ea-6d87-4718-959d-87646dc68401))
    (pad "1" thru_hole rect (at 0 0 180) (size 3 3) (drill 1) (layers "*.Cu" "*.Mask")
      (net 30 "Net-(J1-Pin_1)") (pinfunction "Pin_1") (pintype "passive") (tstamp 2073049f-ae21-4ff2-b473-d95597ab9fed))
    (pad "2" thru_hole rect (at 0 5 180) (size 3 3) (drill 1) (layers "*.Cu" "*.Mask")
      (net 4 "GND") (pinfunction "Pin_2") (pintype "passive") (tstamp 7f7ebc14-6883-4172-8304-70ed0c65cedb))
    (model "${KICAD6_3DMODEL_DIR}/Connector_PinHeader_2.54mm.3dshapes/PinHeader_1x02_P2.54mm_Vertical.wrl"
      (offset (xyz 0 0 0))
      (scale (xyz 1 1 1))
      (rotate (xyz 0 0 0))
    )
  )

  (footprint "Connector_PinHeader_2.54mm:PinHeader_1x02_P2.54mm_Vertical" (layer "F.Cu")
    (tstamp dd70f23b-678b-451c-b70a-6a5a25c1a0bb)
    (at 23.25 45.25 90)
    (descr "Through hole straight pin header, 1x02, 2.54mm pitch, single row")
    (tags "Through hole pin header THT 1x02 2.54mm single row")
    (property "Sheetfile" "money_box.kicad_sch")
    (property "Sheetname" "")
    (property "ki_description" "Generic connector, single row, 01x02, script generated (kicad-library-utils/schlib/autogen/connector/)")
    (property "ki_keywords" "connector")
    (path "/707a5ada-5e62-477d-aaa5-ed4be200aacf")
    (attr through_hole)
    (fp_text reference "J11" (at 0 -2.33 90) (layer "F.SilkS")
        (effects (font (size 1 1) (thickness 0.15)))
      (tstamp 69101a1b-5442-4b52-963a-d099dae6213f)
    )
    (fp_text value "stab_IN" (at 0 4.87 90) (layer "F.Fab")
        (effects (font (size 1 1) (thickness 0.15)))
      (tstamp d24bac44-2039-4213-926a-2b50e405ff51)
    )
    (fp_line (start -1.8 -18.5) (end -1.8 1.5)
      (stroke (width 0.05) (type solid)) (layer "F.CrtYd") (tstamp 4cd6ddbd-cfe5-45d0-9e3c-fc9d15262cfe))
    (fp_line (start -1.8 1.5) (end 1.8 1.5)
      (stroke (width 0.05) (type solid)) (layer "F.CrtYd") (tstamp 0c908237-7a1a-426e-8a7b-03d15cdfcbdf))
    (fp_line (start 1.8 -18.5) (end -1.8 -18.5)
      (stroke (width 0.05) (type solid)) (layer "F.CrtYd") (tstamp 6a8b9908-a923-4c68-b7ec-3f364025058e))
    (fp_line (start 1.8 1.5) (end 1.8 -18.5)
      (stroke (width 0.05) (type solid)) (layer "F.CrtYd") (tstamp efe390de-740a-432f-af48-7a7b6e74912e))
    (pad "1" thru_hole rect (at 0 0 90) (size 3 3) (drill 1) (layers "*.Cu" "*.Mask")
      (net 4 "GND") (pinfunction "Pin_1") (pintype "passive") (tstamp 76a3a341-80e7-4cd9-85ec-ac59824f3730))
    (pad "2" thru_hole rect (at 0 -17 90) (size 3 3) (drill 1) (layers "*.Cu" "*.Mask")
      (net 31 "VIN") (pinfunction "Pin_2") (pintype "passive") (tstamp c29b6b98-cb9c-4cd5-9590-1bdcff0b71b1))
    (model "${KICAD6_3DMODEL_DIR}/Connector_PinHeader_2.54mm.3dshapes/PinHeader_1x02_P2.54mm_Vertical.wrl"
      (offset (xyz 0 0 0))
      (scale (xyz 1 1 1))
      (rotate (xyz 0 0 0))
    )
  )

  (footprint "Module:Arduino_Nano" (layer "F.Cu")
    (tstamp ef4b5272-43b5-43e7-8e2f-0997282c4a1f)
    (at 43.61 45.55 180)
    (descr "Arduino Nano, http://www.mouser.com/pdfdocs/Gravitech_Arduino_Nano3_0.pdf")
    (tags "Arduino Nano")
    (property "Sheetfile" "money_box.kicad_sch")
    (property "Sheetname" "")
    (property "ki_description" "Arduino Nano v3.x")
    (property "ki_keywords" "Arduino nano microcontroller module USB")
    (path "/ba3463ec-8b80-4407-8488-ace9f22198f3")
    (attr through_hole)
    (fp_text reference "A1" (at 7.62 -5.08) (layer "F.SilkS")
        (effects (font (size 1 1) (thickness 0.15)))
      (tstamp 698e8965-0882-48e4-892b-d69ff84a53ad)
    )
    (fp_text value "Arduino_Nano_v3.x" (at 8.89 19.05 90) (layer "F.Fab")
        (effects (font (size 1 1) (thickness 0.15)))
      (tstamp eae91110-8d7b-4679-8d1c-b85216c42e62)
    )
    (fp_text user "USB" (at 7.62 35.56 180 unlocked) (layer "F.SilkS")
        (effects (font (size 1 1) (thickness 0.15)))
      (tstamp 66582c83-5a37-4ae9-9699-a6573a0e390d)
    )
    (fp_text user "${REFERENCE}" (at 6.35 19.05 90) (layer "F.Fab")
        (effects (font (size 1 1) (thickness 0.15)))
      (tstamp 23690fc4-6987-490c-8b4e-60b1653671f6)
    )
    (fp_line (start -1.4 -3.94) (end -1.4 -1.27)
      (stroke (width 0.12) (type solid)) (layer "F.SilkS") (tstamp fbc882d0-9dcf-4d61-89cf-e3dd83c427f2))
    (fp_line (start -1.4 1.27) (end -1.4 39.5)
      (stroke (width 0.12) (type solid)) (layer "F.SilkS") (tstamp 1cac2ad7-fba7-438c-baff-88fd9eaf00da))
    (fp_line (start -1.4 39.5) (end 3.68 39.5)
      (stroke (width 0.12) (type solid)) (layer "F.SilkS") (tstamp 29b991fe-0f59-49e6-8234-e4d54ae1a842))
    (fp_line (start 1.27 -1.27) (end -1.4 -1.27)
      (stroke (width 0.12) (type solid)) (layer "F.SilkS") (tstamp cd7b79ad-89be-49f3-a39d-41996107a19f))
    (fp_line (start 1.27 1.27) (end -1.4 1.27)
      (stroke (width 0.12) (type solid)) (layer "F.SilkS") (tstamp 6310504f-0274-46aa-8605-d5c2c9c43232))
    (fp_line (start 1.27 1.27) (end 1.27 -1.27)
      (stroke (width 0.12) (type solid)) (layer "F.SilkS") (tstamp fa26cc83-febf-4d0c-bd4b-50ca8d2a74d2))
    (fp_line (start 1.27 1.27) (end 1.27 36.83)
      (stroke (width 0.12) (type solid)) (layer "F.SilkS") (tstamp b7921b40-c431-4428-a6a5-4de15aa1836a))
    (fp_line (start 1.27 36.83) (end -1.4 36.83)
      (stroke (width 0.12) (type solid)) (layer "F.SilkS") (tstamp 8cefcf69-1a08-4018-b009-f35e6e233704))
    (fp_line (start 3.68 31.62) (end 11.56 31.62)
      (stroke (width 0.12) (type solid)) (layer "F.SilkS") (tstamp 4a66fade-86bd-46d1-857b-2e4b8339c7ba))
    (fp_line (start 3.68 42.04) (end 3.68 31.62)
      (stroke (width 0.12) (type solid)) (layer "F.SilkS") (tstamp 7d555c9b-02c3-4b98-8d4d-84066ac721dc))
    (fp_line (start 11.56 31.62) (end 11.56 42.04)
      (stroke (width 0.12) (type solid)) (layer "F.SilkS") (tstamp b957c574-2627-40f5-ad18-1f738939275b))
    (fp_line (start 11.56 42.04) (end 3.68 42.04)
      (stroke (width 0.12) (type solid)) (layer "F.SilkS") (tstamp 7849e27e-5b9a-402b-ba5d-40bf796737fb))
    (fp_line (start 13.97 -1.27) (end 13.97 36.83)
      (stroke (width 0.12) (type solid)) (layer "F.SilkS") (tstamp e41f89fd-fa1f-4859-9a7f-7706b83d01a4))
    (fp_line (start 13.97 -1.27) (end 16.64 -1.27)
      (stroke (width 0.12) (type solid)) (layer "F.SilkS") (tstamp dc54788b-35d4-47b8-9fce-912255555bb0))
    (fp_line (start 13.97 36.83) (end 16.64 36.83)
      (stroke (width 0.12) (type solid)) (layer "F.SilkS") (tstamp 16d4a7c4-13e9-4776-bd1c-16c3f992fb62))
    (fp_line (start 16.64 -3.94) (end -1.4 -3.94)
      (stroke (width 0.12) (type solid)) (layer "F.SilkS") (tstamp 6b71bae0-195b-461f-ab64-9f05819ab028))
    (fp_line (start 16.64 39.5) (end 11.56 39.5)
      (stroke (width 0.12) (type solid)) (layer "F.SilkS") (tstamp d0e75bab-5def-4671-b6e7-c7fc336b672f))
    (fp_line (start 16.64 39.5) (end 16.64 -3.94)
      (stroke (width 0.12) (type solid)) (layer "F.SilkS") (tstamp bb994877-62ce-408e-87cf-5764680ce891))
    (fp_line (start -1.53 -4.06) (end -1.53 42.16)
      (stroke (width 0.05) (type solid)) (layer "F.CrtYd") (tstamp 6764dbc5-c550-4512-abe9-ede0a7b6ebb2))
    (fp_line (start -1.53 -4.06) (end 16.75 -4.06)
      (stroke (width 0.05) (type solid)) (layer "F.CrtYd") (tstamp 2b8cac1d-23ca-4360-aac4-072be2379719))
    (fp_line (start 16.75 42.16) (end -1.53 42.16)
      (stroke (width 0.05) (type solid)) (layer "F.CrtYd") (tstamp 83ab89ea-955c-4038-a707-3bb7376cf87e))
    (fp_line (start 16.75 42.16) (end 16.75 -4.06)
      (stroke (width 0.05) (type solid)) (layer "F.CrtYd") (tstamp 7fdb00bf-6ef0-4090-8460-f869e276e7f9))
    (fp_line (start -1.27 -2.54) (end 0 -3.81)
      (stroke (width 0.1) (type solid)) (layer "F.Fab") (tstamp 8d631bda-d05a-4266-b5de-18de2619718c))
    (fp_line (start -1.27 39.37) (end -1.27 -2.54)
      (stroke (width 0.1) (type solid)) (layer "F.Fab") (tstamp ebe2f45f-7c4c-440b-a822-7056117787d6))
    (fp_line (start 0 -3.81) (end 16.51 -3.81)
      (stroke (width 0.1) (type solid)) (layer "F.Fab") (tstamp b4bf26d5-93cc-4666-9392-45526792e1ab))
    (fp_line (start 3.81 31.75) (end 11.43 31.75)
      (stroke (width 0.1) (type solid)) (layer "F.Fab") (tstamp ce8bb506-fde0-468b-9c21-82275c9d8971))
    (fp_line (start 3.81 41.91) (end 3.81 31.75)
      (stroke (width 0.1) (type solid)) (layer "F.Fab") (tstamp 3c4f52d9-9753-45a5-afc1-ac47367974dc))
    (fp_line (start 11.43 31.75) (end 11.43 41.91)
      (stroke (width 0.1) (type solid)) (layer "F.Fab") (tstamp 3f9fbdaf-3969-4296-ae9c-369549b23f38))
    (fp_line (start 11.43 41.91) (end 3.81 41.91)
      (stroke (width 0.1) (type solid)) (layer "F.Fab") (tstamp 4d4b95fb-3091-401d-a351-f19202850448))
    (fp_line (start 16.51 -3.81) (end 16.51 39.37)
      (stroke (width 0.1) (type solid)) (layer "F.Fab") (tstamp a8eaa487-4ba4-47bf-b0d9-cdc95bc87649))
    (fp_line (start 16.51 39.37) (end -1.27 39.37)
      (stroke (width 0.1) (type solid)) (layer "F.Fab") (tstamp 319a97f7-33a4-47ee-8ff9-671632480a8e))
    (pad "1" thru_hole rect (at 0 0 180) (size 1.6 1.6) (drill 1) (layers "*.Cu" "*.Mask")
      (net 1 "unconnected-(A1-D1{slash}TX-Pad1)") (pinfunction "D1/TX") (pintype "bidirectional") (tstamp f3d592e9-988c-422f-b9b0-ece0b610bf92))
    (pad "2" thru_hole oval (at 0 2.54 180) (size 1.6 1.6) (drill 1) (layers "*.Cu" "*.Mask")
      (net 2 "unconnected-(A1-D0{slash}RX-Pad2)") (pinfunction "D0/RX") (pintype "bidirectional") (tstamp 62243231-9129-47d2-98f5-53f2a79aee02))
    (pad "3" thru_hole oval (at 0 5.08 180) (size 1.6 1.6) (drill 1) (layers "*.Cu" "*.Mask")
      (net 3 "unconnected-(A1-~{RESET}-Pad3)") (pinfunction "~{RESET}") (pintype "input") (tstamp 2f667fbe-4c49-40f0-ab41-c5babe11c81f))
    (pad "4" thru_hole oval (at 0 7.62 180) (size 1.6 1.6) (drill 1) (layers "*.Cu" "*.Mask")
      (net 4 "GND") (pinfunction "GND") (pintype "power_in") (tstamp 755855a7-18b5-4582-8e03-f5c259b36009))
    (pad "5" thru_hole oval (at 0 10.16 180) (size 1.6 1.6) (drill 1) (layers "*.Cu" "*.Mask")
      (net 6 "TX") (pinfunction "D2") (pintype "bidirectional") (tstamp 32e9b12c-6cfe-4ea3-8dbf-a71ee1927a27))
    (pad "6" thru_hole oval (at 0 12.7 180) (size 1.6 1.6) (drill 1) (layers "*.Cu" "*.Mask")
      (net 5 "RX") (pinfunction "D3") (pintype "bidirectional") (tstamp 03e61f3f-b374-4a76-b4ff-2686b34fe1e6))
    (pad "7" thru_hole oval (at 0 15.24 180) (size 1.6 1.6) (drill 1) (layers "*.Cu" "*.Mask")
      (net 7 "unconnected-(A1-D4-Pad7)") (pinfunction "D4") (pintype "bidirectional") (tstamp c426329f-d18a-4567-b993-264777d13026))
    (pad "8" thru_hole oval (at 0 17.78 180) (size 1.6 1.6) (drill 1) (layers "*.Cu" "*.Mask")
      (net 8 "unconnected-(A1-D5-Pad8)") (pinfunction "D5") (pintype "bidirectional") (tstamp 2f599435-6a1e-43a9-9173-bfe64f92b3ac))
    (pad "9" thru_hole oval (at 0 20.32 180) (size 1.6 1.6) (drill 1) (layers "*.Cu" "*.Mask")
      (net 9 "unconnected-(A1-D6-Pad9)") (pinfunction "D6") (pintype "bidirectional") (tstamp 379711c4-ef4c-4adf-a6e3-e7fd83ebaf9a))
    (pad "10" thru_hole oval (at 0 22.86 180) (size 1.6 1.6) (drill 1) (layers "*.Cu" "*.Mask")
      (net 10 "unconnected-(A1-D7-Pad10)") (pinfunction "D7") (pintype "bidirectional") (tstamp 3675911c-a1a3-44a3-83e4-1c8ddafcd511))
    (pad "11" thru_hole oval (at 0 25.4 180) (size 1.6 1.6) (drill 1) (layers "*.Cu" "*.Mask")
      (net 11 "unconnected-(A1-D8-Pad11)") (pinfunction "D8") (pintype "bidirectional") (tstamp e247b055-14b4-4133-a491-42a1be6d6b20))
    (pad "12" thru_hole oval (at 0 27.94 180) (size 1.6 1.6) (drill 1) (layers "*.Cu" "*.Mask")
      (net 12 "unconnected-(A1-D9-Pad12)") (pinfunction "D9") (pintype "bidirectional") (tstamp 7cf02fd2-fa83-488b-9eef-c1ed72867220))
    (pad "13" thru_hole oval (at 0 30.48 180) (size 1.6 1.6) (drill 1) (layers "*.Cu" "*.Mask")
      (net 13 "unconnected-(A1-D10-Pad13)") (pinfunction "D10") (pintype "bidirectional") (tstamp c4a63f3e-063e-4cd1-b600-24d84d433de8))
    (pad "14" thru_hole oval (at 0 33.02 180) (size 1.6 1.6) (drill 1) (layers "*.Cu" "*.Mask")
      (net 14 "unconnected-(A1-D11-Pad14)") (pinfunction "D11") (pintype "bidirectional") (tstamp dcb5d5ce-2f44-4d0b-a72d-c8131671eaad))
    (pad "15" thru_hole oval (at 0 35.56 180) (size 1.6 1.6) (drill 1) (layers "*.Cu" "*.Mask")
      (net 15 "unconnected-(A1-D12-Pad15)") (pinfunction "D12") (pintype "bidirectional") (tstamp 3b00cc82-649a-4197-92f8-3833f1f2a543))
    (pad "16" thru_hole oval (at 15.24 35.56 180) (size 1.6 1.6) (drill 1) (layers "*.Cu" "*.Mask")
      (net 16 "unconnected-(A1-D13-Pad16)") (pinfunction "D13") (pintype "bidirectional") (tstamp 4b088678-6af2-4268-84b6-227abb53fdd2))
    (pad "17" thru_hole oval (at 15.24 33.02 180) (size 1.6 1.6) (drill 1) (layers "*.Cu" "*.Mask")
      (net 17 "unconnected-(A1-3V3-Pad17)") (pinfunction "3V3") (pintype "power_out") (tstamp 1c51a640-5493-4667-a0e8-13cb81cfbc08))
    (pad "18" thru_hole oval (at 15.24 30.48 180) (size 1.6 1.6) (drill 1) (layers "*.Cu" "*.Mask")
      (net 18 "unconnected-(A1-AREF-Pad18)") (pinfunction "AREF") (pintype "input") (tstamp 296983d9-caea-4963-912a-d53ceaeeb172))
    (pad "19" thru_hole oval (at 15.24 27.94 180) (size 1.6 1.6) (drill 1) (layers "*.Cu" "*.Mask")
      (net 19 "SIG_optopara") (pinfunction "A0") (pintype "bidirectional") (tstamp 7d03c34d-8570-4af9-9071-a682279be84e))
    (pad "20" thru_hole oval (at 15.24 25.4 180) (size 1.6 1.6) (drill 1) (layers "*.Cu" "*.Mask")
      (net 20 "unconnected-(A1-A1-Pad20)") (pinfunction "A1") (pintype "bidirectional") (tstamp b53e8ac3-0375-414a-b1c7-a6402c5d88fa))
    (pad "21" thru_hole oval (at 15.24 22.86 180) (size 1.6 1.6) (drill 1) (layers "*.Cu" "*.Mask")
      (net 21 "unconnected-(A1-A2-Pad21)") (pinfunction "A2") (pintype "bidirectional") (tstamp 9c0593ce-699a-404a-8ff2-90c35bc3cf5e))
    (pad "22" thru_hole oval (at 15.24 20.32 180) (size 1.6 1.6) (drill 1) (layers "*.Cu" "*.Mask")
      (net 22 "unconnected-(A1-A3-Pad22)") (pinfunction "A3") (pintype "bidirectional") (tstamp 8cf06dcd-2d82-430e-9baf-d9d89d626753))
    (pad "23" thru_hole oval (at 15.24 17.78 180) (size 1.6 1.6) (drill 1) (layers "*.Cu" "*.Mask")
      (net 23 "unconnected-(A1-A4-Pad23)") (pinfunction "A4") (pintype "bidirectional") (tstamp 0372fb89-0dc2-4e31-9108-611da641d113))
    (pad "24" thru_hole oval (at 15.24 15.24 180) (size 1.6 1.6) (drill 1) (layers "*.Cu" "*.Mask")
      (net 24 "unconnected-(A1-A5-Pad24)") (pinfunction "A5") (pintype "bidirectional") (tstamp fb8b7586-7e4b-4314-a7b2-3e1c8a011bdb))
    (pad "25" thru_hole oval (at 15.24 12.7 180) (size 1.6 1.6) (drill 1) (layers "*.Cu" "*.Mask")
      (net 25 "unconnected-(A1-A6-Pad25)") (pinfunction "A6") (pintype "bidirectional") (tstamp 1c338d1d-bd48-4405-9b5f-cf260aab0f6c))
    (pad "26" thru_hole oval (at 15.24 10.16 180) (size 1.6 1.6) (drill 1) (layers "*.Cu" "*.Mask")
      (net 26 "unconnected-(A1-A7-Pad26)") (pinfunction "A7") (pintype "bidirectional") (tstamp ffafc05a-145b-4644-88e1-266e9eec6cf3))
    (pad "27" thru_hole oval (at 15.24 7.62 180) (size 1.6 1.6) (drill 1) (layers "*.Cu" "*.Mask")
      (net 27 "+5V") (pinfunction "+5V") (pintype "power_out") (tstamp ac92c963-64e5-42cf-8596-223b06e2b8c9))
    (pad "28" thru_hole oval (at 15.24 5.08 180) (size 1.6 1.6) (drill 1) (layers "*.Cu" "*.Mask")
      (net 28 "unconnected-(A1-~{RESET}-Pad28)") (pinfunction "~{RESET}") (pintype "input") (tstamp cfe538a3-451a-4ca4-9b88-f6b1860c2f27))
    (pad "29" thru_hole oval (at 15.24 2.54 180) (size 1.6 1.6) (drill 1) (layers "*.Cu" "*.Mask")
      (net 4 "GND") (pinfunction "GND") (pintype "power_in") (tstamp f93fdaed-35de-4ec8-b741-2d8b645d1d6a))
    (pad "30" thru_hole oval (at 15.24 0 180) (size 1.6 1.6) (drill 1) (layers "*.Cu" "*.Mask")
      (net 29 "unconnected-(A1-VIN-Pad30)") (pinfunction "VIN") (pintype "power_in") (tstamp 1b7ef819-7a8a-47b5-a0e2-d8373df941ca))
    (model "${KICAD6_3DMODEL_DIR}/Module.3dshapes/Arduino_Nano_WithMountingHoles.wrl"
      (offset (xyz 0 0 0))
      (scale (xyz 1 1 1))
      (rotate (xyz 0 0 0))
    )
  )

  (gr_rect (start 0 0) (end 70 62)
    (stroke (width 0.1) (type default)) (fill none) (layer "Edge.Cuts") (tstamp 06c7a9f4-eefe-4b6f-982b-48ec664047f8))

  (segment (start 46.25 39.25) (end 44.93 37.93) (width 2) (layer "B.Cu") (net 4) (tstamp 025fbacd-51e0-41e2-9c5b-7d3b37596d88))
  (segment (start 25 47) (end 19.5 41.5) (width 2) (layer "B.Cu") (net 4) (tstamp 08c0619d-b428-427a-bf0f-68a3e9a6b875))
  (segment (start 1.5 7.5) (end 4 5) (width 2) (layer "B.Cu") (net 4) (tstamp 1ccbf001-70bf-4873-8d44-4859283d1949))
  (segment (start 46.25 41.872081) (end 46.25 39.25) (width 2) (layer "B.Cu") (net 4) (tstamp 1d1f1499-61d1-4f0d-b1cd-de75b20ff81e))
  (segment (start 34.58137 37.93) (end 43.61 37.93) (width 2) (layer "B.Cu") (net 4) (tstamp 278a1242-3313-4152-8e3c-b884e868d300))
  (segment (start 1.5 44.5) (end 1.5 7.5) (width 2) (layer "B.Cu") (net 4) (tstamp 2812cb58-08e1-4431-9cd2-f9b8a5a6fcef))
  (segment (start 12.25 8.5) (end 23 8.5) (width 2) (layer "B.Cu") (net 4) (tstamp 2e098725-aace-400c-9671-d581d54c48b8))
  (segment (start 19.5 41.5) (end 2.6 41.5) (width 2) (layer "B.Cu") (net 4) (tstamp 42b09022-be96-422d-82ef-67b4f7e3dc76))
  (segment (start 4 5) (end 8.75 5) (width 2) (layer "B.Cu") (net 4) (tstamp 4a07e665-a5e3-49e8-a624-20a9360e9053))
  (segment (start 28.37 43.01) (end 29.50137 43.01) (width 2) (layer "B.Cu") (net 4) (tstamp 674d8407-8e85-46aa-8162-305632aba6b2))
  (segment (start 1.5 52) (end 4 54.5) (width 2) (layer "B.Cu") (net 4) (tstamp 67c410d7-a3e9-4e9a-99d2-26fdad29cf28))
  (segment (start 25 51.6) (end 25 47) (width 2) (layer "B.Cu") (net 4) (tstamp 68648b96-b93c-4432-8e1f-560c06865530))
  (segment (start 23 8.5) (end 23.25 8.75) (width 2) (layer "B.Cu") (net 4) (tstamp 70c6653a-6ac7-42dc-9b18-ab0d4bb987b4))
  (segment (start 27.5 2.5) (end 50.81 2.5) (width 2) (layer "B.Cu") (net 4) (tstamp 777c83ae-3a9a-45bd-9125-4bd1d89a58c1))
  (segment (start 29.50137 43.01) (end 34.58137 37.93) (width 2) (layer "B.Cu") (net 4) (tstamp 8e1be907-0170-4445-a0e5-64d9f4e32283))
  (segment (start 1.5 44.5) (end 1.5 52) (width 2) (layer "B.Cu") (net 4) (tstamp 8f332ba3-c69b-462b-a175-5d0da5ba6eb0))
  (segment (start 47.797919 43.42) (end 46.25 41.872081) (width 2) (layer "B.Cu") (net 4) (tstamp 9cd62e11-5d18-47d3-a5e8-f0a80a7ba5e6))
  (segment (start 25.49 43.01) (end 23.25 45.25) (width 2) (layer "B.Cu") (net 4) (tstamp a15716c8-6a19-4328-b9b0-cdf7b03fd516))
  (segment (start 2.6 41.5) (end 1.5 42.6) (width 2) (layer "B.Cu") (net 4) (tstamp a1fbc4de-2a3d-4bae-a211-fd7851197d5b))
  (segment (start 23.25 6.75) (end 27.5 2.5) (width 2) (layer "B.Cu") (net 4) (tstamp a772136a-087e-4df2-9b03-f93eb1643581))
  (segment (start 44.93 37.93) (end 43.61 37.93) (width 2) (layer "B.Cu") (net 4) (tstamp bb441202-4384-4332-a1d5-694da3747ef2))
  (segment (start 56 9.25) (end 61.25 9.25) (width 2) (layer "B.Cu") (net 4) (tstamp bca935c1-e467-4029-8e8c-fdff289d6926))
  (segment (start 56 7.69) (end 56 9.25) (width 2) (layer "B.Cu") (net 4) (tstamp d23faad4-ebab-448a-a14f-9061f87144dd))
  (segment (start 28.37 43.01) (end 25.49 43.01) (width 2) (layer "B.Cu") (net 4) (tstamp d50e3e07-4425-4cd1-b8a0-1a7e928cf5b8))
  (segment (start 23.25 8.75) (end 23.25 6.75) (width 2) (layer "B.Cu") (net 4) (tstamp df385573-31ff-4413-88e2-ff087be49191))
  (segment (start 1.5 42.6) (end 1.5 44.5) (width 2) (layer "B.Cu") (net 4) (tstamp e36386a4-d201-49c0-8e85-e453ac83b4d1))
  (segment (start 50.81 2.5) (end 56 7.69) (width 2) (layer "B.Cu") (net 4) (tstamp e71525f0-6848-4e50-a35c-66dc3ade5d55))
  (segment (start 49 43.42) (end 47.797919 43.42) (width 2) (layer "B.Cu") (net 4) (tstamp ecb7396d-4258-474f-99bf-712cff7f2236))
  (segment (start 8.75 5) (end 12.25 8.5) (width 2) (layer "B.Cu") (net 4) (tstamp efc51fee-9d3a-4213-9f46-a0c0aa2b8315))
  (segment (start 44.65 32.85) (end 46.78 30.72) (width 2) (layer "B.Cu") (net 5) (tstamp 6fb7d9e2-5e15-4acb-9d2f-e542bf69f276))
  (segment (start 43.61 32.85) (end 44.65 32.85) (width 2) (layer "B.Cu") (net 5) (tstamp 6fdbaba5-14a9-4b5f-afae-f0821e6efb71))
  (segment (start 46.78 30.72) (end 49 30.72) (width 2) (layer "B.Cu") (net 5) (tstamp 878f0ec6-df17-4854-9f14-0990582e6800))
  (segment (start 43.61 35.39) (end 45.665635 35.39) (width 2) (layer "B.Cu") (net 6) (tstamp 8fbb6deb-387e-465a-8188-9058d589c984))
  (segment (start 47.795635 33.26) (end 49 33.26) (width 2) (layer "B.Cu") (net 6) (tstamp 97e364db-2e1e-4d2d-9d84-c3562912a342))
  (segment (start 45.665635 35.39) (end 47.795635 33.26) (width 2) (layer "B.Cu") (net 6) (tstamp a0e1db2b-6415-4551-a932-8785fe3b11dd))
  (segment (start 32.5 12.5) (end 40 5) (width 2) (layer "B.Cu") (net 19) (tstamp 02338e93-785a-45e7-81a3-32b80c808a36))
  (segment (start 49.21 5) (end 53.46 9.25) (width 2) (layer "B.Cu") (net 19) (tstamp 02868068-17ea-41de-a0dd-0e599418b69c))
  (segment (start 32.5 16.25) (end 32.5 12.5) (width 2) (layer "B.Cu") (net 19) (tstamp 0c14513c-d78b-4ce2-beb3-48aa5c3f1677))
  (segment (start 40 5) (end 49.21 5) (width 2) (layer "B.Cu") (net 19) (tstamp 20975590-15d4-4ff9-b03b-d1b6c3343efb))
  (segment (start 31.14 17.61) (end 32.5 16.25) (width 2) (layer "B.Cu") (net 19) (tstamp 3ab32dcd-70e6-4a30-b46d-b0ff5c2c2216))
  (segment (start 53.42 20) (end 52.25 20) (width 2) (layer "B.Cu") (net 19) (tstamp 3eb4126e-83cb-4780-8c2e-7f712494b434))
  (segment (start 52.25 20) (end 50.5 18.25) (width 2) (layer "B.Cu") (net 19) (tstamp 79417006-9c75-44db-a76a-4bfdaf5dcb99))
  (segment (start 53.46 11.54) (end 53.46 9.25) (width 2) (layer "B.Cu") (net 19) (tstamp 7d7278b3-630b-4772-a4bc-8575317ea40e))
  (segment (start 50.5 14.5) (end 53.46 11.54) (width 2) (layer "B.Cu") (net 19) (tstamp bc4ae062-f19c-4150-9582-f648c26d90fe))
  (segment (start 28.37 17.61) (end 31.14 17.61) (width 2) (layer "B.Cu") (net 19) (tstamp bcaca261-cfe2-45d0-acdc-b43b34b4f6b4))
  (segment (start 50.5 18.25) (end 50.5 14.5) (width 2) (layer "B.Cu") (net 19) (tstamp c4bea2a7-92b3-4c01-b4f4-a7e1907a157d))
  (segment (start 28.37 37.93) (end 29.50137 37.93) (width 2) (layer "B.Cu") (net 27) (tstamp 0c920c0d-17cf-4075-b1f8-018acca32202))
  (segment (start 35.25 14) (end 41.75 7.5) (width 2) (layer "B.Cu") (net 27) (tstamp 15df00f0-9a02-4160-95a7-bf4caf6ea8fe))
  (segment (start 6.25 34.25) (end 9.93 37.93) (width 2) (layer "B.Cu") (net 27) (tstamp 3a0db275-2e18-40ce-868c-cef4d253fc68))
  (segment (start 41.75 7.5) (end 45 7.5) (width 2) (layer "B.Cu") (net 27) (tstamp 65b0ea93-9049-4428-9966-5fcea509dbd9))
  (segment (start 55.4 28.18) (end 63.58 20) (width 2) (layer "B.Cu") (net 27) (tstamp 6c99b4a2-7c80-40a8-aef4-9163b8d6ecde))
  (segment (start 5.75 8.25) (end 6.25 8.75) (width 2) (layer "B.Cu") (net 27) (tstamp 6d9de71c-8c92-4d85-9ec4-f0e14f1d5047))
  (segment (start 47 26.18) (end 49 28.18) (width 2) (layer "B.Cu") (net 27) (tstamp 76201e15-15d8-4b1e-9451-b97206ff62ea))
  (segment (start 45 7.5) (end 47 9.5) (width 2) (layer "B.Cu") (net 27) (tstamp 9eb67d8a-307c-48aa-a844-9bcba9565176))
  (segment (start 35.25 32.18137) (end 35.25 14) (width 2) (layer "B.Cu") (net 27) (tstamp ab0b7851-0d51-46c1-b65c-1f1be1c5862e))
  (segment (start 6.25 8.75) (end 6.25 34.25) (width 2) (layer "B.Cu") (net 27) (tstamp c4ede4d1-8d12-425f-9ccc-3dd78ee3f652))
  (segment (start 47 9.5) (end 47 26.18) (width 2) (layer "B.Cu") (net 27) (tstamp cde9beaa-cea9-4519-8862-7522e7dd5500))
  (segment (start 63.58 16.5) (end 63.58 20) (width 2) (layer "B.Cu") (net 27) (tstamp d075f832-be3c-4eab-a1a9-0052ffc9a418))
  (segment (start 49 28.18) (end 55.4 28.18) (width 2) (layer "B.Cu") (net 27) (tstamp d3a51d1b-b41c-489d-9315-906507baba7a))
  (segment (start 9.93 37.93) (end 28.37 37.93) (width 2) (layer "B.Cu") (net 27) (tstamp d51c7568-aa2d-4f41-8ef0-467d09099fc1))
  (segment (start 29.50137 37.93) (end 35.25 32.18137) (width 2) (layer "B.Cu") (net 27) (tstamp faae3b91-3d3c-472b-881b-dd08d45426f7))
  (segment (start 10 54.5) (end 13.5 54.5) (width 2) (layer "B.Cu") (net 30) (tstamp 1b856320-b2b6-4471-9c54-822f6c563a25))
  (segment (start 15.6 56.6) (end 25 56.6) (width 2) (layer "B.Cu") (net 30) (tstamp 7ad33d98-a06c-489c-9402-47003c3ca805))
  (segment (start 13.5 54.5) (end 15.6 56.6) (width 2) (layer "B.Cu") (net 30) (tstamp 9ecafc5d-1a44-4263-884d-62a7b3f05c16))
  (segment (start 12.54 45) (end 19 51.46) (width 2) (layer "B.Cu") (net 31) (tstamp 44dd294a-9259-4cce-a860-116be593c568))
  (segment (start 6.5 45) (end 12.54 45) (width 2) (layer "B.Cu") (net 31) (tstamp 935424ef-cd40-4b3e-8050-2707dd59a55a))
  (segment (start 6.25 45.25) (end 6.5 45) (width 2) (layer "B.Cu") (net 31) (tstamp dc679639-d617-43b4-8c86-f09bd2400dcc))
  (segment (start 19 51.46) (end 19 51.6) (width 2) (layer "B.Cu") (net 31) (tstamp e90f4d1d-5777-4539-8088-8779148a927c))
  (segment (start 49 45.96) (end 51.96 45.96) (width 2) (layer "B.Cu") (net 32) (tstamp 0a318283-f081-4f1e-8d72-5995bd2c2fb7))
  (segment (start 51.96 45.96) (end 55 49) (width 2) (layer "B.Cu") (net 32) (tstamp 396aefeb-8b1f-451e-a7d0-acb20164c59a))
  (segment (start 55 49) (end 55 56.5) (width 2) (layer "B.Cu") (net 32) (tstamp 3c89faf1-ff89-40c7-9525-f4cd7e72365b))
  (segment (start 60.54 49.54) (end 60.54 56.5) (width 2) (layer "B.Cu") (net 33) (tstamp a4546cea-9513-4a7c-af46-bdeb9b1d181f))
  (segment (start 51.88 40.88) (end 60.54 49.54) (width 2) (layer "B.Cu") (net 33) (tstamp abea28b2-8b1c-48e0-8551-6f77afd64252))
  (segment (start 49 40.88) (end 51.88 40.88) (width 2) (layer "B.Cu") (net 33) (tstamp d7578346-e5e8-4ded-9571-1d575b00b8b6))
  (segment (start 53.42 16.5) (end 59.25 16.5) (width 2) (layer "B.Cu") (net 34) (tstamp 0833bb53-ce1f-4e3b-8924-b2f500fe0e6c))
  (segment (start 59.25 16.5) (end 63.79 11.96) (width 2) (layer "B.Cu") (net 34) (tstamp 2c3dcd67-ec5d-4a50-a0ea-a945eedc4807))
  (segment (start 63.79 11.96) (end 63.79 9.25) (width 2) (layer "B.Cu") (net 34) (tstamp 5c87eaae-0140-40b2-95f1-fb3a649b1db2))

  (group "" (id b2b8de50-6f43-44d0-8b33-73e74b610b46)
    (members
      81cc9ce1-30b1-48b8-a88d-7616a0b660e4
      dd70f23b-678b-451c-b70a-6a5a25c1a0bb
    )
  )
)
