M48
; DRILL file {KiCad 7.0.10} date Пт 02 фев 2024 09:29:17
; FORMAT={-:-/ absolute / metric / decimal}
; #@! TF.CreationDate,2024-02-02T09:29:17+03:00
; #@! TF.GenerationSoftware,Kicad,Pcbnew,7.0.10
; #@! TF.FileFunction,Plated,1,2,PTH
FMAT,2
METRIC
; #@! TA.AperFunction,Plated,PTH,ComponentDrill
T1C0.800
; #@! TA.AperFunction,Plated,PTH,ComponentDrill
T2C1.000
%
G90
G05
T1
X53.42Y-16.5
X53.42Y-20.0
X63.58Y-16.5
X63.58Y-20.0
T2
X6.25Y-8.75
X6.25Y-45.25
X19.0Y-51.6
X19.0Y-56.6
X23.25Y-8.75
X23.25Y-45.25
X25.0Y-51.6
X25.0Y-56.6
X28.37Y-9.99
X28.37Y-12.53
X28.37Y-15.07
X28.37Y-17.61
X28.37Y-20.15
X28.37Y-22.69
X28.37Y-25.23
X28.37Y-27.77
X28.37Y-30.31
X28.37Y-32.85
X28.37Y-35.39
X28.37Y-37.93
X28.37Y-40.47
X28.37Y-43.01
X28.37Y-45.55
X43.61Y-9.99
X43.61Y-12.53
X43.61Y-15.07
X43.61Y-17.61
X43.61Y-20.15
X43.61Y-22.69
X43.61Y-25.23
X43.61Y-27.77
X43.61Y-30.31
X43.61Y-32.85
X43.61Y-35.39
X43.61Y-37.93
X43.61Y-40.47
X43.61Y-43.01
X43.61Y-45.55
X49.0Y-28.18
X49.0Y-30.72
X49.0Y-33.26
X49.0Y-35.8
X49.0Y-38.34
X49.0Y-40.88
X49.0Y-43.42
X49.0Y-45.96
X49.0Y-48.5
X53.46Y-9.25
X55.0Y-56.5
X56.0Y-9.25
X60.54Y-56.5
X61.25Y-9.25
X63.79Y-9.25
X67.0Y-28.18
X67.0Y-30.72
X67.0Y-33.26
X67.0Y-35.8
X67.0Y-38.34
X67.0Y-40.88
X67.0Y-43.42
X67.0Y-45.96
X67.0Y-48.5
T2
G00X4.0Y-53.5
M15
G01X4.0Y-55.5
M16
G05
G00X6.0Y-59.2
M15
G01X8.0Y-59.2
M16
G05
G00X10.0Y-53.5
M15
G01X10.0Y-55.5
M16
G05
M30
