%TF.GenerationSoftware,KiCad,Pcbnew,7.0.10*%
%TF.CreationDate,2024-02-02T09:29:11+03:00*%
%TF.ProjectId,money_box,6d6f6e65-795f-4626-9f78-2e6b69636164,rev?*%
%TF.SameCoordinates,Original*%
%TF.FileFunction,Copper,L2,Bot*%
%TF.FilePolarity,Positive*%
%FSLAX46Y46*%
G04 Gerber Fmt 4.6, Leading zero omitted, Abs format (unit mm)*
G04 Created by KiCad (PCBNEW 7.0.10) date 2024-02-02 09:29:11*
%MOMM*%
%LPD*%
G01*
G04 APERTURE LIST*
G04 Aperture macros list*
%AMRoundRect*
0 Rectangle with rounded corners*
0 $1 Rounding radius*
0 $2 $3 $4 $5 $6 $7 $8 $9 X,Y pos of 4 corners*
0 Add a 4 corners polygon primitive as box body*
4,1,4,$2,$3,$4,$5,$6,$7,$8,$9,$2,$3,0*
0 Add four circle primitives for the rounded corners*
1,1,$1+$1,$2,$3*
1,1,$1+$1,$4,$5*
1,1,$1+$1,$6,$7*
1,1,$1+$1,$8,$9*
0 Add four rect primitives between the rounded corners*
20,1,$1+$1,$2,$3,$4,$5,0*
20,1,$1+$1,$4,$5,$6,$7,0*
20,1,$1+$1,$6,$7,$8,$9,0*
20,1,$1+$1,$8,$9,$2,$3,0*%
G04 Aperture macros list end*
%TA.AperFunction,ComponentPad*%
%ADD10R,3.000000X3.000000*%
%TD*%
%TA.AperFunction,ComponentPad*%
%ADD11O,1.600000X1.600000*%
%TD*%
%TA.AperFunction,ComponentPad*%
%ADD12C,1.600000*%
%TD*%
%TA.AperFunction,ComponentPad*%
%ADD13R,1.700000X1.700000*%
%TD*%
%TA.AperFunction,ComponentPad*%
%ADD14O,1.700000X1.700000*%
%TD*%
%TA.AperFunction,ComponentPad*%
%ADD15R,3.500000X3.500000*%
%TD*%
%TA.AperFunction,ComponentPad*%
%ADD16RoundRect,0.750000X-0.750000X-1.000000X0.750000X-1.000000X0.750000X1.000000X-0.750000X1.000000X0*%
%TD*%
%TA.AperFunction,ComponentPad*%
%ADD17RoundRect,0.875000X-0.875000X-0.875000X0.875000X-0.875000X0.875000X0.875000X-0.875000X0.875000X0*%
%TD*%
%TA.AperFunction,ComponentPad*%
%ADD18R,1.600000X1.600000*%
%TD*%
%TA.AperFunction,Conductor*%
%ADD19C,2.000000*%
%TD*%
G04 APERTURE END LIST*
D10*
%TO.P,J12,1,Pin_1*%
%TO.N,GND*%
X23250000Y-8750000D03*
%TO.P,J12,2,Pin_2*%
%TO.N,+5V*%
X6250000Y-8750000D03*
%TD*%
%TO.P,J11,1,Pin_1*%
%TO.N,GND*%
X23250000Y-45250000D03*
%TO.P,J11,2,Pin_2*%
%TO.N,VIN*%
X6250000Y-45250000D03*
%TD*%
%TO.P,J2,2,Pin_2*%
%TO.N,GND*%
X25000000Y-51600000D03*
%TO.P,J2,1,Pin_1*%
%TO.N,Net-(J1-Pin_1)*%
X25000000Y-56600000D03*
%TD*%
%TO.P,J3,1,Pin_1*%
%TO.N,Net-(J1-Pin_1)*%
X19000000Y-56600000D03*
%TO.P,J3,2,Pin_2*%
%TO.N,VIN*%
X19000000Y-51600000D03*
%TD*%
%TO.P,J6,1,Pin_1*%
%TO.N,Net-(J6-Pin_1)*%
X55000000Y-56500000D03*
%TO.P,J6,2,Pin_2*%
%TO.N,Net-(J6-Pin_2)*%
X60540000Y-56500000D03*
%TD*%
D11*
%TO.P,R2,2*%
%TO.N,+5V*%
X63580000Y-16500000D03*
D12*
%TO.P,R2,1*%
%TO.N,Net-(J7-Pin_1)*%
X53420000Y-16500000D03*
%TD*%
%TO.P,R1,1*%
%TO.N,SIG_optopara*%
X53420000Y-20000000D03*
D11*
%TO.P,R1,2*%
%TO.N,+5V*%
X63580000Y-20000000D03*
%TD*%
D13*
%TO.P,J10,1,Pin_1*%
%TO.N,unconnected-(J10-Pin_1-Pad1)*%
X67000000Y-28180000D03*
D14*
%TO.P,J10,2,Pin_2*%
%TO.N,unconnected-(J10-Pin_2-Pad2)*%
X67000000Y-30720000D03*
%TO.P,J10,3,Pin_3*%
%TO.N,unconnected-(J10-Pin_3-Pad3)*%
X67000000Y-33260000D03*
%TO.P,J10,4,Pin_4*%
%TO.N,unconnected-(J10-Pin_4-Pad4)*%
X67000000Y-35800000D03*
%TO.P,J10,5,Pin_5*%
%TO.N,unconnected-(J10-Pin_5-Pad5)*%
X67000000Y-38340000D03*
%TO.P,J10,6,Pin_6*%
%TO.N,unconnected-(J10-Pin_6-Pad6)*%
X67000000Y-40880000D03*
%TO.P,J10,7,Pin_7*%
%TO.N,unconnected-(J10-Pin_7-Pad7)*%
X67000000Y-43420000D03*
%TO.P,J10,8,Pin_8*%
%TO.N,unconnected-(J10-Pin_8-Pad8)*%
X67000000Y-45960000D03*
%TO.P,J10,9*%
%TO.N,N/C*%
X67000000Y-48500000D03*
%TD*%
D13*
%TO.P,J9,1,Pin_1*%
%TO.N,+5V*%
X49000000Y-28180000D03*
D14*
%TO.P,J9,2,Pin_2*%
%TO.N,RX*%
X49000000Y-30720000D03*
%TO.P,J9,3,Pin_3*%
%TO.N,TX*%
X49000000Y-33260000D03*
%TO.P,J9,4,Pin_4*%
%TO.N,unconnected-(J9-Pin_4-Pad4)*%
X49000000Y-35800000D03*
%TO.P,J9,5,Pin_5*%
%TO.N,unconnected-(J9-Pin_5-Pad5)*%
X49000000Y-38340000D03*
%TO.P,J9,6,Pin_6*%
%TO.N,Net-(J6-Pin_2)*%
X49000000Y-40880000D03*
%TO.P,J9,7,Pin_7*%
%TO.N,GND*%
X49000000Y-43420000D03*
%TO.P,J9,8,Pin_8*%
%TO.N,Net-(J6-Pin_1)*%
X49000000Y-45960000D03*
%TO.P,J9,9*%
%TO.N,N/C*%
X49000000Y-48500000D03*
%TD*%
D13*
%TO.P,J8,1,Pin_1*%
%TO.N,SIG_optopara*%
X53460000Y-9250000D03*
D14*
%TO.P,J8,2,Pin_2*%
%TO.N,GND*%
X56000000Y-9250000D03*
%TD*%
D13*
%TO.P,J7,1,Pin_1*%
%TO.N,Net-(J7-Pin_1)*%
X63790000Y-9250000D03*
D14*
%TO.P,J7,2,Pin_2*%
%TO.N,GND*%
X61250000Y-9250000D03*
%TD*%
D15*
%TO.P,J1,1,Pin_1*%
%TO.N,Net-(J1-Pin_1)*%
X10000000Y-54500000D03*
D16*
%TO.P,J1,2,Pin_2*%
%TO.N,GND*%
X4000000Y-54500000D03*
D17*
%TO.P,J1,3*%
%TO.N,N/C*%
X7000000Y-59200000D03*
%TD*%
D18*
%TO.P,A1,1,D1/TX*%
%TO.N,unconnected-(A1-D1{slash}TX-Pad1)*%
X43610000Y-45550000D03*
D11*
%TO.P,A1,2,D0/RX*%
%TO.N,unconnected-(A1-D0{slash}RX-Pad2)*%
X43610000Y-43010000D03*
%TO.P,A1,3,~{RESET}*%
%TO.N,unconnected-(A1-~{RESET}-Pad3)*%
X43610000Y-40470000D03*
%TO.P,A1,4,GND*%
%TO.N,GND*%
X43610000Y-37930000D03*
%TO.P,A1,5,D2*%
%TO.N,TX*%
X43610000Y-35390000D03*
%TO.P,A1,6,D3*%
%TO.N,RX*%
X43610000Y-32850000D03*
%TO.P,A1,7,D4*%
%TO.N,unconnected-(A1-D4-Pad7)*%
X43610000Y-30310000D03*
%TO.P,A1,8,D5*%
%TO.N,unconnected-(A1-D5-Pad8)*%
X43610000Y-27770000D03*
%TO.P,A1,9,D6*%
%TO.N,unconnected-(A1-D6-Pad9)*%
X43610000Y-25230000D03*
%TO.P,A1,10,D7*%
%TO.N,unconnected-(A1-D7-Pad10)*%
X43610000Y-22690000D03*
%TO.P,A1,11,D8*%
%TO.N,unconnected-(A1-D8-Pad11)*%
X43610000Y-20150000D03*
%TO.P,A1,12,D9*%
%TO.N,unconnected-(A1-D9-Pad12)*%
X43610000Y-17610000D03*
%TO.P,A1,13,D10*%
%TO.N,unconnected-(A1-D10-Pad13)*%
X43610000Y-15070000D03*
%TO.P,A1,14,D11*%
%TO.N,unconnected-(A1-D11-Pad14)*%
X43610000Y-12530000D03*
%TO.P,A1,15,D12*%
%TO.N,unconnected-(A1-D12-Pad15)*%
X43610000Y-9990000D03*
%TO.P,A1,16,D13*%
%TO.N,unconnected-(A1-D13-Pad16)*%
X28370000Y-9990000D03*
%TO.P,A1,17,3V3*%
%TO.N,unconnected-(A1-3V3-Pad17)*%
X28370000Y-12530000D03*
%TO.P,A1,18,AREF*%
%TO.N,unconnected-(A1-AREF-Pad18)*%
X28370000Y-15070000D03*
%TO.P,A1,19,A0*%
%TO.N,SIG_optopara*%
X28370000Y-17610000D03*
%TO.P,A1,20,A1*%
%TO.N,unconnected-(A1-A1-Pad20)*%
X28370000Y-20150000D03*
%TO.P,A1,21,A2*%
%TO.N,unconnected-(A1-A2-Pad21)*%
X28370000Y-22690000D03*
%TO.P,A1,22,A3*%
%TO.N,unconnected-(A1-A3-Pad22)*%
X28370000Y-25230000D03*
%TO.P,A1,23,A4*%
%TO.N,unconnected-(A1-A4-Pad23)*%
X28370000Y-27770000D03*
%TO.P,A1,24,A5*%
%TO.N,unconnected-(A1-A5-Pad24)*%
X28370000Y-30310000D03*
%TO.P,A1,25,A6*%
%TO.N,unconnected-(A1-A6-Pad25)*%
X28370000Y-32850000D03*
%TO.P,A1,26,A7*%
%TO.N,unconnected-(A1-A7-Pad26)*%
X28370000Y-35390000D03*
%TO.P,A1,27,+5V*%
%TO.N,+5V*%
X28370000Y-37930000D03*
%TO.P,A1,28,~{RESET}*%
%TO.N,unconnected-(A1-~{RESET}-Pad28)*%
X28370000Y-40470000D03*
%TO.P,A1,29,GND*%
%TO.N,GND*%
X28370000Y-43010000D03*
%TO.P,A1,30,VIN*%
%TO.N,unconnected-(A1-VIN-Pad30)*%
X28370000Y-45550000D03*
%TD*%
D19*
%TO.N,+5V*%
X6250000Y-8750000D02*
X6250000Y-34250000D01*
X6250000Y-34250000D02*
X9930000Y-37930000D01*
X9930000Y-37930000D02*
X28370000Y-37930000D01*
%TO.N,GND*%
X25000000Y-51600000D02*
X25000000Y-47000000D01*
X25000000Y-47000000D02*
X19500000Y-41500000D01*
X19500000Y-41500000D02*
X2600000Y-41500000D01*
X2600000Y-41500000D02*
X1500000Y-42600000D01*
X1500000Y-42600000D02*
X1500000Y-44500000D01*
X28370000Y-43010000D02*
X25490000Y-43010000D01*
X25490000Y-43010000D02*
X23250000Y-45250000D01*
%TO.N,VIN*%
X6250000Y-45250000D02*
X6500000Y-45000000D01*
X6500000Y-45000000D02*
X12540000Y-45000000D01*
X12540000Y-45000000D02*
X19000000Y-51460000D01*
X19000000Y-51460000D02*
X19000000Y-51600000D01*
%TO.N,GND*%
X1500000Y-44500000D02*
X1500000Y-7500000D01*
X1500000Y-7500000D02*
X4000000Y-5000000D01*
X4000000Y-5000000D02*
X8750000Y-5000000D01*
X8750000Y-5000000D02*
X12250000Y-8500000D01*
X12250000Y-8500000D02*
X23000000Y-8500000D01*
X23000000Y-8500000D02*
X23250000Y-8750000D01*
X27500000Y-2500000D02*
X50810000Y-2500000D01*
X23250000Y-6750000D02*
X27500000Y-2500000D01*
X50810000Y-2500000D02*
X56000000Y-7690000D01*
X23250000Y-8750000D02*
X23250000Y-6750000D01*
X56000000Y-7690000D02*
X56000000Y-9250000D01*
%TO.N,+5V*%
X5750000Y-8250000D02*
X6250000Y-8750000D01*
%TO.N,GND*%
X1500000Y-44500000D02*
X1500000Y-52000000D01*
X28370000Y-43010000D02*
X29501370Y-43010000D01*
X29501370Y-43010000D02*
X34581370Y-37930000D01*
X34581370Y-37930000D02*
X43610000Y-37930000D01*
%TO.N,+5V*%
X49000000Y-28180000D02*
X55400000Y-28180000D01*
X55400000Y-28180000D02*
X63580000Y-20000000D01*
X28370000Y-37930000D02*
X29501370Y-37930000D01*
X29501370Y-37930000D02*
X35250000Y-32181370D01*
X41750000Y-7500000D02*
X45000000Y-7500000D01*
X47000000Y-26180000D02*
X49000000Y-28180000D01*
X35250000Y-32181370D02*
X35250000Y-14000000D01*
X35250000Y-14000000D02*
X41750000Y-7500000D01*
X47000000Y-9500000D02*
X47000000Y-26180000D01*
X45000000Y-7500000D02*
X47000000Y-9500000D01*
%TO.N,SIG_optopara*%
X28370000Y-17610000D02*
X31140000Y-17610000D01*
X31140000Y-17610000D02*
X32500000Y-16250000D01*
X49210000Y-5000000D02*
X53460000Y-9250000D01*
X32500000Y-16250000D02*
X32500000Y-12500000D01*
X32500000Y-12500000D02*
X40000000Y-5000000D01*
X40000000Y-5000000D02*
X49210000Y-5000000D01*
%TO.N,+5V*%
X63580000Y-16500000D02*
X63580000Y-20000000D01*
%TO.N,SIG_optopara*%
X53420000Y-20000000D02*
X52250000Y-20000000D01*
X52250000Y-20000000D02*
X50500000Y-18250000D01*
X50500000Y-18250000D02*
X50500000Y-14500000D01*
X50500000Y-14500000D02*
X53460000Y-11540000D01*
X53460000Y-11540000D02*
X53460000Y-9250000D01*
%TO.N,Net-(J7-Pin_1)*%
X53420000Y-16500000D02*
X59250000Y-16500000D01*
X59250000Y-16500000D02*
X63790000Y-11960000D01*
X63790000Y-11960000D02*
X63790000Y-9250000D01*
%TO.N,GND*%
X56000000Y-9250000D02*
X61250000Y-9250000D01*
X49000000Y-43420000D02*
X47797919Y-43420000D01*
X47797919Y-43420000D02*
X46250000Y-41872081D01*
X46250000Y-41872081D02*
X46250000Y-39250000D01*
X46250000Y-39250000D02*
X44930000Y-37930000D01*
X44930000Y-37930000D02*
X43610000Y-37930000D01*
%TO.N,TX*%
X43610000Y-35390000D02*
X45665635Y-35390000D01*
X45665635Y-35390000D02*
X47795635Y-33260000D01*
X47795635Y-33260000D02*
X49000000Y-33260000D01*
%TO.N,RX*%
X43610000Y-32850000D02*
X44650000Y-32850000D01*
X44650000Y-32850000D02*
X46780000Y-30720000D01*
X46780000Y-30720000D02*
X49000000Y-30720000D01*
%TO.N,Net-(J1-Pin_1)*%
X10000000Y-54500000D02*
X13500000Y-54500000D01*
X13500000Y-54500000D02*
X15600000Y-56600000D01*
X15600000Y-56600000D02*
X25000000Y-56600000D01*
%TO.N,GND*%
X1500000Y-52000000D02*
X4000000Y-54500000D01*
%TO.N,Net-(J6-Pin_1)*%
X49000000Y-45960000D02*
X51960000Y-45960000D01*
X51960000Y-45960000D02*
X55000000Y-49000000D01*
X55000000Y-49000000D02*
X55000000Y-56500000D01*
%TO.N,Net-(J6-Pin_2)*%
X49000000Y-40880000D02*
X51880000Y-40880000D01*
X51880000Y-40880000D02*
X60540000Y-49540000D01*
X60540000Y-49540000D02*
X60540000Y-56500000D01*
%TD*%
M02*
