M48
; DRILL file {KiCad 6.0.10-86aedd382b~118~ubuntu20.04.1} date Чт 07 сен 2023 15:13:33
; FORMAT={-:-/ absolute / metric / decimal}
; #@! TF.CreationDate,2023-09-07T15:13:33+03:00
; #@! TF.GenerationSoftware,Kicad,Pcbnew,6.0.10-86aedd382b~118~ubuntu20.04.1
; #@! TF.FileFunction,Plated,1,2,PTH
FMAT,2
METRIC
; #@! TA.AperFunction,Plated,PTH,ComponentDrill
T1C0.800
; #@! TA.AperFunction,Plated,PTH,ComponentDrill
T2C1.000
%
G90
G05
T1
X4.5Y-23.3
X4.5Y-25.3
X4.5Y-27.3
T2
X4.8Y-38.0
X4.8Y-40.54
X4.8Y-43.08
X9.5Y-15.1
X9.5Y-17.64
X9.5Y-20.18
X9.5Y-22.72
X9.5Y-25.26
X9.5Y-27.8
X9.5Y-30.34
X9.5Y-32.88
X9.5Y-35.42
X9.5Y-37.96
X9.5Y-40.5
X9.5Y-43.04
X9.5Y-45.58
X9.5Y-48.12
X9.5Y-50.66
X15.182Y-19.1
X18.682Y-19.1
X24.74Y-15.1
X24.74Y-17.64
X24.74Y-20.18
X24.74Y-22.72
X24.74Y-25.26
X24.74Y-27.8
X24.74Y-30.34
X24.74Y-32.88
X24.74Y-35.42
X24.74Y-37.96
X24.74Y-40.5
X24.74Y-43.04
X24.74Y-45.58
X24.74Y-48.12
X24.74Y-50.66
X24.8Y-8.7
X24.8Y-11.24
X28.7Y-37.945
X28.7Y-40.485
X28.7Y-43.025
T2
G00X11.1Y-4.8
M15
G01X11.1Y-6.8
M16
G05
G00X16.8Y-2.8
M15
G01X14.8Y-2.8
M16
G05
G00X16.8Y-8.8
M15
G01X14.8Y-8.8
M16
G05
T0
M30
