(kicad_sch (version 20211123) (generator eeschema)

  (uuid 86e683a7-d61a-4667-ae7a-3653885d8d28)

  (paper "A4")

  (lib_symbols
    (symbol "Connector:Conn_01x02_Female" (pin_names (offset 1.016) hide) (in_bom yes) (on_board yes)
      (property "Reference" "J" (id 0) (at 0 2.54 0)
        (effects (font (size 1.27 1.27)))
      )
      (property "Value" "Conn_01x02_Female" (id 1) (at 0 -5.08 0)
        (effects (font (size 1.27 1.27)))
      )
      (property "Footprint" "" (id 2) (at 0 0 0)
        (effects (font (size 1.27 1.27)) hide)
      )
      (property "Datasheet" "~" (id 3) (at 0 0 0)
        (effects (font (size 1.27 1.27)) hide)
      )
      (property "ki_keywords" "connector" (id 4) (at 0 0 0)
        (effects (font (size 1.27 1.27)) hide)
      )
      (property "ki_description" "Generic connector, single row, 01x02, script generated (kicad-library-utils/schlib/autogen/connector/)" (id 5) (at 0 0 0)
        (effects (font (size 1.27 1.27)) hide)
      )
      (property "ki_fp_filters" "Connector*:*_1x??_*" (id 6) (at 0 0 0)
        (effects (font (size 1.27 1.27)) hide)
      )
      (symbol "Conn_01x02_Female_1_1"
        (arc (start 0 -2.032) (mid -0.508 -2.54) (end 0 -3.048)
          (stroke (width 0.1524) (type default) (color 0 0 0 0))
          (fill (type none))
        )
        (polyline
          (pts
            (xy -1.27 -2.54)
            (xy -0.508 -2.54)
          )
          (stroke (width 0.1524) (type default) (color 0 0 0 0))
          (fill (type none))
        )
        (polyline
          (pts
            (xy -1.27 0)
            (xy -0.508 0)
          )
          (stroke (width 0.1524) (type default) (color 0 0 0 0))
          (fill (type none))
        )
        (arc (start 0 0.508) (mid -0.508 0) (end 0 -0.508)
          (stroke (width 0.1524) (type default) (color 0 0 0 0))
          (fill (type none))
        )
        (pin passive line (at -5.08 0 0) (length 3.81)
          (name "Pin_1" (effects (font (size 1.27 1.27))))
          (number "1" (effects (font (size 1.27 1.27))))
        )
        (pin passive line (at -5.08 -2.54 0) (length 3.81)
          (name "Pin_2" (effects (font (size 1.27 1.27))))
          (number "2" (effects (font (size 1.27 1.27))))
        )
      )
    )
    (symbol "Connector:Conn_01x03_Female" (pin_names (offset 1.016) hide) (in_bom yes) (on_board yes)
      (property "Reference" "J" (id 0) (at 0 5.08 0)
        (effects (font (size 1.27 1.27)))
      )
      (property "Value" "Conn_01x03_Female" (id 1) (at 0 -5.08 0)
        (effects (font (size 1.27 1.27)))
      )
      (property "Footprint" "" (id 2) (at 0 0 0)
        (effects (font (size 1.27 1.27)) hide)
      )
      (property "Datasheet" "~" (id 3) (at 0 0 0)
        (effects (font (size 1.27 1.27)) hide)
      )
      (property "ki_keywords" "connector" (id 4) (at 0 0 0)
        (effects (font (size 1.27 1.27)) hide)
      )
      (property "ki_description" "Generic connector, single row, 01x03, script generated (kicad-library-utils/schlib/autogen/connector/)" (id 5) (at 0 0 0)
        (effects (font (size 1.27 1.27)) hide)
      )
      (property "ki_fp_filters" "Connector*:*_1x??_*" (id 6) (at 0 0 0)
        (effects (font (size 1.27 1.27)) hide)
      )
      (symbol "Conn_01x03_Female_1_1"
        (arc (start 0 -2.032) (mid -0.508 -2.54) (end 0 -3.048)
          (stroke (width 0.1524) (type default) (color 0 0 0 0))
          (fill (type none))
        )
        (polyline
          (pts
            (xy -1.27 -2.54)
            (xy -0.508 -2.54)
          )
          (stroke (width 0.1524) (type default) (color 0 0 0 0))
          (fill (type none))
        )
        (polyline
          (pts
            (xy -1.27 0)
            (xy -0.508 0)
          )
          (stroke (width 0.1524) (type default) (color 0 0 0 0))
          (fill (type none))
        )
        (polyline
          (pts
            (xy -1.27 2.54)
            (xy -0.508 2.54)
          )
          (stroke (width 0.1524) (type default) (color 0 0 0 0))
          (fill (type none))
        )
        (arc (start 0 0.508) (mid -0.508 0) (end 0 -0.508)
          (stroke (width 0.1524) (type default) (color 0 0 0 0))
          (fill (type none))
        )
        (arc (start 0 3.048) (mid -0.508 2.54) (end 0 2.032)
          (stroke (width 0.1524) (type default) (color 0 0 0 0))
          (fill (type none))
        )
        (pin passive line (at -5.08 2.54 0) (length 3.81)
          (name "Pin_1" (effects (font (size 1.27 1.27))))
          (number "1" (effects (font (size 1.27 1.27))))
        )
        (pin passive line (at -5.08 0 0) (length 3.81)
          (name "Pin_2" (effects (font (size 1.27 1.27))))
          (number "2" (effects (font (size 1.27 1.27))))
        )
        (pin passive line (at -5.08 -2.54 0) (length 3.81)
          (name "Pin_3" (effects (font (size 1.27 1.27))))
          (number "3" (effects (font (size 1.27 1.27))))
        )
      )
    )
    (symbol "Device:C_Polarized" (pin_numbers hide) (pin_names (offset 0.254)) (in_bom yes) (on_board yes)
      (property "Reference" "C" (id 0) (at 0.635 2.54 0)
        (effects (font (size 1.27 1.27)) (justify left))
      )
      (property "Value" "C_Polarized" (id 1) (at 0.635 -2.54 0)
        (effects (font (size 1.27 1.27)) (justify left))
      )
      (property "Footprint" "" (id 2) (at 0.9652 -3.81 0)
        (effects (font (size 1.27 1.27)) hide)
      )
      (property "Datasheet" "~" (id 3) (at 0 0 0)
        (effects (font (size 1.27 1.27)) hide)
      )
      (property "ki_keywords" "cap capacitor" (id 4) (at 0 0 0)
        (effects (font (size 1.27 1.27)) hide)
      )
      (property "ki_description" "Polarized capacitor" (id 5) (at 0 0 0)
        (effects (font (size 1.27 1.27)) hide)
      )
      (property "ki_fp_filters" "CP_*" (id 6) (at 0 0 0)
        (effects (font (size 1.27 1.27)) hide)
      )
      (symbol "C_Polarized_0_1"
        (rectangle (start -2.286 0.508) (end 2.286 1.016)
          (stroke (width 0) (type default) (color 0 0 0 0))
          (fill (type none))
        )
        (polyline
          (pts
            (xy -1.778 2.286)
            (xy -0.762 2.286)
          )
          (stroke (width 0) (type default) (color 0 0 0 0))
          (fill (type none))
        )
        (polyline
          (pts
            (xy -1.27 2.794)
            (xy -1.27 1.778)
          )
          (stroke (width 0) (type default) (color 0 0 0 0))
          (fill (type none))
        )
        (rectangle (start 2.286 -0.508) (end -2.286 -1.016)
          (stroke (width 0) (type default) (color 0 0 0 0))
          (fill (type outline))
        )
      )
      (symbol "C_Polarized_1_1"
        (pin passive line (at 0 3.81 270) (length 2.794)
          (name "~" (effects (font (size 1.27 1.27))))
          (number "1" (effects (font (size 1.27 1.27))))
        )
        (pin passive line (at 0 -3.81 90) (length 2.794)
          (name "~" (effects (font (size 1.27 1.27))))
          (number "2" (effects (font (size 1.27 1.27))))
        )
      )
    )
    (symbol "Device:R_Potentiometer" (pin_names (offset 1.016) hide) (in_bom yes) (on_board yes)
      (property "Reference" "RV" (id 0) (at -4.445 0 90)
        (effects (font (size 1.27 1.27)))
      )
      (property "Value" "R_Potentiometer" (id 1) (at -2.54 0 90)
        (effects (font (size 1.27 1.27)))
      )
      (property "Footprint" "" (id 2) (at 0 0 0)
        (effects (font (size 1.27 1.27)) hide)
      )
      (property "Datasheet" "~" (id 3) (at 0 0 0)
        (effects (font (size 1.27 1.27)) hide)
      )
      (property "ki_keywords" "resistor variable" (id 4) (at 0 0 0)
        (effects (font (size 1.27 1.27)) hide)
      )
      (property "ki_description" "Potentiometer" (id 5) (at 0 0 0)
        (effects (font (size 1.27 1.27)) hide)
      )
      (property "ki_fp_filters" "Potentiometer*" (id 6) (at 0 0 0)
        (effects (font (size 1.27 1.27)) hide)
      )
      (symbol "R_Potentiometer_0_1"
        (polyline
          (pts
            (xy 2.54 0)
            (xy 1.524 0)
          )
          (stroke (width 0) (type default) (color 0 0 0 0))
          (fill (type none))
        )
        (polyline
          (pts
            (xy 1.143 0)
            (xy 2.286 0.508)
            (xy 2.286 -0.508)
            (xy 1.143 0)
          )
          (stroke (width 0) (type default) (color 0 0 0 0))
          (fill (type outline))
        )
        (rectangle (start 1.016 2.54) (end -1.016 -2.54)
          (stroke (width 0.254) (type default) (color 0 0 0 0))
          (fill (type none))
        )
      )
      (symbol "R_Potentiometer_1_1"
        (pin passive line (at 0 3.81 270) (length 1.27)
          (name "1" (effects (font (size 1.27 1.27))))
          (number "1" (effects (font (size 1.27 1.27))))
        )
        (pin passive line (at 3.81 0 180) (length 1.27)
          (name "2" (effects (font (size 1.27 1.27))))
          (number "2" (effects (font (size 1.27 1.27))))
        )
        (pin passive line (at 0 -3.81 90) (length 1.27)
          (name "3" (effects (font (size 1.27 1.27))))
          (number "3" (effects (font (size 1.27 1.27))))
        )
      )
    )
    (symbol "MCU_Module:Arduino_Nano_v3.x" (in_bom yes) (on_board yes)
      (property "Reference" "A" (id 0) (at -10.16 23.495 0)
        (effects (font (size 1.27 1.27)) (justify left bottom))
      )
      (property "Value" "Arduino_Nano_v3.x" (id 1) (at 5.08 -24.13 0)
        (effects (font (size 1.27 1.27)) (justify left top))
      )
      (property "Footprint" "Module:Arduino_Nano" (id 2) (at 0 0 0)
        (effects (font (size 1.27 1.27) italic) hide)
      )
      (property "Datasheet" "http://www.mouser.com/pdfdocs/Gravitech_Arduino_Nano3_0.pdf" (id 3) (at 0 0 0)
        (effects (font (size 1.27 1.27)) hide)
      )
      (property "ki_keywords" "Arduino nano microcontroller module USB" (id 4) (at 0 0 0)
        (effects (font (size 1.27 1.27)) hide)
      )
      (property "ki_description" "Arduino Nano v3.x" (id 5) (at 0 0 0)
        (effects (font (size 1.27 1.27)) hide)
      )
      (property "ki_fp_filters" "Arduino*Nano*" (id 6) (at 0 0 0)
        (effects (font (size 1.27 1.27)) hide)
      )
      (symbol "Arduino_Nano_v3.x_0_1"
        (rectangle (start -10.16 22.86) (end 10.16 -22.86)
          (stroke (width 0.254) (type default) (color 0 0 0 0))
          (fill (type background))
        )
      )
      (symbol "Arduino_Nano_v3.x_1_1"
        (pin bidirectional line (at -12.7 12.7 0) (length 2.54)
          (name "D1/TX" (effects (font (size 1.27 1.27))))
          (number "1" (effects (font (size 1.27 1.27))))
        )
        (pin bidirectional line (at -12.7 -2.54 0) (length 2.54)
          (name "D7" (effects (font (size 1.27 1.27))))
          (number "10" (effects (font (size 1.27 1.27))))
        )
        (pin bidirectional line (at -12.7 -5.08 0) (length 2.54)
          (name "D8" (effects (font (size 1.27 1.27))))
          (number "11" (effects (font (size 1.27 1.27))))
        )
        (pin bidirectional line (at -12.7 -7.62 0) (length 2.54)
          (name "D9" (effects (font (size 1.27 1.27))))
          (number "12" (effects (font (size 1.27 1.27))))
        )
        (pin bidirectional line (at -12.7 -10.16 0) (length 2.54)
          (name "D10" (effects (font (size 1.27 1.27))))
          (number "13" (effects (font (size 1.27 1.27))))
        )
        (pin bidirectional line (at -12.7 -12.7 0) (length 2.54)
          (name "D11" (effects (font (size 1.27 1.27))))
          (number "14" (effects (font (size 1.27 1.27))))
        )
        (pin bidirectional line (at -12.7 -15.24 0) (length 2.54)
          (name "D12" (effects (font (size 1.27 1.27))))
          (number "15" (effects (font (size 1.27 1.27))))
        )
        (pin bidirectional line (at -12.7 -17.78 0) (length 2.54)
          (name "D13" (effects (font (size 1.27 1.27))))
          (number "16" (effects (font (size 1.27 1.27))))
        )
        (pin power_out line (at 2.54 25.4 270) (length 2.54)
          (name "3V3" (effects (font (size 1.27 1.27))))
          (number "17" (effects (font (size 1.27 1.27))))
        )
        (pin input line (at 12.7 5.08 180) (length 2.54)
          (name "AREF" (effects (font (size 1.27 1.27))))
          (number "18" (effects (font (size 1.27 1.27))))
        )
        (pin bidirectional line (at 12.7 0 180) (length 2.54)
          (name "A0" (effects (font (size 1.27 1.27))))
          (number "19" (effects (font (size 1.27 1.27))))
        )
        (pin bidirectional line (at -12.7 15.24 0) (length 2.54)
          (name "D0/RX" (effects (font (size 1.27 1.27))))
          (number "2" (effects (font (size 1.27 1.27))))
        )
        (pin bidirectional line (at 12.7 -2.54 180) (length 2.54)
          (name "A1" (effects (font (size 1.27 1.27))))
          (number "20" (effects (font (size 1.27 1.27))))
        )
        (pin bidirectional line (at 12.7 -5.08 180) (length 2.54)
          (name "A2" (effects (font (size 1.27 1.27))))
          (number "21" (effects (font (size 1.27 1.27))))
        )
        (pin bidirectional line (at 12.7 -7.62 180) (length 2.54)
          (name "A3" (effects (font (size 1.27 1.27))))
          (number "22" (effects (font (size 1.27 1.27))))
        )
        (pin bidirectional line (at 12.7 -10.16 180) (length 2.54)
          (name "A4" (effects (font (size 1.27 1.27))))
          (number "23" (effects (font (size 1.27 1.27))))
        )
        (pin bidirectional line (at 12.7 -12.7 180) (length 2.54)
          (name "A5" (effects (font (size 1.27 1.27))))
          (number "24" (effects (font (size 1.27 1.27))))
        )
        (pin bidirectional line (at 12.7 -15.24 180) (length 2.54)
          (name "A6" (effects (font (size 1.27 1.27))))
          (number "25" (effects (font (size 1.27 1.27))))
        )
        (pin bidirectional line (at 12.7 -17.78 180) (length 2.54)
          (name "A7" (effects (font (size 1.27 1.27))))
          (number "26" (effects (font (size 1.27 1.27))))
        )
        (pin power_out line (at 5.08 25.4 270) (length 2.54)
          (name "+5V" (effects (font (size 1.27 1.27))))
          (number "27" (effects (font (size 1.27 1.27))))
        )
        (pin input line (at 12.7 15.24 180) (length 2.54)
          (name "~{RESET}" (effects (font (size 1.27 1.27))))
          (number "28" (effects (font (size 1.27 1.27))))
        )
        (pin power_in line (at 2.54 -25.4 90) (length 2.54)
          (name "GND" (effects (font (size 1.27 1.27))))
          (number "29" (effects (font (size 1.27 1.27))))
        )
        (pin input line (at 12.7 12.7 180) (length 2.54)
          (name "~{RESET}" (effects (font (size 1.27 1.27))))
          (number "3" (effects (font (size 1.27 1.27))))
        )
        (pin power_in line (at -2.54 25.4 270) (length 2.54)
          (name "VIN" (effects (font (size 1.27 1.27))))
          (number "30" (effects (font (size 1.27 1.27))))
        )
        (pin power_in line (at 0 -25.4 90) (length 2.54)
          (name "GND" (effects (font (size 1.27 1.27))))
          (number "4" (effects (font (size 1.27 1.27))))
        )
        (pin bidirectional line (at -12.7 10.16 0) (length 2.54)
          (name "D2" (effects (font (size 1.27 1.27))))
          (number "5" (effects (font (size 1.27 1.27))))
        )
        (pin bidirectional line (at -12.7 7.62 0) (length 2.54)
          (name "D3" (effects (font (size 1.27 1.27))))
          (number "6" (effects (font (size 1.27 1.27))))
        )
        (pin bidirectional line (at -12.7 5.08 0) (length 2.54)
          (name "D4" (effects (font (size 1.27 1.27))))
          (number "7" (effects (font (size 1.27 1.27))))
        )
        (pin bidirectional line (at -12.7 2.54 0) (length 2.54)
          (name "D5" (effects (font (size 1.27 1.27))))
          (number "8" (effects (font (size 1.27 1.27))))
        )
        (pin bidirectional line (at -12.7 0 0) (length 2.54)
          (name "D6" (effects (font (size 1.27 1.27))))
          (number "9" (effects (font (size 1.27 1.27))))
        )
      )
    )
    (symbol "power:+5V" (power) (pin_names (offset 0)) (in_bom yes) (on_board yes)
      (property "Reference" "#PWR" (id 0) (at 0 -3.81 0)
        (effects (font (size 1.27 1.27)) hide)
      )
      (property "Value" "+5V" (id 1) (at 0 3.556 0)
        (effects (font (size 1.27 1.27)))
      )
      (property "Footprint" "" (id 2) (at 0 0 0)
        (effects (font (size 1.27 1.27)) hide)
      )
      (property "Datasheet" "" (id 3) (at 0 0 0)
        (effects (font (size 1.27 1.27)) hide)
      )
      (property "ki_keywords" "global power" (id 4) (at 0 0 0)
        (effects (font (size 1.27 1.27)) hide)
      )
      (property "ki_description" "Power symbol creates a global label with name \"+5V\"" (id 5) (at 0 0 0)
        (effects (font (size 1.27 1.27)) hide)
      )
      (symbol "+5V_0_1"
        (polyline
          (pts
            (xy -0.762 1.27)
            (xy 0 2.54)
          )
          (stroke (width 0) (type default) (color 0 0 0 0))
          (fill (type none))
        )
        (polyline
          (pts
            (xy 0 0)
            (xy 0 2.54)
          )
          (stroke (width 0) (type default) (color 0 0 0 0))
          (fill (type none))
        )
        (polyline
          (pts
            (xy 0 2.54)
            (xy 0.762 1.27)
          )
          (stroke (width 0) (type default) (color 0 0 0 0))
          (fill (type none))
        )
      )
      (symbol "+5V_1_1"
        (pin power_in line (at 0 0 90) (length 0) hide
          (name "+5V" (effects (font (size 1.27 1.27))))
          (number "1" (effects (font (size 1.27 1.27))))
        )
      )
    )
    (symbol "power:GND" (power) (pin_names (offset 0)) (in_bom yes) (on_board yes)
      (property "Reference" "#PWR" (id 0) (at 0 -6.35 0)
        (effects (font (size 1.27 1.27)) hide)
      )
      (property "Value" "GND" (id 1) (at 0 -3.81 0)
        (effects (font (size 1.27 1.27)))
      )
      (property "Footprint" "" (id 2) (at 0 0 0)
        (effects (font (size 1.27 1.27)) hide)
      )
      (property "Datasheet" "" (id 3) (at 0 0 0)
        (effects (font (size 1.27 1.27)) hide)
      )
      (property "ki_keywords" "global power" (id 4) (at 0 0 0)
        (effects (font (size 1.27 1.27)) hide)
      )
      (property "ki_description" "Power symbol creates a global label with name \"GND\" , ground" (id 5) (at 0 0 0)
        (effects (font (size 1.27 1.27)) hide)
      )
      (symbol "GND_0_1"
        (polyline
          (pts
            (xy 0 0)
            (xy 0 -1.27)
            (xy 1.27 -1.27)
            (xy 0 -2.54)
            (xy -1.27 -1.27)
            (xy 0 -1.27)
          )
          (stroke (width 0) (type default) (color 0 0 0 0))
          (fill (type none))
        )
      )
      (symbol "GND_1_1"
        (pin power_in line (at 0 0 270) (length 0) hide
          (name "GND" (effects (font (size 1.27 1.27))))
          (number "1" (effects (font (size 1.27 1.27))))
        )
      )
    )
  )

  (junction (at 72.39 100.33) (diameter 0) (color 0 0 0 0)
    (uuid 9d048ab4-53c6-40e9-9135-e340ce0c3b3f)
  )
  (junction (at 100.33 100.33) (diameter 0) (color 0 0 0 0)
    (uuid 9f5ca865-60a5-42db-a067-ba02e3f627cf)
  )
  (junction (at 45.72 40.64) (diameter 0) (color 0 0 0 0)
    (uuid c6cd7d1a-f404-4445-9c8d-ca9a6a4a6129)
  )
  (junction (at 147.32 59.69) (diameter 0) (color 0 0 0 0)
    (uuid c8d75e04-ae0d-4353-aa7a-a4d8a7d93a33)
  )
  (junction (at 100.33 92.71) (diameter 0) (color 0 0 0 0)
    (uuid d34cb096-5a46-4589-9ea2-feb12aac950a)
  )
  (junction (at 72.39 24.13) (diameter 0) (color 0 0 0 0)
    (uuid d967839f-cd10-4063-add9-1e77eb0e9d86)
  )
  (junction (at 57.15 24.13) (diameter 0) (color 0 0 0 0)
    (uuid e1dd0e29-c4a5-4a0b-b5f8-53c5b96eb13c)
  )
  (junction (at 147.32 100.33) (diameter 0) (color 0 0 0 0)
    (uuid fd46489e-76f1-45ce-b390-67c7e11bb548)
  )

  (wire (pts (xy 100.33 92.71) (xy 100.33 100.33))
    (stroke (width 0) (type default) (color 0 0 0 0))
    (uuid 15af8c41-f56d-4a52-bffa-33a632b5fe15)
  )
  (wire (pts (xy 163.83 59.69) (xy 147.32 59.69))
    (stroke (width 0) (type default) (color 0 0 0 0))
    (uuid 1eaefe30-44e8-4202-a3d5-b215d54cbd1b)
  )
  (wire (pts (xy 97.79 92.71) (xy 100.33 92.71))
    (stroke (width 0) (type default) (color 0 0 0 0))
    (uuid 20e05b71-9ad0-43ad-8a13-89bb5951b80a)
  )
  (wire (pts (xy 147.32 72.39) (xy 172.72 72.39))
    (stroke (width 0) (type default) (color 0 0 0 0))
    (uuid 219cd20d-b011-4b91-8153-99c0dbd56afc)
  )
  (wire (pts (xy 147.32 59.69) (xy 147.32 63.5))
    (stroke (width 0) (type default) (color 0 0 0 0))
    (uuid 2bdbed5e-323d-49b2-9602-21aeb57c2869)
  )
  (wire (pts (xy 57.15 43.18) (xy 57.15 24.13))
    (stroke (width 0) (type default) (color 0 0 0 0))
    (uuid 3c178a3e-7949-48ca-92a4-3abc85a8614d)
  )
  (wire (pts (xy 35.56 24.13) (xy 45.72 24.13))
    (stroke (width 0) (type default) (color 0 0 0 0))
    (uuid 40fdd2a6-cae4-4980-81db-6067946add8c)
  )
  (wire (pts (xy 57.15 59.69) (xy 85.09 59.69))
    (stroke (width 0) (type default) (color 0 0 0 0))
    (uuid 46599554-2b4f-4bc4-9c42-666ac2abfe20)
  )
  (wire (pts (xy 172.72 72.39) (xy 172.72 100.33))
    (stroke (width 0) (type default) (color 0 0 0 0))
    (uuid 523f796f-082b-4927-b374-01f6cb180fd2)
  )
  (wire (pts (xy 72.39 100.33) (xy 100.33 100.33))
    (stroke (width 0) (type default) (color 0 0 0 0))
    (uuid 5827a54a-d61c-41ff-b629-127efa6383b3)
  )
  (wire (pts (xy 48.26 24.13) (xy 57.15 24.13))
    (stroke (width 0) (type default) (color 0 0 0 0))
    (uuid 67e15dee-c047-43f3-9489-d7127e0cb127)
  )
  (wire (pts (xy 95.25 24.13) (xy 95.25 41.91))
    (stroke (width 0) (type default) (color 0 0 0 0))
    (uuid 6896ca0a-ab06-487e-8dd5-f3ae8784dfc4)
  )
  (wire (pts (xy 110.49 67.31) (xy 143.51 67.31))
    (stroke (width 0) (type default) (color 0 0 0 0))
    (uuid 6d5ee927-468e-4a06-942e-742c459d77e7)
  )
  (wire (pts (xy 45.72 100.33) (xy 72.39 100.33))
    (stroke (width 0) (type default) (color 0 0 0 0))
    (uuid 6f184b00-cc33-49be-91d7-8f98a7db1de1)
  )
  (wire (pts (xy 57.15 45.72) (xy 57.15 59.69))
    (stroke (width 0) (type default) (color 0 0 0 0))
    (uuid 6fd5145c-4c75-4648-9ee0-0421f2acb965)
  )
  (wire (pts (xy 35.56 45.72) (xy 57.15 45.72))
    (stroke (width 0) (type default) (color 0 0 0 0))
    (uuid 72faa674-cb3a-419a-8012-f47b37dec17d)
  )
  (wire (pts (xy 163.83 77.47) (xy 163.83 59.69))
    (stroke (width 0) (type default) (color 0 0 0 0))
    (uuid 73b7738e-7181-4c6a-9282-1437212c51ff)
  )
  (wire (pts (xy 72.39 40.64) (xy 72.39 100.33))
    (stroke (width 0) (type default) (color 0 0 0 0))
    (uuid 74947172-5141-449a-8962-f092222061af)
  )
  (wire (pts (xy 138.43 81.28) (xy 143.51 81.28))
    (stroke (width 0) (type default) (color 0 0 0 0))
    (uuid 7c6abfa6-5eb9-4082-b583-b998a879041d)
  )
  (wire (pts (xy 147.32 71.12) (xy 147.32 72.39))
    (stroke (width 0) (type default) (color 0 0 0 0))
    (uuid 7eb9c77e-e1d2-44e7-af97-617f18598c50)
  )
  (wire (pts (xy 72.39 24.13) (xy 72.39 33.02))
    (stroke (width 0) (type default) (color 0 0 0 0))
    (uuid 82e39f6d-15f3-472f-85d3-7915b7c07e07)
  )
  (wire (pts (xy 35.56 43.18) (xy 57.15 43.18))
    (stroke (width 0) (type default) (color 0 0 0 0))
    (uuid 89860fb0-5fe7-4779-8381-e8c4696bb2bd)
  )
  (wire (pts (xy 147.32 36.83) (xy 147.32 59.69))
    (stroke (width 0) (type default) (color 0 0 0 0))
    (uuid 8b4af8b9-6809-4182-938c-8a562d0000e3)
  )
  (wire (pts (xy 102.87 41.91) (xy 102.87 36.83))
    (stroke (width 0) (type default) (color 0 0 0 0))
    (uuid 8ce583ab-9be8-426f-a3e3-5b0db4cf613b)
  )
  (wire (pts (xy 35.56 40.64) (xy 45.72 40.64))
    (stroke (width 0) (type default) (color 0 0 0 0))
    (uuid 91004b93-00ef-41a6-ac45-3cb674f057dd)
  )
  (wire (pts (xy 110.49 69.85) (xy 138.43 69.85))
    (stroke (width 0) (type default) (color 0 0 0 0))
    (uuid 94fbd559-2b31-4996-8287-13175eb90864)
  )
  (wire (pts (xy 45.72 26.67) (xy 45.72 40.64))
    (stroke (width 0) (type default) (color 0 0 0 0))
    (uuid a121b2f5-388d-4317-9e2f-a6c9ad0f20f6)
  )
  (wire (pts (xy 147.32 100.33) (xy 172.72 100.33))
    (stroke (width 0) (type default) (color 0 0 0 0))
    (uuid a3182c47-9825-4654-8c27-1922d576d830)
  )
  (wire (pts (xy 72.39 24.13) (xy 95.25 24.13))
    (stroke (width 0) (type default) (color 0 0 0 0))
    (uuid a5988aaa-059a-4c5e-8c93-1ac7f7e8eb42)
  )
  (wire (pts (xy 48.26 20.32) (xy 48.26 24.13))
    (stroke (width 0) (type default) (color 0 0 0 0))
    (uuid a67d577a-b1ad-4493-908f-964139292c37)
  )
  (wire (pts (xy 102.87 36.83) (xy 147.32 36.83))
    (stroke (width 0) (type default) (color 0 0 0 0))
    (uuid ae3b5549-16f1-4097-9442-eb8f9c11f42f)
  )
  (wire (pts (xy 45.72 24.13) (xy 45.72 20.32))
    (stroke (width 0) (type default) (color 0 0 0 0))
    (uuid bad1ef9e-699c-4ac3-9ded-c1dce74aa94d)
  )
  (wire (pts (xy 57.15 24.13) (xy 72.39 24.13))
    (stroke (width 0) (type default) (color 0 0 0 0))
    (uuid c2035de8-6492-4039-b260-4bbf83b32c72)
  )
  (wire (pts (xy 147.32 100.33) (xy 147.32 85.09))
    (stroke (width 0) (type default) (color 0 0 0 0))
    (uuid cf4a0dc8-2ae5-42a3-a295-d38771e90f7d)
  )
  (wire (pts (xy 45.72 40.64) (xy 45.72 100.33))
    (stroke (width 0) (type default) (color 0 0 0 0))
    (uuid df25b88e-90af-45c1-90d0-58bf568d49b0)
  )
  (wire (pts (xy 35.56 26.67) (xy 45.72 26.67))
    (stroke (width 0) (type default) (color 0 0 0 0))
    (uuid e60036c6-3fcd-4d18-b33f-3aabab906306)
  )
  (wire (pts (xy 138.43 69.85) (xy 138.43 81.28))
    (stroke (width 0) (type default) (color 0 0 0 0))
    (uuid efd01a8d-045c-4da7-a212-f5758c9444a7)
  )
  (wire (pts (xy 147.32 77.47) (xy 163.83 77.47))
    (stroke (width 0) (type default) (color 0 0 0 0))
    (uuid f2f71aec-ac2a-429a-a19d-3b9ce63fc9cc)
  )
  (wire (pts (xy 100.33 100.33) (xy 147.32 100.33))
    (stroke (width 0) (type default) (color 0 0 0 0))
    (uuid f444f0e8-7cd1-4667-9489-4187c093c3f7)
  )

  (symbol (lib_id "Device:C_Polarized") (at 72.39 36.83 0) (unit 1)
    (in_bom yes) (on_board yes) (fields_autoplaced)
    (uuid 02622226-169e-4a5a-84be-cfbbc1f00478)
    (property "Reference" "C1" (id 0) (at 76.2 34.6709 0)
      (effects (font (size 1.27 1.27)) (justify left))
    )
    (property "Value" "1000mkf" (id 1) (at 76.2 37.2109 0)
      (effects (font (size 1.27 1.27)) (justify left))
    )
    (property "Footprint" "Capacitor_THT:CP_Radial_D10.0mm_P3.50mm" (id 2) (at 73.3552 40.64 0)
      (effects (font (size 1.27 1.27)) hide)
    )
    (property "Datasheet" "~" (id 3) (at 72.39 36.83 0)
      (effects (font (size 1.27 1.27)) hide)
    )
    (pin "1" (uuid c0b95909-e23e-4da2-a6fb-8146920addce))
    (pin "2" (uuid 228fa016-2ccb-450f-ba8b-9913e0475590))
  )

  (symbol (lib_id "Connector:Conn_01x02_Female") (at 45.72 15.24 90) (unit 1)
    (in_bom yes) (on_board yes) (fields_autoplaced)
    (uuid 2a95ecd6-8905-446c-bc78-3990d8be1efd)
    (property "Reference" "J3" (id 0) (at 49.53 14.6049 90)
      (effects (font (size 1.27 1.27)) (justify right))
    )
    (property "Value" "button" (id 1) (at 49.53 17.1449 90)
      (effects (font (size 1.27 1.27)) (justify right))
    )
    (property "Footprint" "Connector_PinHeader_2.54mm:PinHeader_1x02_P2.54mm_Vertical" (id 2) (at 45.72 15.24 0)
      (effects (font (size 1.27 1.27)) hide)
    )
    (property "Datasheet" "~" (id 3) (at 45.72 15.24 0)
      (effects (font (size 1.27 1.27)) hide)
    )
    (pin "1" (uuid 6ed0bcd9-0d25-4477-b64a-910c3c1d458d))
    (pin "2" (uuid cdc3e3b5-6593-41da-8aae-636419b5123a))
  )

  (symbol (lib_id "Device:R_Potentiometer") (at 147.32 67.31 180) (unit 1)
    (in_bom yes) (on_board yes) (fields_autoplaced)
    (uuid 885f2137-7ca6-4273-8c26-c382732456fd)
    (property "Reference" "RV1" (id 0) (at 149.86 66.0399 0)
      (effects (font (size 1.27 1.27)) (justify right))
    )
    (property "Value" "Potentiometer_speed" (id 1) (at 149.86 68.5799 0)
      (effects (font (size 1.27 1.27)) (justify right))
    )
    (property "Footprint" "Connector_PinHeader_2.54mm:PinHeader_1x03_P2.54mm_Vertical" (id 2) (at 147.32 67.31 0)
      (effects (font (size 1.27 1.27)) hide)
    )
    (property "Datasheet" "~" (id 3) (at 147.32 67.31 0)
      (effects (font (size 1.27 1.27)) hide)
    )
    (pin "1" (uuid d65c958a-2796-4aa3-b201-0e9eb381eed7))
    (pin "2" (uuid 7c28da9f-43bc-4c95-a25d-8ac05ccf3cb7))
    (pin "3" (uuid 410b2e70-93e2-4ed0-bcb1-b4c929f1611d))
  )

  (symbol (lib_id "Connector:Conn_01x03_Female") (at 30.48 43.18 180) (unit 1)
    (in_bom yes) (on_board yes) (fields_autoplaced)
    (uuid 986c7b81-24f7-47c3-bbbf-8ba38e4f38ed)
    (property "Reference" "J2" (id 0) (at 31.115 35.56 0))
    (property "Value" "Conn_Servo" (id 1) (at 31.115 38.1 0))
    (property "Footprint" "Connector_PinHeader_2.00mm:PinHeader_1x03_P2.00mm_Vertical" (id 2) (at 30.48 43.18 0)
      (effects (font (size 1.27 1.27)) hide)
    )
    (property "Datasheet" "~" (id 3) (at 30.48 43.18 0)
      (effects (font (size 1.27 1.27)) hide)
    )
    (pin "1" (uuid b84d0e96-f098-4c10-82a7-f5f0b811d64d))
    (pin "2" (uuid cf51a158-d61b-4d31-abe0-86989adeb521))
    (pin "3" (uuid edfb9526-8800-41cb-86a0-e4ac87b3f580))
  )

  (symbol (lib_id "Device:R_Potentiometer") (at 147.32 81.28 180) (unit 1)
    (in_bom yes) (on_board yes) (fields_autoplaced)
    (uuid 9e9bb743-d225-4c41-b5bf-92954d9fe75d)
    (property "Reference" "RV2" (id 0) (at 149.86 80.0099 0)
      (effects (font (size 1.27 1.27)) (justify right))
    )
    (property "Value" "Potentiometer_angle" (id 1) (at 149.86 82.5499 0)
      (effects (font (size 1.27 1.27)) (justify right))
    )
    (property "Footprint" "Connector_PinHeader_2.54mm:PinHeader_1x03_P2.54mm_Vertical" (id 2) (at 147.32 81.28 0)
      (effects (font (size 1.27 1.27)) hide)
    )
    (property "Datasheet" "~" (id 3) (at 147.32 81.28 0)
      (effects (font (size 1.27 1.27)) hide)
    )
    (pin "1" (uuid 3fe97d21-51ff-4b36-bbbb-2884a40a2181))
    (pin "2" (uuid 494ad079-2de3-49fb-94e9-98a9b5b76863))
    (pin "3" (uuid e010aa1e-9125-4f26-a9a7-22604f1f647c))
  )

  (symbol (lib_id "MCU_Module:Arduino_Nano_v3.x") (at 97.79 67.31 0) (unit 1)
    (in_bom yes) (on_board yes) (fields_autoplaced)
    (uuid a34bdb6e-6e1a-4af0-956d-18cf92919862)
    (property "Reference" "A1" (id 0) (at 102.3494 92.71 0)
      (effects (font (size 1.27 1.27)) (justify left))
    )
    (property "Value" "Arduino_Nano_v3.x" (id 1) (at 102.3494 95.25 0)
      (effects (font (size 1.27 1.27)) (justify left))
    )
    (property "Footprint" "Module:Arduino_Nano" (id 2) (at 97.79 67.31 0)
      (effects (font (size 1.27 1.27) italic) hide)
    )
    (property "Datasheet" "http://www.mouser.com/pdfdocs/Gravitech_Arduino_Nano3_0.pdf" (id 3) (at 97.79 67.31 0)
      (effects (font (size 1.27 1.27)) hide)
    )
    (pin "1" (uuid d1d08ffb-1a6c-489e-b9ec-fb4640bff54f))
    (pin "10" (uuid 58125231-30d6-4219-b6e2-ae0611ade198))
    (pin "11" (uuid f0ebb00a-f92f-47a3-ab56-4422969d4af9))
    (pin "12" (uuid 62bf0379-e92b-44cc-b205-bc36dc4a6e4f))
    (pin "13" (uuid 2193aa1d-4640-4e03-bc7f-76974c4268dc))
    (pin "14" (uuid e4727fbb-7a07-489b-8ad4-0627966b63a7))
    (pin "15" (uuid ffb5f738-64ba-43a1-a68b-0644721f6f9f))
    (pin "16" (uuid bdfea1ed-74c5-4516-910b-bf877e8e01f5))
    (pin "17" (uuid 5b850506-738c-4d4d-923f-2f730b70d398))
    (pin "18" (uuid 8e8b861e-f174-425f-8e8a-e672287b57cc))
    (pin "19" (uuid 3a473d41-3625-4ef1-bd5e-29d85db08614))
    (pin "2" (uuid ba7efa98-773a-4d67-a6b1-cf1e55855be4))
    (pin "20" (uuid 335c07d8-dbd4-46d3-811e-dfd7c8c7606b))
    (pin "21" (uuid 92a836d5-62d4-4ebd-a280-2eb3be45a544))
    (pin "22" (uuid 9b0c668e-2342-4c8f-ab6f-8449026f9cdc))
    (pin "23" (uuid 282a1236-c7ba-4208-930e-552eae36c798))
    (pin "24" (uuid 4bc024ac-ec15-4cd7-9471-9734c6b4169e))
    (pin "25" (uuid 8f69ef10-b111-4cec-8331-43b47a1af3f1))
    (pin "26" (uuid ba005396-e72e-47d7-96a6-dfc83fabe3b9))
    (pin "27" (uuid 380bd764-c6d4-42e5-a3b9-c604bd95aa52))
    (pin "28" (uuid 0c293061-c5ad-4f75-99b5-e5037b227883))
    (pin "29" (uuid dc3eb7ee-9fae-440c-8bb6-881c75ba4136))
    (pin "3" (uuid f916077c-28ea-43bb-91ac-4f76992795ff))
    (pin "30" (uuid d931b17d-2cf9-4a4b-abbb-aaa21a00df77))
    (pin "4" (uuid 7a673274-2a06-4796-99e2-197f0f98b939))
    (pin "5" (uuid 80e57aec-4b3f-43b0-96e0-241f0fb813f2))
    (pin "6" (uuid 04173901-52d7-48e3-a1ae-0be4747f73a3))
    (pin "7" (uuid ba67bcf1-1082-4f9d-8846-4f5ee795a381))
    (pin "8" (uuid 9c64d7f2-daee-4807-bdb7-409956b090d4))
    (pin "9" (uuid a2e6599a-b2fa-465e-9928-db43108fa465))
  )

  (symbol (lib_id "Connector:Conn_01x02_Female") (at 30.48 26.67 180) (unit 1)
    (in_bom yes) (on_board yes) (fields_autoplaced)
    (uuid bf6f1ddf-fe75-4f81-8df1-2bed61121c53)
    (property "Reference" "J1" (id 0) (at 31.115 19.05 0))
    (property "Value" "IN 5v" (id 1) (at 31.115 21.59 0))
    (property "Footprint" "Connector_BarrelJack:BarrelJack_Horizontal" (id 2) (at 30.48 26.67 0)
      (effects (font (size 1.27 1.27)) hide)
    )
    (property "Datasheet" "~" (id 3) (at 30.48 26.67 0)
      (effects (font (size 1.27 1.27)) hide)
    )
    (pin "1" (uuid bd2c16c6-4e23-403e-b009-7e272718c5a9))
    (pin "2" (uuid 33c4a427-4fa3-4ed6-92af-5f69337568db))
  )

  (symbol (lib_id "power:+5V") (at 57.15 24.13 0) (unit 1)
    (in_bom yes) (on_board yes) (fields_autoplaced)
    (uuid dbb4d411-0c07-4f63-8872-4446b85c0770)
    (property "Reference" "#PWR01" (id 0) (at 57.15 27.94 0)
      (effects (font (size 1.27 1.27)) hide)
    )
    (property "Value" "+5V" (id 1) (at 57.15 19.05 0))
    (property "Footprint" "" (id 2) (at 57.15 24.13 0)
      (effects (font (size 1.27 1.27)) hide)
    )
    (property "Datasheet" "" (id 3) (at 57.15 24.13 0)
      (effects (font (size 1.27 1.27)) hide)
    )
    (pin "1" (uuid 9a217774-a07d-44bb-a900-774c47482805))
  )

  (symbol (lib_id "power:GND") (at 100.33 100.33 0) (unit 1)
    (in_bom yes) (on_board yes) (fields_autoplaced)
    (uuid e65d1ccd-3504-467d-af5c-67a0dbe85ca2)
    (property "Reference" "#PWR02" (id 0) (at 100.33 106.68 0)
      (effects (font (size 1.27 1.27)) hide)
    )
    (property "Value" "GND" (id 1) (at 100.33 105.41 0))
    (property "Footprint" "" (id 2) (at 100.33 100.33 0)
      (effects (font (size 1.27 1.27)) hide)
    )
    (property "Datasheet" "" (id 3) (at 100.33 100.33 0)
      (effects (font (size 1.27 1.27)) hide)
    )
    (pin "1" (uuid 185117df-61f4-4bdc-8c52-c9d4e36bbe7c))
  )

  (sheet_instances
    (path "/" (page "1"))
  )

  (symbol_instances
    (path "/dbb4d411-0c07-4f63-8872-4446b85c0770"
      (reference "#PWR01") (unit 1) (value "+5V") (footprint "")
    )
    (path "/e65d1ccd-3504-467d-af5c-67a0dbe85ca2"
      (reference "#PWR02") (unit 1) (value "GND") (footprint "")
    )
    (path "/a34bdb6e-6e1a-4af0-956d-18cf92919862"
      (reference "A1") (unit 1) (value "Arduino_Nano_v3.x") (footprint "Module:Arduino_Nano")
    )
    (path "/02622226-169e-4a5a-84be-cfbbc1f00478"
      (reference "C1") (unit 1) (value "1000mkf") (footprint "Capacitor_THT:CP_Radial_D10.0mm_P3.50mm")
    )
    (path "/bf6f1ddf-fe75-4f81-8df1-2bed61121c53"
      (reference "J1") (unit 1) (value "IN 5v") (footprint "Connector_BarrelJack:BarrelJack_Horizontal")
    )
    (path "/986c7b81-24f7-47c3-bbbf-8ba38e4f38ed"
      (reference "J2") (unit 1) (value "Conn_Servo") (footprint "Connector_PinHeader_2.00mm:PinHeader_1x03_P2.00mm_Vertical")
    )
    (path "/2a95ecd6-8905-446c-bc78-3990d8be1efd"
      (reference "J3") (unit 1) (value "button") (footprint "Connector_PinHeader_2.54mm:PinHeader_1x02_P2.54mm_Vertical")
    )
    (path "/885f2137-7ca6-4273-8c26-c382732456fd"
      (reference "RV1") (unit 1) (value "Potentiometer_speed") (footprint "Connector_PinHeader_2.54mm:PinHeader_1x03_P2.54mm_Vertical")
    )
    (path "/9e9bb743-d225-4c41-b5bf-92954d9fe75d"
      (reference "RV2") (unit 1) (value "Potentiometer_angle") (footprint "Connector_PinHeader_2.54mm:PinHeader_1x03_P2.54mm_Vertical")
    )
  )
)
