# Alias OBJ Model File
# Exported from SketchUp, (c) 2000-2012 Trimble Navigation Limited
# File units = millimeters

mtllib 59,2.mtl

g Mesh1 Model

usemtl FrontColor
v 66.1037 0 -123.129
vt -2.60251 4.8476
vn 0 -1 -0
v 66.1037 0 -120.029
vt -2.60251 4.72557
v 66.0645 0 -121.579
vt -2.60096 4.78659
f 1/1/1 2/2/1 3/3/1

v 66.2215 0 -124.675
vt -2.60714 4.90847
f 2/2/1 1/1/1 4/4/1

vt -5.09226 0
vn -0.994869 0 -0.101168
vt -5.03123 0
vn -0.998717 0 -0.0506492
v 66.1037 10 -123.129
vt -5.03123 0.393701
v 66.2215 10 -124.675
vt -5.09226 0.393701
f 4/5/2 1/6/3 5/7/3 6/8/2 

vt -4.91198 0
vt -4.85094 0
vn -1 0 4.0085e-015
v 66.0645 10 -121.579
vt -4.85094 0.393701
vt -4.91198 0.393701
f 1/9/3 3/10/4 7/11/4 5/12/3 

vt -4.71916 0
vt -4.65812 0
vn -0.998717 0 0.0506492
v 66.1037 10 -120.029
vt -4.65812 0.393701
vt -4.71916 0.393701
f 3/13/4 2/14/5 8/15/5 7/16/4 

vt -4.51431 0
v 66.2215 0 -118.484
vt -4.45327 0
vn -0.994869 0 0.101168
v 66.2215 10 -118.484
vt -4.45327 0.393701
vt -4.51431 0.393701
f 2/17/5 9/18/6 10/19/6 8/20/5 

vt -2.60714 4.6647
f 2/2/1 4/4/1 9/21/1

v 66.4173 0 -126.213
vt -2.61486 4.96902
f 9/21/1 4/4/1 11/22/1

vt -5.25956 0
vn -0.988468 0 -0.151428
vt -5.19852 0
vt -5.19852 0.393701
v 66.4173 10 -126.213
vt -5.25956 0.393701
f 11/23/7 4/24/2 6/25/2 12/26/7 

vt 2.60714 4.90847
vn 0 1 -0
v 66.4173 10 -116.946
vt 2.61486 4.60416
vt 2.61486 4.96902
f 6/27/8 13/28/8 12/29/8

vt 2.60714 4.6647
f 6/27/8 10/30/8 13/28/8

vt 2.60251 4.72557
f 6/27/8 8/31/8 10/30/8

vt 2.60251 4.8476
f 5/32/8 8/31/8 6/27/8

vt 2.60096 4.78659
f 8/31/8 5/32/8 7/33/8

vt -4.29794 0
v 66.4173 0 -116.946
vt -4.23691 0
vn -0.988468 0 0.151428
vt -4.23691 0.393701
vt -4.29794 0.393701
f 9/34/6 14/35/9 13/36/9 10/37/6 

vt -2.61486 4.60416
f 9/21/1 11/22/1 14/38/1

v 66.6908 0 -115.419
vt -2.62562 4.54407
f 14/38/1 11/22/1 15/39/1

v 66.6908 0 -127.739
vt -2.62562 5.0291
f 15/39/1 11/22/1 16/40/1

vt -5.41343 0
vn -0.97953 0 -0.201299
vt -5.35239 0
vt -5.35239 0.393701
v 66.6908 10 -127.739
vt -5.41343 0.393701
f 16/41/10 11/42/7 12/43/7 17/44/10 

v 66.6908 10 -115.419
vt 2.62562 4.54407
vt 2.62562 5.0291
f 12/29/8 18/45/8 17/46/8

f 12/29/8 13/28/8 18/45/8

vt -4.07063 0
vt -4.00959 0
vn -0.97953 0 0.201299
vt -4.00959 0.393701
vt -4.07063 0.393701
f 14/47/9 15/48/11 18/49/11 13/50/9 

vt -3.83294 0
v 67.0413 0 -113.909
vt -3.7719 0
vn -0.968077 0 0.250653
v 67.0413 10 -113.909
vt -3.7719 0.393701
vt -3.83294 0.393701
f 15/51/11 19/52/12 20/53/12 18/54/11 

vt -2.63942 4.48462
f 15/39/1 16/40/1 19/55/1

v 67.0413 0 -129.249
vt -2.63942 5.08856
f 19/55/1 16/40/1 21/56/1

vt -5.55348 0
vn -0.968077 0 -0.250653
vt -5.49244 0
vt -5.49244 0.393701
v 67.0413 10 -129.249
vt -5.55348 0.393701
f 21/57/13 16/58/10 17/59/10 22/60/13 

vt 2.63942 4.48462
vt 2.63942 5.08856
f 17/46/8 20/61/8 22/62/8

f 17/46/8 18/45/8 20/61/8

v 67.0648 10 -121.579
vt 2.64035 4.78659
f 22/62/8 20/61/8 23/63/8

v 67.1028 10 -120.08
vt 2.64184 4.72756
f 20/61/8 24/64/8 23/63/8

v 67.4678 10 -112.419
vt 2.65621 4.42593
f 24/64/8 20/61/8 25/65/8

vt -3.58549 0
v 67.4678 0 -112.419
vt -3.52445 0
vn -0.954139 0 0.299363
vt -3.52445 0.393701
vt -3.58549 0.393701
f 19/66/12 26/67/14 25/68/14 20/69/12 

v 67.1028 0 -120.08
vt -2.64184 4.72756
vt -2.65621 4.42593
f 19/55/1 27/70/1 26/71/1

v 67.0648 0 -121.579
vt -2.64035 4.78659
f 27/70/1 19/55/1 28/72/1

f 19/55/1 21/56/1 28/72/1

v 67.1028 0 -123.078
vt -2.64184 4.84561
f 28/72/1 21/56/1 29/73/1

v 67.4678 0 -130.74
vt -2.65621 5.14724
f 29/73/1 21/56/1 30/74/1

vt -5.67936 0
vn -0.954139 0 -0.299363
vt -5.61832 0
vt -5.61832 0.393701
v 67.4678 10 -130.74
vt -5.67936 0.393701
f 30/75/15 21/76/13 22/77/13 31/78/15 

v 67.1028 10 -123.078
vt 2.64184 4.84561
vt 2.65621 5.14724
f 22/62/8 32/79/8 31/80/8

f 22/62/8 23/63/8 32/79/8

vt 4.85194 0
vn 1 0 -0
vt 4.91098 0
vn 0.998717 0 0.0506492
vt 4.91098 0.393701
vt 4.85194 0.393701
f 28/81/16 29/82/17 32/83/17 23/84/16 

vt 5.03222 0
v 67.2166 0 -124.574
vt 5.09127 0
vn 0.994869 0 0.101168
v 67.2166 10 -124.574
vt 5.09127 0.393701
vt 5.03222 0.393701
f 29/85/17 33/86/18 34/87/18 32/88/17 

vt -2.64632 4.90448
f 29/73/1 30/74/1 33/89/1

v 67.4061 0 -126.062
vt -2.65378 4.96305
f 33/89/1 30/74/1 35/90/1

v 67.6707 0 -127.538
vt -2.6642 5.02117
f 35/90/1 30/74/1 36/91/1

v 67.9693 0 -132.207
vt -2.67596 5.205
f 36/91/1 30/74/1 37/92/1

vt -5.79073 0
vn -0.937752 0 -0.347305
vt -5.72969 0
vt -5.72969 0.393701
v 67.9693 10 -132.207
vt -5.79073 0.393701
f 37/93/19 30/94/15 31/95/15 38/96/19 

v 67.6707 10 -127.538
vt 2.6642 5.02117
vt 2.67596 5.205
f 31/80/8 39/97/8 38/98/8

v 67.4061 10 -126.062
vt 2.65378 4.96305
f 31/80/8 40/99/8 39/97/8

vt 2.64632 4.90448
f 31/80/8 34/100/8 40/99/8

f 31/80/8 32/79/8 34/100/8

vt 5.19952 0
vt 5.25856 0
vn 0.988468 0 0.151428
vt 5.25856 0.393701
vt 5.19952 0.393701
f 33/101/18 35/102/20 40/103/20 34/104/18 

vt 5.35339 0
vt 5.41243 0
vn 0.97953 0 0.201299
vt 5.41243 0.393701
vt 5.35339 0.393701
f 35/105/20 36/106/21 39/107/21 40/108/20 

vt 5.49344 0
v 68.0097 0 -128.999
vt 5.55248 0
vn 0.968077 0 0.250653
v 68.0097 10 -128.999
vt 5.55248 0.393701
vt 5.49344 0.393701
f 36/109/21 41/110/22 42/111/22 39/112/21 

vt -2.67755 5.07869
f 36/91/1 37/92/1 41/113/1

v 68.5444 0 -133.647
vt -2.6986 5.26168
f 41/113/1 37/92/1 43/114/1

vt -5.88732 0
vn -0.918958 0 -0.394356
vt -5.82628 0
vt -5.82628 0.393701
v 68.5444 10 -133.647
vt -5.88732 0.393701
f 43/115/23 37/116/19 38/117/19 44/118/23 

vt 2.67755 5.07869
vt 2.6986 5.26168
f 38/98/8 42/119/8 44/120/8

f 38/98/8 39/97/8 42/119/8

v 68.4223 10 -130.44
vt 2.69379 5.13545
f 44/120/8 42/119/8 45/121/8

vt 5.61932 0
v 68.4223 0 -130.44
vt 5.67836 0
vn 0.954139 0 0.299363
vt 5.67836 0.393701
vt 5.61932 0.393701
f 41/122/22 46/123/24 45/124/24 42/125/22 

vt -2.69379 5.13545
f 41/113/1 43/114/1 46/126/1

v 68.9073 0 -131.86
vt -2.71289 5.19132
f 46/126/1 43/114/1 47/127/1

v 69.1917 0 -135.055
vt -2.72408 5.31715
f 47/127/1 43/114/1 48/128/1

vt -5.96887 0
vn -0.897805 0 -0.440394
vt -5.90784 0
vt -5.90784 0.393701
v 69.1917 10 -135.055
vt -5.96887 0.393701
f 48/129/25 43/130/23 44/131/23 49/132/25 

v 68.9073 10 -131.86
vt 2.71289 5.19132
vt 2.72408 5.31715
f 44/120/8 50/133/8 49/134/8

f 44/120/8 45/121/8 50/133/8

vt 5.73069 0
vt 5.78973 0
vn 0.937752 0 0.347305
vt 5.78973 0.393701
vt 5.73069 0.393701
f 46/135/24 47/136/26 50/137/26 45/138/24 

vt 5.82728 0
v 69.4636 0 -133.252
vt 5.88632 0
vn 0.918958 0 0.394356
v 69.4636 10 -133.252
vt 5.88632 0.393701
vt 5.82728 0.393701
f 47/139/26 51/140/27 52/141/27 50/142/26 

vt -2.73479 5.24615
f 47/127/1 48/128/1 51/143/1

v 69.9095 0 -136.43
vt -2.75234 5.37125
f 51/143/1 48/128/1 53/144/1

vt -6.03518 0
vn -0.874347 0 -0.485302
vt -5.97415 0
vt -5.97415 0.393701
v 69.9095 10 -136.43
vt -6.03518 0.393701
f 53/145/28 48/146/25 49/147/25 54/148/28 

vt 2.73479 5.24615
vt 2.75234 5.37125
f 49/134/8 52/149/8 54/150/8

f 49/134/8 50/133/8 52/149/8

v 70.0898 10 -134.615
vt 2.75944 5.2998
f 54/150/8 52/149/8 55/151/8

vt 5.90883 0
v 70.0898 0 -134.615
vt 5.96788 0
vn 0.897805 0 0.440394
vt 5.96788 0.393701
vt 5.90883 0.393701
f 51/152/27 56/153/29 55/154/29 52/155/27 

vt -2.75944 5.2998
f 51/143/1 53/144/1 56/156/1

v 70.696 0 -137.766
vt -2.78331 5.42385
f 56/156/1 53/144/1 57/157/1

vt -6.08608 0
vn -0.848644 0 -0.528964
vt -6.02504 0
vt -6.02504 0.393701
v 70.696 10 -137.766
vt -6.08608 0.393701
f 57/158/30 53/159/28 54/160/28 58/161/30 

vt 2.78331 5.42385
f 54/150/8 55/151/8 58/162/8

v 70.7841 10 -135.944
vt 2.78678 5.35213
f 58/162/8 55/151/8 59/163/8

vt 5.97514 0
v 70.7841 0 -135.944
vt 6.03419 0
vn 0.874347 0 0.485302
vt 6.03419 0.393701
vt 5.97514 0.393701
f 56/164/29 60/165/31 59/166/31 55/167/29 

vt -2.78678 5.35213
f 56/156/1 57/157/1 60/168/1

v 71.5492 0 -139.06
vt -2.8169 5.47481
f 60/168/1 57/157/1 61/169/1

vt -6.12143 0
vn -0.820763 0 -0.571268
vt -6.06039 0
vt -6.06039 0.393701
v 71.5492 10 -139.06
vt -6.12143 0.393701
f 61/170/32 57/171/30 58/172/30 62/173/32 

vt 2.8169 5.47481
f 58/162/8 59/163/8 62/174/8

v 71.5449 10 -137.237
vt 2.81673 5.40302
f 62/174/8 59/163/8 63/175/8

vt 6.02604 0
v 71.5449 0 -137.237
vt 6.08508 0
vn 0.848644 0 0.528964
vt 6.08508 0.393701
vt 6.02604 0.393701
f 60/176/31 64/177/33 63/178/33 59/179/31 

vt -2.81673 5.40302
f 60/168/1 61/169/1 64/180/1

v 72.3702 0 -138.489
vt -2.84922 5.45232
f 64/180/1 61/169/1 65/181/1

v 72.4668 0 -140.31
vt -2.85302 5.52401
f 65/181/1 61/169/1 66/182/1

vt -6.14115 0
vn -0.790776 0 -0.612106
vt -6.08011 0
vt -6.08011 0.393701
v 72.4668 10 -140.31
vt -6.14115 0.393701
f 66/183/34 61/184/32 62/185/32 67/186/34 

v 72.3702 10 -138.489
vt 2.84922 5.45232
vt 2.85302 5.52401
f 62/174/8 68/187/8 67/188/8

f 62/174/8 63/175/8 68/187/8

vt 6.06139 0
vt 6.12043 0
vn 0.820763 0 0.571268
vt 6.12043 0.393701
vt 6.06139 0.393701
f 64/189/33 65/190/35 68/191/35 63/192/33 

vt 6.08111 0
v 73.2578 0 -139.698
vt 6.14015 0
vn 0.790776 0 0.612106
v 73.2578 10 -139.698
vt 6.14015 0.393701
vt 6.08111 0.393701
f 65/193/35 69/194/36 70/195/36 68/196/35 

vt -2.88417 5.49991
f 65/181/1 66/182/1 69/197/1

v 73.4465 0 -141.511
vt -2.8916 5.57132
f 69/197/1 66/182/1 71/198/1

vt -6.14518 0
vn -0.758758 0 -0.651372
vt -6.08414 0
vt -6.08414 0.393701
v 73.4465 10 -141.511
vt -6.14518 0.393701
f 71/199/37 66/200/34 67/201/34 72/202/37 

vt 2.88417 5.49991
vt 2.8916 5.57132
f 67/188/8 70/203/8 72/204/8

f 67/188/8 68/187/8 70/203/8

v 74.2055 10 -140.86
vt 2.92148 5.54567
f 72/204/8 70/203/8 73/205/8

vt 6.08514 0
v 74.2055 0 -140.86
vt 6.14418 0
vn 0.758758 0 0.651372
vt 6.14418 0.393701
vt 6.08514 0.393701
f 69/206/36 74/207/38 73/208/38 70/209/36 

vt -2.92148 5.54567
f 69/197/1 71/198/1 74/210/1

v 74.4859 0 -142.662
vt -2.93252 5.61661
f 74/210/1 71/198/1 75/211/1

vt -6.13351 0
vn -0.724793 0 -0.688967
vt -6.07248 0
vt -6.07248 0.393701
v 74.4859 10 -142.662
vt -6.13351 0.393701
f 75/212/39 71/213/37 72/214/37 76/215/39 

vt 2.93252 5.61661
f 72/204/8 73/205/8 76/216/8

v 75.2109 10 -141.973
vt 2.96106 5.58948
f 76/216/8 73/205/8 77/217/8

vt 6.07347 0
v 75.2109 0 -141.973
vt 6.13252 0
vn 0.724793 0 0.688967
vt 6.13252 0.393701
vt 6.07347 0.393701
f 74/218/38 78/219/40 77/220/40 73/221/38 

vt -2.96106 5.58948
f 74/210/1 75/211/1 78/222/1

v 75.5822 0 -143.758
vt -2.97568 5.65977
f 78/222/1 75/211/1 79/223/1

vt -6.10618 0
vn -0.688967 0 -0.724793
vt -6.04514 0
vt -6.04514 0.393701
v 75.5822 10 -143.758
vt -6.10618 0.393701
f 79/224/41 75/225/39 76/226/39 80/227/41 

vt 2.97568 5.65977
f 76/216/8 77/217/8 80/228/8

v 76.2714 10 -143.033
vt 3.00281 5.63123
f 80/228/8 77/217/8 81/229/8

vt 6.04614 0
v 76.2714 0 -143.033
vt 6.10519 0
vn 0.688967 0 0.724793
vt 6.10519 0.393701
vt 6.04614 0.393701
f 78/230/40 82/231/42 81/232/42 77/233/40 

vt -3.00281 5.63123
f 78/222/1 79/223/1 82/234/1

v 76.7326 0 -144.798
vt -3.02097 5.70069
f 82/234/1 79/223/1 83/235/1

vt -6.06325 0
vn -0.651372 0 -0.758758
vt -6.00222 0
vt -6.00222 0.393701
v 76.7326 10 -144.798
vt -6.06325 0.393701
f 83/236/43 79/237/41 80/238/41 84/239/43 

vt 3.02097 5.70069
f 80/228/8 81/229/8 84/240/8

v 77.3842 10 -144.039
vt 3.04662 5.67081
f 84/240/8 81/229/8 85/241/8

vt 6.00321 0
v 77.3842 0 -144.039
vt 6.06226 0
vn 0.651372 0 0.758758
vt 6.06226 0.393701
vt 6.00321 0.393701
f 82/242/42 86/243/44 85/244/44 81/245/42 

vt -3.04662 5.67081
f 82/234/1 83/235/1 86/246/1

v 77.9341 0 -145.777
vt -3.06827 5.73926
f 86/246/1 83/235/1 87/247/1

vt -6.00484 0
vn -0.612106 0 -0.790776
vt -5.9438 0
vt -5.9438 0.393701
v 77.9341 10 -145.777
vt -6.00484 0.393701
f 87/248/45 83/249/43 84/250/43 88/251/45 

vt 3.06827 5.73926
f 84/240/8 85/241/8 88/252/8

v 78.5464 10 -144.986
vt 3.09238 5.70812
f 88/252/8 85/241/8 89/253/8

vt 5.9448 0
v 78.5464 0 -144.986
vt 6.00384 0
vn 0.612106 0 0.790776
vt 6.00384 0.393701
vt 5.9448 0.393701
f 86/254/44 90/255/46 89/256/46 85/257/44 

vt -3.09238 5.70812
f 86/246/1 87/247/1 90/258/1

v 79.1838 0 -146.695
vt -3.11747 5.77539
f 90/258/1 87/247/1 91/259/1

vt -5.93109 0
vn -0.571268 0 -0.820763
vt -5.87005 0
vt -5.87005 0.393701
v 79.1838 10 -146.695
vt -5.93109 0.393701
f 91/260/47 87/261/45 88/262/45 92/263/47 

vt 3.11747 5.77539
f 88/252/8 89/253/8 92/264/8

v 79.7552 10 -145.874
vt 3.13997 5.74307
f 92/264/8 89/253/8 93/265/8

vt 5.87105 0
v 79.7552 0 -145.874
vt 5.93009 0
vn 0.571268 0 0.820763
vt 5.93009 0.393701
vt 5.87105 0.393701
f 90/266/46 94/267/48 93/268/48 89/269/46 

vt -3.13997 5.74307
f 90/258/1 91/259/1 94/270/1

v 80.4783 0 -147.548
vt -3.16844 5.80898
f 94/270/1 91/259/1 95/271/1

vt -5.84219 0
vn -0.528964 0 -0.848644
vt -5.78116 0
vt -5.78116 0.393701
v 80.4783 10 -147.548
vt -5.84219 0.393701
f 95/272/49 91/273/47 92/274/47 96/275/49 

vt 3.16844 5.80898
f 92/264/8 93/265/8 96/276/8

v 81.0074 10 -146.699
vt 3.18927 5.77556
f 96/276/8 93/265/8 97/277/8

vt 5.78215 0
v 81.0074 0 -146.699
vt 5.8412 0
vn 0.528964 0 0.848644
vt 5.8412 0.393701
vt 5.78215 0.393701
f 94/278/48 98/279/50 97/280/50 93/281/48 

vt -3.18927 5.77556
f 94/270/1 95/271/1 98/282/1

v 81.8144 0 -148.335
vt -3.22104 5.83994
f 98/282/1 95/271/1 99/283/1

vt -5.73838 0
vn -0.485302 0 -0.874347
vt -5.67734 0
vt -5.67734 0.393701
v 81.8144 10 -148.335
vt -5.73838 0.393701
f 99/284/51 95/285/49 96/286/49 100/287/51 

vt 3.22104 5.83994
f 96/276/8 97/277/8 100/288/8

v 82.2998 10 -147.46
vt 3.24015 5.80551
f 100/288/8 97/277/8 101/289/8

vt 5.67834 0
v 82.2998 0 -147.46
vt 5.73738 0
vn 0.485302 0 0.874347
vt 5.73738 0.393701
vt 5.67834 0.393701
f 98/290/50 102/291/52 101/292/52 97/293/50 

vt -3.24015 5.80551
f 98/282/1 99/283/1 102/294/1

v 83.1886 0 -149.052
vt -3.27514 5.8682
f 102/294/1 99/283/1 103/295/1

vt -5.61991 0
vn -0.440394 0 -0.897805
vt -5.55887 0
vt -5.55887 0.393701
v 83.1886 10 -149.052
vt -5.61991 0.393701
f 103/296/53 99/297/51 100/298/51 104/299/53 

vt 3.27514 5.8682
f 100/288/8 101/289/8 104/300/8

v 83.6291 10 -148.154
vt 3.29248 5.83285
f 104/300/8 101/289/8 105/301/8

vt 5.55987 0
v 83.6291 0 -148.154
vt 5.61892 0
vn 0.440394 0 0.897805
vt 5.61892 0.393701
vt 5.55987 0.393701
f 102/302/52 106/303/54 105/304/54 101/305/52 

vt -3.29248 5.83285
f 102/294/1 103/295/1 106/306/1

v 84.5974 0 -149.7
vt -3.3306 5.89369
f 106/306/1 103/295/1 107/307/1

vt -5.4871 0
vn -0.394356 0 -0.918958
vt -5.42606 0
vt -5.42606 0.393701
v 84.5974 10 -149.7
vt -5.4871 0.393701
f 107/308/55 103/309/53 104/310/53 108/311/55 

vt 3.3306 5.89369
f 104/300/8 105/301/8 108/312/8

v 84.9918 10 -148.78
vt 3.34614 5.8575
f 108/312/8 105/301/8 109/313/8

vt 5.42706 0
v 84.9918 0 -148.78
vt 5.4861 0
vn 0.394356 0 0.918958
vt 5.4861 0.393701
vt 5.42706 0.393701
f 106/314/54 110/315/56 109/316/56 105/317/54 

vt -3.34614 5.8575
f 106/306/1 107/307/1 110/318/1

v 86.0371 0 -150.275
vt -3.38729 5.91633
f 110/318/1 107/307/1 111/319/1

vt -5.34028 0
vn -0.347305 0 -0.937752
vt -5.27924 0
vt -5.27924 0.393701
v 86.0371 10 -150.275
vt -5.34028 0.393701
f 111/320/57 107/321/55 108/322/55 112/323/57 

vt 3.38729 5.91633
f 108/312/8 109/313/8 112/324/8

v 86.3845 10 -149.337
vt 3.40097 5.8794
f 112/324/8 109/313/8 113/325/8

vt 5.28024 0
v 86.3845 0 -149.337
vt 5.33928 0
vn 0.347305 0 0.937752
vt 5.33928 0.393701
vt 5.28024 0.393701
f 110/326/56 114/327/58 113/328/58 109/329/56 

vt -3.40097 5.8794
f 110/318/1 111/319/1 114/330/1

v 87.5042 0 -150.776
vt -3.44505 5.93607
f 114/330/1 111/319/1 115/331/1

vt -5.17982 0
vn -0.299363 0 -0.954139
vt -5.11879 0
vt -5.11879 0.393701
v 87.5042 10 -150.776
vt -5.17982 0.393701
f 115/332/59 111/333/57 112/334/57 116/335/59 

vt 3.44505 5.93607
f 112/324/8 113/325/8 116/336/8

v 87.8036 10 -149.822
vt 3.45684 5.8985
f 116/336/8 113/325/8 117/337/8

vt 5.11978 0
v 87.8036 0 -149.822
vt 5.17883 0
vn 0.299363 0 0.954139
vt 5.17883 0.393701
vt 5.11978 0.393701
f 114/338/58 118/339/60 117/340/60 113/341/58 

vt -3.45684 5.8985
f 114/330/1 115/331/1 118/342/1

v 88.9947 0 -151.203
vt -3.50373 5.95286
f 118/342/1 115/331/1 119/343/1

vt -5.00615 0
vn -0.250653 0 -0.968077
vt -4.94512 0
vt -4.94512 0.393701
v 88.9947 10 -151.203
vt -5.00615 0.393701
f 119/344/61 115/345/59 116/346/59 120/347/61 

vt 3.50373 5.95286
f 116/336/8 117/337/8 120/348/8

v 89.2455 10 -150.234
vt 3.5136 5.91474
f 120/348/8 117/337/8 121/349/8

vt 4.94611 0
v 89.2455 0 -150.234
vt 5.00516 0
vn 0.250653 0 0.968077
vt 5.00516 0.393701
vt 4.94611 0.393701
f 118/350/60 122/351/62 121/352/62 117/353/60 

vt -3.5136 5.91474
f 118/342/1 119/343/1 122/354/1

v 90.505 0 -151.553
vt -3.56319 5.96666
f 122/354/1 119/343/1 123/355/1

vt -4.81971 0
vn -0.201299 0 -0.97953
vt -4.75867 0
vt -4.75867 0.393701
v 90.505 10 -151.553
vt -4.81971 0.393701
f 123/356/63 119/357/61 120/358/61 124/359/63 

vt 3.56319 5.96666
f 120/348/8 121/349/8 124/360/8

v 90.7063 10 -150.573
vt 3.57112 5.92809
f 124/360/8 121/349/8 125/361/8

vt 4.75967 0
v 90.7063 0 -150.573
vt 4.81871 0
vn 0.201299 0 0.97953
vt 4.81871 0.393701
vt 4.75967 0.393701
f 122/362/62 126/363/64 125/364/64 121/365/62 

vt -3.57112 5.92809
f 122/354/1 123/355/1 126/366/1

v 92.031 0 -151.827
vt -3.62327 5.97743
f 126/366/1 123/355/1 127/367/1

vt -4.62098 0
vn -0.151428 0 -0.988468
vt -4.55994 0
vt -4.55994 0.393701
v 92.031 10 -151.827
vt -4.62098 0.393701
f 127/368/65 123/369/63 124/370/63 128/371/65 

vt 3.62327 5.97743
f 124/360/8 125/361/8 128/372/8

v 92.1825 10 -150.838
vt 3.62923 5.9385
f 128/372/8 125/361/8 129/373/8

vt 4.56093 0
v 92.1825 0 -150.838
vt 4.61998 0
vn 0.151428 0 0.988468
vt 4.61998 0.393701
vt 4.56093 0.393701
f 126/374/64 130/375/66 129/376/66 125/377/64 

vt -3.62923 5.9385
f 126/366/1 127/367/1 130/378/1

v 93.569 0 -152.023
vt -3.68382 5.98514
f 130/378/1 127/367/1 131/379/1

vt -4.41046 0
vn -0.101168 0 -0.994869
vt -4.34942 0
vt -4.34942 0.393701
v 93.569 10 -152.023
vt -4.41046 0.393701
f 131/380/67 127/381/65 128/382/65 132/383/67 

vt 3.68382 5.98514
f 128/372/8 129/373/8 132/384/8

v 93.6702 10 -151.027
vt 3.6878 5.94596
f 132/384/8 129/373/8 133/385/8

vt 4.35041 0
v 93.6702 0 -151.027
vt 4.40946 0
vn 0.101168 0 0.994869
vt 4.40946 0.393701
vt 4.35041 0.393701
f 130/386/66 134/387/68 133/388/68 129/389/66 

vt -3.6878 5.94596
f 130/378/1 131/379/1 134/390/1

v 95.1149 0 -152.14
vt -3.74468 5.98978
f 134/390/1 131/379/1 135/391/1

vt -4.18869 0
vn -0.0506492 0 -0.998717
vt -4.12765 0
vt -4.12765 0.393701
v 95.1149 10 -152.14
vt -4.18869 0.393701
f 135/392/69 131/393/67 132/394/67 136/395/69 

vt 3.74468 5.98978
f 132/384/8 133/385/8 136/396/8

v 95.1656 10 -151.141
vt 3.74668 5.95044
f 136/396/8 133/385/8 137/397/8

vt 4.12865 0
v 95.1656 0 -151.141
vt 4.18769 0
vn 0.0506492 0 0.998717
vt 4.18769 0.393701
vt 4.12865 0.393701
f 134/398/68 138/399/70 137/400/70 133/401/68 

vt -3.74668 5.95044
f 134/390/1 135/391/1 138/402/1

v 96.6648 0 -152.18
vt -3.8057 5.99132
f 138/402/1 135/391/1 139/403/1

vt -3.95626 0
vn 0 0 -1
vt -3.89522 0
vt -3.89522 0.393701
v 96.6648 10 -152.18
vt -3.95626 0.393701
f 139/404/71 135/405/69 136/406/69 140/407/71 

vt 3.8057 5.99132
f 136/396/8 137/397/8 140/408/8

v 96.6648 10 -151.179
vt 3.8057 5.95194
f 140/408/8 137/397/8 141/409/8

vt 3.89621 0
v 96.6648 0 -151.179
vt 3.95526 0
vn 0 0 1
vt 3.95526 0.393701
vt 3.89621 0.393701
f 138/410/70 142/411/72 141/412/72 137/413/70 

vt -3.8057 5.95194
f 138/402/1 139/403/1 142/414/1

v 98.2147 0 -152.14
vt -3.86672 5.98978
f 142/414/1 139/403/1 143/415/1

vt -3.71374 0
vn 0.0506492 0 -0.998717
vt -3.6527 0
vt -3.6527 0.393701
v 98.2147 10 -152.14
vt -3.71374 0.393701
f 143/416/73 139/417/71 140/418/71 144/419/73 

vt 3.86672 5.98978
f 140/408/8 141/409/8 144/420/8

v 98.164 10 -151.141
vt 3.86472 5.95044
f 144/420/8 141/409/8 145/421/8

vt 3.6537 0
v 98.164 0 -151.141
vt 3.71274 0
vn -0.0506492 0 0.998717
vt 3.71274 0.393701
vt 3.6537 0.393701
f 142/422/72 146/423/74 145/424/74 141/425/72 

vt -3.86472 5.95044
f 142/414/1 143/415/1 146/426/1

v 99.6594 0 -151.027
vt -3.9236 5.94596
f 146/426/1 143/415/1 147/427/1

v 99.7606 0 -152.023
vt -3.92758 5.98514
f 147/427/1 143/415/1 148/428/1

vt -3.46177 0
vn 0.101168 0 -0.994869
vt -3.40073 0
vt -3.40073 0.393701
v 99.7606 10 -152.023
vt -3.46177 0.393701
f 148/429/75 143/430/73 144/431/73 149/432/75 

v 99.6594 10 -151.027
vt 3.9236 5.94596
vt 3.92758 5.98514
f 144/420/8 150/433/8 149/434/8

f 144/420/8 145/421/8 150/433/8

vt 3.40173 0
vt 3.46077 0
vn -0.101168 0 0.994869
vt 3.46077 0.393701
vt 3.40173 0.393701
f 146/435/74 147/436/76 150/437/76 145/438/74 

vt 3.14095 0
v 101.147 0 -150.838
vt 3.2 0
vn -0.151428 0 0.988468
v 101.147 10 -150.838
vt 3.2 0.393701
vt 3.14095 0.393701
f 147/439/76 151/440/77 152/441/77 150/442/76 

vt -3.98217 5.9385
f 147/427/1 148/428/1 151/443/1

v 101.299 0 -151.827
vt -3.98813 5.97743
f 151/443/1 148/428/1 153/444/1

vt -3.20099 0
vn 0.151428 0 -0.988468
vt -3.13996 0
vt -3.13996 0.393701
v 101.299 10 -151.827
vt -3.20099 0.393701
f 153/445/78 148/446/75 149/447/75 154/448/78 

vt 3.98217 5.9385
vt 3.98813 5.97743
f 149/434/8 152/449/8 154/450/8

f 149/434/8 150/433/8 152/449/8

v 102.623 10 -150.573
vt 4.04028 5.92809
f 154/450/8 152/449/8 155/451/8

vt 2.87204 0
v 102.623 0 -150.573
vt 2.93108 0
vn -0.201299 0 0.97953
vt 2.93108 0.393701
vt 2.87204 0.393701
f 151/452/77 156/453/79 155/454/79 152/455/77 

vt -4.04028 5.92809
f 151/443/1 153/444/1 156/456/1

v 102.825 0 -151.553
vt -4.04821 5.96666
f 156/456/1 153/444/1 157/457/1

vt -2.93208 0
vn 0.201299 0 -0.97953
vt -2.87104 0
vt -2.87104 0.393701
v 102.825 10 -151.553
vt -2.93208 0.393701
f 157/458/80 153/459/78 154/460/78 158/461/80 

vt 4.04821 5.96666
f 154/450/8 155/451/8 158/462/8

v 104.084 10 -150.234
vt 4.0978 5.91474
f 158/462/8 155/451/8 159/463/8

vt 2.59567 0
v 104.084 0 -150.234
vt 2.65472 0
vn -0.250653 0 0.968077
vt 2.65472 0.393701
vt 2.59567 0.393701
f 156/464/79 160/465/81 159/466/81 155/467/79 

vt -4.0978 5.91474
f 156/456/1 157/457/1 160/468/1

v 104.335 0 -151.203
vt -4.10767 5.95286
f 160/468/1 157/457/1 161/469/1

vt -2.65571 0
vn 0.250653 0 -0.968077
vt -2.59468 0
vt -2.59468 0.393701
v 104.335 10 -151.203
vt -2.65571 0.393701
f 161/470/82 157/471/80 158/472/80 162/473/82 

vt 4.10767 5.95286
f 158/462/8 159/463/8 162/474/8

v 105.526 10 -149.822
vt 4.15456 5.8985
f 162/474/8 159/463/8 163/475/8

vt 2.31257 0
v 105.526 0 -149.822
vt 2.37161 0
vn -0.299363 0 0.954139
vt 2.37161 0.393701
vt 2.31257 0.393701
f 160/476/81 164/477/83 163/478/83 159/479/81 

vt -4.15456 5.8985
f 160/468/1 161/469/1 164/480/1

v 105.825 0 -150.776
vt -4.16635 5.93607
f 164/480/1 161/469/1 165/481/1

vt -2.37261 0
vn 0.299363 0 -0.954139
vt -2.31157 0
vt -2.31157 0.393701
v 105.825 10 -150.776
vt -2.37261 0.393701
f 165/482/84 161/483/82 162/484/82 166/485/84 

vt 4.16635 5.93607
f 162/474/8 163/475/8 166/486/8

v 106.945 10 -149.337
vt 4.21043 5.8794
f 166/486/8 163/475/8 167/487/8

vt 2.02346 0
v 106.945 0 -149.337
vt 2.0825 0
vn -0.347305 0 0.937752
vt 2.0825 0.393701
vt 2.02346 0.393701
f 164/488/83 168/489/85 167/490/85 163/491/83 

vt -4.21043 5.8794
f 164/480/1 165/481/1 168/492/1

v 107.292 0 -150.275
vt -4.22411 5.91633
f 168/492/1 165/481/1 169/493/1

vt -2.0835 0
vn 0.347305 0 -0.937752
vt -2.02246 0
vt -2.02246 0.393701
v 107.292 10 -150.275
vt -2.0835 0.393701
f 169/494/86 165/495/84 166/496/84 170/497/86 

vt 4.22411 5.91633
f 166/486/8 167/487/8 170/498/8

v 108.338 10 -148.78
vt 4.26526 5.8575
f 170/498/8 167/487/8 171/499/8

vt 1.72907 0
v 108.338 0 -148.78
vt 1.78811 0
vn -0.394356 0 0.918958
vt 1.78811 0.393701
vt 1.72907 0.393701
f 168/500/85 172/501/87 171/502/87 167/503/85 

vt -4.26526 5.8575
f 168/492/1 169/493/1 172/504/1

v 108.732 0 -149.7
vt -4.28079 5.89369
f 172/504/1 169/493/1 173/505/1

vt -1.78911 0
vn 0.394356 0 -0.918958
vt -1.72807 0
vt -1.72807 0.393701
v 108.732 10 -149.7
vt -1.78911 0.393701
f 173/506/88 169/507/86 170/508/86 174/509/88 

vt 4.28079 5.89369
f 170/498/8 171/499/8 174/510/8

v 109.7 10 -148.154
vt 4.31892 5.83285
f 174/510/8 171/499/8 175/511/8

vt 1.43017 0
v 109.7 0 -148.154
vt 1.48921 0
vn -0.440394 0 0.897805
vt 1.48921 0.393701
vt 1.43017 0.393701
f 172/512/87 176/513/89 175/514/89 171/515/87 

vt -4.31892 5.83285
f 172/504/1 173/505/1 176/516/1

v 110.141 0 -149.052
vt -4.33626 5.8682
f 176/516/1 173/505/1 177/517/1

vt -1.49021 0
vn 0.440394 0 -0.897805
vt -1.42917 0
vt -1.42917 0.393701
v 110.141 10 -149.052
vt -1.49021 0.393701
f 177/518/90 173/519/88 174/520/88 178/521/90 

vt 4.33626 5.8682
f 174/510/8 175/511/8 178/522/8

v 111.03 10 -147.46
vt 4.37125 5.80551
f 178/522/8 175/511/8 179/523/8

vt 1.12753 0
v 111.03 0 -147.46
vt 1.18657 0
vn -0.485302 0 0.874347
vt 1.18657 0.393701
vt 1.12753 0.393701
f 176/524/89 180/525/91 179/526/91 175/527/89 

vt -4.37125 5.80551
f 176/516/1 177/517/1 180/528/1

v 111.515 0 -148.335
vt -4.39036 5.83994
f 180/528/1 177/517/1 181/529/1

vt -1.18757 0
vn 0.485302 0 -0.874347
vt -1.12653 0
vt -1.12653 0.393701
v 111.515 10 -148.335
vt -1.18757 0.393701
f 181/530/92 177/531/90 178/532/90 182/533/92 

vt 4.39036 5.83994
f 178/522/8 179/523/8 182/534/8

v 112.322 10 -146.699
vt 4.42213 5.77556
f 182/534/8 179/523/8 183/535/8

vt 0.821909 0
v 112.322 0 -146.699
vt 0.880952 0
vn -0.528964 0 0.848644
vt 0.880952 0.393701
vt 0.821909 0.393701
f 180/536/91 184/537/93 183/538/93 179/539/91 

vt -4.42213 5.77556
f 180/528/1 181/529/1 184/540/1

v 112.851 0 -147.548
vt -4.44296 5.80898
f 184/540/1 181/529/1 185/541/1

vt -0.88195 0
vn 0.528964 0 -0.848644
vt -0.820911 0
vt -0.820911 0.393701
v 112.851 10 -147.548
vt -0.88195 0.393701
f 185/542/94 181/543/92 182/544/92 186/545/94 

vt 4.44296 5.80898
f 182/534/8 183/535/8 186/546/8

v 113.574 10 -145.874
vt 4.47143 5.74307
f 186/546/8 183/535/8 187/547/8

vt 0.514107 0
v 113.574 0 -145.874
vt 0.57315 0
vn -0.571268 0 0.820763
vt 0.57315 0.393701
vt 0.514107 0.393701
f 184/548/93 188/549/95 187/550/95 183/551/93 

vt -4.47143 5.74307
f 184/540/1 185/541/1 188/552/1

v 114.146 0 -146.695
vt -4.49393 5.77539
f 188/552/1 185/541/1 189/553/1

vt -0.574148 0
vn 0.571268 0 -0.820763
vt -0.513109 0
vt -0.513109 0.393701
v 114.146 10 -146.695
vt -0.574148 0.393701
f 189/554/96 185/555/94 186/556/94 190/557/96 

vt 4.49393 5.77539
f 186/546/8 187/547/8 190/558/8

v 114.783 10 -144.986
vt 4.51902 5.70812
f 190/558/8 187/547/8 191/559/8

vt 0.20491 0
v 114.783 0 -144.986
vt 0.263953 0
vn -0.612106 0 0.790776
vt 0.263953 0.393701
vt 0.20491 0.393701
f 188/560/95 192/561/97 191/562/97 187/563/95 

vt -4.51902 5.70812
f 188/552/1 189/553/1 192/564/1

v 115.395 0 -145.777
vt -4.54313 5.73926
f 192/564/1 189/553/1 193/565/1

vt -0.264951 0
vn 0.612106 0 -0.790776
vt -0.203912 0
vt -0.203912 0.393701
v 115.395 10 -145.777
vt -0.264951 0.393701
f 193/566/98 189/567/96 190/568/96 194/569/98 

vt 4.54313 5.73926
f 190/558/8 191/559/8 194/570/8

v 115.945 10 -144.039
vt 4.56478 5.67081
f 194/570/8 191/559/8 195/571/8

vt -0.10489 0
v 115.945 0 -144.039
vt -0.0458464 0
vn -0.651372 0 0.758758
vt -0.0458464 0.393701
vt -0.10489 0.393701
f 192/572/97 196/573/99 195/574/99 191/575/97 

vt -4.56478 5.67081
f 192/564/1 193/565/1 196/576/1

v 116.597 0 -144.798
vt -4.59043 5.70069
f 196/576/1 193/565/1 197/577/1

vt 0.0448487 0
vn 0.651372 0 -0.758758
vt 0.105887 0
vt 0.105887 0.393701
v 116.597 10 -144.798
vt 0.0448487 0.393701
f 197/578/100 193/579/98 194/580/98 198/581/100 

vt 4.59043 5.70069
f 194/570/8 195/571/8 198/582/8

v 117.058 10 -143.033
vt 4.60859 5.63123
f 198/582/8 195/571/8 199/583/8

vt -0.414495 0
v 117.058 0 -143.033
vt -0.355452 0
vn -0.688967 0 0.724793
vt -0.355452 0.393701
vt -0.414495 0.393701
f 196/584/99 200/585/101 199/586/101 195/587/99 

vt -4.60859 5.63123
f 196/576/1 197/577/1 200/588/1

v 117.747 0 -143.758
vt -4.63572 5.65977
f 200/588/1 197/577/1 201/589/1

vt 0.354454 0
vn 0.688967 0 -0.724793
vt 0.415493 0
vt 0.415493 0.393701
v 117.747 10 -143.758
vt 0.354454 0.393701
f 201/590/102 197/591/100 198/592/100 202/593/102 

vt 4.63572 5.65977
f 198/582/8 199/583/8 202/594/8

v 118.119 10 -141.973
vt 4.65034 5.58948
f 202/594/8 199/583/8 203/595/8

vt -0.723113 0
v 118.119 0 -141.973
vt -0.66407 0
vn -0.724793 0 0.688967
vt -0.66407 0.393701
vt -0.723113 0.393701
f 200/596/101 204/597/103 203/598/103 199/599/101 

vt -4.65034 5.58948
f 200/588/1 201/589/1 204/600/1

v 118.844 0 -142.662
vt -4.67888 5.61661
f 204/600/1 201/589/1 205/601/1

vt 0.663072 0
vn 0.724793 0 -0.688967
vt 0.72411 0
vt 0.72411 0.393701
v 118.844 10 -142.662
vt 0.663072 0.393701
f 205/602/104 201/603/102 202/604/102 206/605/104 

vt 4.67888 5.61661
f 202/594/8 203/595/8 206/606/8

v 119.124 10 -140.86
vt 4.68992 5.54567
f 206/606/8 203/595/8 207/607/8

vt -1.02995 0
v 119.124 0 -140.86
vt -0.970907 0
vn -0.758758 0 0.651372
vt -0.970907 0.393701
vt -1.02995 0.393701
f 204/608/103 208/609/105 207/610/105 203/611/103 

vt -4.68992 5.54567
f 204/600/1 205/601/1 208/612/1

v 119.883 0 -141.511
vt -4.7198 5.57132
f 208/612/1 205/601/1 209/613/1

vt 0.969909 0
vn 0.758758 0 -0.651372
vt 1.03095 0
vt 1.03095 0.393701
v 119.883 10 -141.511
vt 0.969909 0.393701
f 209/614/106 205/615/104 206/616/104 210/617/106 

vt 4.7198 5.57132
f 206/606/8 207/607/8 210/618/8

v 120.072 10 -139.698
vt 4.72723 5.49991
f 210/618/8 207/607/8 211/619/8

vt -1.33422 0
v 120.072 0 -139.698
vt -1.27518 0
vn -0.790776 0 0.612106
vt -1.27518 0.393701
vt -1.33422 0.393701
f 208/620/105 212/621/107 211/622/107 207/623/105 

vt -4.72723 5.49991
f 208/612/1 209/613/1 212/624/1

v 120.863 0 -140.31
vt -4.75838 5.52401
f 212/624/1 209/613/1 213/625/1

vt 1.27418 0
vn 0.790776 0 -0.612106
vt 1.33522 0
vt 1.33522 0.393701
v 120.863 10 -140.31
vt 1.27418 0.393701
f 213/626/108 209/627/106 210/628/106 214/629/108 

vt 4.75838 5.52401
f 210/618/8 211/619/8 214/630/8

v 120.959 10 -138.489
vt 4.76218 5.45232
f 214/630/8 211/619/8 215/631/8

vt -1.63514 0
v 120.959 0 -138.489
vt -1.5761 0
vn -0.820763 0 0.571268
vt -1.5761 0.393701
vt -1.63514 0.393701
f 212/632/107 216/633/109 215/634/109 211/635/107 

vt -4.76218 5.45232
f 212/624/1 213/625/1 216/636/1

v 121.78 0 -139.06
vt -4.7945 5.47481
f 216/636/1 213/625/1 217/637/1

vt 1.5751 0
vn 0.820763 0 -0.571268
vt 1.63614 0
vt 1.63614 0.393701
v 121.78 10 -139.06
vt 1.5751 0.393701
f 217/638/110 213/639/108 214/640/108 218/641/110 

vt 4.7945 5.47481
f 214/630/8 215/631/8 218/642/8

v 121.785 10 -137.237
vt 4.79467 5.40302
f 218/642/8 215/631/8 219/643/8

vt -1.93194 0
v 121.785 0 -137.237
vt -1.87289 0
vn -0.848644 0 0.528964
vt -1.87289 0.393701
vt -1.93194 0.393701
f 216/644/109 220/645/111 219/646/111 215/647/109 

vt -4.79467 5.40302
f 216/636/1 217/637/1 220/648/1

v 122.634 0 -137.766
vt -4.82809 5.42385
f 220/648/1 217/637/1 221/649/1

vt 1.8719 0
vn 0.848644 0 -0.528964
vt 1.93293 0
vt 1.93293 0.393701
v 122.634 10 -137.766
vt 1.8719 0.393701
f 221/650/112 217/651/110 218/652/110 222/653/112 

vt 4.82809 5.42385
f 218/642/8 219/643/8 222/654/8

v 122.545 10 -135.944
vt 4.82462 5.35213
f 222/654/8 219/643/8 223/655/8

vt -2.22385 0
v 122.545 0 -135.944
vt -2.16481 0
vn -0.874347 0 0.485302
vt -2.16481 0.393701
vt -2.22385 0.393701
f 220/656/111 224/657/113 223/658/113 219/659/111 

vt -4.82462 5.35213
f 220/648/1 221/649/1 224/660/1

v 123.24 0 -134.615
vt -4.85196 5.2998
f 224/660/1 221/649/1 225/661/1

v 123.42 0 -136.43
vt -4.85906 5.37125
f 225/661/1 221/649/1 226/662/1

vt 2.16381 0
vn 0.874347 0 -0.485302
vt 2.22485 0
vt 2.22485 0.393701
v 123.42 10 -136.43
vt 2.16381 0.393701
f 226/663/114 221/664/112 222/665/112 227/666/114 

v 123.24 10 -134.615
vt 4.85196 5.2998
vt 4.85906 5.37125
f 222/654/8 228/667/8 227/668/8

f 222/654/8 223/655/8 228/667/8

vt -2.51013 0
vt -2.45109 0
vn -0.897805 0 0.440394
vt -2.45109 0.393701
vt -2.51013 0.393701
f 224/669/113 225/670/115 228/671/115 223/672/113 

vt -2.79005 0
v 123.866 0 -133.252
vt -2.731 0
vn -0.918958 0 0.394356
v 123.866 10 -133.252
vt -2.731 0.393701
vt -2.79005 0.393701
f 225/673/115 229/674/116 230/675/116 228/676/115 

vt -4.87661 5.24615
f 225/661/1 226/662/1 229/677/1

v 124.138 0 -135.055
vt -4.88732 5.31715
f 229/677/1 226/662/1 231/678/1

vt 2.45009 0
vn 0.897805 0 -0.440394
vt 2.51113 0
vt 2.51113 0.393701
v 124.138 10 -135.055
vt 2.45009 0.393701
f 231/679/117 226/680/114 227/681/114 232/682/117 

vt 4.87661 5.24615
vt 4.88732 5.31715
f 227/668/8 230/683/8 232/684/8

f 227/668/8 228/667/8 230/683/8

v 124.422 10 -131.86
vt 4.89851 5.19132
f 232/684/8 230/683/8 233/685/8

vt -3.06288 0
v 124.422 0 -131.86
vt -3.00383 0
vn -0.937752 0 0.347305
vt -3.00383 0.393701
vt -3.06288 0.393701
f 229/686/116 234/687/118 233/688/118 230/689/116 

vt -4.89851 5.19132
f 229/677/1 231/678/1 234/690/1

v 124.785 0 -133.647
vt -4.9128 5.26168
f 234/690/1 231/678/1 235/691/1

vt 2.73001 0
vn 0.918958 0 -0.394356
vt 2.79105 0
vt 2.79105 0.393701
v 124.785 10 -133.647
vt 2.73001 0.393701
f 235/692/119 231/693/117 232/694/117 236/695/119 

vt 4.9128 5.26168
f 232/684/8 233/685/8 236/696/8

v 124.907 10 -130.44
vt 4.91761 5.13545
f 236/696/8 233/685/8 237/697/8

vt -3.32792 0
v 124.907 0 -130.44
vt -3.26887 0
vt -3.26887 0.393701
vt -3.32792 0.393701
f 234/698/118 238/699/14 237/700/14 233/701/118 

vt -4.91761 5.13545
f 234/690/1 235/691/1 238/702/1

v 125.36 0 -132.207
vt -4.93544 5.205
f 238/702/1 235/691/1 239/703/1

vt 3.00284 0
vn 0.937752 0 -0.347305
vt 3.06387 0
vt 3.06387 0.393701
v 125.36 10 -132.207
vt 3.00284 0.393701
f 239/704/120 235/705/119 236/706/119 240/707/120 

vt 4.93544 5.205
f 236/696/8 237/697/8 240/708/8

v 125.32 10 -128.999
vt 4.93385 5.07869
f 240/708/8 237/697/8 241/709/8

vt -3.58449 0
v 125.32 0 -128.999
vt -3.52545 0
vt -3.52545 0.393701
vt -3.58449 0.393701
f 238/710/14 242/711/12 241/712/12 237/713/14 

vt -4.93385 5.07869
f 238/702/1 239/703/1 242/714/1

v 125.659 0 -127.538
vt -4.9472 5.02117
f 242/714/1 239/703/1 243/715/1

v 125.862 0 -130.74
vt -4.95519 5.14724
f 243/715/1 239/703/1 244/716/1

vt 3.26788 0
vn 0.954139 0 -0.299363
vt 3.32892 0
vt 3.32892 0.393701
v 125.862 10 -130.74
vt 3.26788 0.393701
f 244/717/121 239/718/120 240/719/120 245/720/121 

v 125.659 10 -127.538
vt 4.9472 5.02117
vt 4.95519 5.14724
f 240/708/8 246/721/8 245/722/8

f 240/708/8 241/709/8 246/721/8

vt -3.83194 0
vt -3.7729 0
vt -3.7729 0.393701
vt -3.83194 0.393701
f 242/723/12 243/724/11 246/725/11 241/726/12 

vt -4.06963 0
v 125.923 0 -126.062
vt -4.01059 0
v 125.923 10 -126.062
vt -4.01059 0.393701
vt -4.06963 0.393701
f 243/727/11 247/728/9 248/729/9 246/730/11 

vt -4.95762 4.96305
f 243/715/1 244/716/1 247/731/1

v 126.288 0 -129.249
vt -4.97198 5.08856
f 247/731/1 244/716/1 249/732/1

vt 3.52445 0
vn 0.968077 0 -0.250653
vt 3.58549 0
vt 3.58549 0.393701
v 126.288 10 -129.249
vt 3.52445 0.393701
f 249/733/122 244/734/121 245/735/121 250/736/122 

vt 4.95762 4.96305
vt 4.97198 5.08856
f 245/722/8 248/737/8 250/738/8

f 245/722/8 246/721/8 248/737/8

v 126.113 10 -124.574
vt 4.96508 4.90448
f 250/738/8 248/737/8 251/739/8

vt -4.29695 0
v 126.113 0 -124.574
vt -4.2379 0
vt -4.2379 0.393701
vt -4.29695 0.393701
f 247/740/9 252/741/6 251/742/6 248/743/9 

vt -4.96508 4.90448
f 247/731/1 249/732/1 252/744/1

v 126.227 0 -123.078
vt -4.96956 4.84561
f 252/744/1 249/732/1 253/745/1

v 126.265 0 -121.579
vt -4.97105 4.78659
f 253/745/1 249/732/1 254/746/1

v 126.288 0 -113.909
vt -4.97198 4.48462
f 255/747/1 254/746/1 249/732/1

v 126.227 0 -120.08
vt -4.96956 4.72756
f 255/747/1 256/748/1 254/746/1

v 126.113 0 -118.585
vt -4.96508 4.66869
f 255/747/1 257/749/1 256/748/1

v 125.923 0 -117.097
vt -4.95762 4.61012
f 255/747/1 258/750/1 257/749/1

v 125.862 0 -112.419
vt -4.95519 4.42593
f 259/751/1 258/750/1 255/747/1

v 125.659 0 -115.621
vt -4.9472 4.552
f 259/751/1 260/752/1 258/750/1

v 125.36 0 -110.952
vt -4.93544 4.36817
f 261/753/1 260/752/1 259/751/1

v 125.32 0 -114.16
vt -4.93385 4.49449
f 261/753/1 262/754/1 260/752/1

v 124.907 0 -112.718
vt -4.91761 4.43772
f 261/753/1 263/755/1 262/754/1

v 124.785 0 -109.512
vt -4.9128 4.31149
f 264/756/1 263/755/1 261/753/1

v 124.422 0 -111.299
vt -4.89851 4.38185
f 264/756/1 265/757/1 263/755/1

v 124.138 0 -108.103
vt -4.88732 4.25603
f 266/758/1 265/757/1 264/756/1

v 123.866 0 -109.906
vt -4.87661 4.32702
f 266/758/1 267/759/1 265/757/1

v 123.42 0 -106.729
vt -4.85906 4.20192
f 268/760/1 267/759/1 266/758/1

v 123.24 0 -108.544
vt -4.85196 4.27337
f 268/760/1 269/761/1 267/759/1

v 122.634 0 -105.393
vt -4.82809 4.14932
f 270/762/1 269/761/1 268/760/1

v 122.545 0 -107.214
vt -4.82462 4.22104
f 270/762/1 271/763/1 269/761/1

v 121.785 0 -105.922
vt -4.79467 4.17016
f 270/762/1 272/764/1 271/763/1

v 121.78 0 -104.098
vt -4.7945 4.09836
f 273/765/1 272/764/1 270/762/1

v 120.959 0 -104.67
vt -4.76218 4.12086
f 273/765/1 274/766/1 272/764/1

v 120.863 0 -102.849
vt -4.75838 4.04916
f 275/767/1 274/766/1 273/765/1

v 120.072 0 -103.461
vt -4.72723 4.07327
f 275/767/1 276/768/1 274/766/1

v 119.883 0 -101.647
vt -4.7198 4.00185
f 277/769/1 276/768/1 275/767/1

v 119.124 0 -102.299
vt -4.68992 4.02751
f 277/769/1 278/770/1 276/768/1

v 118.844 0 -100.497
vt -4.67888 3.95656
f 279/771/1 278/770/1 277/769/1

v 118.119 0 -101.186
vt -4.65034 3.9837
f 279/771/1 280/772/1 278/770/1

v 117.747 0 -99.4004
vt -4.63572 3.9134
f 281/773/1 280/772/1 279/771/1

v 117.058 0 -100.125
vt -4.60859 3.94195
f 281/773/1 282/774/1 280/772/1

v 116.597 0 -98.361
vt -4.59043 3.87248
f 283/775/1 282/774/1 281/773/1

v 115.945 0 -99.12
vt -4.56478 3.90236
f 283/775/1 284/776/1 282/774/1

v 115.395 0 -97.3813
vt -4.54313 3.83391
f 285/777/1 284/776/1 283/775/1

v 114.783 0 -98.1723
vt -4.51902 3.86505
f 285/777/1 286/778/1 284/776/1

v 114.146 0 -96.4637
vt -4.49393 3.79778
f 287/779/1 286/778/1 285/777/1

v 113.574 0 -97.2847
vt -4.47143 3.83011
f 287/779/1 288/780/1 286/778/1

v 112.851 0 -95.6105
vt -4.44296 3.76419
f 289/781/1 288/780/1 287/779/1

v 112.322 0 -96.4594
vt -4.42213 3.79761
f 289/781/1 290/782/1 288/780/1

v 111.515 0 -94.824
vt -4.39036 3.73323
f 291/783/1 290/782/1 289/781/1

v 111.03 0 -95.6986
vt -4.37125 3.76766
f 291/783/1 292/784/1 290/782/1

v 110.141 0 -94.1062
vt -4.33626 3.70497
f 293/785/1 292/784/1 291/783/1

v 109.7 0 -95.0043
vt -4.31892 3.74033
f 293/785/1 294/786/1 292/784/1

v 108.732 0 -93.4589
vt -4.28079 3.67948
f 295/787/1 294/786/1 293/785/1

v 108.338 0 -94.3781
vt -4.26526 3.71567
f 295/787/1 296/788/1 294/786/1

v 107.292 0 -92.8838
vt -4.22411 3.65684
f 297/789/1 296/788/1 295/787/1

v 106.945 0 -93.8218
vt -4.21043 3.69377
f 297/789/1 298/790/1 296/788/1

v 105.825 0 -92.3823
vt -4.16635 3.6371
f 299/791/1 298/790/1 297/789/1

v 105.526 0 -93.3368
vt -4.15456 3.67468
f 299/791/1 300/792/1 298/790/1

v 104.335 0 -91.9558
vt -4.10767 3.62031
f 301/793/1 300/792/1 299/791/1

v 104.084 0 -92.9242
vt -4.0978 3.65843
f 301/793/1 302/794/1 300/792/1

v 102.825 0 -91.6054
vt -4.04821 3.60651
f 303/795/1 302/794/1 301/793/1

v 102.623 0 -92.5852
vt -4.04028 3.64509
f 303/795/1 304/796/1 302/794/1

v 101.299 0 -91.3318
vt -3.98813 3.59574
f 305/797/1 304/796/1 303/795/1

v 101.147 0 -92.3206
vt -3.98217 3.63467
f 305/797/1 306/798/1 304/796/1

v 99.7606 0 -91.136
vt -3.92758 3.58803
f 307/799/1 306/798/1 305/797/1

v 99.6594 0 -92.1312
vt -3.9236 3.62721
f 307/799/1 308/800/1 306/798/1

v 98.2147 0 -91.0182
vt -3.86672 3.5834
f 309/801/1 308/800/1 307/799/1

v 98.164 0 -92.0173
vt -3.86472 3.62273
f 309/801/1 310/802/1 308/800/1

v 96.6648 0 -90.979
vt -3.8057 3.58185
f 311/803/1 310/802/1 309/801/1

v 96.6648 0 -91.9793
vt -3.8057 3.62123
f 311/803/1 312/804/1 310/802/1

v 95.1656 0 -92.0173
vt -3.74668 3.62273
f 311/803/1 313/805/1 312/804/1

v 95.1149 0 -91.0182
vt -3.74468 3.5834
f 314/806/1 313/805/1 311/803/1

v 93.6702 0 -92.1312
vt -3.6878 3.62721
f 314/806/1 315/807/1 313/805/1

v 93.569 0 -91.136
vt -3.68382 3.58803
f 316/808/1 315/807/1 314/806/1

v 92.1825 0 -92.3206
vt -3.62923 3.63467
f 316/808/1 317/809/1 315/807/1

v 92.031 0 -91.3318
vt -3.62327 3.59574
f 318/810/1 317/809/1 316/808/1

v 90.7063 0 -92.5852
vt -3.57112 3.64509
f 318/810/1 319/811/1 317/809/1

v 90.505 0 -91.6054
vt -3.56319 3.60651
f 320/812/1 319/811/1 318/810/1

v 89.2455 0 -92.9242
vt -3.5136 3.65843
f 320/812/1 321/813/1 319/811/1

v 88.9947 0 -91.9558
vt -3.50373 3.62031
f 322/814/1 321/813/1 320/812/1

v 87.8036 0 -93.3368
vt -3.45684 3.67468
f 322/814/1 323/815/1 321/813/1

v 87.5042 0 -92.3823
vt -3.44505 3.6371
f 324/816/1 323/815/1 322/814/1

v 86.3845 0 -93.8218
vt -3.40097 3.69377
f 324/816/1 325/817/1 323/815/1

v 86.0371 0 -92.8838
vt -3.38729 3.65684
f 326/818/1 325/817/1 324/816/1

v 84.9918 0 -94.3781
vt -3.34614 3.71567
f 326/818/1 327/819/1 325/817/1

v 84.5974 0 -93.4589
vt -3.3306 3.67948
f 328/820/1 327/819/1 326/818/1

v 83.6291 0 -95.0043
vt -3.29248 3.74033
f 328/820/1 329/821/1 327/819/1

v 83.1886 0 -94.1062
vt -3.27514 3.70497
f 330/822/1 329/821/1 328/820/1

v 82.2998 0 -95.6986
vt -3.24015 3.76766
f 330/822/1 331/823/1 329/821/1

v 81.8144 0 -94.824
vt -3.22104 3.73323
f 332/824/1 331/823/1 330/822/1

v 81.0074 0 -96.4594
vt -3.18927 3.79761
f 332/824/1 333/825/1 331/823/1

v 80.4783 0 -95.6105
vt -3.16844 3.76419
f 334/826/1 333/825/1 332/824/1

v 79.7552 0 -97.2847
vt -3.13997 3.83011
f 334/826/1 335/827/1 333/825/1

v 79.1838 0 -96.4637
vt -3.11747 3.79778
f 336/828/1 335/827/1 334/826/1

v 78.5464 0 -98.1723
vt -3.09238 3.86505
f 336/828/1 337/829/1 335/827/1

v 77.9341 0 -97.3813
vt -3.06827 3.83391
f 338/830/1 337/829/1 336/828/1

v 77.3842 0 -99.12
vt -3.04662 3.90236
f 338/830/1 339/831/1 337/829/1

v 76.7326 0 -98.361
vt -3.02097 3.87248
f 340/832/1 339/831/1 338/830/1

v 76.2714 0 -100.125
vt -3.00281 3.94195
f 340/832/1 341/833/1 339/831/1

v 75.5822 0 -99.4004
vt -2.97568 3.9134
f 342/834/1 341/833/1 340/832/1

v 75.2109 0 -101.186
vt -2.96106 3.9837
f 342/834/1 343/835/1 341/833/1

v 74.4859 0 -100.497
vt -2.93252 3.95656
f 344/836/1 343/835/1 342/834/1

v 74.2055 0 -102.299
vt -2.92148 4.02751
f 344/836/1 345/837/1 343/835/1

v 73.4465 0 -101.647
vt -2.8916 4.00185
f 346/838/1 345/837/1 344/836/1

v 73.2578 0 -103.461
vt -2.88417 4.07327
f 346/838/1 347/839/1 345/837/1

v 72.4668 0 -102.849
vt -2.85302 4.04916
f 348/840/1 347/839/1 346/838/1

v 72.3702 0 -104.67
vt -2.84922 4.12086
f 348/840/1 349/841/1 347/839/1

v 71.5492 0 -104.098
vt -2.8169 4.09836
f 350/842/1 349/841/1 348/840/1

v 71.5449 0 -105.922
vt -2.81673 4.17016
f 350/842/1 351/843/1 349/841/1

v 70.7841 0 -107.214
vt -2.78678 4.22104
f 350/842/1 352/844/1 351/843/1

v 70.696 0 -105.393
vt -2.78331 4.14932
f 353/845/1 352/844/1 350/842/1

v 70.0898 0 -108.544
vt -2.75944 4.27337
f 353/845/1 354/846/1 352/844/1

v 69.9095 0 -106.729
vt -2.75234 4.20192
f 355/847/1 354/846/1 353/845/1

v 69.4636 0 -109.906
vt -2.73479 4.32702
f 355/847/1 356/848/1 354/846/1

v 69.1917 0 -108.103
vt -2.72408 4.25603
f 357/849/1 356/848/1 355/847/1

v 68.9073 0 -111.299
vt -2.71289 4.38185
f 357/849/1 358/850/1 356/848/1

v 68.5444 0 -109.512
vt -2.6986 4.31149
f 359/851/1 358/850/1 357/849/1

v 68.4223 0 -112.718
vt -2.69379 4.43772
f 359/851/1 360/852/1 358/850/1

v 68.0097 0 -114.16
vt -2.67755 4.49449
f 359/851/1 361/853/1 360/852/1

v 67.9693 0 -110.952
vt -2.67596 4.36817
f 362/854/1 361/853/1 359/851/1

v 67.6707 0 -115.621
vt -2.6642 4.552
f 362/854/1 363/855/1 361/853/1

f 26/71/1 363/855/1 362/854/1

v 67.4061 0 -117.097
vt -2.65378 4.61012
f 26/71/1 364/856/1 363/855/1

v 67.2166 0 -118.585
vt -2.64632 4.66869
f 26/71/1 365/857/1 364/856/1

f 26/71/1 27/70/1 365/857/1

vt 4.45427 0
vn 0.994869 0 -0.101168
vt 4.51331 0
vn 0.998717 0 -0.0506492
vt 4.51331 0.393701
v 67.2166 10 -118.585
vt 4.45427 0.393701
f 365/858/123 27/859/124 24/860/124 366/861/123 

vt 4.65912 0
vt 4.71816 0
vt 4.71816 0.393701
vt 4.65912 0.393701
f 27/862/124 28/863/16 23/864/16 24/865/124 

vt 2.64632 4.66869
f 24/64/8 25/65/8 366/866/8

v 67.4061 10 -117.097
vt 2.65378 4.61012
f 366/866/8 25/65/8 367/867/8

v 67.6707 10 -115.621
vt 2.6642 4.552
f 367/867/8 25/65/8 368/868/8

v 67.9693 10 -110.952
vt 2.67596 4.36817
f 368/868/8 25/65/8 369/869/8

vt -3.32892 0
vt -3.26788 0
vt -3.26788 0.393701
vt -3.32892 0.393701
f 26/870/14 362/871/118 369/872/118 25/873/14 

vt -3.06387 0
vt -3.00284 0
v 68.5444 10 -109.512
vt -3.00284 0.393701
vt -3.06387 0.393701
f 362/874/118 359/875/116 370/876/116 369/877/118 

vt -2.79105 0
vt -2.73001 0
v 69.1917 10 -108.103
vt -2.73001 0.393701
vt -2.79105 0.393701
f 359/878/116 357/879/115 371/880/115 370/881/116 

vt -2.51113 0
vt -2.45009 0
v 69.9095 10 -106.729
vt -2.45009 0.393701
vt -2.51113 0.393701
f 357/882/115 355/883/113 372/884/113 371/885/115 

vt -2.22485 0
vt -2.16381 0
v 70.696 10 -105.393
vt -2.16381 0.393701
vt -2.22485 0.393701
f 355/886/113 353/887/111 373/888/111 372/889/113 

vt -1.93293 0
vt -1.8719 0
v 71.5492 10 -104.098
vt -1.8719 0.393701
vt -1.93293 0.393701
f 353/890/111 350/891/109 374/892/109 373/893/111 

vt -1.63614 0
vt -1.5751 0
v 72.4668 10 -102.849
vt -1.5751 0.393701
vt -1.63614 0.393701
f 350/894/109 348/895/107 375/896/107 374/897/109 

vt -1.33522 0
vt -1.27418 0
v 73.4465 10 -101.647
vt -1.27418 0.393701
vt -1.33522 0.393701
f 348/898/107 346/899/105 376/900/105 375/901/107 

vt -1.03095 0
vt -0.969909 0
v 74.4859 10 -100.497
vt -0.969909 0.393701
vt -1.03095 0.393701
f 346/902/105 344/903/103 377/904/103 376/905/105 

vt -0.72411 0
vt -0.663072 0
v 75.5822 10 -99.4004
vt -0.663072 0.393701
vt -0.72411 0.393701
f 344/906/103 342/907/101 378/908/101 377/909/103 

vt -0.415493 0
vt -0.354454 0
v 76.7326 10 -98.361
vt -0.354454 0.393701
vt -0.415493 0.393701
f 342/910/101 340/911/99 379/912/99 378/913/101 

vt -0.105887 0
vt -0.0448487 0
v 77.9341 10 -97.3813
vt -0.0448487 0.393701
vt -0.105887 0.393701
f 340/914/99 338/915/97 380/916/97 379/917/99 

vt 0.203912 0
vt 0.264951 0
v 79.1838 10 -96.4637
vt 0.264951 0.393701
vt 0.203912 0.393701
f 338/918/97 336/919/95 381/920/95 380/921/97 

vt 0.513109 0
vt 0.574148 0
v 80.4783 10 -95.6105
vt 0.574148 0.393701
vt 0.513109 0.393701
f 336/922/95 334/923/93 382/924/93 381/925/95 

vt 0.820911 0
vt 0.88195 0
v 81.8144 10 -94.824
vt 0.88195 0.393701
vt 0.820911 0.393701
f 334/926/93 332/927/91 383/928/91 382/929/93 

vt 1.12653 0
vt 1.18757 0
v 83.1886 10 -94.1062
vt 1.18757 0.393701
vt 1.12653 0.393701
f 332/930/91 330/931/89 384/932/89 383/933/91 

vt 1.42917 0
vt 1.49021 0
v 84.5974 10 -93.4589
vt 1.49021 0.393701
vt 1.42917 0.393701
f 330/934/89 328/935/87 385/936/87 384/937/89 

vt 1.72807 0
vt 1.78911 0
v 86.0371 10 -92.8838
vt 1.78911 0.393701
vt 1.72807 0.393701
f 328/938/87 326/939/85 386/940/85 385/941/87 

vt 2.02246 0
vt 2.0835 0
v 87.5042 10 -92.3823
vt 2.0835 0.393701
vt 2.02246 0.393701
f 326/942/85 324/943/83 387/944/83 386/945/85 

vt 2.31157 0
vt 2.37261 0
v 88.9947 10 -91.9558
vt 2.37261 0.393701
vt 2.31157 0.393701
f 324/946/83 322/947/81 388/948/81 387/949/83 

vt 2.59468 0
vt 2.65571 0
v 90.505 10 -91.6054
vt 2.65571 0.393701
vt 2.59468 0.393701
f 322/950/81 320/951/79 389/952/79 388/953/81 

vt 2.87104 0
vt 2.93208 0
v 92.031 10 -91.3318
vt 2.93208 0.393701
vt 2.87104 0.393701
f 320/954/79 318/955/77 390/956/77 389/957/79 

vt 3.13996 0
vt 3.20099 0
v 93.569 10 -91.136
vt 3.20099 0.393701
vt 3.13996 0.393701
f 318/958/77 316/959/76 391/960/76 390/961/77 

vt 3.40073 0
vt 3.46177 0
v 95.1149 10 -91.0182
vt 3.46177 0.393701
vt 3.40073 0.393701
f 316/962/76 314/963/74 392/964/74 391/965/76 

vt 3.6527 0
vt 3.71374 0
vn 5.1104e-015 0 1
v 96.6648 10 -90.979
vt 3.71374 0.393701
vt 3.6527 0.393701
f 314/966/74 311/967/125 393/968/125 392/969/74 

vt 3.89522 0
vt 3.95626 0
v 98.2147 10 -91.0182
vt 3.95626 0.393701
vt 3.89522 0.393701
f 311/970/125 309/971/70 394/972/70 393/973/125 

vt 4.12765 0
vt 4.18869 0
v 99.7606 10 -91.136
vt 4.18869 0.393701
vt 4.12765 0.393701
f 309/974/70 307/975/68 395/976/68 394/977/70 

vt 4.34942 0
vt 4.41046 0
v 101.299 10 -91.3318
vt 4.41046 0.393701
vt 4.34942 0.393701
f 307/978/68 305/979/66 396/980/66 395/981/68 

vt 4.55994 0
vt 4.62098 0
v 102.825 10 -91.6054
vt 4.62098 0.393701
vt 4.55994 0.393701
f 305/982/66 303/983/64 397/984/64 396/985/66 

vt 4.75867 0
vt 4.81971 0
v 104.335 10 -91.9558
vt 4.81971 0.393701
vt 4.75867 0.393701
f 303/986/64 301/987/62 398/988/62 397/989/64 

vt 4.94512 0
vt 5.00615 0
v 105.825 10 -92.3823
vt 5.00615 0.393701
vt 4.94512 0.393701
f 301/990/62 299/991/60 399/992/60 398/993/62 

vt 5.11879 0
vt 5.17982 0
v 107.292 10 -92.8838
vt 5.17982 0.393701
vt 5.11879 0.393701
f 299/994/60 297/995/58 400/996/58 399/997/60 

vt 5.27924 0
vt 5.34028 0
v 108.732 10 -93.4589
vt 5.34028 0.393701
vt 5.27924 0.393701
f 297/998/58 295/999/56 401/1000/56 400/1001/58 

vt 5.42606 0
vt 5.4871 0
v 110.141 10 -94.1062
vt 5.4871 0.393701
vt 5.42606 0.393701
f 295/1002/56 293/1003/54 402/1004/54 401/1005/56 

vt 5.55887 0
vt 5.61991 0
v 111.515 10 -94.824
vt 5.61991 0.393701
vt 5.55887 0.393701
f 293/1006/54 291/1007/52 403/1008/52 402/1009/54 

vt 5.67734 0
vt 5.73838 0
v 112.851 10 -95.6105
vt 5.73838 0.393701
vt 5.67734 0.393701
f 291/1010/52 289/1011/50 404/1012/50 403/1013/52 

vt 5.78116 0
vt 5.84219 0
v 114.146 10 -96.4637
vt 5.84219 0.393701
vt 5.78116 0.393701
f 289/1014/50 287/1015/48 405/1016/48 404/1017/50 

vt 5.87005 0
vt 5.93109 0
v 115.395 10 -97.3813
vt 5.93109 0.393701
vt 5.87005 0.393701
f 287/1018/48 285/1019/46 406/1020/46 405/1021/48 

vt 5.9438 0
vt 6.00484 0
v 116.597 10 -98.361
vt 6.00484 0.393701
vt 5.9438 0.393701
f 285/1022/46 283/1023/44 407/1024/44 406/1025/46 

vt 6.00222 0
vt 6.06325 0
v 117.747 10 -99.4004
vt 6.06325 0.393701
vt 6.00222 0.393701
f 283/1026/44 281/1027/42 408/1028/42 407/1029/44 

vt 6.04514 0
vt 6.10618 0
v 118.844 10 -100.497
vt 6.10618 0.393701
vt 6.04514 0.393701
f 281/1030/42 279/1031/40 409/1032/40 408/1033/42 

vt 6.07248 0
vt 6.13351 0
v 119.883 10 -101.647
vt 6.13351 0.393701
vt 6.07248 0.393701
f 279/1034/40 277/1035/38 410/1036/38 409/1037/40 

vt 6.08414 0
vt 6.14518 0
v 120.863 10 -102.849
vt 6.14518 0.393701
vt 6.08414 0.393701
f 277/1038/38 275/1039/36 411/1040/36 410/1041/38 

vt 6.08011 0
vt 6.14115 0
v 121.78 10 -104.098
vt 6.14115 0.393701
vt 6.08011 0.393701
f 275/1042/36 273/1043/35 412/1044/35 411/1045/36 

vt 6.06039 0
vt 6.12143 0
v 122.634 10 -105.393
vt 6.12143 0.393701
vt 6.06039 0.393701
f 273/1046/35 270/1047/33 413/1048/33 412/1049/35 

vt 6.02504 0
vt 6.08608 0
v 123.42 10 -106.729
vt 6.08608 0.393701
vt 6.02504 0.393701
f 270/1050/33 268/1051/31 414/1052/31 413/1053/33 

vt 5.97415 0
vt 6.03518 0
v 124.138 10 -108.103
vt 6.03518 0.393701
vt 5.97415 0.393701
f 268/1054/31 266/1055/29 415/1056/29 414/1057/31 

vt 5.90784 0
vt 5.96887 0
v 124.785 10 -109.512
vt 5.96887 0.393701
vt 5.90784 0.393701
f 266/1058/29 264/1059/27 416/1060/27 415/1061/29 

vt 5.82628 0
vt 5.88732 0
v 125.36 10 -110.952
vt 5.88732 0.393701
vt 5.82628 0.393701
f 264/1062/27 261/1063/26 417/1064/26 416/1065/27 

vt 5.72969 0
vt 5.79073 0
v 125.862 10 -112.419
vt 5.79073 0.393701
vt 5.72969 0.393701
f 261/1066/26 259/1067/24 418/1068/24 417/1069/26 

vt 5.61832 0
vt 5.67936 0
v 126.288 10 -113.909
vt 5.67936 0.393701
vt 5.61832 0.393701
f 259/1070/24 255/1071/22 419/1072/22 418/1073/24 

vt 5.49244 0
v 126.639 0 -115.419
vt 5.55348 0
v 126.639 10 -115.419
vt 5.55348 0.393701
vt 5.49244 0.393701
f 255/1074/22 420/1075/21 421/1076/21 419/1077/22 

v 126.639 0 -127.739
vt -4.98578 5.0291
vt -4.98578 4.54407
f 255/747/1 422/1078/1 420/1079/1

f 255/747/1 249/732/1 422/1078/1

vt 3.7719 0
vn 0.97953 0 -0.201299
vt 3.83294 0
vt 3.83294 0.393701
v 126.639 10 -127.739
vt 3.7719 0.393701
f 422/1080/126 249/1081/122 250/1082/122 423/1083/126 

vt 4.97198 4.48462
vt 4.98578 5.0291
f 250/738/8 419/1084/8 423/1085/8

v 126.265 10 -121.579
vt 4.97105 4.78659
f 424/1086/8 419/1084/8 250/738/8

v 126.227 10 -120.08
vt 4.96956 4.72756
f 425/1087/8 419/1084/8 424/1086/8

v 126.113 10 -118.585
vt 4.96508 4.66869
f 426/1088/8 419/1084/8 425/1087/8

v 125.923 10 -117.097
vt 4.95762 4.61012
f 427/1089/8 419/1084/8 426/1088/8

vt 4.95519 4.42593
f 427/1089/8 418/1090/8 419/1084/8

v 125.659 10 -115.621
vt 4.9472 4.552
f 428/1091/8 418/1090/8 427/1089/8

vt 4.93544 4.36817
f 428/1091/8 417/1092/8 418/1090/8

v 125.32 10 -114.16
vt 4.93385 4.49449
f 429/1093/8 417/1092/8 428/1091/8

v 124.907 10 -112.718
vt 4.91761 4.43772
f 430/1094/8 417/1092/8 429/1093/8

vt 4.9128 4.31149
f 430/1094/8 416/1095/8 417/1092/8

v 124.422 10 -111.299
vt 4.89851 4.38185
f 431/1096/8 416/1095/8 430/1094/8

vt 4.88732 4.25603
f 431/1096/8 415/1097/8 416/1095/8

v 123.866 10 -109.906
vt 4.87661 4.32702
f 432/1098/8 415/1097/8 431/1096/8

vt 4.85906 4.20192
f 432/1098/8 414/1099/8 415/1097/8

v 123.24 10 -108.544
vt 4.85196 4.27337
f 433/1100/8 414/1099/8 432/1098/8

vt 4.82809 4.14932
f 433/1100/8 413/1101/8 414/1099/8

v 122.545 10 -107.214
vt 4.82462 4.22104
f 434/1102/8 413/1101/8 433/1100/8

v 121.785 10 -105.922
vt 4.79467 4.17016
f 435/1103/8 413/1101/8 434/1102/8

vt 4.7945 4.09836
f 435/1103/8 412/1104/8 413/1101/8

v 120.959 10 -104.67
vt 4.76218 4.12086
f 436/1105/8 412/1104/8 435/1103/8

vt 4.75838 4.04916
f 436/1105/8 411/1106/8 412/1104/8

v 120.072 10 -103.461
vt 4.72723 4.07327
f 437/1107/8 411/1106/8 436/1105/8

vt 4.7198 4.00185
f 437/1107/8 410/1108/8 411/1106/8

v 119.124 10 -102.299
vt 4.68992 4.02751
f 438/1109/8 410/1108/8 437/1107/8

vt 4.67888 3.95656
f 438/1109/8 409/1110/8 410/1108/8

v 118.119 10 -101.186
vt 4.65034 3.9837
f 439/1111/8 409/1110/8 438/1109/8

vt 4.63572 3.9134
f 439/1111/8 408/1112/8 409/1110/8

v 117.058 10 -100.125
vt 4.60859 3.94195
f 440/1113/8 408/1112/8 439/1111/8

vt 4.59043 3.87248
f 440/1113/8 407/1114/8 408/1112/8

v 115.945 10 -99.12
vt 4.56478 3.90236
f 441/1115/8 407/1114/8 440/1113/8

vt 4.54313 3.83391
f 441/1115/8 406/1116/8 407/1114/8

v 114.783 10 -98.1723
vt 4.51902 3.86505
f 442/1117/8 406/1116/8 441/1115/8

vt 4.49393 3.79778
f 442/1117/8 405/1118/8 406/1116/8

v 113.574 10 -97.2847
vt 4.47143 3.83011
f 443/1119/8 405/1118/8 442/1117/8

vt 4.44296 3.76419
f 443/1119/8 404/1120/8 405/1118/8

v 112.322 10 -96.4594
vt 4.42213 3.79761
f 444/1121/8 404/1120/8 443/1119/8

vt 4.39036 3.73323
f 444/1121/8 403/1122/8 404/1120/8

v 111.03 10 -95.6986
vt 4.37125 3.76766
f 445/1123/8 403/1122/8 444/1121/8

vt 4.33626 3.70497
f 445/1123/8 402/1124/8 403/1122/8

v 109.7 10 -95.0043
vt 4.31892 3.74033
f 446/1125/8 402/1124/8 445/1123/8

vt 4.28079 3.67948
f 446/1125/8 401/1126/8 402/1124/8

v 108.338 10 -94.3781
vt 4.26526 3.71567
f 447/1127/8 401/1126/8 446/1125/8

vt 4.22411 3.65684
f 447/1127/8 400/1128/8 401/1126/8

v 106.945 10 -93.8218
vt 4.21043 3.69377
f 448/1129/8 400/1128/8 447/1127/8

vt 4.16635 3.6371
f 448/1129/8 399/1130/8 400/1128/8

v 105.526 10 -93.3368
vt 4.15456 3.67468
f 449/1131/8 399/1130/8 448/1129/8

vt 4.10767 3.62031
f 449/1131/8 398/1132/8 399/1130/8

v 104.084 10 -92.9242
vt 4.0978 3.65843
f 450/1133/8 398/1132/8 449/1131/8

vt 4.04821 3.60651
f 450/1133/8 397/1134/8 398/1132/8

v 102.623 10 -92.5852
vt 4.04028 3.64509
f 451/1135/8 397/1134/8 450/1133/8

vt 3.98813 3.59574
f 451/1135/8 396/1136/8 397/1134/8

v 101.147 10 -92.3206
vt 3.98217 3.63467
f 452/1137/8 396/1136/8 451/1135/8

vt 3.92758 3.58803
f 452/1137/8 395/1138/8 396/1136/8

v 99.6594 10 -92.1312
vt 3.9236 3.62721
f 453/1139/8 395/1138/8 452/1137/8

vt 3.86672 3.5834
f 453/1139/8 394/1140/8 395/1138/8

v 98.164 10 -92.0173
vt 3.86472 3.62273
f 454/1141/8 394/1140/8 453/1139/8

vt 3.8057 3.58185
f 454/1141/8 393/1142/8 394/1140/8

v 96.6648 10 -91.9793
vt 3.8057 3.62123
f 455/1143/8 393/1142/8 454/1141/8

v 95.1656 10 -92.0173
vt 3.74668 3.62273
f 456/1144/8 393/1142/8 455/1143/8

vt 3.74468 3.5834
f 456/1144/8 392/1145/8 393/1142/8

v 93.6702 10 -92.1312
vt 3.6878 3.62721
f 457/1146/8 392/1145/8 456/1144/8

vt 3.68382 3.58803
f 457/1146/8 391/1147/8 392/1145/8

v 92.1825 10 -92.3206
vt 3.62923 3.63467
f 458/1148/8 391/1147/8 457/1146/8

vt 3.62327 3.59574
f 458/1148/8 390/1149/8 391/1147/8

v 90.7063 10 -92.5852
vt 3.57112 3.64509
f 459/1150/8 390/1149/8 458/1148/8

vt 3.56319 3.60651
f 459/1150/8 389/1151/8 390/1149/8

v 89.2455 10 -92.9242
vt 3.5136 3.65843
f 460/1152/8 389/1151/8 459/1150/8

vt 3.50373 3.62031
f 460/1152/8 388/1153/8 389/1151/8

v 87.8036 10 -93.3368
vt 3.45684 3.67468
f 461/1154/8 388/1153/8 460/1152/8

vt 3.44505 3.6371
f 461/1154/8 387/1155/8 388/1153/8

v 86.3845 10 -93.8218
vt 3.40097 3.69377
f 462/1156/8 387/1155/8 461/1154/8

vt 3.38729 3.65684
f 462/1156/8 386/1157/8 387/1155/8

v 84.9918 10 -94.3781
vt 3.34614 3.71567
f 463/1158/8 386/1157/8 462/1156/8

vt 3.3306 3.67948
f 463/1158/8 385/1159/8 386/1157/8

v 83.6291 10 -95.0043
vt 3.29248 3.74033
f 464/1160/8 385/1159/8 463/1158/8

vt 3.27514 3.70497
f 464/1160/8 384/1161/8 385/1159/8

v 82.2998 10 -95.6986
vt 3.24015 3.76766
f 465/1162/8 384/1161/8 464/1160/8

vt 3.22104 3.73323
f 465/1162/8 383/1163/8 384/1161/8

v 81.0074 10 -96.4594
vt 3.18927 3.79761
f 466/1164/8 383/1163/8 465/1162/8

vt 3.16844 3.76419
f 466/1164/8 382/1165/8 383/1163/8

v 79.7552 10 -97.2847
vt 3.13997 3.83011
f 467/1166/8 382/1165/8 466/1164/8

vt 3.11747 3.79778
f 467/1166/8 381/1167/8 382/1165/8

v 78.5464 10 -98.1723
vt 3.09238 3.86505
f 468/1168/8 381/1167/8 467/1166/8

vt 3.06827 3.83391
f 468/1168/8 380/1169/8 381/1167/8

v 77.3842 10 -99.12
vt 3.04662 3.90236
f 469/1170/8 380/1169/8 468/1168/8

vt 3.02097 3.87248
f 469/1170/8 379/1171/8 380/1169/8

v 76.2714 10 -100.125
vt 3.00281 3.94195
f 470/1172/8 379/1171/8 469/1170/8

vt 2.97568 3.9134
f 470/1172/8 378/1173/8 379/1171/8

v 75.2109 10 -101.186
vt 2.96106 3.9837
f 471/1174/8 378/1173/8 470/1172/8

vt 2.93252 3.95656
f 471/1174/8 377/1175/8 378/1173/8

v 74.2055 10 -102.299
vt 2.92148 4.02751
f 472/1176/8 377/1175/8 471/1174/8

vt 2.8916 4.00185
f 472/1176/8 376/1177/8 377/1175/8

v 73.2578 10 -103.461
vt 2.88417 4.07327
f 473/1178/8 376/1177/8 472/1176/8

vt 2.85302 4.04916
f 473/1178/8 375/1179/8 376/1177/8

v 72.3702 10 -104.67
vt 2.84922 4.12086
f 474/1180/8 375/1179/8 473/1178/8

vt 2.8169 4.09836
f 474/1180/8 374/1181/8 375/1179/8

v 71.5449 10 -105.922
vt 2.81673 4.17016
f 475/1182/8 374/1181/8 474/1180/8

v 70.7841 10 -107.214
vt 2.78678 4.22104
f 476/1183/8 374/1181/8 475/1182/8

vt 2.78331 4.14932
f 476/1183/8 373/1184/8 374/1181/8

v 70.0898 10 -108.544
vt 2.75944 4.27337
f 477/1185/8 373/1184/8 476/1183/8

vt 2.75234 4.20192
f 477/1185/8 372/1186/8 373/1184/8

v 69.4636 10 -109.906
vt 2.73479 4.32702
f 478/1187/8 372/1186/8 477/1185/8

vt 2.72408 4.25603
f 478/1187/8 371/1188/8 372/1186/8

v 68.9073 10 -111.299
vt 2.71289 4.38185
f 479/1189/8 371/1188/8 478/1187/8

vt 2.6986 4.31149
f 479/1189/8 370/1190/8 371/1188/8

v 68.4223 10 -112.718
vt 2.69379 4.43772
f 480/1191/8 370/1190/8 479/1189/8

v 68.0097 10 -114.16
vt 2.67755 4.49449
f 481/1192/8 370/1190/8 480/1191/8

f 481/1192/8 369/869/8 370/1190/8

f 368/868/8 369/869/8 481/1192/8

vt 3.7729 0
vt 3.83194 0
vt 3.83194 0.393701
vt 3.7729 0.393701
f 361/1193/122 363/1194/126 368/1195/126 481/1196/122 

vt 4.01059 0
vt 4.06963 0
vn 0.988468 0 -0.151428
vt 4.06963 0.393701
vt 4.01059 0.393701
f 363/1197/126 364/1198/127 367/1199/127 368/1200/126 

vt 4.2379 0
vt 4.29695 0
vt 4.29695 0.393701
vt 4.2379 0.393701
f 364/1201/127 365/1202/123 366/1203/123 367/1204/127 

vt 3.52545 0
vt 3.58449 0
vt 3.58449 0.393701
vt 3.52545 0.393701
f 360/1205/121 361/1206/122 481/1207/122 480/1208/121 

vt 3.26887 0
vt 3.32792 0
vt 3.32792 0.393701
vt 3.26887 0.393701
f 358/1209/120 360/1210/121 480/1211/121 479/1212/120 

vt 3.00383 0
vt 3.06288 0
vt 3.06288 0.393701
vt 3.00383 0.393701
f 356/1213/119 358/1214/120 479/1215/120 478/1216/119 

vt 2.731 0
vt 2.79005 0
vt 2.79005 0.393701
vt 2.731 0.393701
f 354/1217/117 356/1218/119 478/1219/119 477/1220/117 

vt 2.45109 0
vt 2.51013 0
vt 2.51013 0.393701
vt 2.45109 0.393701
f 352/1221/114 354/1222/117 477/1223/117 476/1224/114 

vt 2.16481 0
vt 2.22385 0
vt 2.22385 0.393701
vt 2.16481 0.393701
f 351/1225/112 352/1226/114 476/1227/114 475/1228/112 

vt 1.87289 0
vt 1.93194 0
vt 1.93194 0.393701
vt 1.87289 0.393701
f 349/1229/110 351/1230/112 475/1231/112 474/1232/110 

vt 1.5761 0
vt 1.63514 0
vt 1.63514 0.393701
vt 1.5761 0.393701
f 347/1233/108 349/1234/110 474/1235/110 473/1236/108 

vt 1.27518 0
vt 1.33422 0
vt 1.33422 0.393701
vt 1.27518 0.393701
f 345/1237/106 347/1238/108 473/1239/108 472/1240/106 

vt 0.970907 0
vt 1.02995 0
vt 1.02995 0.393701
vt 0.970907 0.393701
f 343/1241/104 345/1242/106 472/1243/106 471/1244/104 

vt 0.66407 0
vt 0.723113 0
vt 0.723113 0.393701
vt 0.66407 0.393701
f 341/1245/102 343/1246/104 471/1247/104 470/1248/102 

vt 0.355452 0
vt 0.414495 0
vt 0.414495 0.393701
vt 0.355452 0.393701
f 339/1249/100 341/1250/102 470/1251/102 469/1252/100 

vt 0.0458464 0
vt 0.10489 0
vt 0.10489 0.393701
vt 0.0458464 0.393701
f 337/1253/98 339/1254/100 469/1255/100 468/1256/98 

vt -0.263953 0
vt -0.20491 0
vt -0.20491 0.393701
vt -0.263953 0.393701
f 335/1257/96 337/1258/98 468/1259/98 467/1260/96 

vt -0.57315 0
vt -0.514107 0
vt -0.514107 0.393701
vt -0.57315 0.393701
f 333/1261/94 335/1262/96 467/1263/96 466/1264/94 

vt -0.880952 0
vt -0.821909 0
vt -0.821909 0.393701
vt -0.880952 0.393701
f 331/1265/92 333/1266/94 466/1267/94 465/1268/92 

vt -1.18657 0
vt -1.12753 0
vt -1.12753 0.393701
vt -1.18657 0.393701
f 329/1269/90 331/1270/92 465/1271/92 464/1272/90 

vt -1.48921 0
vt -1.43017 0
vt -1.43017 0.393701
vt -1.48921 0.393701
f 327/1273/88 329/1274/90 464/1275/90 463/1276/88 

vt -1.78811 0
vt -1.72907 0
vt -1.72907 0.393701
vt -1.78811 0.393701
f 325/1277/86 327/1278/88 463/1279/88 462/1280/86 

vt -2.0825 0
vt -2.02346 0
vt -2.02346 0.393701
vt -2.0825 0.393701
f 323/1281/84 325/1282/86 462/1283/86 461/1284/84 

vt -2.37161 0
vt -2.31257 0
vt -2.31257 0.393701
vt -2.37161 0.393701
f 321/1285/82 323/1286/84 461/1287/84 460/1288/82 

vt -2.65472 0
vt -2.59567 0
vt -2.59567 0.393701
vt -2.65472 0.393701
f 319/1289/80 321/1290/82 460/1291/82 459/1292/80 

vt -2.93108 0
vt -2.87204 0
vt -2.87204 0.393701
vt -2.93108 0.393701
f 317/1293/78 319/1294/80 459/1295/80 458/1296/78 

vt -3.2 0
vt -3.14095 0
vt -3.14095 0.393701
vt -3.2 0.393701
f 315/1297/75 317/1298/78 458/1299/78 457/1300/75 

vt -3.46077 0
vt -3.40173 0
vt -3.40173 0.393701
vt -3.46077 0.393701
f 313/1301/73 315/1302/75 457/1303/75 456/1304/73 

vt -3.71274 0
vn -9.54404e-017 0 -1
vt -3.6537 0
vt -3.6537 0.393701
vt -3.71274 0.393701
f 312/1305/128 313/1306/73 456/1307/73 455/1308/128 

vt -3.95526 0
vt -3.89621 0
vt -3.89621 0.393701
vt -3.95526 0.393701
f 310/1309/69 312/1310/128 455/1311/128 454/1312/69 

vt -4.18769 0
vt -4.12865 0
vt -4.12865 0.393701
vt -4.18769 0.393701
f 308/1313/67 310/1314/69 454/1315/69 453/1316/67 

vt -4.40946 0
vt -4.35041 0
vt -4.35041 0.393701
vt -4.40946 0.393701
f 306/1317/65 308/1318/67 453/1319/67 452/1320/65 

vt -4.61998 0
vt -4.56093 0
vt -4.56093 0.393701
vt -4.61998 0.393701
f 304/1321/63 306/1322/65 452/1323/65 451/1324/63 

vt -4.81871 0
vt -4.75967 0
vt -4.75967 0.393701
vt -4.81871 0.393701
f 302/1325/61 304/1326/63 451/1327/63 450/1328/61 

vt -5.00516 0
vt -4.94611 0
vt -4.94611 0.393701
vt -5.00516 0.393701
f 300/1329/59 302/1330/61 450/1331/61 449/1332/59 

vt -5.17883 0
vt -5.11978 0
vt -5.11978 0.393701
vt -5.17883 0.393701
f 298/1333/57 300/1334/59 449/1335/59 448/1336/57 

vt -5.33928 0
vt -5.28024 0
vt -5.28024 0.393701
vt -5.33928 0.393701
f 296/1337/55 298/1338/57 448/1339/57 447/1340/55 

vt -5.4861 0
vt -5.42706 0
vt -5.42706 0.393701
vt -5.4861 0.393701
f 294/1341/53 296/1342/55 447/1343/55 446/1344/53 

vt -5.61892 0
vt -5.55987 0
vt -5.55987 0.393701
vt -5.61892 0.393701
f 292/1345/51 294/1346/53 446/1347/53 445/1348/51 

vt -5.73738 0
vt -5.67834 0
vt -5.67834 0.393701
vt -5.73738 0.393701
f 290/1349/49 292/1350/51 445/1351/51 444/1352/49 

vt -5.8412 0
vt -5.78215 0
vt -5.78215 0.393701
vt -5.8412 0.393701
f 288/1353/47 290/1354/49 444/1355/49 443/1356/47 

vt -5.93009 0
vt -5.87105 0
vt -5.87105 0.393701
vt -5.93009 0.393701
f 286/1357/45 288/1358/47 443/1359/47 442/1360/45 

vt -6.00384 0
vt -5.9448 0
vt -5.9448 0.393701
vt -6.00384 0.393701
f 284/1361/43 286/1362/45 442/1363/45 441/1364/43 

vt -6.06226 0
vt -6.00321 0
vt -6.00321 0.393701
vt -6.06226 0.393701
f 282/1365/41 284/1366/43 441/1367/43 440/1368/41 

vt -6.10519 0
vt -6.04614 0
vt -6.04614 0.393701
vt -6.10519 0.393701
f 280/1369/39 282/1370/41 440/1371/41 439/1372/39 

vt -6.13252 0
vt -6.07347 0
vt -6.07347 0.393701
vt -6.13252 0.393701
f 278/1373/37 280/1374/39 439/1375/39 438/1376/37 

vt -6.14418 0
vt -6.08514 0
vt -6.08514 0.393701
vt -6.14418 0.393701
f 276/1377/34 278/1378/37 438/1379/37 437/1380/34 

vt -6.14015 0
vt -6.08111 0
vt -6.08111 0.393701
vt -6.14015 0.393701
f 274/1381/32 276/1382/34 437/1383/34 436/1384/32 

vt -6.12043 0
vt -6.06139 0
vt -6.06139 0.393701
vt -6.12043 0.393701
f 272/1385/30 274/1386/32 436/1387/32 435/1388/30 

vt -6.08508 0
vt -6.02604 0
vt -6.02604 0.393701
vt -6.08508 0.393701
f 271/1389/28 272/1390/30 435/1391/30 434/1392/28 

vt -6.03419 0
vt -5.97514 0
vt -5.97514 0.393701
vt -6.03419 0.393701
f 269/1393/25 271/1394/28 434/1395/28 433/1396/25 

vt -5.96788 0
vt -5.90883 0
vt -5.90883 0.393701
vt -5.96788 0.393701
f 267/1397/23 269/1398/25 433/1399/25 432/1400/23 

vt -5.88632 0
vt -5.82728 0
vt -5.82728 0.393701
vt -5.88632 0.393701
f 265/1401/19 267/1402/23 432/1403/23 431/1404/19 

vt -5.78973 0
vt -5.73069 0
vt -5.73069 0.393701
vt -5.78973 0.393701
f 263/1405/15 265/1406/19 431/1407/19 430/1408/15 

vt -5.67836 0
vt -5.61932 0
vt -5.61932 0.393701
vt -5.67836 0.393701
f 262/1409/13 263/1410/15 430/1411/15 429/1412/13 

vt -5.55248 0
vt -5.49344 0
vt -5.49344 0.393701
vt -5.55248 0.393701
f 260/1413/10 262/1414/13 429/1415/13 428/1416/10 

vt -5.41243 0
vt -5.35339 0
vt -5.35339 0.393701
vt -5.41243 0.393701
f 258/1417/7 260/1418/10 428/1419/10 427/1420/7 

vt -5.25856 0
vt -5.19952 0
vt -5.19952 0.393701
vt -5.25856 0.393701
f 257/1421/2 258/1422/7 427/1423/7 426/1424/2 

vt -5.09127 0
vt -5.03222 0
vt -5.03222 0.393701
vt -5.09127 0.393701
f 256/1425/3 257/1426/2 426/1427/2 425/1428/3 

vt -4.91098 0
vn -1 0 -0
vt -4.85194 0
vt -4.85194 0.393701
vt -4.91098 0.393701
f 254/1429/129 256/1430/3 425/1431/3 424/1432/129 

vt -4.71816 0
vt -4.65912 0
vt -4.65912 0.393701
v 126.227 10 -123.078
vt -4.71816 0.393701
f 253/1433/5 254/1434/129 424/1435/129 482/1436/5 

vt 4.96956 4.84561
f 250/738/8 482/1437/8 424/1086/8

f 250/738/8 251/739/8 482/1437/8

vt -4.51331 0
vt -4.45427 0
vt -4.45427 0.393701
vt -4.51331 0.393701
f 252/1438/6 253/1439/5 482/1440/5 251/1441/6 

vt 4.98578 4.54407
f 423/1085/8 419/1084/8 421/1442/8

v 126.912 10 -126.213
vt 4.99654 4.96902
f 423/1085/8 421/1442/8 483/1443/8

v 126.912 10 -116.946
vt 4.99654 4.60416
f 483/1443/8 421/1442/8 484/1444/8

vt 5.35239 0
v 126.912 0 -116.946
vt 5.41343 0
vt 5.41343 0.393701
vt 5.35239 0.393701
f 420/1445/21 485/1446/20 484/1447/20 421/1448/21 

v 126.912 0 -126.213
vt -4.99654 4.96902
vt -4.99654 4.60416
f 420/1079/1 486/1449/1 485/1450/1

f 420/1079/1 422/1078/1 486/1449/1

vt 4.00959 0
vt 4.07063 0
vt 4.07063 0.393701
vt 4.00959 0.393701
f 486/1451/127 422/1452/126 423/1453/126 483/1454/127 

v 127.108 0 -124.675
vt 4.23691 0
vt 4.29794 0
vt 4.29794 0.393701
v 127.108 10 -124.675
vt 4.23691 0.393701
f 487/1455/123 486/1456/127 483/1457/127 488/1458/123 

v 127.108 0 -118.484
vt -5.00426 4.6647
vt -5.00426 4.90847
f 489/1459/1 486/1449/1 487/1460/1

f 485/1450/1 486/1449/1 489/1459/1

vt 5.19852 0
vt 5.25956 0
v 127.108 10 -118.484
vt 5.25956 0.393701
vt 5.19852 0.393701
f 485/1461/20 489/1462/18 490/1463/18 484/1464/20 

vt 5.03123 0
v 127.226 0 -120.029
vt 5.09226 0
v 127.226 10 -120.029
vt 5.09226 0.393701
vt 5.03123 0.393701
f 489/1465/18 491/1466/17 492/1467/17 490/1468/18 

v 127.226 0 -123.129
vt -5.00889 4.8476
vt -5.00889 4.72557
f 489/1459/1 493/1469/1 491/1470/1

f 489/1459/1 487/1460/1 493/1469/1

vt 4.45327 0
vt 4.51431 0
vt 4.51431 0.393701
v 127.226 10 -123.129
vt 4.45327 0.393701
f 493/1471/124 487/1472/123 488/1473/123 494/1474/124 

vt 5.00426 4.90847
vt 5.00889 4.72557
vt 5.00889 4.8476
f 488/1475/8 492/1476/8 494/1477/8

vt 5.00426 4.6647
f 488/1475/8 490/1478/8 492/1476/8

f 483/1443/8 490/1478/8 488/1475/8

f 483/1443/8 484/1444/8 490/1478/8

v 127.265 10 -121.579
vt 5.01044 4.78659
f 494/1477/8 492/1476/8 495/1479/8

vt 4.85094 0
v 127.265 0 -121.579
vt 4.91198 0
vn 1 0 -1.47672e-015
vt 4.91198 0.393701
vt 4.85094 0.393701
f 491/1480/17 496/1481/130 495/1482/130 492/1483/17 

vt -5.01044 4.78659
f 491/1470/1 493/1469/1 496/1484/1

vt 4.65812 0
vt 4.71916 0
vt 4.71916 0.393701
vt 4.65812 0.393701
f 496/1485/130 493/1486/124 494/1487/124 495/1488/130 

